{
  "@class": "com.kony.gen.viz.model.component.KVizUserWidget",
  "DNDConfig": null,
  "__parentReadjusting__": false,
  "_children_": [],
  "_height_": {
    "type": "string",
    "value": "60dp"
  },
  "_left_": {
    "type": "string",
    "value": "0dp"
  },
  "_margin_": [
    0,
    0,
    0,
    0
  ],
  "_orientation_": 1,
  "_padding_": [
    0,
    0,
    0,
    0
  ],
  "_percent_": true,
  "_render_": true,
  "_skin_": "s4d6392bface4761840338d65d827a61",
  "_top_": {
    "type": "string",
    "value": "0dp"
  },
  "_width_": {
    "type": "string",
    "value": "100%"
  },
  "areflexpropsreferenced": false,
  "canUpdateUI": true,
  "clipbounds": true,
  "containerweight": 0,
  "dataDiffs": {
    "confirmHeaders": {
      "__events__": {},
      "__info__": {
        "isRoot": true,
        "kuid": "aedb2000e22c48538d9a34552bc79a88",
        "srcKUID": "bfa374b04e3743cf981eb31d77ebf746",
        "wType": "FlexContainer"
      },
      "left": {
        "Default": {
          "type": "string",
          "value": "0dp"
        }
      },
      "top": {
        "Default": {
          "type": "string",
          "value": "0dp"
        }
      },
      "zIndex": {
        "Default": 1
      }
    },
    "flxHeader": {
      "__events__": {},
      "__info__": {
        "kuid": "bbfdaa62cc6b4311b56d9c893f3b7798",
        "srcKUID": "ge4b975c1527467a9bc1b610e3dcf02e",
        "wType": "FlexContainer"
      }
    },
    "lblHeading": {
      "__events__": {},
      "__info__": {
        "kuid": "cb2cf97fc294432fb48cd874691ca15e",
        "srcKUID": "e48654a7e4ae4428b39557093fea9b39",
        "wType": "Label"
      },
      "i18n_text": "i18n.transfers.YourTransactionDetails",
      "left": {
        "Default": {
          "type": "string",
          "value": "5.07%"
        }
      },
      "text": ""
    }
  },
  "id": "confirmHeaders",
  "info": null,
  "isdatareferenced": false,
  "isvisible": true,
  "kuid": "717c2b2a9de94e179aec5901cc71f7b1",
  "layouttype": 2,
  "masterType": 0,
  "name": "kony.ui.UserWidgetInstance",
  "parent": "flxMain",
  "pf": "userwidgetmodel",
  "snaptogrid": true,
  "sourceUserWidget": "bfa374b04e3743cf981eb31d77ebf746",
  "wType": "UserWidgetInstance",
  "zindex": 1
}