{
  "@class": "com.kony.gen.viz.model.component.KVizButton",
  "DNDConfig": null,
  "__markedForDelete__": true,
  "__parentReadjusting__": false,
  "_height_": {
    "type": "string",
    "value": "50px"
  },
  "_left_": {
    "type": "string",
    "value": "2%"
  },
  "_margin_": [
    6,
    6,
    6,
    6
  ],
  "_padding_": [
    0,
    0,
    0,
    0
  ],
  "_skin_": "sa7ba54287944a6093981a79229a1af9",
  "_text_": "PAY A BILL",
  "_top_": {
    "type": "string",
    "value": "0dp"
  },
  "_width_": {
    "type": "string",
    "value": "30%"
  },
  "canUpdateUI": true,
  "containerweight": 100,
  "contentalignment": 5,
  "disabledSkins": {
    "focusSkin": "sf44d06ca8224832827ea7fdff757013"
  },
  "displaytext": true,
  "id": "CopyButton0ffd0ef4744854a",
  "info": null,
  "isvisible": true,
  "kuid": "ec11e169ba6240789ecbf7cb36d15f75",
  "name": "kony.ui.Button",
  "parent": "CopyflxMain0ef08706976ef4a",
  "pf": "frmAccountsDetails",
  "wType": "Button",
  "zindex": 1
}