{
  "DNDConfig": null,
  "__parentReadjusting__": false,
  "_height_": {
    "type": "ref",
    "value": "preferred"
  },
  "_left_": {
    "type": "string",
    "value": "0dp"
  },
  "_margin_": [
    0,
    0,
    0,
    0
  ],
  "_orientation_": 6,
  "_padding_": [
    0,
    0,
    0,
    0
  ],
  "_percent_": true,
  "_skin_": "s52070160d7b4908a10820f71dee960e",
  "_top_": {
    "type": "string",
    "value": "0dp"
  },
  "_width_": {
    "type": "string",
    "value": "100%"
  },
  "allboxes": [],
  "autogrowmode": 1,
  "canUpdateUI": true,
  "children": [
    "CopyflxMain0d55899279a4d48",
    "CopyflxMain0g475c7f4232b46",
    "CopyflxMain0ef08706976ef4a",
    "CopyflxMain0ec24fbdfb35948"
  ],
  "clipbounds": true,
  "containerweight": 100,
  "enablescrolling": true,
  "id": "flxMain",
  "info": null,
  "isvisible": true,
  "kuid": "d3767dfb1f4845a783042f707ec4a130",
  "layouttype": 4,
  "name": "kony.ui.FlexContainer",
  "parent": "frmAccountsDetails",
  "pf": "frmAccountsDetails",
  "snapgridsize": 10,
  "snaptogrid": true,
  "wType": "FlexContainer",
  "widgetalignment": 1,
  "zindex": 1
}