{
  "@class": "com.kony.gen.viz.model.container.KVizScrollFlexForm",
  "DNDConfig": null,
  "_margin_": [
    0,
    0,
    0,
    0
  ],
  "_orientation_": 1,
  "_padding_": [
    0,
    0,
    0,
    0
  ],
  "_percent_": true,
  "_skin_": "s7204077b0944689be58354a2c5a162f",
  "_title_": null,
  "addWidgetsdone": false,
  "allboxes": [],
  "android": {
    "psp": {
      "windowSoftInputMode": 2
    }
  },
  "canUpdateUI": true,
  "canvasWidth": 1400,
  "children": [
    "flxHeader",
    "flxMain",
    "flxFooter"
  ],
  "containerweight": 100,
  "controllerInfo": {
    "default": {
      "channel": "tablet",
      "name": "frmAccountsDetailsController"
    }
  },
  "currentLocale": "default",
  "device": "iPad3",
  "displayorientation": 1,
  "enabledforidletimeout": false,
  "friendlyName": "frmAccountsDetails",
  "id": "frmAccountsDetails",
  "info": null,
  "initdone": false,
  "inputaccessoryviewtype": 4,
  "ipad": {
    "psp": {
      "inputAccessoryViewType": 4,
      "titleBarAttributes": {
        "barStyle": 0,
        "hidesBackButton": true,
        "kuid": "acea0e4b5a4b49818bee549aecbcd854",
        "leftBarButtonItems": [
          {
            "buttonClosureLeftSideView": "",
            "kuid": "je6ce1e04acb450da08ca6abcbdd5983",
            "leftButtonText": "Back",
            "leftTitle": "Back",
            "prevFormTitle": false,
            "titleBarLeftSideView": "button",
            "titleClosureLeftSideView": "",
            "type": 4
          }
        ],
        "leftItemsSupplementBackButton": true,
        "prompt": "",
        "renderTitleText": true,
        "rightBarButtonItems": [
          {
            "enabled": true,
            "info": {
              "title": "Edit"
            },
            "kuid": "bf547816120541c8a5a652b9451cf5fd",
            "onClick": "",
            "style": 0,
            "type": 1
          }
        ],
        "tintColor": "333333",
        "translucent": true
      }
    },
    "titleBar": false
  },
  "iphone": {
    "psp": {
      "inputAccessoryViewType": 4
    }
  },
  "isvisible": true,
  "kuid": "jd00bc3808364ab381c798dedabe88c0",
  "layouttype": 4,
  "name": "kony.ui.Form2",
  "needappmenu": true,
  "paddinginpixel": false,
  "platform": "ipad",
  "prevDevice": "iPad3",
  "prevPlatform": "ipad",
  "retainscrollposition": false,
  "shellCSS": "iOS_iPad3",
  "snapgridsize": 10,
  "snaptogrid": true,
  "titleBarSkin": "s2e24ee0a8ca46b089d8a5bea8a1a32e",
  "titlebar": true,
  "type": 3,
  "wType": "Form"
}