{
  "@class": "com.kony.gen.viz.model.component.KVizUserWidget",
  "DNDConfig": null,
  "__parentReadjusting__": false,
  "_children_": [],
  "_height_": "220dp",
  "_left_": "0dp",
  "_margin_": [
    0,
    0,
    0,
    0
  ],
  "_orientation_": 1,
  "_padding_": [
    0,
    0,
    0,
    0
  ],
  "_percent_": true,
  "_render_": true,
  "_skin_": "sfe7c6ddceef4b24a7f6bb890bb111a5",
  "_top_": "0dp",
  "_width_": "100%",
  "areflexpropsreferenced": false,
  "autogrowmode": 1,
  "canUpdateUI": true,
  "clipbounds": true,
  "containerweight": 0,
  "dataDiffs": {
    "btnAllChecking": {
      "__events__": {},
      "__info__": {
        "kuid": "f6de488da57344a1b9f4371a6026b2a1",
        "srcKUID": "a1957aaffa8a40e29b4855b99c5ec40a",
        "wType": "Button"
      }
    },
    "btnAllCredit": {
      "__events__": {},
      "__info__": {
        "kuid": "e1c0a5852d2c4fccad9bf67e21c1ac44",
        "srcKUID": "ga4a8d0f6c944b9598d77f3fac7a07e0",
        "wType": "Button"
      }
    },
    "btnAllDeposit": {
      "__events__": {},
      "__info__": {
        "kuid": "j298e15b97b0423eb2d349f6dc0886fc",
        "srcKUID": "b5080817d9484d36bed5516941223f25",
        "wType": "Button"
      }
    },
    "btnAllLoan": {
      "__events__": {},
      "__info__": {
        "kuid": "a179dd88bed34768a20b280111384932",
        "srcKUID": "fd5e64271ff44f0488c524316027bd64",
        "wType": "Button"
      }
    },
    "btnCancel": {
      "__events__": {},
      "__info__": {
        "kuid": "a6bd8382ab264ffb87727389c51405e9",
        "srcKUID": "g0afb70164694f87922ca8e01b649486",
        "wType": "Button"
      }
    },
    "btnChecksChecking": {
      "__events__": {},
      "__info__": {
        "kuid": "b4b1ad9eb06b4eae895ed0d6e725c4a8",
        "srcKUID": "cd489967191f4f35aaed77ff649cc0cb",
        "wType": "Button"
      }
    },
    "btnClearSearch": {
      "__events__": {},
      "__info__": {
        "kuid": "c8e8f66cfff148d696b068fcd245654a",
        "srcKUID": "f3ea2253a17544c88b435604f7584041",
        "wType": "Button"
      }
    },
    "btnDepositDeposit": {
      "__events__": {},
      "__info__": {
        "kuid": "fcc4d09594884adc82541e68ff6bfcae",
        "srcKUID": "f3f720ee2c0142efb957fa0e60741ca5",
        "wType": "Button"
      }
    },
    "btnDepositsChecking": {
      "__events__": {},
      "__info__": {
        "kuid": "ja9d9fe529294d8da4ee092a6da46d72",
        "srcKUID": "h1ec54b98f2b4fd1959f5909fee6f1e6",
        "wType": "Button"
      }
    },
    "btnDummyLeftChecking": {
      "__events__": {},
      "__info__": {
        "kuid": "fd3feccb883842998c3e5edcc75fe9d3",
        "srcKUID": "i0dfa2dd67a34a569103ea11cc462e17",
        "wType": "Button"
      }
    },
    "btnDummyLeftCredit": {
      "__events__": {},
      "__info__": {
        "kuid": "gbeb7e9adf814ab0a185f229b1616da0",
        "srcKUID": "b87818455b7f4ed8be31177b6db6ffe3",
        "wType": "Button"
      }
    },
    "btnDummyLeftDeposit": {
      "__events__": {},
      "__info__": {
        "kuid": "d427944192304cb0af936c287439fc1e",
        "srcKUID": "c3c41262c5014b679ae025b843d50aff",
        "wType": "Button"
      }
    },
    "btnDummyLeftLoan": {
      "__events__": {},
      "__info__": {
        "kuid": "e50ee3ff00e64b638bca8321cf629c6d",
        "srcKUID": "f847df465b0f4b31b8738f7805393702",
        "wType": "Button"
      }
    },
    "btnDummyRightCredit": {
      "__events__": {},
      "__info__": {
        "kuid": "e8e6e838eb554888820daab29b15a745",
        "srcKUID": "ib6b4d4bb31f4358ba58a07d4da4f28a",
        "wType": "Button"
      }
    },
    "btnDummyRightDeposit": {
      "__events__": {},
      "__info__": {
        "kuid": "e56a429dc4f34b39bce3f1863cc86903",
        "srcKUID": "cd6aa3fc36054132939571d9d9ea573f",
        "wType": "Button"
      }
    },
    "btnDummyRightLoan": {
      "__events__": {},
      "__info__": {
        "kuid": "c3d21e5a7cfa4a3f8656966f0bf5d4a4",
        "srcKUID": "ce79080c34af44869ac718800442de5e",
        "wType": "Button"
      }
    },
    "btnInterestDeposit": {
      "__events__": {},
      "__info__": {
        "kuid": "bad13c2dcd1145718cd8e56510d27bea",
        "srcKUID": "b2f18ab8df1d4dfe94d9277b3ce473f3",
        "wType": "Button"
      }
    },
    "btnModifySearch": {
      "__events__": {},
      "__info__": {
        "kuid": "b461531fe2ac4c6d93e7f989889771f4",
        "srcKUID": "cdd0a317a4f74ad88ed197edbd4295b5",
        "wType": "Button"
      }
    },
    "btnPaymentsCredit": {
      "__events__": {},
      "__info__": {
        "kuid": "aa40644b8ec942f1bc3c773298a44a62",
        "srcKUID": "f71ebd31949e449ca9ed937c261c7844",
        "wType": "Button"
      }
    },
    "btnPurchasesCredit": {
      "__events__": {},
      "__info__": {
        "kuid": "df4abff3d64e4aedad87226c04581012",
        "srcKUID": "gbee2192aa5d4bd499ca4124a32e19ee",
        "wType": "Button"
      }
    },
    "btnSearch": {
      "__events__": {},
      "__info__": {
        "kuid": "bb24aca63f1e425ea51d24b1f966dcd5",
        "srcKUID": "d1dfe298620e4acf8f8179c303e4c23c",
        "wType": "Button"
      }
    },
    "btnTransfersChecking": {
      "__events__": {},
      "__info__": {
        "kuid": "h730d02c37e74fd09b5adadfc66e0c91",
        "srcKUID": "b3aa48aba2d54f7a902580232014e48b",
        "wType": "Button"
      }
    },
    "btnWithdrawDeposit": {
      "__events__": {},
      "__info__": {
        "kuid": "e9c6409ee20f4cd3aef2865ce7821fee",
        "srcKUID": "e7ca7505795c4f9eb7b147522e657f96",
        "wType": "Button"
      }
    },
    "btnWithdrawsChecking": {
      "__events__": {},
      "__info__": {
        "kuid": "g4b899336ddc452b8ca4fd0d0622546b",
        "srcKUID": "a721b9380c0c42b9a55036bd69ac5703",
        "wType": "Button"
      }
    },
    "calDateFrom": {
      "__events__": {},
      "__info__": {
        "kuid": "e485fd0c6b2c4b37b792b61aec85ee59",
        "srcKUID": "h2c4333530a046a4a9fe67bfbd3039ac",
        "wType": "Calendar"
      }
    },
    "calDateTo": {
      "__events__": {},
      "__info__": {
        "kuid": "b1383073d1f740e9913d21346a01fe38",
        "srcKUID": "b39a57653fca46faa13b1012f48bbbe1",
        "wType": "Calendar"
      }
    },
    "flxActions": {
      "__events__": {},
      "__info__": {
        "kuid": "c85179d3306a4f6bb4f7d9baa2548511",
        "srcKUID": "a7a91bd493a8495ea91231669220f5b1",
        "wType": "FlexContainer"
      }
    },
    "flxBlankSpace": {
      "__events__": {},
      "__info__": {
        "kuid": "ecfaa42a5069440598145cd8269b1238",
        "srcKUID": "c0780112173342c6a9fcd7e7df7b1643",
        "wType": "FlexContainer"
      }
    },
    "flxByAmountRange": {
      "__events__": {},
      "__info__": {
        "kuid": "c6b71e094c7f4f8198a90ecb9c4a8fc4",
        "srcKUID": "f1d31b87275b42cd953f0559c906155b",
        "wType": "FlexContainer"
      }
    },
    "flxByCheckNumber": {
      "__events__": {},
      "__info__": {
        "kuid": "e95bf92fe21443b1bbc702aa62e3f91a",
        "srcKUID": "hecfc8104c9a4d20a86f36075c411d5c",
        "wType": "FlexContainer"
      }
    },
    "flxByDate": {
      "__events__": {},
      "__info__": {
        "kuid": "dfe25cf4f1c841108f853ae91c3eac3f",
        "srcKUID": "f17a190dbbee485f8d0879c5c4c9d211",
        "wType": "FlexContainer"
      }
    },
    "flxCancelAmountRange": {
      "__events__": {},
      "__info__": {
        "kuid": "e1c822639c364d0a971d65563a6f3a61",
        "srcKUID": "ae5f9b3349fb429b8bca47a566f05af5",
        "wType": "FlexContainer"
      }
    },
    "flxCancelDateRange": {
      "__events__": {},
      "__info__": {
        "kuid": "eff11e363a0e49329edeffb3944443e4",
        "srcKUID": "f4d0a8946d0f46639d173e19839ed6bf",
        "wType": "FlexContainer"
      }
    },
    "flxCancelKeyword": {
      "__events__": {},
      "__info__": {
        "kuid": "jae22c4ad1f2472eb840a7e07c1c1c2e",
        "srcKUID": "a8834621c24742049c81d376ae6aca46",
        "wType": "FlexContainer"
      }
    },
    "flxCancelType": {
      "__events__": {},
      "__info__": {
        "kuid": "ab7640737ef145b38f39f9782328bc85",
        "srcKUID": "g47668ed33de4a568c1960018a2a797e",
        "wType": "FlexContainer"
      }
    },
    "flxDownload": {
      "__events__": {},
      "__info__": {
        "kuid": "b376cdf3c7eb47f5afbdee2662537b48",
        "srcKUID": "ee36947caaae439491cad3c7f448ca5d",
        "wType": "FlexContainer"
      }
    },
    "flxHeader": {
      "__events__": {},
      "__info__": {
        "kuid": "e3c7fb41516b470f9a9c91a7f650905a",
        "srcKUID": "ccb0913acb1642e8877a8d9a923c66e2",
        "wType": "FlexContainer"
      }
    },
    "flxLeft": {
      "__events__": {},
      "__info__": {
        "kuid": "f9b03d80785b4dd489447da36dc80696",
        "srcKUID": "b561705a693341d99d0cfa67a3bd0d92",
        "wType": "FlexContainer"
      }
    },
    "flxLeftSearch": {
      "__events__": {},
      "__info__": {
        "kuid": "h8bcdaa25d2046af9318c29deebce866",
        "srcKUID": "bca20f135ff3473bb68fcc5ed6137051",
        "wType": "FlexContainer"
      }
    },
    "flxNoTransactions": {
      "__events__": {},
      "__info__": {
        "kuid": "g9cbba7d00c6411d97b5941b1fc7d32e",
        "srcKUID": "f9677e5ef1f44ee7aa2cf170b7995981",
        "wType": "FlexContainer"
      }
    },
    "flxPagination": {
      "__events__": {},
      "__info__": {
        "kuid": "c573c759a3a747769523f5a1f22e104d",
        "srcKUID": "h3abb723ad714f79a0f03009706d258a",
        "wType": "FlexContainer"
      }
    },
    "flxPaginationNext": {
      "__events__": {},
      "__info__": {
        "kuid": "a934809f53c243c1aa326b6268aab2e7",
        "srcKUID": "a0125d3d5ebe4ea2988bfcb7848a8552",
        "wType": "FlexContainer"
      }
    },
    "flxPaginationPrevious": {
      "__events__": {},
      "__info__": {
        "kuid": "a78ec24e8ad14f3291c063ffd7faa869",
        "srcKUID": "ef675db945b946e3b9cce0cbca995314",
        "wType": "FlexContainer"
      }
    },
    "flxPaginationWrapper": {
      "__events__": {},
      "__info__": {
        "kuid": "b0a03415021f4603ab8367dd059ea93b",
        "srcKUID": "ace9b4f4a5904927a42f348c2b900fa8",
        "wType": "FlexContainer"
      }
    },
    "flxPrint": {
      "__events__": {},
      "__info__": {
        "kuid": "cfde44761f954b6795f0e6d7150f4bb0",
        "srcKUID": "a7b8fc6ab1fc43308db813e2844590ab",
        "wType": "FlexContainer"
      }
    },
    "flxRight": {
      "__events__": {},
      "__info__": {
        "kuid": "jf1d56b0ebd14831a4bc6aee7780c61e",
        "srcKUID": "fbafd49159f0492a91d872ddaffd4824",
        "wType": "FlexContainer"
      }
    },
    "flxRightSearchWrapper": {
      "__events__": {},
      "__info__": {
        "kuid": "efaed8faa4ed4c0c9dade2efb1f5c9dc",
        "srcKUID": "ea4d9f029b29430194748dd3323669be",
        "wType": "FlexContainer"
      }
    },
    "flxSearch": {
      "__events__": {},
      "__info__": {
        "kuid": "f78357867c934845a111ddcd314900a4",
        "srcKUID": "bdcbc4075a7e4520805599e92954d867",
        "wType": "FlexContainer"
      }
    },
    "flxSearchContainer": {
      "__events__": {},
      "__info__": {
        "kuid": "a61ac8bd443441bd8d71d510a34a8b75",
        "srcKUID": "fefbc92d54c247be82c5bac69bbcaf67",
        "wType": "FlexContainer"
      }
    },
    "flxSearchItemKeyword": {
      "__events__": {},
      "__info__": {
        "kuid": "f6725bf8657f45ae9045214162e9d0a3",
        "srcKUID": "j0975c7d56654a28b8d0236e12e8e50f",
        "wType": "FlexContainer"
      }
    },
    "flxSearchItemOthers": {
      "__events__": {},
      "__info__": {
        "kuid": "a2f7a39513864aa6bee7ae775de2a9b9",
        "srcKUID": "jab3ae48daaf4d5d8d00319d669532ed",
        "wType": "FlexContainer"
      }
    },
    "flxSearchItems": {
      "__events__": {},
      "__info__": {
        "kuid": "caf06e271fce4e3bbcf58ab165dc9dd0",
        "srcKUID": "h26ad53e9dab4620a28b83581d844afb",
        "wType": "FlexContainer"
      }
    },
    "flxSearchResultActions": {
      "__events__": {},
      "__info__": {
        "kuid": "aeddd9a078f3482caf3eb11707e535dc",
        "srcKUID": "dc4a90ad16694b8583c6b5c68747ded2",
        "wType": "FlexContainer"
      }
    },
    "flxSearchResults": {
      "__events__": {},
      "__info__": {
        "kuid": "eb58f7d310a5436284e572f6f41a0d0c",
        "srcKUID": "fa82015acb7e4a9eb7da31566f078447",
        "wType": "FlexContainer"
      }
    },
    "flxSegmentContainer": {
      "__events__": {},
      "__info__": {
        "kuid": "c43da5af4ea4416db4afe5ea54c18f9e",
        "srcKUID": "c1209849ad884501b155bb25e1fd12a1",
        "wType": "FlexContainer"
      }
    },
    "flxSeparator": {
      "__events__": {},
      "__info__": {
        "kuid": "ja9d3648959a49ceab9eedf8889b325d",
        "srcKUID": "ebde454fc9bf4532b4f3b752775941b6",
        "wType": "FlexContainer"
      }
    },
    "flxSeparatorNoResults": {
      "__events__": {},
      "__info__": {
        "kuid": "a5c56f5a2a584095b425737a4db5f2e4",
        "srcKUID": "e2d97735da9146769158ec71278c5cbf",
        "wType": "FlexContainer"
      }
    },
    "flxSeparatorSearch": {
      "__events__": {},
      "__info__": {
        "kuid": "j65452eeb583477e9a414dbb55804d3d",
        "srcKUID": "a2a9d36e7574420fad436703ae2f2133",
        "wType": "FlexContainer"
      }
    },
    "flxSeparatorSort": {
      "__events__": {},
      "__info__": {
        "kuid": "c2e733c3028742b3ba80680c7ada05e6",
        "srcKUID": "i5b42be5cf8a4155ad17f0c3c6b012ab",
        "wType": "FlexContainer"
      }
    },
    "flxShadowSort": {
      "__events__": {},
      "__info__": {
        "kuid": "f74af94c533e4f8490830b457ca609be",
        "srcKUID": "c60f734f6e974d89bd412b49e7c877cf",
        "wType": "FlexContainer"
      }
    },
    "flxSort": {
      "__events__": {},
      "__info__": {
        "kuid": "h7b2d50edc4e43df9ad8ed086fffb77f",
        "srcKUID": "g241718ac6e0411ab4e05f2abbcae135",
        "wType": "FlexContainer"
      }
    },
    "flxSortAmount": {
      "__events__": {},
      "__info__": {
        "kuid": "d487290bb8f1403a8021f0d8a55c47fc",
        "srcKUID": "j328661fb2944483b72c3e6628115340",
        "wType": "FlexContainer"
      }
    },
    "flxSortBalance": {
      "__events__": {},
      "__info__": {
        "kuid": "e708ac93be054b16ae31da45fb70aa8f",
        "srcKUID": "a3678241e30c40e99114bf34e4e84f42",
        "wType": "FlexContainer"
      }
    },
    "flxSortCategory": {
      "__events__": {},
      "__info__": {
        "kuid": "e02f164638024369b61a8ceb44a9c95f",
        "srcKUID": "a7bd8b85412747c091f697273c7ed636",
        "wType": "FlexContainer"
      }
    },
    "flxSortDate": {
      "__events__": {},
      "__info__": {
        "kuid": "d880f378a9a34fb2bf7d9fb529d1b48f",
        "srcKUID": "ecbafd370d574cc78ce84e076f44c4c3",
        "wType": "FlexContainer"
      }
    },
    "flxSortDescription": {
      "__events__": {},
      "__info__": {
        "kuid": "a68ef53f29114e459b21da1a97e0f91b",
        "srcKUID": "eb6420188cda4b7ab1654a9d36209b86",
        "wType": "FlexContainer"
      }
    },
    "flxSortSixColumn": {
      "__events__": {},
      "__info__": {
        "kuid": "cfcf6246c5d14a478c0c861c27c3ca74",
        "srcKUID": "b7be59c09be046fea8d651d80ba5b071",
        "wType": "FlexContainer"
      }
    },
    "flxSortType": {
      "__events__": {},
      "__info__": {
        "kuid": "f0ee72d8e07942cb8924f4f4adf4edfc",
        "srcKUID": "bc712e32f3774e988d86a79fe19d5d6e",
        "wType": "FlexContainer"
      }
    },
    "flxTabsChecking": {
      "__events__": {},
      "__info__": {
        "kuid": "heda46586d9d4d72832ae309c969faa8",
        "srcKUID": "f3df24e92ff34eafbbfac71ae33f328a",
        "wType": "FlexContainer"
      }
    },
    "flxTabsCredit": {
      "__events__": {},
      "__info__": {
        "kuid": "eaaf56579a144959857fbb871833acbd",
        "srcKUID": "fb8cbad294d945e891732839ce4d1868",
        "wType": "FlexContainer"
      }
    },
    "flxTabsDeposit": {
      "__events__": {},
      "__info__": {
        "kuid": "a36cd16ef11b4283b16fe1beee978221",
        "srcKUID": "d90860f8f0a74d5ca41c2e56d2473404",
        "wType": "FlexContainer"
      }
    },
    "flxTabsLoan": {
      "__events__": {},
      "__info__": {
        "kuid": "f4e89cf3077b4cfca23e824228470f71",
        "srcKUID": "a3dc139816384f9694bc3ab6893e0527",
        "wType": "FlexContainer"
      }
    },
    "flxWrapper": {
      "__events__": {},
      "__info__": {
        "kuid": "bb3127d0cff14a3793ac55fdc1f1e1a2",
        "srcKUID": "dd520fb60a094835a6cf63e4407d7ca0",
        "wType": "FlexContainer"
      }
    },
    "imgCancel": {
      "__events__": {},
      "__info__": {
        "kuid": "j5de8d11e8b74c9dbfbac709f248dd37",
        "srcKUID": "ja35a644e26a4cfdbc34be6bd88a584a",
        "wType": "Image"
      }
    },
    "imgCancelAmountRange": {
      "__events__": {},
      "__info__": {
        "kuid": "e6256ca1117a427ba3faca7c611b21f9",
        "srcKUID": "fdf26eb1ce3a4c9eb82634cffb1ee7e3",
        "wType": "Image"
      }
    },
    "imgCancelDateRange": {
      "__events__": {},
      "__info__": {
        "kuid": "cdb4bef3d16a475d8ec16e84d5f3f5d6",
        "srcKUID": "h777633e9fbe443d927c28d6c4778c67",
        "wType": "Image"
      }
    },
    "imgCancelType": {
      "__events__": {},
      "__info__": {
        "kuid": "ce5ffc0136ec4037a21b882c33ac7be5",
        "srcKUID": "jd1ad6d41a1e4c3097d1294b212c8ee3",
        "wType": "Image"
      }
    },
    "imgDownload": {
      "__events__": {},
      "__info__": {
        "kuid": "gee3b534cf3345298f125a2abeef9b62",
        "srcKUID": "a1bb423d0cee4e80a7f783d87c577a60",
        "wType": "Image"
      }
    },
    "imgInfo": {
      "__events__": {},
      "__info__": {
        "kuid": "a80c981f666140dfb1a88cb7d26bd16b",
        "srcKUID": "e1afa354adf14a83aa9415f9336952ea",
        "wType": "Image"
      }
    },
    "imgPaginationFirst": {
      "__events__": {},
      "__info__": {
        "kuid": "b8977299be514383b5c75ed4e38bc754",
        "srcKUID": "jf651804c7214acebda932bed20bd14a",
        "wType": "Image"
      }
    },
    "imgPaginationLast": {
      "__events__": {},
      "__info__": {
        "kuid": "c75e7696cf964330959221ebc057439d",
        "srcKUID": "f6b9132d1bba402687575bff596b18ac",
        "wType": "Image"
      }
    },
    "imgPaginationNext": {
      "__events__": {},
      "__info__": {
        "kuid": "ed612d2be3dc43f49fef33a08ababa4e",
        "srcKUID": "b99cc565b1424293b62650114a123ab3",
        "wType": "Image"
      }
    },
    "imgPaginationPrevious": {
      "__events__": {},
      "__info__": {
        "kuid": "h09369541a3e4d6b97765a647341e7e4",
        "srcKUID": "g3507e89da86488796b0205aefb53f28",
        "wType": "Image"
      }
    },
    "imgPrint": {
      "__events__": {},
      "__info__": {
        "kuid": "h0989a99624c44bca2f8e201aeae7143",
        "srcKUID": "bc6d241ccee24e4eb9b6a14a36d50d6d",
        "wType": "Image"
      }
    },
    "imgSearch": {
      "__events__": {},
      "__info__": {
        "kuid": "de830f561be74a6cba675d23461b5cc9",
        "srcKUID": "hd254ccacda34a7795de3f652462050e",
        "wType": "Image"
      }
    },
    "imgSortAmount": {
      "__events__": {},
      "__info__": {
        "kuid": "f2e17c9ff56b421182df1e093f192f8e",
        "srcKUID": "e4e8bf3ae2cc4707852d499474a15352",
        "wType": "Image"
      }
    },
    "imgSortBalance": {
      "__events__": {},
      "__info__": {
        "kuid": "g4aabf2219c7469bb8661377e631c4ae",
        "srcKUID": "ec0c535c5e5b4bb88f95b8aeffbbcdf6",
        "wType": "Image"
      }
    },
    "imgSortCategory": {
      "__events__": {},
      "__info__": {
        "kuid": "j57d33af0673448f9cf5eef49ba3e1e8",
        "srcKUID": "i5cec6fa4f054f40a7dc3065a6e1a9ee",
        "wType": "Image"
      }
    },
    "imgSortDate": {
      "__events__": {},
      "__info__": {
        "kuid": "a057d1dc64f446e69d2343934dbdc76c",
        "srcKUID": "a4a2c930272c4f33a7055c05793f78fb",
        "wType": "Image"
      }
    },
    "imgSortDescription": {
      "__events__": {},
      "__info__": {
        "kuid": "ia66eb2cac66435c8587ff14dab41294",
        "srcKUID": "e3ae12ef8f2d4fda8d2799b531494d91",
        "wType": "Image"
      }
    },
    "imgSortType": {
      "__events__": {},
      "__info__": {
        "kuid": "baf9f900eca3453493de0ad4e279e4c9",
        "srcKUID": "f93a8fd27e8648a08630c99ffe2aaa35",
        "wType": "Image"
      }
    },
    "lblAmountRangeTitle": {
      "__events__": {},
      "__info__": {
        "kuid": "e309f64542214ca5a8c5a39eda8b4110",
        "srcKUID": "id422110f0244e808659f0b0e576fc54",
        "wType": "Label"
      }
    },
    "lblAmountRangeValue": {
      "__events__": {},
      "__info__": {
        "kuid": "cb55ba20c71849af8f2dda9eaaa31a02",
        "srcKUID": "ecc44d963bab46e7b04ba6ec18d3fc92",
        "wType": "Label"
      }
    },
    "lblByAmountRange": {
      "__events__": {},
      "__info__": {
        "kuid": "c5459f4f6406472791ee56ec9b5d86b1",
        "srcKUID": "ac975f8def83463c8449ee15f4282242",
        "wType": "Label"
      }
    },
    "lblByCheckNumber": {
      "__events__": {},
      "__info__": {
        "kuid": "a26b05ef438a4a139f4ca7318ec606b4",
        "srcKUID": "fb56145f3b244ce480f34d6036c76cf3",
        "wType": "Label"
      }
    },
    "lblByDate": {
      "__events__": {},
      "__info__": {
        "kuid": "df323c314942441aabbd9bd6877f99dc",
        "srcKUID": "cb22d231376b4ab6ba0398f867df00ea",
        "wType": "Label"
      }
    },
    "lblByKeyword": {
      "__events__": {},
      "__info__": {
        "kuid": "aa3175687d054629a170d2942deaab82",
        "srcKUID": "eb727143546e4029a7cc2c5bbef48373",
        "wType": "Label"
      }
    },
    "lblByTimePeriod": {
      "__events__": {},
      "__info__": {
        "kuid": "bf6e73f2c4ca4081a45733cd0efedd05",
        "srcKUID": "h0d94ee7ad864c949b4f204fb5a003d8",
        "wType": "Label"
      }
    },
    "lblByTransactionType": {
      "__events__": {},
      "__info__": {
        "kuid": "fdc090a366b84e9ea2cf6501e4889130",
        "srcKUID": "d9ece1349426402e95a4a193a9f8f055",
        "wType": "Label"
      }
    },
    "lblDateRangeTitle": {
      "__events__": {},
      "__info__": {
        "kuid": "d40c128a5bd743899470180b5bdff795",
        "srcKUID": "cc1eece186f34ab3a13937d6cf350f35",
        "wType": "Label"
      }
    },
    "lblDateRangeValue": {
      "__events__": {},
      "__info__": {
        "kuid": "d22b3f9fd76e49fb9b79f456dbfde2c0",
        "srcKUID": "e2e889dcd04a41d2a5194e76d352dfc7",
        "wType": "Label"
      }
    },
    "lblKeywordTitle": {
      "__events__": {},
      "__info__": {
        "kuid": "i6ca8f88235244fd840c5506e95423d5",
        "srcKUID": "f1e32bf0e7f04a7d8ee14f8dae91a210",
        "wType": "Label"
      }
    },
    "lblKeywordValue": {
      "__events__": {},
      "__info__": {
        "kuid": "j14b89a1cd134473abfca70fe20dd482",
        "srcKUID": "f1c5009c2fec4f7ab19254e93f4bf696",
        "wType": "Label"
      }
    },
    "lblPagination": {
      "__events__": {},
      "__info__": {
        "kuid": "b3c2d1fbb42e42979570c29df271d9b2",
        "srcKUID": "g53f228f1f8e478fb3cc871466128e7a",
        "wType": "Label"
      }
    },
    "lblSortAmount": {
      "__events__": {},
      "__info__": {
        "kuid": "d59940abeb8a47e8bf350b40cd1e0c9a",
        "srcKUID": "i1ab5f954d01402fab4f9e5d4bf4a23e",
        "wType": "Label"
      }
    },
    "lblSortBalance": {
      "__events__": {},
      "__info__": {
        "kuid": "g8d2ed28ed4244019d1caafaed00277c",
        "srcKUID": "gaab49e731964a79ad8d9c3dd4ca5504",
        "wType": "Label"
      }
    },
    "lblSortCategory": {
      "__events__": {},
      "__info__": {
        "kuid": "d703b55cea1b4a869b3706ffc47b831b",
        "srcKUID": "a78d78eb3a39481394e34644cb9a1f1b",
        "wType": "Label"
      }
    },
    "lblSortDate": {
      "__events__": {},
      "__info__": {
        "kuid": "f00ac72440204424a6b7869812db9304",
        "srcKUID": "ee4824b4d87a4e8fbeceb2b10ac50825",
        "wType": "Label"
      }
    },
    "lblSortDescription": {
      "__events__": {},
      "__info__": {
        "kuid": "debe490e20724f0fb2e924146fdb4194",
        "srcKUID": "e4692422b01c4106a5dda3962d54bdeb",
        "wType": "Label"
      }
    },
    "lblSortType": {
      "__events__": {},
      "__info__": {
        "kuid": "e3888e92a90c492c8d6cff05582b335d",
        "srcKUID": "eeacbf6f197b4365b74b2fda7b0dadd7",
        "wType": "Label"
      }
    },
    "lblToByAmountRange": {
      "__events__": {},
      "__info__": {
        "kuid": "a7a7ba3426a04c4982b3dab5dc7b5916",
        "srcKUID": "hfb4d84e0e22409d944472af7b7b5be2",
        "wType": "Label"
      }
    },
    "lblToByCheckNumber": {
      "__events__": {},
      "__info__": {
        "kuid": "e62f300eb6c3427e861315d4141bfc5f",
        "srcKUID": "b0aa91f3db5e4909b38113ad5e6222d8",
        "wType": "Label"
      }
    },
    "lblToByDate": {
      "__events__": {},
      "__info__": {
        "kuid": "i44d8cf29108445ea8ec539df2d34720",
        "srcKUID": "ab3c4ab38b394d90a0ba24e2ee613bf5",
        "wType": "Label"
      }
    },
    "lblTransactions": {
      "__events__": {},
      "__info__": {
        "kuid": "f4becfe4c405425ea2987282562ffe1b",
        "srcKUID": "jf109b46c68b47da832dc69050b5219f",
        "wType": "Label"
      }
    },
    "lblTypeTitle": {
      "__events__": {},
      "__info__": {
        "kuid": "cfaef2501e24432a9cf0f742ebd2e924",
        "srcKUID": "d207aadae0cb447e877a130741527c81",
        "wType": "Label"
      }
    },
    "lblTypeValue": {
      "__events__": {},
      "__info__": {
        "kuid": "de42feca9f3a4e05a9c04a1e45da2f4e",
        "srcKUID": "c1ea46aecdf74ce4a17f11157c42fe12",
        "wType": "Label"
      }
    },
    "lblYouHaveSearchedFor": {
      "__events__": {},
      "__info__": {
        "kuid": "eb08ac21a08041ebaa35739b29949985",
        "srcKUID": "be359fffc2db4b62ae3926fd03fde6e3",
        "wType": "Label"
      }
    },
    "lstbxTimePeriod": {
      "__events__": {},
      "__info__": {
        "kuid": "cef53f1aad8548f9a5014cbcd22bfc30",
        "srcKUID": "a7e22b9365f647f3899aaeafbc3fd81e",
        "wType": "ListBox"
      }
    },
    "lstbxTransactionType": {
      "__events__": {},
      "__info__": {
        "kuid": "b684a252ceed4f8780cb98b150272e3c",
        "srcKUID": "b3c5f9af7e36475e8827bede681c81d0",
        "wType": "ListBox"
      }
    },
    "rtxNoPaymentMessage": {
      "__events__": {},
      "__info__": {
        "kuid": "j56a20eac2b54ee588034831614e4584",
        "srcKUID": "b9fb4ffa3b334b87a8885bf47ab5b54c",
        "wType": "RichText"
      }
    },
    "segTransactions": {
      "__events__": {},
      "__info__": {
        "kuid": "c40823235ffd4bee874570ed9bdadbf8",
        "srcKUID": "a5e5fe21996b4dd6bdeaf49e82ef2908",
        "wType": "Segment"
      }
    },
    "transactions": {
      "__events__": {},
      "__info__": {
        "isRoot": true,
        "kuid": "h52cf797413546c5bc88c0488ce457b7",
        "srcKUID": "b1ee28f9281f450c9d89d4cdf219088c",
        "wType": "FlexContainer"
      }
    },
    "txtAmountRangeFrom": {
      "__events__": {},
      "__info__": {
        "kuid": "bd961748de29437cbc1aba7d1aa77675",
        "srcKUID": "b8b49ed225614116a1975288b44d1a3e",
        "wType": "TextField"
      }
    },
    "txtAmountRangeTo": {
      "__events__": {},
      "__info__": {
        "kuid": "d0b281e101294d0399817916830601be",
        "srcKUID": "b68c1001346f49409e3bf2f68d814fb4",
        "wType": "TextField"
      }
    },
    "txtCheckNumberFrom": {
      "__events__": {},
      "__info__": {
        "kuid": "a1a3da2c16d34a30a68c45ee34341c92",
        "srcKUID": "d7aaf48af98647748f3b2dbf19a24b61",
        "wType": "TextField"
      }
    },
    "txtCheckNumberTo": {
      "__events__": {},
      "__info__": {
        "kuid": "dd38b599a60c469b827abe9cc63d60fb",
        "srcKUID": "e938069f0080458192d1cdc038c91044",
        "wType": "TextField"
      }
    },
    "txtKeyword": {
      "__events__": {},
      "__info__": {
        "kuid": "a2b9f4b783f74a13809cd811f0161b88",
        "srcKUID": "ece81243765b4725964527419ae4579c",
        "wType": "TextField"
      }
    }
  },
  "id": "transactions",
  "info": null,
  "isdatareferenced": false,
  "isvisible": true,
  "kuid": "dadcd54f68734e00b91ef76b449acf11",
  "layouttype": 4,
  "masterType": 0,
  "name": "kony.ui.UserWidgetInstance",
  "parent": "CopyflxMain0ec24fbdfb35948",
  "pf": "frmAccountsDetails",
  "sourceUserWidget": "b1ee28f9281f450c9d89d4cdf219088c",
  "wType": "UserWidgetInstance"
}