{
  "@class": "com.kony.gen.viz.model.component.KVizUserWidget",
  "DNDConfig": null,
  "__parentReadjusting__": false,
  "_children_": [],
  "_height_": {
    "type": "string",
    "value": "120px"
  },
  "_left_": {
    "type": "string",
    "value": "0dp"
  },
  "_margin_": [
    0,
    0,
    0,
    0
  ],
  "_orientation_": 1,
  "_padding_": [
    0,
    0,
    0,
    0
  ],
  "_percent_": true,
  "_render_": true,
  "_skin_": "s08469efda4a4826a2c833ec32b9f5e5",
  "_top_": {
    "type": "string",
    "value": "0dp"
  },
  "_width_": {
    "type": "string",
    "value": "100%"
  },
  "areflexpropsreferenced": false,
  "autogrowmode": 0,
  "canUpdateUI": true,
  "clipbounds": false,
  "containerweight": 0,
  "dataDiffs": {
    "CopyflxHamburgerBack0f9d52b864a8c4e": {
      "__events__": {},
      "__info__": {
        "kuid": "ia9ebedf9c2a43bf8aff45dc27707220",
        "srcKUID": "e54748b344d245529c0ccb38cd8d1fcb",
        "wType": "FlexContainer"
      }
    },
    "CopyflxUserDetails0b35eb5be884043": {
      "__events__": {},
      "__info__": {
        "kuid": "f862cee9bcfc4de1addfbf6cccfd4538",
        "srcKUID": "b692716bd51e422ead7f111a1bfbe5cb",
        "wType": "FlexContainer"
      }
    },
    "CopyflxVerticalSeperator0dbd20466efa64b": {
      "__events__": {},
      "__info__": {
        "kuid": "d08d7b4219104d71bb14da676fbe34d4",
        "srcKUID": "d06f368d0065481d81dc512212fd2b95",
        "wType": "FlexContainer"
      }
    },
    "FlexContainer0e2898aa93bca45": {
      "__events__": {},
      "__info__": {
        "kuid": "i0feb94123764d04b26d007894c20017",
        "srcKUID": "f85d68fc07dd44c2938e507df0fe87fc",
        "wType": "FlexContainer"
      }
    },
    "Label0e243933e8fa34e": {
      "__events__": {},
      "__info__": {
        "kuid": "f58dff0586a2400dae1b55fcfc8d15ea",
        "srcKUID": "e4ac7c6df45f47999b2250e0bcb58bcb",
        "wType": "Label"
      },
      "i18n_text": "i18n.AccountsDetails.Loggedinas",
      "text": "Logged in as:"
    },
    "customhamburger": {
      "__events__": {},
      "__info__": {
        "kuid": "d95e97d6f4994e05bce5ca504c8eab11",
        "srcKUID": "dea66199c9fd433fab636de553a6116f",
        "wType": "UserWidgetInstance"
      }
    },
    "customhamburger.CopyflxMyAccounts0b54df1795b674c": {
      "__events__": {},
      "__info__": {
        "kuid": "e0ac9f87aa5f49f7b31d0b87b51ddbc4",
        "srcKUID": "dc4c58f3d34b49b6a828fb1092938fd9",
        "wType": "FlexContainer"
      }
    },
    "customhamburger.CopyflxMyAccounts0d2a58860676d43": {
      "__events__": {},
      "__info__": {
        "kuid": "cd5fe14e9981465ca359b753351e2617",
        "srcKUID": "ic7b9b97e0a34ff9a3bb27ee8e7dc13f",
        "wType": "FlexContainer"
      }
    },
    "customhamburger.CopyflxMyAccounts0f8a8e9530ccc43": {
      "__events__": {},
      "__info__": {
        "kuid": "bcba1aa6a5b9479680bfe9c23277ef47",
        "srcKUID": "bbe7100a7f7940d39db5b7b1de5a774e",
        "wType": "FlexContainer"
      }
    },
    "customhamburger.CopyflxMyAccounts0fb3509ebda8a4d": {
      "__events__": {},
      "__info__": {
        "kuid": "ic80ddeaa6e44c0398db8969846020f3",
        "srcKUID": "d9cef119e5a942c9b89b4e9733af8f59",
        "wType": "FlexContainer"
      }
    },
    "customhamburger.CopyflxSeperator0ab6ff437e8524e": {
      "__events__": {},
      "__info__": {
        "kuid": "f1102112d26141e0aab5d4dd01517fdc",
        "srcKUID": "ca4dec9fb13344e8a9eaab7c89b68088",
        "wType": "FlexContainer"
      }
    },
    "customhamburger.CopyflxSeperator0acb2897e84374f": {
      "__events__": {},
      "__info__": {
        "kuid": "ib209167b5f341d59abd9fc82610e062",
        "srcKUID": "h931230261a14f28817596d7d2bbfee2",
        "wType": "FlexContainer"
      }
    },
    "customhamburger.CopyflxSeperator0bd0b5a0f50074d": {
      "__events__": {},
      "__info__": {
        "kuid": "a76bf1620b4c45a08c0893706bb6463f",
        "srcKUID": "b8213949527b424f92c6600b3e792ecc",
        "wType": "FlexContainer"
      }
    },
    "customhamburger.CopyflxSeperator0c1fe53523f5e44": {
      "__events__": {},
      "__info__": {
        "kuid": "ee93222dd03f4307ad2137b51c69831f",
        "srcKUID": "ffdae6459d5d450c9b5a5df56704081e",
        "wType": "FlexContainer"
      }
    },
    "customhamburger.CopyflxSeperator0d1cf533b0a1e41": {
      "__events__": {},
      "__info__": {
        "kuid": "ca42b303e3394d20a04456c1cbcecfff",
        "srcKUID": "fef29e5fb0c4475aaea53717a412f37c",
        "wType": "FlexContainer"
      }
    },
    "customhamburger.CopyflxSeperator0dd0dea943f174f": {
      "__events__": {},
      "__info__": {
        "kuid": "b8b088c0ee62441ba3a37aec26c93230",
        "srcKUID": "j5306d2984814d9d93c24f84d7db8ba7",
        "wType": "FlexContainer"
      }
    },
    "customhamburger.CopyflxSeperator0dfe0994effc642": {
      "__events__": {},
      "__info__": {
        "kuid": "bc4418e984b84b27a8f4cd73774d6ca1",
        "srcKUID": "c7eb127bdde140e382ab0f3726c08d48",
        "wType": "FlexContainer"
      }
    },
    "customhamburger.CopyflxSeperator0e0b844b2206d42": {
      "__events__": {},
      "__info__": {
        "kuid": "d2b506cc0aa74dea8e0ae106ec28ba72",
        "srcKUID": "d407d1c0e2b74a5c8858107d1963ab91",
        "wType": "FlexContainer"
      }
    },
    "customhamburger.CopyflxSeperator0e26671ec477148": {
      "__events__": {},
      "__info__": {
        "kuid": "gd2dfba952154697a93a08ac0f07f27f",
        "srcKUID": "e67fd2e22af044b486baf8def557575c",
        "wType": "FlexContainer"
      }
    },
    "customhamburger.CopyflxSeperator0ef41d1ef612f4a": {
      "__events__": {},
      "__info__": {
        "kuid": "g10a9f9a8016406ca470f9cc3d3736b9",
        "srcKUID": "adeb509fbec84150b31a2aa4a215fb19",
        "wType": "FlexContainer"
      }
    },
    "customhamburger.CopyflxSeperator0f0efd703f4a84e": {
      "__events__": {},
      "__info__": {
        "kuid": "c432260ec75440df94edd7bcc77a1e3d",
        "srcKUID": "jc0b907adf1f4e1ea39d354fc2e41d23",
        "wType": "FlexContainer"
      }
    },
    "customhamburger.CopyflxSeperator0f546de30843d4a": {
      "__events__": {},
      "__info__": {
        "kuid": "c6900fb5d9374eb59fd4e57cab801d00",
        "srcKUID": "b2e0303156ee4279b58a400c45658cbe",
        "wType": "FlexContainer"
      }
    },
    "customhamburger.CopyflxSeperator0f697b8a8bbcf46": {
      "__events__": {},
      "__info__": {
        "kuid": "f945d7eabcb146998667e0caa9526cdf",
        "srcKUID": "d7122805ba3b40f493b7d79f749c5c1f",
        "wType": "FlexContainer"
      }
    },
    "customhamburger.CopyflxSeperator0f7229c978c5c47": {
      "__events__": {},
      "__info__": {
        "kuid": "f3ec05183c2d44319f8c9db1eec6c879",
        "srcKUID": "a87745dcb66b4f4c83b0725af5c1251b",
        "wType": "FlexContainer"
      }
    },
    "customhamburger.CopyflxSeperator0f85cfae3ca0048": {
      "__events__": {},
      "__info__": {
        "kuid": "b464a0389abd417da6a255960d52a9cf",
        "srcKUID": "dc99871787d24ab28840acb5727529ca",
        "wType": "FlexContainer"
      }
    },
    "customhamburger.CopyflxSeperator0h8ae88a56a9d41": {
      "__events__": {},
      "__info__": {
        "kuid": "cded834cdfb84a28884a1300a6bd65fc",
        "srcKUID": "e98fbb42ce4f4cd892d9d78a174599bc",
        "wType": "FlexContainer"
      }
    },
    "customhamburger.CopyflxSeperator0ha67bcc4ced74d": {
      "__events__": {},
      "__info__": {
        "kuid": "cf79a68159514f279bc7aa12172e72ec",
        "srcKUID": "eb357a4d0a5444ce9fe205a0d44588f7",
        "wType": "FlexContainer"
      }
    },
    "customhamburger.CopyflxSeperator0i4d31af56d2d40": {
      "__events__": {},
      "__info__": {
        "kuid": "de4a723ee2b34c9f8d31d0c91f8ec46a",
        "srcKUID": "f3f4b62efb0a4dd8bf89e2d38860cfd7",
        "wType": "FlexContainer"
      }
    },
    "customhamburger.CopyflxSeperator0i8b9bac42bb244": {
      "__events__": {},
      "__info__": {
        "kuid": "ff862fdf804b43d18ab738a0dce68cf4",
        "srcKUID": "b27ca988af24429ba3da202b454cc21f",
        "wType": "FlexContainer"
      }
    },
    "customhamburger.CopyflxSeperator0ic8245f6992940": {
      "__events__": {},
      "__info__": {
        "kuid": "b3fe98506ccc47fc81e96821d0810f0d",
        "srcKUID": "c5d2e87b7ed14dd09de6d49220565196",
        "wType": "FlexContainer"
      }
    },
    "customhamburger.CopyflxSeperator0j3213d9f303b41": {
      "__events__": {},
      "__info__": {
        "kuid": "a373f7a373fb45948628f0e82897243c",
        "srcKUID": "fe9c8dd71102415db76f64c461560080",
        "wType": "FlexContainer"
      }
    },
    "customhamburger.CopyflxSeperator0jc2b704f97fa4d": {
      "__events__": {},
      "__info__": {
        "kuid": "ac758c0eb14e4a5f85b0503a51cd71f8",
        "srcKUID": "d0c5fd0e52bf405ab3a5b62910c15dfc",
        "wType": "FlexContainer"
      }
    },
    "customhamburger.CopylblAddPayee0b508c1c7ac1342": {
      "__events__": {},
      "__info__": {
        "kuid": "e40236f99742482abcd5896fdb692878",
        "srcKUID": "gecce85ab70e458f8184668a61d2a72a",
        "wType": "Label"
      }
    },
    "customhamburger.CopylblAddPayee0bee2cf73d22b4d": {
      "__events__": {},
      "__info__": {
        "kuid": "g798cd4625fe41538310e308c1d57724",
        "srcKUID": "e21a4f39e45c4ea4b684e82952e0da1f",
        "wType": "Label"
      }
    },
    "customhamburger.CopylblAddPayee0g70cc090ed6245": {
      "__events__": {},
      "__info__": {
        "kuid": "j3b4656f237a485386a63beecfcacce0",
        "srcKUID": "f6dfffbbcd7d48ac80ff2d95331aeef0",
        "wType": "Label"
      }
    },
    "customhamburger.CopylblBillPay0a6bc0b0a48dd4b": {
      "__events__": {},
      "__info__": {
        "kuid": "d14aef0581f64687bbb7094e0382eec9",
        "srcKUID": "iece97379dcf4992bd7afc5f0ac6ed8a",
        "wType": "Label"
      }
    },
    "customhamburger.CopylblBillPay0e8e9903a20a440": {
      "__events__": {},
      "__info__": {
        "kuid": "fcc092d97165491997fd465ce095a17d",
        "srcKUID": "i5c72f4c617e4a9fa18d6460cc8c41cb",
        "wType": "Label"
      }
    },
    "customhamburger.CopylblBillPay0eda6178b407a4e": {
      "__events__": {},
      "__info__": {
        "kuid": "ja4e284d5a4349ffb920fef008037f0a",
        "srcKUID": "b5f49ce65f43422e8ba064d0383c8b60",
        "wType": "Label"
      }
    },
    "customhamburger.CopylblBillPayHistory0b38a2ee4fe0d47": {
      "__events__": {},
      "__info__": {
        "kuid": "bef8e0fede3e4c538f3c6051d020814c",
        "srcKUID": "hbc213bb8f7a4233b1396cd4bdabbaa3",
        "wType": "Label"
      }
    },
    "customhamburger.CopylblBillPayHistory0gc07c297701741": {
      "__events__": {},
      "__info__": {
        "kuid": "cf5cc82387db4bfbb1b1fce4947cffe8",
        "srcKUID": "cb22b1482ffc4bfb95ecec9f6a141fab",
        "wType": "Label"
      }
    },
    "customhamburger.CopylblMyAccounts0c708334cd15c43": {
      "__events__": {},
      "__info__": {
        "kuid": "e047dc3ef5554fb687c9d54df6a96c48",
        "srcKUID": "dc2cbfc36e79444ab78448553e873210",
        "wType": "Label"
      }
    },
    "customhamburger.CopylblMyAccounts0cbb159605a3b44": {
      "__events__": {},
      "__info__": {
        "kuid": "ib652f0e11f54be289024fd73af0ee8f",
        "srcKUID": "afec2e14a4a3441b95c42cc142db3bf2",
        "wType": "Label"
      }
    },
    "customhamburger.CopylblMyAccounts0d0f2bf7fe79545": {
      "__events__": {},
      "__info__": {
        "kuid": "b1a01c06f1644ef69473f790b13626d6",
        "srcKUID": "c6f86a1de73246a09b5c79361693bc21",
        "wType": "Label"
      }
    },
    "customhamburger.CopylblMyAccounts0hc2685e27c2c44": {
      "__events__": {},
      "__info__": {
        "kuid": "h731d8c7e6814e62bb41d2086f26bca7",
        "srcKUID": "faab113b9bf8424580d0e0812fa98971",
        "wType": "Label"
      }
    },
    "customhamburger.CopylblMyAccounts0i08ff33ddccd42": {
      "__events__": {},
      "__info__": {
        "kuid": "cc565d805da6471e95a900936861a8c2",
        "srcKUID": "a42c5516493c41799b8383460faa4847",
        "wType": "Label"
      }
    },
    "customhamburger.CopylblMyPayee0dcb9e690692a4f": {
      "__events__": {},
      "__info__": {
        "kuid": "a713f0ed256a4a6abc9aecaf8b2fe333",
        "srcKUID": "bed01243f6a547179d4bf810e22191f0",
        "wType": "Label"
      }
    },
    "customhamburger.CopylblMyPayee0e33403d7890441": {
      "__events__": {},
      "__info__": {
        "kuid": "e2f592b055cf4be49814a00d7f6e9dcc",
        "srcKUID": "bce63faed54a4d5f8189fb31de9e3ee7",
        "wType": "Label"
      }
    },
    "customhamburger.CopylblMyPayee0i8f11a9bf3734f": {
      "__events__": {},
      "__info__": {
        "kuid": "be6dd824f5b54b99a010cdd97603599a",
        "srcKUID": "b43285cfc5b14a5ba8ac5b1edff46d10",
        "wType": "Label"
      }
    },
    "customhamburger.CopylblPayABill0d56ffee2b48f4c": {
      "__events__": {},
      "__info__": {
        "kuid": "c55f890ff0a34142a28166eeb5ae06f0",
        "srcKUID": "a37d5172e5d04c99a7b381dbdb0c1f0e",
        "wType": "Label"
      }
    },
    "customhamburger.CopylblPayABill0g84c7aa6fce048": {
      "__events__": {},
      "__info__": {
        "kuid": "i3cc45a3ed6f44a5b684b3136a0edb00",
        "srcKUID": "e68c07ae9fae4911aa7ec55b76ac1d9e",
        "wType": "Label"
      }
    },
    "customhamburger.CopylblPayABill0h56a2d285cea46": {
      "__events__": {},
      "__info__": {
        "kuid": "g46125c012f44468aa4083b31d5da05a",
        "srcKUID": "ade9130b3841494c9f59781a7587c3e1",
        "wType": "Label"
      }
    },
    "customhamburger.FlexContainer0a82014659b0e48": {
      "__events__": {},
      "__info__": {
        "kuid": "h370c406b4bc42a0b5c0e11e99ec2700",
        "srcKUID": "h7ad82c8fb9b437486ad6c4d49320ce2",
        "wType": "FlexContainer"
      }
    },
    "customhamburger.flxAboutUs": {
      "__events__": {},
      "__info__": {
        "kuid": "c64c323b44c14bdba01413699404e743",
        "srcKUID": "cca79f5d16b045408f311a815ae6b289",
        "wType": "FlexContainer"
      }
    },
    "customhamburger.flxAboutUsCollapse": {
      "__events__": {},
      "__info__": {
        "kuid": "g5b7e03e3a8d4657a283f96460bf4c77",
        "srcKUID": "e41d16cfc04e458693670ae7e87e34aa",
        "wType": "FlexContainer"
      }
    },
    "customhamburger.flxAboutUsSubMenu": {
      "__events__": {},
      "__info__": {
        "kuid": "a223d01685a8469a8ad112f452e87ac5",
        "srcKUID": "ad066a23a8cd41e983c434b90da35923",
        "wType": "FlexContainer"
      }
    },
    "customhamburger.flxAccountSettings": {
      "__events__": {},
      "__info__": {
        "kuid": "d084c2ff7dea48a4a5deccafbb54c8bb",
        "srcKUID": "g69da15184e04d089b0f58da40a7157e",
        "wType": "FlexContainer"
      }
    },
    "customhamburger.flxAccountsCollapse": {
      "__events__": {},
      "__info__": {
        "kuid": "ee26247e3b1c40afb56d7df3e52c6344",
        "srcKUID": "e0af0f6ab9614020b7fc5e89406a63dc",
        "wType": "FlexContainer"
      }
    },
    "customhamburger.flxAccountsMenu": {
      "__events__": {},
      "__info__": {
        "kuid": "i95bbe5a2a0944a3a0a34a45f0374bec",
        "srcKUID": "cf43ccc491384cce8e692bf0c7b73f90",
        "wType": "FlexContainer"
      }
    },
    "customhamburger.flxAccountsSubMenu": {
      "__events__": {},
      "__info__": {
        "kuid": "g14ed614ce7642df9e01af6f586ffb27",
        "srcKUID": "dc00eecfa1d34328ba4230f17db49066",
        "wType": "FlexContainer"
      }
    },
    "customhamburger.flxAddKonyAccounts": {
      "__events__": {},
      "__info__": {
        "kuid": "cce08078773047e3a4c1cd97c73ad0d2",
        "srcKUID": "i7907247783340e6bd2e6d28ef1b46ee",
        "wType": "FlexContainer"
      }
    },
    "customhamburger.flxAddNonKonyAccounts": {
      "__events__": {},
      "__info__": {
        "kuid": "g939d6c6d8604a53b0ef2eee8a8c74d2",
        "srcKUID": "ic3031f46db3438a903562f1278ef9cc",
        "wType": "FlexContainer"
      }
    },
    "customhamburger.flxAddPayee": {
      "__events__": {},
      "__info__": {
        "kuid": "b3a19b70fda2430a9842483d7f92e37e",
        "srcKUID": "aefd502a752f424387ac0e1a7d6cee42",
        "wType": "FlexContainer"
      }
    },
    "customhamburger.flxAddRecipient": {
      "__events__": {},
      "__info__": {
        "kuid": "a382d21396a0469c9911438fe4170deb",
        "srcKUID": "cfec2a2a551a45d188b7bf6c9954c85d",
        "wType": "FlexContainer"
      }
    },
    "customhamburger.flxAddRecipients": {
      "__events__": {},
      "__info__": {
        "kuid": "cca0950f6c2f4476a2fd18d2147b5ed7",
        "srcKUID": "f96d8995e54f407cb41a20dbef08e36f",
        "wType": "FlexContainer"
      }
    },
    "customhamburger.flxAlerts": {
      "__events__": {},
      "__info__": {
        "kuid": "fe238bda830f4575876f7b2407109379",
        "srcKUID": "habdea8c510a4db183a6c1d319dc26cf",
        "wType": "FlexContainer"
      }
    },
    "customhamburger.flxAlertsAndMessages": {
      "__events__": {},
      "__info__": {
        "kuid": "d397fb865f984f4385d46e923bc9a906",
        "srcKUID": "a6047045dc8a45488e4434ae31a9d04e",
        "wType": "FlexContainer"
      }
    },
    "customhamburger.flxAlertsAndMessagesCollapse": {
      "__events__": {},
      "__info__": {
        "kuid": "faa3999282b64a968980892e5369962c",
        "srcKUID": "b5b47f89075c4e738fdfbe5afa6a27a2",
        "wType": "FlexContainer"
      }
    },
    "customhamburger.flxAlertsAndMessagesSeperator": {
      "__events__": {},
      "__info__": {
        "kuid": "jfb6b21270be4e0789138427c8750b42",
        "srcKUID": "g5f28c8fa61149299a48ec5562c1c35b",
        "wType": "FlexContainer"
      }
    },
    "customhamburger.flxAlertsAndMessagesSubMenu": {
      "__events__": {},
      "__info__": {
        "kuid": "a6b8ca7856774b799adc813a654efc70",
        "srcKUID": "ec498bbee2a54caf825c1cc57f8c0f46",
        "wType": "FlexContainer"
      }
    },
    "customhamburger.flxBillPay": {
      "__events__": {},
      "__info__": {
        "kuid": "de34a748b5774730a4a5d202fc45b1c6",
        "srcKUID": "bafa4dff778347ac84a9f492a0e5dff1",
        "wType": "FlexContainer"
      }
    },
    "customhamburger.flxBillPayCollapse": {
      "__events__": {},
      "__info__": {
        "kuid": "f06060adc1704f42bee9a834b4a4a0be",
        "srcKUID": "a0dcaee0ed354e579861b6fe542d4093",
        "wType": "FlexContainer"
      }
    },
    "customhamburger.flxBillPayHistory": {
      "__events__": {},
      "__info__": {
        "kuid": "d1290b43e7314104bcb65e69a808bba3",
        "srcKUID": "f62b8e2cab074c0c9fa00cc1d81c39d0",
        "wType": "FlexContainer"
      }
    },
    "customhamburger.flxBillPaySubMenu": {
      "__events__": {},
      "__info__": {
        "kuid": "e25f39d097414f1199e07810eb9d8805",
        "srcKUID": "ea568784be934341979a1fd5e490e2cb",
        "wType": "FlexContainer"
      }
    },
    "customhamburger.flxClose": {
      "__events__": {},
      "__info__": {
        "kuid": "db93ecc64b6d44a1882029a728318e9c",
        "srcKUID": "c66fd7f3bd2c4e6e8f7bd01e6287550e",
        "wType": "FlexContainer"
      }
    },
    "customhamburger.flxCollapseTransfers": {
      "__events__": {},
      "__info__": {
        "kuid": "e7c5940ee2e64dee812360eeb2f204b4",
        "srcKUID": "h384e8dc0bd24e29af85efafe7e025fc",
        "wType": "FlexContainer"
      }
    },
    "customhamburger.flxContactUs": {
      "__events__": {},
      "__info__": {
        "kuid": "d5bc0bcb61ea4ea0aa6d15049a26f656",
        "srcKUID": "abf11674e0d94d85a1fe50e46f4c51bc",
        "wType": "FlexContainer"
      }
    },
    "customhamburger.flxExternalAccounts": {
      "__events__": {},
      "__info__": {
        "kuid": "c375465657424eaa8219c22b481e37cc",
        "srcKUID": "abc9ac58f56e4fb493c8d1f1bff47b24",
        "wType": "FlexContainer"
      }
    },
    "customhamburger.flxFaq": {
      "__events__": {},
      "__info__": {
        "kuid": "j4f8a24c5d444628bcac6c6569820a8d",
        "srcKUID": "h28703eed887497abf8a3f907abdbc2e",
        "wType": "FlexContainer"
      }
    },
    "customhamburger.flxHamburgerHeader": {
      "__events__": {},
      "__info__": {
        "kuid": "j0ebfdb442114e13b4a5b8aa514ce211",
        "srcKUID": "h465700017fe4781975045dab9ed41c5",
        "wType": "FlexContainer"
      }
    },
    "customhamburger.flxHistory": {
      "__events__": {},
      "__info__": {
        "kuid": "fe2017caf90642c58c36db38e8e42b04",
        "srcKUID": "af822cb01fd549e09ae70f7a5caf134d",
        "wType": "FlexContainer"
      }
    },
    "customhamburger.flxLocateUs": {
      "__events__": {},
      "__info__": {
        "kuid": "j61c9cac24694e7aaa8a91899c740c7f",
        "srcKUID": "g85f2c9a423e42a58e10e8686c1fba74",
        "wType": "FlexContainer"
      }
    },
    "customhamburger.flxLogout": {
      "__events__": {},
      "__info__": {
        "kuid": "d760c00c5df6454288531aa97a4e4415",
        "srcKUID": "c9904c20e8a5464285e846a22514783d",
        "wType": "FlexContainer"
      }
    },
    "customhamburger.flxMenu": {
      "__events__": {},
      "__info__": {
        "kuid": "j40b4a5c9b6e44f7963a523b54a09b73",
        "srcKUID": "i1c684442e854218bc2c08f78c55f971",
        "wType": "FlexContainer"
      }
    },
    "customhamburger.flxMenuWrapper": {
      "__events__": {},
      "__info__": {
        "kuid": "c897db3ccd274a26bad39678d0c4669f",
        "srcKUID": "ad010d1f868d49eea330fb84586cbd46",
        "wType": "FlexScrollContainer"
      }
    },
    "customhamburger.flxMessages": {
      "__events__": {},
      "__info__": {
        "kuid": "b9df3a1f2698497595989ab6f126298b",
        "srcKUID": "a8c136feada044d8aae02c45642a3aef",
        "wType": "FlexContainer"
      }
    },
    "customhamburger.flxMyAccounts": {
      "__events__": {},
      "__info__": {
        "kuid": "d75627ad13c445ebab2a316059738c6e",
        "srcKUID": "f7379b95da4148de8bad2885b68ce3c6",
        "wType": "FlexContainer"
      }
    },
    "customhamburger.flxMyPayeeList": {
      "__events__": {},
      "__info__": {
        "kuid": "d07c824cbcaa4ec38a664deabb1afb79",
        "srcKUID": "j0ff9253248645ff8612f1090fabea1b",
        "wType": "FlexContainer"
      }
    },
    "customhamburger.flxMyRecipients": {
      "__events__": {},
      "__info__": {
        "kuid": "ab958c73a9934b88ab87da1008f23653",
        "srcKUID": "gc5138a3b6ed40e5a8d376d8900322ac",
        "wType": "FlexContainer"
      }
    },
    "customhamburger.flxNewMessages": {
      "__events__": {},
      "__info__": {
        "kuid": "gdbc883bc50f45e1a4507a6024b7a90a",
        "srcKUID": "bfad3abb96b54f6687ec8d8ae08b8a89",
        "wType": "FlexContainer"
      }
    },
    "customhamburger.flxPayABill": {
      "__events__": {},
      "__info__": {
        "kuid": "aff7ea868d6449538b5651944992addd",
        "srcKUID": "cabc5ae19734442ca472692f76360a26",
        "wType": "FlexContainer"
      }
    },
    "customhamburger.flxPayAPerson": {
      "__events__": {},
      "__info__": {
        "kuid": "ab92ed5bb9bc4bb89d6c01ce17e0a2b7",
        "srcKUID": "c3c34d9fdac2420fb3cf01ada4338616",
        "wType": "FlexContainer"
      }
    },
    "customhamburger.flxPayAPersonCollapse": {
      "__events__": {},
      "__info__": {
        "kuid": "d5e8f7cabefe425d8f64469372dcfb29",
        "srcKUID": "f0eb0c0751d7408db1c234c07637bb8f",
        "wType": "FlexContainer"
      }
    },
    "customhamburger.flxPayAPersonSubMenu": {
      "__events__": {},
      "__info__": {
        "kuid": "bebe7b8bf16f47d58b6bdee739ce02f4",
        "srcKUID": "aeb2426f276a4cdc8c73046302e57323",
        "wType": "FlexContainer"
      }
    },
    "customhamburger.flxPrivacyPolicy": {
      "__events__": {},
      "__info__": {
        "kuid": "b4845a0d91684c5292d8c5446b33fd4e",
        "srcKUID": "e53f0d53bf524807b19900124ae5e5cc",
        "wType": "FlexContainer"
      }
    },
    "customhamburger.flxProfileManagement": {
      "__events__": {},
      "__info__": {
        "kuid": "i84dded73e394091a470f8e8bfc78f0a",
        "srcKUID": "c4c99abbdc854639a275f0d1966f9d2a",
        "wType": "FlexContainer"
      }
    },
    "customhamburger.flxProfileManagementCollapse": {
      "__events__": {},
      "__info__": {
        "kuid": "c47162fa2702427da8e370d9ee54625b",
        "srcKUID": "e3074e95c1584c26b3c00839871a8ec1",
        "wType": "FlexContainer"
      }
    },
    "customhamburger.flxProfileManagementSubMenu": {
      "__events__": {},
      "__info__": {
        "kuid": "f010b4f8ba8c4a95aeed3e00e24b4c20",
        "srcKUID": "dedf5323b4f04d9bb0857acaba413ed2",
        "wType": "FlexContainer"
      }
    },
    "customhamburger.flxProfileSettings": {
      "__events__": {},
      "__info__": {
        "kuid": "c97ba926fa8d40dcad62ee66015ab34f",
        "srcKUID": "c9e266a61e794666abaa382a1974bd50",
        "wType": "FlexContainer"
      }
    },
    "customhamburger.flxSecuritySettings": {
      "__events__": {},
      "__info__": {
        "kuid": "ada2c51b59164fbfaaa857f1fec3dd65",
        "srcKUID": "h35c8ab7f8114eb883dbe77eb239d5bc",
        "wType": "FlexContainer"
      }
    },
    "customhamburger.flxSendRequest": {
      "__events__": {},
      "__info__": {
        "kuid": "ha34565ddaef452ab40a78d9859fff4d",
        "srcKUID": "d977218b05dc49ada933fde699153602",
        "wType": "FlexContainer"
      }
    },
    "customhamburger.flxSeperator10": {
      "__events__": {},
      "__info__": {
        "kuid": "c684f87124a546879218f9a7f90d0e5f",
        "srcKUID": "f9bfa4fca0dd4125be7663cbecdaaee0",
        "wType": "FlexContainer"
      }
    },
    "customhamburger.flxSeperator11": {
      "__events__": {},
      "__info__": {
        "kuid": "gf25f75571574ad0883b26718f0a759a",
        "srcKUID": "f0e6a5bf00e24b55a131b00e736ad0f1",
        "wType": "FlexContainer"
      }
    },
    "customhamburger.flxSeperator12": {
      "__events__": {},
      "__info__": {
        "kuid": "c5dc9f1700fb431c92848a08d3fa5e8a",
        "srcKUID": "c0ad725976704507a8aa1b268bc97087",
        "wType": "FlexContainer"
      }
    },
    "customhamburger.flxSeperator13": {
      "__events__": {},
      "__info__": {
        "kuid": "ia3e417031fb4497b9e1cdf847f9222d",
        "srcKUID": "j636db10e4604851913f33aee409ae48",
        "wType": "FlexContainer"
      }
    },
    "customhamburger.flxSeperator14": {
      "__events__": {},
      "__info__": {
        "kuid": "a149691537a34c6693f7fb9dc5adaedb",
        "srcKUID": "f671f1951bbd44bcbaea3b445e3c6c3b",
        "wType": "FlexContainer"
      }
    },
    "customhamburger.flxSeperator15": {
      "__events__": {},
      "__info__": {
        "kuid": "g12a534a47834bba89fd415433c65b79",
        "srcKUID": "j11be2166fc34b419da967d077f32299",
        "wType": "FlexContainer"
      }
    },
    "customhamburger.flxSeperator16": {
      "__events__": {},
      "__info__": {
        "kuid": "gf438358aefc44f784ff9db01431f5ae",
        "srcKUID": "if0c694e156a4703b7545e789492c020",
        "wType": "FlexContainer"
      }
    },
    "customhamburger.flxSeperator17": {
      "__events__": {},
      "__info__": {
        "kuid": "cbb242bac8734f918307b64a51760588",
        "srcKUID": "b50f7b34350e4dec8af632653ab083c5",
        "wType": "FlexContainer"
      }
    },
    "customhamburger.flxSeperator18": {
      "__events__": {},
      "__info__": {
        "kuid": "e1cab56aa17c41949a6e8cc0c8c15365",
        "srcKUID": "dccbe42cfb7b4494b0ef8aa3c4f6be41",
        "wType": "FlexContainer"
      }
    },
    "customhamburger.flxSeperator2": {
      "__events__": {},
      "__info__": {
        "kuid": "ca76333adfb44e3aa77366828b7e9364",
        "srcKUID": "c80156f4b587452bb66f7eeceecaf50a",
        "wType": "FlexContainer"
      }
    },
    "customhamburger.flxSeperator3": {
      "__events__": {},
      "__info__": {
        "kuid": "d954602769b84c3a90c6eed0792544cb",
        "srcKUID": "b6518efe46a64f52901e8c3d65c11ce9",
        "wType": "FlexContainer"
      }
    },
    "customhamburger.flxSeperator4": {
      "__events__": {},
      "__info__": {
        "kuid": "j4819da773a04d9c975d898c97d28685",
        "srcKUID": "cc2eee43aa8a45d08bf13a5e5718afcd",
        "wType": "FlexContainer"
      }
    },
    "customhamburger.flxSeperator5": {
      "__events__": {},
      "__info__": {
        "kuid": "ee798ea52fc64bf986eb9b848caad277",
        "srcKUID": "c8c3ef97147f40f2865efb0cb670d50b",
        "wType": "FlexContainer"
      }
    },
    "customhamburger.flxSeperator6": {
      "__events__": {},
      "__info__": {
        "kuid": "c8de3eb108404d58967cfd81dad67233",
        "srcKUID": "jdcc06ffd6c140b09d7a452d4412adef",
        "wType": "FlexContainer"
      }
    },
    "customhamburger.flxSeperator7": {
      "__events__": {},
      "__info__": {
        "kuid": "fa58b59b229c4ad6aa26ee89f36d623e",
        "srcKUID": "ga22cbc58a634b6fb13935ed90d0aced",
        "wType": "FlexContainer"
      }
    },
    "customhamburger.flxSeperator8": {
      "__events__": {},
      "__info__": {
        "kuid": "g5102cd3ad704d46b4f450a83cfc9d48",
        "srcKUID": "c7558fdf51bf47fe824b91a07cf6b714",
        "wType": "FlexContainer"
      }
    },
    "customhamburger.flxSeperator9": {
      "__events__": {},
      "__info__": {
        "kuid": "jac034a7ce9e41e5982ae7dba6fe92d8",
        "srcKUID": "b122e6579708465082812c6e7068d7f6",
        "wType": "FlexContainer"
      }
    },
    "customhamburger.flxSeperatorAlerts": {
      "__events__": {},
      "__info__": {
        "kuid": "d29d712e235d44e9997a4f1e0d090ce0",
        "srcKUID": "b2fe1d61dbc64712ad4e576fb2bd332f",
        "wType": "FlexContainer"
      }
    },
    "customhamburger.flxSeperatorMessages": {
      "__events__": {},
      "__info__": {
        "kuid": "g49fc9d85e1148c2a2f16a42472d112c",
        "srcKUID": "c5a23363d5df48049106898aa405a723",
        "wType": "FlexContainer"
      }
    },
    "customhamburger.flxSeperatorNewMessage": {
      "__events__": {},
      "__info__": {
        "kuid": "f58f62b5d9b24d57aa18f22b00ff2499",
        "srcKUID": "c929fa4f76ed416185ce33e12111609d",
        "wType": "FlexContainer"
      }
    },
    "customhamburger.flxStatements": {
      "__events__": {},
      "__info__": {
        "kuid": "c40e1e25316b448da90205b206cca87f",
        "srcKUID": "ec5c71318c634e3bbef275710fed3bdf",
        "wType": "FlexContainer"
      }
    },
    "customhamburger.flxTerms": {
      "__events__": {},
      "__info__": {
        "kuid": "de658a97b1954d63a4268994ad2eaa78",
        "srcKUID": "a3d4d9ba1e264ec2a3de4b87bc4d7aa3",
        "wType": "FlexContainer"
      }
    },
    "customhamburger.flxTransferHistory": {
      "__events__": {},
      "__info__": {
        "kuid": "ec02c970ba7744a0989b3b46a9db13f4",
        "srcKUID": "ib9de73a2bf246eeb639fa215853db61",
        "wType": "FlexContainer"
      }
    },
    "customhamburger.flxTransfers": {
      "__events__": {},
      "__info__": {
        "kuid": "f80e801af25a44f7aee7bc886607e20f",
        "srcKUID": "jc0266e969b0495d868043c84bcc2ab8",
        "wType": "FlexContainer"
      }
    },
    "customhamburger.flxTransfersMoney": {
      "__events__": {},
      "__info__": {
        "kuid": "d16b26fbce1b4904bc7ac97632477d71",
        "srcKUID": "jf6d2609ea48459e90552691ca5777fe",
        "wType": "FlexContainer"
      }
    },
    "customhamburger.flxTransfersSubMenu": {
      "__events__": {},
      "__info__": {
        "kuid": "f6a673db92d94de5bd8073c578939dd8",
        "srcKUID": "fbf8ca4f00d34558966f6061a5087f14",
        "wType": "FlexContainer"
      }
    },
    "customhamburger.flxWireTransfer": {
      "__events__": {},
      "__info__": {
        "kuid": "dab29b2ad9ed4e0fbc02004b451a0b4e",
        "srcKUID": "aae2b1dec0f44ac0ae2c1e3063ff7ba4",
        "wType": "FlexContainer"
      }
    },
    "customhamburger.flxWireTransferCollapse": {
      "__events__": {},
      "__info__": {
        "kuid": "j2b9a1936ff34543b5a81981a68d68f9",
        "srcKUID": "bfc055b1e7c542d1bfa1c23419d834be",
        "wType": "FlexContainer"
      }
    },
    "customhamburger.flxWireTransferHistory": {
      "__events__": {},
      "__info__": {
        "kuid": "b4214f2229fb4bc498b5f84677956d76",
        "srcKUID": "dffd4d61c8a144d4be8f8449855f4c6a",
        "wType": "FlexContainer"
      }
    },
    "customhamburger.flxWireTransferMakeTransfer": {
      "__events__": {},
      "__info__": {
        "kuid": "e0f2157eb1004617bedb4e024d7e8505",
        "srcKUID": "f7a63b1bb18644bdbb1f0a7d1c1fc108",
        "wType": "FlexContainer"
      }
    },
    "customhamburger.flxWireTransferMyRecipients": {
      "__events__": {},
      "__info__": {
        "kuid": "i2deeb29c114480b973853aed025c3cf",
        "srcKUID": "ic7afce86593464b830c20b7eaaa7000",
        "wType": "FlexContainer"
      }
    },
    "customhamburger.flxWireTransferSubMenu": {
      "__events__": {},
      "__info__": {
        "kuid": "f8f44f0e35414de19c0fb7e4e82d3713",
        "srcKUID": "c1b6035a15254cd380f2d7f0bccc1a35",
        "wType": "FlexContainer"
      }
    },
    "customhamburger.flxWireTransfersAddRecipient": {
      "__events__": {},
      "__info__": {
        "kuid": "fd353fca08784772a697a50f17173414",
        "srcKUID": "d8d7ecb1da3b431b8a8f09ecfd49dfb4",
        "wType": "FlexContainer"
      }
    },
    "customhamburger.imgAboutUs": {
      "__events__": {},
      "__info__": {
        "kuid": "cfba698763224c84abaf75b97e8a6544",
        "srcKUID": "aedf72df6b6646e4b0541f118b852737",
        "wType": "Image"
      }
    },
    "customhamburger.imgAboutUsCollapse": {
      "__events__": {},
      "__info__": {
        "kuid": "b13f484dd3fc42fea8e350d4891b34be",
        "srcKUID": "j47f6cdfaec144f1bc183fc1ee131f6f",
        "wType": "Image"
      }
    },
    "customhamburger.imgAccounts": {
      "__events__": {},
      "__info__": {
        "kuid": "cdcefb98daa34b72b6359e30a963399d",
        "srcKUID": "b12cdc793bce49a48965b40e1599be38",
        "wType": "Image"
      }
    },
    "customhamburger.imgAlertsAndMessages": {
      "__events__": {},
      "__info__": {
        "kuid": "f03adeb7fbbb4dd58758ca9c7709cd5d",
        "srcKUID": "j15a94b7920346d4bc2ad8031f893737",
        "wType": "Image"
      }
    },
    "customhamburger.imgAlertsAndMessagesCollapse": {
      "__events__": {},
      "__info__": {
        "kuid": "d657e64190b44a39bcc60abc95210358",
        "srcKUID": "aca93ef7e22940b2934c21108b51accd",
        "wType": "Image"
      }
    },
    "customhamburger.imgBillBay": {
      "__events__": {},
      "__info__": {
        "kuid": "c99995e7a7a44a9ca9e37aa9e04299ed",
        "srcKUID": "d9d417ef42e34752838998db97365d9f",
        "wType": "Image"
      }
    },
    "customhamburger.imgBillPayCollapse": {
      "__events__": {},
      "__info__": {
        "kuid": "e6a9ecae3ad240e2b9f6a3f0ef086480",
        "srcKUID": "e2c091a5a06b4bd99605cb431850b92a",
        "wType": "Image"
      }
    },
    "customhamburger.imgClose": {
      "__events__": {},
      "__info__": {
        "kuid": "b869fac3de394ae09928dfbd1a5642f3",
        "srcKUID": "b16e44ed01844172894d7476bf054a4e",
        "wType": "Image"
      }
    },
    "customhamburger.imgCollapseAccounts": {
      "__events__": {},
      "__info__": {
        "kuid": "d09d4bf3e7cc4515b1f1ab8e471b8ad0",
        "srcKUID": "cc9717fdf0ce469aa167f4b79dc1f439",
        "wType": "Image"
      }
    },
    "customhamburger.imgCollapseTransfers": {
      "__events__": {},
      "__info__": {
        "kuid": "j61d812a57434db583b650c7e223cbad",
        "srcKUID": "g8ac7330ba6a4fcc94c6de0c85163b0a",
        "wType": "Image"
      }
    },
    "customhamburger.imgKony": {
      "__events__": {},
      "__info__": {
        "kuid": "d4fa91566de24073af5c8bc1e447e74c",
        "srcKUID": "e51c8a8198184739b48a18c3fbc65273",
        "wType": "Image"
      }
    },
    "customhamburger.imgLogout": {
      "__events__": {},
      "__info__": {
        "kuid": "eda890312e834e6a8cf9b2e236b5b752",
        "srcKUID": "g8c77dbeed3b43038e912f34fbe614fd",
        "wType": "Image"
      }
    },
    "customhamburger.imgPayAPerson": {
      "__events__": {},
      "__info__": {
        "kuid": "i71fdbe43e8c4606b6775469444682af",
        "srcKUID": "c40e76c18b114f96a40918df9e984c72",
        "wType": "Image"
      }
    },
    "customhamburger.imgPayAPersonCollapse": {
      "__events__": {},
      "__info__": {
        "kuid": "bc752a0a373b47859601df589f52b918",
        "srcKUID": "d4487e371bca4c0ab4fed6a829640f23",
        "wType": "Image"
      }
    },
    "customhamburger.imgProfileManagement": {
      "__events__": {},
      "__info__": {
        "kuid": "i4937bd4aa254a899486611e323e4cbe",
        "srcKUID": "c256c4de888b46eda952c16c301a26e6",
        "wType": "Image"
      }
    },
    "customhamburger.imgProfileManagementCollapse": {
      "__events__": {},
      "__info__": {
        "kuid": "b5de8cc6f454413eb5d37f1173f79c04",
        "srcKUID": "cc11b10b955f4de8ac2e1f5349683cdc",
        "wType": "Image"
      }
    },
    "customhamburger.imgTransfers": {
      "__events__": {},
      "__info__": {
        "kuid": "f5e038c4a7cc41afb6f8717aac13fe14",
        "srcKUID": "f226bd307bf34f2a8645072816db1907",
        "wType": "Image"
      }
    },
    "customhamburger.imgWireTransfer": {
      "__events__": {},
      "__info__": {
        "kuid": "f829a381b98942e69750b2c9917bc612",
        "srcKUID": "d1eaae0c6e784ef3b1eace4495b3f8f7",
        "wType": "Image"
      }
    },
    "customhamburger.imgWireTransferCollapse": {
      "__events__": {},
      "__info__": {
        "kuid": "b5a01f28740b466b8c028cb43cf3dc07",
        "srcKUID": "j64b6a202cfa4080a0cb2b9e0c591e00",
        "wType": "Image"
      }
    },
    "customhamburger.lblAboutUs": {
      "__events__": {},
      "__info__": {
        "kuid": "d29543b2dd464f4ea7f4d65ee2bfddcd",
        "srcKUID": "i493eec7d326462f92313816d7ae5961",
        "wType": "Label"
      }
    },
    "customhamburger.lblAccounts": {
      "__events__": {},
      "__info__": {
        "kuid": "i19b3d283f954fd385268914c75647eb",
        "srcKUID": "aed697189cee47098907b5f830c7134b",
        "wType": "Label"
      }
    },
    "customhamburger.lblAddKonyAccounts": {
      "__events__": {},
      "__info__": {
        "kuid": "aaa4468a85d54d01be993be6c8f36005",
        "srcKUID": "ff5d216a556e426ea0485d1305d1cdfc",
        "wType": "Label"
      }
    },
    "customhamburger.lblAddNonKonyAccounts": {
      "__events__": {},
      "__info__": {
        "kuid": "e97ff40ea2a14249901f6614b76d35f6",
        "srcKUID": "c0b0a03608614e5f893ef37dabfa17a8",
        "wType": "Label"
      }
    },
    "customhamburger.lblAddPayee": {
      "__events__": {},
      "__info__": {
        "kuid": "db49d97be3af49e488e036df3aaeb1ed",
        "srcKUID": "b1ed43109a994044957b192e976111d5",
        "wType": "Label"
      }
    },
    "customhamburger.lblAlerts": {
      "__events__": {},
      "__info__": {
        "kuid": "a67b9924da4444b88345a27c41ccf0af",
        "srcKUID": "jdf83704ef2b4947a774852f4c514bb6",
        "wType": "Label"
      }
    },
    "customhamburger.lblAlertsAndMessages": {
      "__events__": {},
      "__info__": {
        "kuid": "b0ff31bf54474916accd227be68e69fd",
        "srcKUID": "c8bfe7de3cb1469aaef6d3ffee8c215e",
        "wType": "Label"
      }
    },
    "customhamburger.lblBillPay": {
      "__events__": {},
      "__info__": {
        "kuid": "bb338dceda454601acf3cb142cf10be2",
        "srcKUID": "e219504191c84becaee171477e34698a",
        "wType": "Label"
      }
    },
    "customhamburger.lblBillPayHistory": {
      "__events__": {},
      "__info__": {
        "kuid": "j758ca7cb4844a648eddd72cc1df9d25",
        "srcKUID": "ce6923a7ee8b477bab3d1bfa0979246d",
        "wType": "Label"
      }
    },
    "customhamburger.lblContactUs": {
      "__events__": {},
      "__info__": {
        "kuid": "d878e83747d74fc1ae285172f1ead26a",
        "srcKUID": "efd35344776642a49ef6e3aae807a692",
        "wType": "Label"
      }
    },
    "customhamburger.lblExternalAccounts": {
      "__events__": {},
      "__info__": {
        "kuid": "aa97c30fde4743bbaf398b6da98383ad",
        "srcKUID": "abc7e43bdfb142efb0d94a00a797f211",
        "wType": "Label"
      }
    },
    "customhamburger.lblFaq": {
      "__events__": {},
      "__info__": {
        "kuid": "efc1a20be3dd441f94ffe5851200c019",
        "srcKUID": "d8ba96ef5a2e4bf8be5c973713049dc0",
        "wType": "Label"
      }
    },
    "customhamburger.lblLocateUs": {
      "__events__": {},
      "__info__": {
        "kuid": "i190d6a8618b46038d51ff994c9411c8",
        "srcKUID": "g3b7ff8590d0445197ae60ef7a93a17d",
        "wType": "Label"
      }
    },
    "customhamburger.lblLogout": {
      "__events__": {},
      "__info__": {
        "kuid": "cae0ba4aa57142ed9581e9f2c892def6",
        "srcKUID": "h4feb1ebd1d844adbbb270e5f22582cd",
        "wType": "Label"
      }
    },
    "customhamburger.lblMessages": {
      "__events__": {},
      "__info__": {
        "kuid": "h16485d9436740e386dd003abc09d107",
        "srcKUID": "bc3a860393a642769c9453d52202a501",
        "wType": "Label"
      }
    },
    "customhamburger.lblMyAccounts": {
      "__events__": {},
      "__info__": {
        "kuid": "ddeadb290a644c00ad1d6b02bb4f589d",
        "srcKUID": "a202b406f5f04a1698b17c9f0f9e1694",
        "wType": "Label"
      }
    },
    "customhamburger.lblMyPayee": {
      "__events__": {},
      "__info__": {
        "kuid": "c21b9f0abd9d4aadb13a9a35c9e1e218",
        "srcKUID": "gac82f09141642e3bc00bf3a4c27e7a0",
        "wType": "Label"
      }
    },
    "customhamburger.lblNewMessage": {
      "__events__": {},
      "__info__": {
        "kuid": "ga27b80d1d85493f8705b202a69a8c20",
        "srcKUID": "d62536e6a959458a97d070c4fbc8bbcb",
        "wType": "Label"
      }
    },
    "customhamburger.lblPayABill": {
      "__events__": {},
      "__info__": {
        "kuid": "fc8595b6ce1c40c18aea73db50c94e15",
        "srcKUID": "dc6b9bef9ddf45c0864525e01b4b08d8",
        "wType": "Label"
      }
    },
    "customhamburger.lblPrivacyPolicy": {
      "__events__": {},
      "__info__": {
        "kuid": "h99da53a54024049b8a65f4d0cda14cf",
        "srcKUID": "ba595802100f49ed8ebfbfc56c559f36",
        "wType": "Label"
      }
    },
    "customhamburger.lblStatements": {
      "__events__": {},
      "__info__": {
        "kuid": "e76afd583fb543b6ab8dbd91942c8d4c",
        "srcKUID": "bff438c123aa40fc9a25144a929f7a4d",
        "wType": "Label"
      }
    },
    "customhamburger.lblTermsAndCondition": {
      "__events__": {},
      "__info__": {
        "kuid": "h9290fae7e9a43f1aeeb04235d46ba6c",
        "srcKUID": "dc7b8618b5ed4cf3ba5a013618d07063",
        "wType": "Label"
      }
    },
    "customhamburger.lblTransferHistory": {
      "__events__": {},
      "__info__": {
        "kuid": "b696bac1f30c47b089b8a537e516dcc8",
        "srcKUID": "d62b43e095964b29b436135534a7afec",
        "wType": "Label"
      }
    },
    "customhamburger.lblTransferMoney": {
      "__events__": {},
      "__info__": {
        "kuid": "fe8842732aed4a06a134ad97739c0642",
        "srcKUID": "b61740e755f3405791224a340675e733",
        "wType": "Label"
      }
    },
    "customhamburger.lblTransfers": {
      "__events__": {},
      "__info__": {
        "kuid": "af1da53eee2047019034d95a155b881a",
        "srcKUID": "d4c40832e9a140ab8fafbb30d4d1df1d",
        "wType": "Label"
      }
    },
    "customheader": {
      "__events__": {},
      "__info__": {
        "isRoot": true,
        "kuid": "c3c054f47bf34df19d2f86c03d7ebc18",
        "srcKUID": "c04bbf50611342ca895c5e0a329aeb52",
        "wType": "FlexContainer"
      },
      "autogrowMode": 0,
      "height": {
        "Default": {
          "type": "string",
          "value": "120px"
        }
      },
      "left": {
        "Default": {
          "type": "string",
          "value": "0dp"
        }
      },
      "top": {
        "Default": {
          "type": "string",
          "value": "0dp"
        }
      }
    },
    "flxAccountTypesSegment": {
      "__events__": {},
      "__info__": {
        "kuid": "bc4475cfc833465b939f038d4050de8d",
        "srcKUID": "d431114047984f3ba84cf9829500caf5",
        "wType": "FlexContainer"
      }
    },
    "flxBottomContainer": {
      "__events__": {},
      "__info__": {
        "kuid": "a0e2c02f522d4504aba5838d5cdbafad",
        "srcKUID": "h9bdf039c3f54878b18ff66171c8c6c6",
        "wType": "FlexContainer"
      }
    },
    "flxHamburger": {
      "__events__": {},
      "__info__": {
        "kuid": "e3317dc35b1c46af8b94ac63b20cf8d0",
        "srcKUID": "f04c6e11e7da43b49dd181b8b47d93c4",
        "wType": "FlexContainer"
      },
      "width": {
        "Default": {
          "type": "string",
          "value": "450dp"
        }
      }
    },
    "flxHamburgerBack": {
      "__events__": {},
      "__info__": {
        "kuid": "d83e40bd7b26436397cf9e0bc88190bd",
        "srcKUID": "d74ea43244984beda96f3fdfd7e1de6b",
        "wType": "FlexContainer"
      }
    },
    "flxSeperatorHor2": {
      "__events__": {},
      "__info__": {
        "kuid": "fcf521a7362e41eb97c34b3d67f8289e",
        "srcKUID": "hadeefb9ccf84d75b58e19e7a860af8f",
        "wType": "FlexContainer"
      }
    },
    "flxSeperatorhor": {
      "__events__": {},
      "__info__": {
        "kuid": "b8168d99022241099ab7b5dbcff90a3f",
        "srcKUID": "d0d14e359d9b4f2bae40325782d5d3d0",
        "wType": "FlexContainer"
      }
    },
    "flxTopmenu": {
      "__events__": {},
      "__info__": {
        "kuid": "fbdb25339e104bff9c4314335effb913",
        "srcKUID": "ed60ec01cd4843d8acaf4c0c4767b493",
        "wType": "FlexContainer"
      },
      "isVisible": true
    },
    "flxUserActions": {
      "__events__": {},
      "__info__": {
        "kuid": "c3846490fdb64d6d9428369e3ba54ae6",
        "srcKUID": "j914824243a446a18dc539def72a7642",
        "wType": "FlexContainer"
      }
    },
    "headermenu": {
      "__events__": {},
      "__info__": {
        "kuid": "acd94fbc1f85486db54fbee71696af21",
        "srcKUID": "haabafcdc12f4455b3af44d1e0d8f80b",
        "wType": "UserWidgetInstance"
      }
    },
    "headermenu.btnLogout": {
      "__events__": {},
      "__info__": {
        "kuid": "cd10448a76864dad9ea635b54eb88af1",
        "srcKUID": "a766f3cd9f714697b54e4cdcbe1c544b",
        "wType": "Button"
      },
      "i18n_text": "i18n.common.logout"
    },
    "headermenu.flxMessages": {
      "__events__": {},
      "__info__": {
        "kuid": "de9872aa7976493aa0b04a2839fd2bc8",
        "srcKUID": "ac3447a671db4ff79c563e385d237583",
        "wType": "FlexContainer"
      }
    },
    "headermenu.flxResetUserImg": {
      "__events__": {},
      "__info__": {
        "kuid": "f3fa8724178042bcaa3b4874d2373a06",
        "srcKUID": "adcf593a077c4c0cb56c90ee73238583",
        "wType": "FlexContainer"
      }
    },
    "headermenu.flxUserId": {
      "__events__": {},
      "__info__": {
        "kuid": "a0b8f58c94084110b578d172714d620b",
        "srcKUID": "c135ea56ffd24834a20c4f3af08e75ed",
        "wType": "FlexContainer"
      }
    },
    "headermenu.flxVerticalSeperator1": {
      "__events__": {},
      "__info__": {
        "kuid": "j71ec4f63675465ca50cef9244b48381",
        "srcKUID": "g1cf2c5ea04748138b67069bf6443784",
        "wType": "FlexContainer"
      }
    },
    "headermenu.flxVerticalSeperator2": {
      "__events__": {},
      "__info__": {
        "kuid": "c8f9620b14d84a3faa79dfd4e6581911",
        "srcKUID": "i869d64f25f744c7a219ce87160f4fa9",
        "wType": "FlexContainer"
      }
    },
    "headermenu.flxWarning": {
      "__events__": {},
      "__info__": {
        "kuid": "g7db84fab59b4fc5b194b7b537bfd11a",
        "srcKUID": "a3f637c9fa154e6ca5621edf7af7f744",
        "wType": "FlexContainer"
      }
    },
    "headermenu.flximgUserResetWrapper": {
      "__events__": {},
      "__info__": {
        "kuid": "j0ec8bea76a443f0bfe1044a140fa2f5",
        "srcKUID": "e3916b40967c456aa3942940472ad47e",
        "wType": "FlexContainer"
      }
    },
    "headermenu.imgDropdown": {
      "__events__": {},
      "__info__": {
        "kuid": "a9da8b4287af484ea79d98d1ba3cdd85",
        "srcKUID": "h3d2b4b7f954464d931e34492064ab17",
        "wType": "Image"
      }
    },
    "headermenu.imgNotifications": {
      "__events__": {},
      "__info__": {
        "kuid": "a61955a5b35947c4973ff88c3b4884f3",
        "srcKUID": "j053dc709b2c497681932e7129f70ddb",
        "wType": "Image"
      }
    },
    "headermenu.imgUserBoundary": {
      "__events__": {},
      "__info__": {
        "kuid": "f3adb5ef6b7e414a8018fe08313a185d",
        "srcKUID": "g6047dd874ff440fab7ed86f7b808fdd",
        "wType": "Image"
      }
    },
    "headermenu.imgUserReset": {
      "__events__": {},
      "__info__": {
        "kuid": "efa972aa512e4bd083de0fcefd8ada54",
        "srcKUID": "i9a593cdf8934086b62dd5b4b4d93eda",
        "wType": "Image"
      }
    },
    "headermenu.imgWarning": {
      "__events__": {},
      "__info__": {
        "kuid": "ca00f9d5d4154be2888721131d95f033",
        "srcKUID": "j00ce4f7525e4f2aa69884ac2cc7b8a0",
        "wType": "Image"
      }
    },
    "headermenu.imgheaderdefault": {
      "__events__": {},
      "__info__": {
        "kuid": "j0a697abedd94f04b619ff1471b05bf4",
        "srcKUID": "i589d54c00ef4b33bc0e54ccd9b1e9b9",
        "wType": "Image"
      }
    },
    "headermenu.lblNewMessages": {
      "__events__": {},
      "__info__": {
        "kuid": "g05f78a975fa408884ff4831e4fedf11",
        "srcKUID": "bc2f4a9f76164bc18e8e1663bbba3a61",
        "wType": "Label"
      }
    },
    "headermenu.rtxWarning": {
      "__events__": {},
      "__info__": {
        "kuid": "c3bc1552384b4e0cab8cce10f9a2eed4",
        "srcKUID": "i05c5f9533194937886bb0d238f640e3",
        "wType": "RichText"
      },
      "i18n_text": "i18n.CustomerFeedback.YouHaveNotLoggedIn",
      "isVisible": true
    },
    "imgKony": {
      "__events__": {},
      "__info__": {
        "kuid": "db6f8c7bbdb94da28af55c42534bf21f",
        "srcKUID": "i89a4c93ab68416c8f6a24b3e85d037c",
        "wType": "Image"
      }
    },
    "imgToolTip": {
      "__events__": {},
      "__info__": {
        "kuid": "fc92d8cfdcaa4d058aba9dfc491c0f33",
        "srcKUID": "b05c4200ee7747f2b596bc0eafc18760",
        "wType": "Image"
      }
    },
    "lblUserEmail": {
      "__events__": {},
      "__info__": {
        "kuid": "gf58b4ae61ce4edc948f7f20a8e99eb0",
        "srcKUID": "j0ea4a96f1104289ad3d0312ed141d3b",
        "wType": "Label"
      },
      "i18n_text": "i18n.AccountsDetails.usernamekonycom"
    },
    "leftcontainer": {
      "__events__": {},
      "__info__": {
        "kuid": "da7f4b3b4c20429183d3af252645852e",
        "srcKUID": "bd51d17a858b470f86d30f1fdb49d6d3",
        "wType": "FlexContainer"
      }
    },
    "rightcontainer": {
      "__events__": {},
      "__info__": {
        "kuid": "e7cb0648fd83487ea88761f970be2823",
        "srcKUID": "j9e2ac398ee647f8b33a80640560a977",
        "wType": "FlexContainer"
      }
    },
    "segUserActions": {
      "__events__": {},
      "__info__": {
        "kuid": "d214ba44f71d476c948c7c7392e77292",
        "srcKUID": "h6bf423223694ef0be1f75d0abee1c0a",
        "wType": "Segment"
      },
      "data": {
        "desktop": [
          {
            "lblSeparator": {
              "@class": "com.viz.ide.model.segment.SimpleTextSegmentData",
              "text": "a"
            },
            "lblUsers": {
              "@class": "com.viz.ide.model.segment.SimpleTextSegmentData",
              "text": "ProfileSettings"
            }
          },
          {
            "lblSeparator": {
              "@class": "com.viz.ide.model.segment.SimpleTextSegmentData",
              "text": "a"
            },
            "lblUsers": {
              "@class": "com.viz.ide.model.segment.SimpleTextSegmentData",
              "text": "Account Settings"
            }
          },
          {
            "lblSeparator": {
              "@class": "com.viz.ide.model.segment.SimpleTextSegmentData",
              "text": "a"
            },
            "lblUsers": {
              "@class": "com.viz.ide.model.segment.SimpleTextSegmentData",
              "text": "Alerts"
            }
          }
        ]
      }
    },
    "topmenu": {
      "__events__": {},
      "__info__": {
        "kuid": "e40eeceb51a741d488ba16d17bb7a565",
        "srcKUID": "f3bc1d211a8342419317a1f649e456a0",
        "wType": "UserWidgetInstance"
      }
    },
    "topmenu.CopyLabel0a8b12f7002084d": {
      "__events__": {},
      "__info__": {
        "kuid": "ece53ad15d6b463e9e2344c7534c7851",
        "srcKUID": "a051506ea3864885b198b844795df50e",
        "wType": "Label"
      }
    },
    "topmenu.CopyLabel0b07dfb57de2445": {
      "__events__": {},
      "__info__": {
        "kuid": "e4909d9b38fc4e92892126c1a5af81e6",
        "srcKUID": "f0f9e56b281d4eceb0749c61522f4a90",
        "wType": "Label"
      }
    },
    "topmenu.CopyLabel0b53cc10abb0342": {
      "__events__": {},
      "__info__": {
        "kuid": "d155ce3bfa104eee9121472c3469e362",
        "srcKUID": "a28491ec994f45f18c08fe5d1f9b23c5",
        "wType": "Label"
      }
    },
    "topmenu.CopyLabel0bb648d916e554d": {
      "__events__": {},
      "__info__": {
        "kuid": "d206dbf1b49e4e74814944170b71eaf4",
        "srcKUID": "bc077f5775344d05abc4b26b93f547e2",
        "wType": "Label"
      }
    },
    "topmenu.CopyLabel0h9e71b8a76ad44": {
      "__events__": {},
      "__info__": {
        "kuid": "ca008e64e8864bc89490e785360cdad4",
        "srcKUID": "j8cfefac3629406384cc9ab091131d25",
        "wType": "Label"
      }
    },
    "topmenu.CopyLabel0ifdc84d9814842": {
      "__events__": {},
      "__info__": {
        "kuid": "g646f1be2ad140d3a08c2458c4db9352",
        "srcKUID": "ja80f2c849514793bc2b7ef76880027c",
        "wType": "Label"
      }
    },
    "topmenu.Label0b60331706e5e45": {
      "__events__": {},
      "__info__": {
        "kuid": "dafde40584684ad7ab0914efd62c01ae",
        "srcKUID": "f5dfdacb3a9c44f0a62033ada65c55ec",
        "wType": "Label"
      }
    },
    "topmenu.Label0dcf00103bdba46": {
      "__events__": {},
      "__info__": {
        "kuid": "he1641bcc09942c79f195c3f8e8666df",
        "srcKUID": "c696e7354c7341469fe1c6fac1869c9b",
        "wType": "Label"
      }
    },
    "topmenu.flxContextualMenu": {
      "__events__": {},
      "__info__": {
        "kuid": "d9b7fa3f4882487f9892aafa5c20dc6b",
        "srcKUID": "d93e029b84b847fc81a03de1b30f353f",
        "wType": "FlexContainer"
      }
    },
    "topmenu.flxFeedback": {
      "__events__": {},
      "__info__": {
        "kuid": "i2ee2dc09475460ea18b9017af4727a6",
        "srcKUID": "cd10d4b4f565433fb35f2d2d0a97fe1e",
        "wType": "FlexContainer"
      }
    },
    "topmenu.flxFeedbackimg": {
      "__events__": {},
      "__info__": {
        "kuid": "fa104833127b4e30a36fe4631b96729f",
        "srcKUID": "g11b5488a8d343ae866e1de13660acda",
        "wType": "FlexContainer"
      }
    },
    "topmenu.flxHelp": {
      "__events__": {},
      "__info__": {
        "kuid": "a9408be498f3457f9e35b0cad2d8735f",
        "srcKUID": "i2d06c634cdc4172ba80e744bcdcfebb",
        "wType": "FlexContainer"
      }
    },
    "topmenu.flxMenu": {
      "__events__": {},
      "__info__": {
        "kuid": "a4df820194544cd5a36caae846c9889a",
        "srcKUID": "e3be9a8fdce047e6bfc57c6134e9a975",
        "wType": "FlexContainer"
      }
    },
    "topmenu.flxMenusMain": {
      "__events__": {},
      "__info__": {
        "kuid": "ca1abe1797cf4772adc1bb28344c2f0a",
        "srcKUID": "da5555fd4c164726bf9860ec53363048",
        "wType": "FlexContainer"
      }
    },
    "topmenu.flxPayBills": {
      "__events__": {},
      "__info__": {
        "kuid": "c23946ac49374504811da83df9a699f5",
        "srcKUID": "b0405a53deab419f93cadece0ff2e29e",
        "wType": "FlexContainer"
      }
    },
    "topmenu.flxSendMoney": {
      "__events__": {},
      "__info__": {
        "kuid": "bfad564dadd34609a84fa48d966387bb",
        "srcKUID": "aa94ebd29fcb48ee8d1006f949210f98",
        "wType": "FlexContainer"
      }
    },
    "topmenu.flxSeperator": {
      "__events__": {},
      "__info__": {
        "kuid": "h738cbb8286c43928f0fde9ab8363503",
        "srcKUID": "d7f042bfaaf046d5942ed568eec44b23",
        "wType": "FlexContainer"
      }
    },
    "topmenu.flxSeperator1": {
      "__events__": {},
      "__info__": {
        "kuid": "eb40105748de48f38f57db42a23adc0d",
        "srcKUID": "i09ec806e136452589e84e2f83e53e68",
        "wType": "FlexContainer"
      }
    },
    "topmenu.flxSeperator3": {
      "__events__": {},
      "__info__": {
        "kuid": "b80063cce46f4cda80a2778d7d8f1914",
        "srcKUID": "c7f495ff87f14421b1740a719941e64b",
        "wType": "FlexContainer"
      }
    },
    "topmenu.flxTransferMoney": {
      "__events__": {},
      "__info__": {
        "kuid": "f1a8fd6ba1264779bba3a1506910bc9b",
        "srcKUID": "ceecbd5ac73749c0b95918674f9ffb17",
        "wType": "FlexContainer"
      }
    },
    "topmenu.flxTransfersAndPay": {
      "__events__": {},
      "__info__": {
        "kuid": "f6a2db0a83504554aaa93133bb351dba",
        "srcKUID": "j83fe7fb58c04ec394a0d8313351f539",
        "wType": "FlexContainer"
      }
    },
    "topmenu.flxWireMoney": {
      "__events__": {},
      "__info__": {
        "kuid": "f16eadd4145c43fcbb2bb8c64b422edf",
        "srcKUID": "bed5646364634571b664cc577ca65144",
        "wType": "FlexContainer"
      }
    },
    "topmenu.flxaccounts": {
      "__events__": {},
      "__info__": {
        "kuid": "d9fb835c69ec4838a313be0fe363fda0",
        "srcKUID": "b6366fc9b5854ca5aecefb68e89386e7",
        "wType": "FlexContainer"
      }
    },
    "topmenu.flxverseperator1": {
      "__events__": {},
      "__info__": {
        "kuid": "b5f3db05ac44466f97792f5906168bc2",
        "srcKUID": "cd2f891c8cc94e9b87555c8c6066f221",
        "wType": "FlexContainer"
      }
    },
    "topmenu.flxverseperator2": {
      "__events__": {},
      "__info__": {
        "kuid": "c78bc1e78295411980530bfdae9104de",
        "srcKUID": "f9719a0b9d3f42b690d0b92a4477ec5d",
        "wType": "FlexContainer"
      }
    },
    "topmenu.imgAccounts": {
      "__events__": {},
      "__info__": {
        "kuid": "fd11dbadec384172832edb0a49ef0de3",
        "srcKUID": "h41efc3bbd044c57a91bf7a47617cb38",
        "wType": "Image"
      }
    },
    "topmenu.imgFeedback": {
      "__events__": {},
      "__info__": {
        "kuid": "c68d6065f3a840f289c66003db6d6c48",
        "srcKUID": "f4a6ae818e504daab62eabcb47b9a961",
        "wType": "Image"
      }
    },
    "topmenu.imgHelp": {
      "__events__": {},
      "__info__": {
        "kuid": "c11a7593429e48c2b6e8c0dd9987c7e5",
        "srcKUID": "h95d6926104248c4abfea8af0ad0bb2d",
        "wType": "Image"
      }
    },
    "topmenu.imgMenu": {
      "__events__": {},
      "__info__": {
        "kuid": "c211e5fef75d447e9a5e2f32db9f1fb8",
        "srcKUID": "be1e045b3a3347d88509b7efc7d8015b",
        "wType": "Image"
      }
    },
    "topmenu.imgTransfers": {
      "__events__": {},
      "__info__": {
        "kuid": "af18868dc1d94b5e9bcb3dbd2ad66e0b",
        "srcKUID": "aa4f2882266a4cdda63980b155b9df71",
        "wType": "Image"
      }
    },
    "topmenu.lblAccounts": {
      "__events__": {},
      "__info__": {
        "kuid": "df84d66b421a408694b1c85313b7ceff",
        "srcKUID": "bcf724a120b24fdbb2278444060c639c",
        "wType": "Label"
      }
    },
    "topmenu.lblFeedback": {
      "__events__": {},
      "__info__": {
        "kuid": "f1940c3b071349fd84327975b5f44455",
        "srcKUID": "i45ffb2e674e425ba9e5542807008a2e",
        "wType": "Label"
      }
    },
    "topmenu.lblHelp": {
      "__events__": {},
      "__info__": {
        "kuid": "c139079edcb5455dbf5596b94668c2d9",
        "srcKUID": "b910c72e31ac4950b9d4fcca565a1df4",
        "wType": "Label"
      }
    },
    "topmenu.lblMenu": {
      "__events__": {},
      "__info__": {
        "kuid": "df4e12665ff240799be5fdfccb4cfebc",
        "srcKUID": "h7239719ed104114b04620b3da15cd02",
        "wType": "Label"
      }
    },
    "topmenu.lblTransferAndPay": {
      "__events__": {},
      "__info__": {
        "kuid": "dfa59978ff9749978c04817a2a2dd974",
        "srcKUID": "gf970d4c8185498db726665e80e4fff7",
        "wType": "Label"
      }
    },
    "CopyflxVerticalSeperator0b961fc23108f4b": {
      "__events__": {},
      "__info__": {
        "kuid": "d428c9f7b1544fa3b3a9f4756a34de69",
        "srcKUID": "b6e0434c2f904010bfff7590777daf67",
        "wType": "FlexContainer"
      }
    },
    "customhamburger.CopyflxSeperator0a7fd02d026804c": {
      "__events__": {},
      "__info__": {
        "kuid": "c0ea68fcad864baf8f067104713b6e09",
        "srcKUID": "e6c67e99b0b64a4e83a34c312dc501a5",
        "wType": "FlexContainer"
      }
    },
    "customhamburger.CopyflxSeperator0dfcbfe80de1946": {
      "__events__": {},
      "__info__": {
        "kuid": "i944431732014cb7ab553fbc1eda0778",
        "srcKUID": "ec5e9cdda1b4473aa156d59730730f65",
        "wType": "FlexContainer"
      }
    },
    "customhamburger.CopyflxSeperator0e9219bd0514c46": {
      "__events__": {},
      "__info__": {
        "kuid": "jc012a60df584b09b12297fae8d28c5a",
        "srcKUID": "g39fe81fa7b0498b87ae946e0e5daf27",
        "wType": "FlexContainer"
      }
    },
    "customhamburger.CopyflxSeperator0ef56548331074b": {
      "__events__": {},
      "__info__": {
        "kuid": "a6bce02dcd754e17963388b37451e946",
        "srcKUID": "j62d0667a0e5431d94bbeb7127ae6e11",
        "wType": "FlexContainer"
      }
    },
    "customhamburger.CopyflxSeperator0fcac07927fef43": {
      "__events__": {},
      "__info__": {
        "kuid": "ge45f6f036764dd99965d76d97b826fd",
        "srcKUID": "e1a67da7232b497db891680f5147e005",
        "wType": "FlexContainer"
      }
    },
    "customhamburger.flxAddExternalBankAccounts": {
      "__events__": {},
      "__info__": {
        "kuid": "a3d984608896460f912402b94bdae7e0",
        "srcKUID": "d829e28813f643ab8cc7b53a38a11877",
        "wType": "FlexContainer"
      }
    },
    "customhamburger.flxCardManagement": {
      "__events__": {},
      "__info__": {
        "kuid": "f37886cb8115494480b581e9be1d2d25",
        "srcKUID": "fca38cea39334c569e00cf833a296ff0",
        "wType": "FlexContainer"
      }
    },
    "customhamburger.flxPFM": {
      "__events__": {},
      "__info__": {
        "kuid": "dc4871bd5a3a467094a7c5dbf9e88c30",
        "srcKUID": "bfc8636c05da4c4e9131d447fb520a97",
        "wType": "FlexContainer"
      }
    },
    "customhamburger.flxStopPaymentRequests": {
      "__events__": {},
      "__info__": {
        "kuid": "dd41b4e6df4749369eb4c6a881fec50d",
        "srcKUID": "c6e0f2b6aa1948688094395a053fa1d8",
        "wType": "FlexContainer"
      }
    },
    "customhamburger.lblAddExternalBankAccounts": {
      "__events__": {},
      "__info__": {
        "kuid": "gf7adebf7cff414aa9272e2492d16552",
        "srcKUID": "edabb77d8ed2442ab7ed61fb91558f23",
        "wType": "Label"
      }
    },
    "customhamburger.lblCardManagement": {
      "__events__": {},
      "__info__": {
        "kuid": "e7f229b12c134bd3b8ced8491dcaed89",
        "srcKUID": "b0c732201f424826b31b883b5eec6956",
        "wType": "Label"
      }
    },
    "customhamburger.lblPFM": {
      "__events__": {},
      "__info__": {
        "kuid": "ae2cf078a51b4a8fbeb9bbe8489f3ff4",
        "srcKUID": "e09127ede361436abb545b5527fba0e0",
        "wType": "Label"
      }
    },
    "customhamburger.lblStopPaymentRequests": {
      "__events__": {},
      "__info__": {
        "kuid": "bbca1e3100554429b4e19bab6ab31865",
        "srcKUID": "a87770408c7e42698c673972b990dd6d",
        "wType": "Label"
      }
    }
  },
  "id": "customheader",
  "info": null,
  "isdatareferenced": false,
  "isvisible": true,
  "kuid": "ad4f6de72aa246b1bfa9f46cd9c199df",
  "layouttype": 2,
  "masterType": 0,
  "name": "kony.ui.UserWidgetInstance",
  "parent": "flxHeader",
  "pf": "frmLocateUs",
  "snaptogrid": true,
  "sourceUserWidget": "c04bbf50611342ca895c5e0a329aeb52",
  "wType": "UserWidgetInstance",
  "zindex": 1000
}