{
  "@class": "com.kony.gen.viz.model.component.KVizUserWidget",
  "DNDConfig": null,
  "__parentReadjusting__": false,
  "_children_": [],
  "_height_": {
    "type": "string",
    "value": "150dp"
  },
  "_left_": {
    "type": "string",
    "value": "0dp"
  },
  "_margin_": [
    0,
    0,
    0,
    0
  ],
  "_orientation_": 1,
  "_padding_": [
    0,
    0,
    0,
    0
  ],
  "_percent_": true,
  "_render_": true,
  "_skin_": "s5e4481a3c944709a3f40dd22558173a",
  "_top_": {
    "type": "string",
    "value": "0dp"
  },
  "_width_": {
    "type": "string",
    "value": "1366dp"
  },
  "areflexpropsreferenced": false,
  "autogrowmode": 0,
  "canUpdateUI": true,
  "centerx": {
    "type": "string",
    "value": "50%"
  },
  "clipbounds": true,
  "containerweight": 0,
  "dataDiffs": {
    "btnContactUs": {
      "__events__": {},
      "__info__": {
        "kuid": "a0819f7083d14fc39b18a86b5c5d0e06",
        "srcKUID": "c47b0c9af1b84e63aa01af59eb52124a",
        "wType": "Button"
      }
    },
    "btnFaqs": {
      "__events__": {},
      "__info__": {
        "kuid": "h373b5d9e7864794ba5a164bbd39bbfa",
        "srcKUID": "ced702d00bc5426892e4632faec9df5d",
        "wType": "Button"
      }
    },
    "btnLocateUs": {
      "__events__": {},
      "__info__": {
        "kuid": "d4fa9fff97be4e24ab37260056d1b5ac",
        "srcKUID": "i52587cdcb68471f9e389671ddc5f138",
        "wType": "Button"
      }
    },
    "btnNMLS": {
      "__events__": {},
      "__info__": {
        "kuid": "d102dfef118a4b3f94a008b376c5f088",
        "srcKUID": "dd794b8c9b8948de910093e93695d9da",
        "wType": "Button"
      }
    },
    "btnPrivacy": {
      "__events__": {},
      "__info__": {
        "kuid": "db266571698d40e48a3e07c59e99f6b7",
        "srcKUID": "c3810888a2304c409e04db4cd519b8ee",
        "wType": "Button"
      }
    },
    "btnPrivacyNote": {
      "__events__": {},
      "__info__": {
        "kuid": "c65c639f8bce4ecc9663a904f600f638",
        "srcKUID": "ffe6d34ddebe42abb2fa3fa994d8578f",
        "wType": "Button"
      }
    },
    "btnRouting": {
      "__events__": {},
      "__info__": {
        "kuid": "e09a358f95984d978ac635ae78f3b5b9",
        "srcKUID": "c0ef76fac81742ff9d56ebd42f636563",
        "wType": "Button"
      }
    },
    "btnTermsAndConditions": {
      "__events__": {},
      "__info__": {
        "kuid": "gabbecf9c5484ea8b3cdec5d2c7be364",
        "srcKUID": "baf7c8f817b34b618b7e1f148f49770a",
        "wType": "Button"
      }
    },
    "customfooter": {
      "__events__": {},
      "__info__": {
        "isRoot": true,
        "kuid": "b1f6282c503042f78af5c85f6e045bc7",
        "srcKUID": "a142e816812a4b5b80f84484dcef7232",
        "wType": "FlexContainer"
      },
      "centerX": {
        "Default": {
          "type": "string",
          "value": "50%"
        }
      },
      "width": {
        "Default": {
          "type": "string",
          "value": "1366dp"
        }
      },
      "zIndex": {
        "Default": 2
      }
    },
    "flxFooterMenu": {
      "__events__": {},
      "__info__": {
        "kuid": "e8ba68d9fa894c1290f4a0b72039add7",
        "srcKUID": "e6b5bc6faf00428680c4dedfe25a0b9a",
        "wType": "FlexContainer"
      },
      "centerX": {
        "Default": {
          "type": "string",
          "value": "50%"
        }
      },
      "left": {
        "Default": {
          "type": "string",
          "value": ""
        }
      },
      "width": {
        "Default": {
          "type": "string",
          "value": "1200dp"
        }
      }
    },
    "flxVBar1": {
      "__events__": {},
      "__info__": {
        "kuid": "c833bb643e9145ada80578276e22c7e2",
        "srcKUID": "f31fd58a22cc496a93899a924cf2927d",
        "wType": "FlexContainer"
      }
    },
    "flxVBar2": {
      "__events__": {},
      "__info__": {
        "kuid": "ab7d9da32842429880f5aa9b0b6e3777",
        "srcKUID": "j39a662286e64bbc9be78a96bb491e27",
        "wType": "FlexContainer"
      }
    },
    "flxVBar3": {
      "__events__": {},
      "__info__": {
        "kuid": "c11dda7d677349d58d4f2fb69ef778e8",
        "srcKUID": "a6990ffd77914b8e8757540cb40cad1a",
        "wType": "FlexContainer"
      }
    },
    "flxVBar4": {
      "__events__": {},
      "__info__": {
        "kuid": "df78b8e09b924601b4c8760120c849b9",
        "srcKUID": "e75f96d248634147afa5b6848252df6e",
        "wType": "FlexContainer"
      }
    },
    "imgFooterIconOne": {
      "__events__": {},
      "__info__": {
        "kuid": "d6363557fa8943fe8ddf413436b0fad4",
        "srcKUID": "f2305e3d65bb448e9d68f5608421f28a",
        "wType": "Image"
      }
    },
    "imgFooterIconThree": {
      "__events__": {},
      "__info__": {
        "kuid": "f614ed13c4a146c292061cbc65846cc2",
        "srcKUID": "hc27193bc4d14f24b60f03ac3c2bddb7",
        "wType": "Image"
      }
    },
    "imgFooterIconTwo": {
      "__events__": {},
      "__info__": {
        "kuid": "d7641402a6584375a64e1931ccb793ec",
        "srcKUID": "cf67ed169e364ace9f62b5aa10dcf1d8",
        "wType": "Image"
      }
    },
    "lblCopyright": {
      "__events__": {},
      "__info__": {
        "kuid": "e80e047529da4c0588014741b91eda2f",
        "srcKUID": "a696ff4e198a4124810242908deae798",
        "wType": "Label"
      },
      "centerX": {
        "Default": {
          "type": "string",
          "value": "50%"
        }
      },
      "left": {
        "Default": {
          "type": "string",
          "value": ""
        }
      },
      "width": {
        "Default": {
          "type": "string",
          "value": "1200dp"
        }
      }
    },
    "lblImgText": {
      "__events__": {},
      "__info__": {
        "kuid": "if238920ce5e426688c86e0408caf1b8",
        "srcKUID": "c7ccba35746440ed997e9d567978ec4d",
        "wType": "Label"
      }
    }
  },
  "id": "customfooter",
  "info": null,
  "isdatareferenced": false,
  "isvisible": true,
  "kuid": "i9189eb6642642d49923ce5314a71e53",
  "layouttype": 2,
  "masterType": 0,
  "name": "kony.ui.UserWidgetInstance",
  "parent": "flxFooterNR",
  "pf": "frmLocateUs",
  "snaptogrid": true,
  "sourceUserWidget": "a142e816812a4b5b80f84484dcef7232",
  "wType": "UserWidgetInstance",
  "zindex": 2
}