{
  "DNDConfig": null,
  "__markedForDelete__": true,
  "__parentReadjusting__": false,
  "_height_": {
    "type": "string",
    "value": "410dp"
  },
  "_left_": {
    "type": "string",
    "value": "50.59%"
  },
  "_margin_": [
    0,
    0,
    0,
    0
  ],
  "_orientation_": 6,
  "_padding_": [
    0,
    0,
    0,
    0
  ],
  "_percent_": true,
  "_skin_": "s4b3bfcb27c14526bcdce6dec3972d8d",
  "_top_": {
    "type": "string",
    "value": "63dp"
  },
  "_width_": {
    "type": "string",
    "value": "43.27%"
  },
  "allboxes": [],
  "autogrowmode": 0,
  "canUpdateUI": true,
  "children": [
    "CustomerFeedbackDetails"
  ],
  "clipbounds": true,
  "containerweight": 100,
  "enablescrolling": true,
  "id": "flxTransactionDetails",
  "info": null,
  "isvisible": true,
  "kuid": "ic2554358ab24c96bea69257b1e1f294",
  "layouttype": 2,
  "name": "kony.ui.FlexContainer",
  "parent": "flxAcknowledgementContainer",
  "pf": "frmCustomerFeedbackSurvey",
  "snapgridsize": 10,
  "snaptogrid": true,
  "wType": "FlexContainer",
  "widgetalignment": 1,
  "zindex": 1
}