{
  "@class": "com.kony.gen.viz.model.component.KVizImage2",
  "DNDConfig": null,
  "__markedForDelete__": true,
  "__parentReadjusting__": false,
  "_base64_": null,
  "_height_": {
    "type": "string",
    "value": "60dp"
  },
  "_left_": {
    "type": "string",
    "value": "2.35%"
  },
  "_margin_": [
    0,
    0,
    0,
    0
  ],
  "_padding_": [
    0,
    0,
    0,
    0
  ],
  "_skin_": "s78a5f26c9f14cec9ebed1bb46098f80",
  "_src_": "success_green.png",
  "_width_": {
    "type": "string",
    "value": "60dp"
  },
  "canUpdateUI": true,
  "centery": {
    "type": "string",
    "value": "50%"
  },
  "containerweight": 100,
  "context": {
    "channel": "desktop",
    "formID": "frmCustomerFeedbackSurvey",
    "platform": "desktopweb",
    "templateType": "forms",
    "topLevelBox": null
  },
  "id": "imgSuccessGreen",
  "imagescalemode": 1,
  "info": null,
  "invokedProperty": "src",
  "isvisible": true,
  "kuid": "de462f6ad868421db6fdbd405e8d646a",
  "name": "kony.ui.Image2",
  "parent": "flxAcknowledgementThankyouMessage",
  "pf": "frmCustomerFeedbackSurvey",
  "srcType": 1,
  "tooltip": "Print",
  "wType": "Image",
  "widgetalignment": 5,
  "zindex": 1
}