{
  "DNDConfig": null,
  "__parentReadjusting__": false,
  "_height_": {
    "type": "string",
    "value": "33.33%"
  },
  "_left_": {
    "type": "string",
    "value": "0dp"
  },
  "_margin_": [
    0,
    0,
    0,
    0
  ],
  "_orientation_": 6,
  "_padding_": [
    0,
    0,
    0,
    0
  ],
  "_percent_": true,
  "_skin_": "s8f6fd52fe0c46fe84100b4ecce190f6",
  "_top_": {
    "type": "string",
    "value": "0dp"
  },
  "_width_": {
    "type": "string",
    "value": "100%"
  },
  "allboxes": [],
  "autogrowmode": 0,
  "canUpdateUI": true,
  "children": [],
  "clipbounds": true,
  "containerweight": 100,
  "enablescrolling": true,
  "id": "flxZoom",
  "info": null,
  "isvisible": true,
  "kuid": "4fb956da8f704124be6d3fbc5cf0b35f",
  "layouttype": 2,
  "name": "kony.ui.FlexContainer",
  "parent": "flxImageHolder",
  "pf": "userwidgetmodel",
  "snapgridsize": 10,
  "snaptogrid": true,
  "wType": "FlexContainer",
  "widgetalignment": 1,
  "zindex": 1,
  "desktopweb": {
    "psp": {
      "hoverSkin": "s2dbc71887c1449c87affa4dd4cffb67"
    }
  }
}