{
  "DNDConfig": null,
  "__parentReadjusting__": false,
  "_height_": {
    "type": "string",
    "value": "70dp"
  },
  "_left_": {
    "type": "string",
    "value": "1.2999999999999998%"
  },
  "_margin_": [
    0,
    0,
    0,
    0
  ],
  "_orientation_": 6,
  "_padding_": [
    0,
    0,
    0,
    0
  ],
  "_percent_": true,
  "_skin_": "s576844bc0e148a9a02e6171eac305ac",
  "_top_": {
    "type": "string",
    "value": "15dp"
  },
  "_width_": {
    "type": "string",
    "value": "95%"
  },
  "allboxes": [],
  "autogrowmode": 0,
  "canUpdateUI": true,
  "children": [
    "imgWarningSecurityQuestions",
    "lblWarningSecurityQuestions"
  ],
  "clipbounds": true,
  "containerweight": 100,
  "enablescrolling": true,
  "id": "flxWarningSecurityQuestions",
  "info": null,
  "isvisible": false,
  "kuid": "cc24c270fe1943c7944d29c91bb26831",
  "layouttype": 3,
  "name": "kony.ui.FlexContainer",
  "parent": "flxAnswerSecurityQuestions",
  "pf": "userwidgetmodel",
  "snapgridsize": 10,
  "snaptogrid": true,
  "wType": "FlexContainer",
  "widgetalignment": 1,
  "zindex": 1
}