{
  "@class": "com.kony.gen.viz.model.component.KVizLabel",
  "DNDConfig": null,
  "__parentReadjusting__": false,
  "_height_": {
    "type": "ref",
    "value": "preferred"
  },
  "_left_": {
    "type": "string",
    "value": "15.70%"
  },
  "_margin_": [
    1,
    1,
    1,
    1
  ],
  "_padding_": [
    0,
    0,
    0,
    0
  ],
  "_skin_": "s9739fe0569d4851a6e139a20b64dd6e",
  "_text_": "What is your favourite holiday destination?",
  "_top_": {
    "type": "string",
    "value": "27dp"
  },
  "_width_": {
    "type": "ref",
    "value": "preferred"
  },
  "_wrapping_": 2,
  "android": {
    "textStyle": {
      "letterSpacing": 0,
      "strikeThrough": false
    }
  },
  "canUpdateUI": true,
  "containerweight": 100,
  "contentalignment": 4,
  "id": "lblAnswerSecurityQuestion2",
  "info": null,
  "ipad": {
    "psp": {
      "wrapping": 2
    }
  },
  "iphone": {
    "psp": {
      "wrapping": 2
    }
  },
  "isvisible": true,
  "kuid": "he14f38fd34f47c1ba6d5d3af0fec4d4",
  "name": "kony.ui.Label",
  "parent": "flxAnswerSecurityQuestionsQASet2",
  "pf": "userwidgetmodel",
  "texti18n": "i18n.ProfileManagement.WhatisyourfavholidayDestination?",
  "tooltip": "",
  "wType": "Label",
  "zindex": 1
}