{
  "@class": "com.kony.gen.viz.model.component.KVizLabel",
  "DNDConfig": null,
  "__parentReadjusting__": false,
  "_height_": {
    "type": "string",
    "value": "30px"
  },
  "_left_": {
    "type": "string",
    "value": "28dp"
  },
  "_margin_": [
    1,
    1,
    1,
    1
  ],
  "_padding_": [
    0,
    0,
    0,
    0
  ],
  "_skin_": "s9739fe0569d4851a6e139a20b64dd6e",
  "_text_": "PAY A PERSON",
  "_top_": {
    "type": "string",
    "value": "18dp"
  },
  "_width_": {
    "type": "ref",
    "value": "preferred"
  },
  "_wrapping_": 2,
  "android": {
    "textStyle": {
      "letterSpacing": 0,
      "strikeThrough": false
    }
  },
  "canUpdateUI": true,
  "containerweight": 100,
  "contentalignment": 4,
  "id": "lblHeader",
  "info": null,
  "ipad": {
    "psp": {
      "wrapping": 2
    }
  },
  "iphone": {
    "psp": {
      "wrapping": 2
    }
  },
  "isvisible": true,
  "kuid": "f70576e27c484b40855fff52fe5311f4",
  "name": "kony.ui.Label",
  "parent": "flxHeader",
  "pf": "userwidgetmodel",
  "texti18n": "i18n.ProfileManagement.AnswerSecurityQuestions",
  "tooltip": "",
  "wType": "Label",
  "zindex": 1
}