{
  "@class": "com.kony.gen.viz.model.component.KVizTextBox2",
  "DNDConfig": null,
  "__parentReadjusting__": false,
  "_height_": {
    "type": "string",
    "value": "40dp"
  },
  "_left_": {
    "type": "string",
    "value": "15.78%"
  },
  "_margin_": [
    0,
    0,
    0,
    0
  ],
  "_padding_": [
    2,
    0,
    0,
    0
  ],
  "_placeholder_": "Type your answer here.",
  "_skin_": "saf81d7c9f3544f4890963da89a43ff3",
  "_text_": "",
  "_top_": {
    "type": "string",
    "value": "67dp"
  },
  "_width_": {
    "type": "string",
    "value": "67.60%"
  },
  "autocapitalize": "none",
  "autocomplete": false,
  "autocorrect": false,
  "autofilter": false,
  "canUpdateUI": true,
  "containerheight": "",
  "containerheightmode": 1,
  "containerweight": 100,
  "contentalignment": 4,
  "desktopweb": {
    "ide_onEndEditing": "AS_TextField_e862b75c54ea40f590542cfb4152bc7b",
    "ide_onKeyUp": "AS_TextField_bc988fb38a4c43fdbc0d49eeef1d5c8a",
    "psp": {
      "hoverSkin": "s80a8c5539a441ee9b9b49917cc45cc2"
    }
  },
  "focusskin": "s80a8c5539a441ee9b9b49917cc45cc2",
  "id": "tbxAnswers1",
  "info": null,
  "isvisible": true,
  "keyboardtype": "A",
  "kiosk": {
    "psp": {
      "toolTip": ""
    }
  },
  "kuid": "b8aeac8162874ed5887297d03e10217c",
  "mode": "A",
  "name": "kony.ui.TextBox2",
  "parent": "flxAnswerSecurityQuestionsQASet1",
  "pf": "userwidgetmodel",
  "securetextentry": false,
  "textinputmode": "A",
  "viewtype": "default",
  "wType": "TextField",
  "zindex": 1
}