{
    "@class": "com.kony.gen.viz.model.component.KVizButton",
    "DNDConfig": null,
    "__parentReadjusting__": false,
    "_height_": {
        "type": "string",
        "value": "100%"
    },
    "_left_": {
        "type": "string",
        "value": "0dp"
    },
    "_margin_": [
        6,
        6,
        6,
        6
    ],
    "_padding_": [
        2,
        0,
        2,
        0
    ],
    "_skin_": "s9d8ea194e4d4af8b6485df231e57f00",
    "_text_": "CHECKS",
    "_width_": {
        "type": "ref",
        "value": "preferred"
    },
    "canUpdateUI": true,
    "centery": {
        "type": "string",
        "value": "50%"
    },
    "containerweight": 100,
    "contentalignment": 5,
    "desktopweb": {
        "psp": {}
    },
    "disabledSkins": {
        "focusSkin": "sf44d06ca8224832827ea7fdff757013",
        "hoverSkin": "s14e5f4459414366a95c5a71c1f39486"
    },
    "displaytext": true,
    "id": "btnExternalAccounts",
    "info": null,
    "isvisible": true,
    "kuid": "b3797dac74bd4872945b05a3c525f9e7",
    "name": "kony.ui.Button",
    "paddinginpixel": false,
    "parent": "flxTabsChecking",
    "pf": "userwidgetmodel",
    "texti18n": "i18n.transfers.external_accounts",
    "tooltip": "External Accounts",
    "wType": "Button",
    "zindex": 1
}