{
    "@class": "com.kony.gen.viz.model.component.KVizButton",
    "DNDConfig": null,
    "__parentReadjusting__": false,
    "_height_": {
        "type": "ref",
        "value": "preferred"
    },
    "_margin_": [
        6,
        6,
        6,
        6
    ],
    "_padding_": [
        0,
        0,
        0,
        0
    ],
    "_skin_": "s27d1ea2a25e407ab0d385d94bd0c5f2",
    "_text_": "VIEW MORE INFO",
    "_top_": {
        "type": "string",
        "value": "30dp"
    },
    "_width_": {
        "type": "string",
        "value": "70%"
    },
    "canUpdateUI": true,
    "centerx": {
        "type": "string",
        "value": "50%"
    },
    "containerweight": 100,
    "contentalignment": 5,
    "disabledSkins": {
        "focusSkin": "sf44d06ca8224832827ea7fdff757013"
    },
    "displaytext": true,
    "id": "btnToOtherBankInfo",
    "info": null,
    "isvisible": false,
    "kuid": "c5d77a2dc75c4b7189f7fb6bbaa2d4c1",
    "name": "kony.ui.Button",
    "parent": "flxToOtherBankInfo",
    "pf": "userwidgetmodel",
    "texti18n": "i18n.transfers.viewMoreInfo",
    "wType": "Button",
    "zindex": 1
}