{
    "@class": "com.kony.gen.viz.model.component.KVizImage2",
    "DNDConfig": null,
    "__parentReadjusting__": false,
    "_base64_": null,
    "_height_": {
        "type": "string",
        "value": "15dp"
    },
    "_left_": {
        "type": "string",
        "value": "5dp"
    },
    "_margin_": [
        0,
        0,
        0,
        0
    ],
    "_padding_": [
        0,
        0,
        0,
        0
    ],
    "_skin_": "s78a5f26c9f14cec9ebed1bb46098f80",
    "_src_": "sortingfinal.png",
    "_width_": {
        "type": "string",
        "value": "12dp"
    },
    "canUpdateUI": true,
    "centery": {
        "type": "string",
        "value": "50%"
    },
    "containerweight": 100,
    "context": {
        "channel": "desktop",
        "formID": "uw48f59ba1ac324f07b3ab3a83be7f3f93",
        "platform": "desktopweb",
        "templateType": "userwidgets",
        "topLevelBox": null
    },
    "id": "CopyimgSortDate0be75306539734d",
    "imagescalemode": 1,
    "imagewhiledownloading": "img_transparent.png",
    "info": null,
    "invokedProperty": "src",
    "isvisible": true,
    "kuid": "b4bec7e15d8e4d1d9965c456ebb22fdb",
    "name": "kony.ui.Image2",
    "parent": "flxSortDateScheduled",
    "pf": "userwidgetmodel",
    "srcType": 1,
    "tooltip": "Sort By Date ",
    "wType": "Image",
    "widgetalignment": 5,
    "zindex": 1
}