{
    "DNDConfig": null,
    "__parentReadjusting__": false,
    "_height_": {
        "type": "string",
        "value": "40dp"
    },
    "_left_": {
        "type": "string",
        "value": "0dp"
    },
    "_margin_": [
        0,
        0,
        0,
        0
    ],
    "_orientation_": 6,
    "_padding_": [
        0,
        0,
        0,
        0
    ],
    "_percent_": true,
    "_skin_": "sdbe600452344ceabe2ddf5d0b5cc78b",
    "_top_": {
        "type": "string",
        "value": "140dp"
    },
    "_width_": {
        "type": "string",
        "value": "235dp"
    },
    "allboxes": [],
    "autogrowmode": 0,
    "canUpdateUI": true,
    "children": [
        "btnToOtherBankProceed"
    ],
    "clipbounds": true,
    "containerweight": 100,
    "enablescrolling": true,
    "id": "flxToOtherBankProceed",
    "info": null,
    "isvisible": true,
    "kuid": "fd422ee4da8c4fa9b704592a2a8da644",
    "layouttype": 2,
    "name": "kony.ui.FlexContainer",
    "parent": "flxToOtherBank",
    "pf": "userwidgetmodel",
    "snapgridsize": 10,
    "snaptogrid": true,
    "wType": "FlexContainer",
    "widgetalignment": 1,
    "zindex": 1
}