{
    "DNDConfig": null,
    "__parentReadjusting__": false,
    "_height_": {
        "type": "string",
        "value": "140dp"
    },
    "_left_": {
        "type": "string",
        "value": "0dp"
    },
    "_margin_": [
        0,
        0,
        0,
        0
    ],
    "_orientation_": 6,
    "_padding_": [
        0,
        0,
        0,
        0
    ],
    "_percent_": true,
    "_skin_": "s571b19b5bf449889d1b44ef3e4594f0",
    "_top_": {
        "type": "string",
        "value": "0dp"
    },
    "_width_": {
        "type": "string",
        "value": "235dp"
    },
    "allboxes": [],
    "autogrowmode": 0,
    "canUpdateUI": true,
    "children": [
        "imgToMyKonyBank",
        "lblToMyKonyBank",
        "lblToMyKonyBankInfoOne",
        "lblToMyKonyBankInfoTwo",
        "btnToMyKonyBankInfo"
    ],
    "clipbounds": true,
    "containerweight": 100,
    "enablescrolling": true,
    "id": "flxToMyKonyBankInfo",
    "info": null,
    "isvisible": true,
    "kuid": "b9281c01b9b64dabbc4ed88ad67a110d",
    "layouttype": 4,
    "name": "kony.ui.FlexContainer",
    "parent": "flxToMyKonyBank",
    "pf": "userwidgetmodel",
    "snapgridsize": 10,
    "snaptogrid": true,
    "wType": "FlexContainer",
    "widgetalignment": 1,
    "zindex": 1
}