{
    "@class": "com.kony.gen.viz.model.component.KVizUserWidget",
    "DNDConfig": null,
    "__parentReadjusting__": false,
    "_children_": [],
    "_height_": {
        "type": "ref",
        "value": "preferred"
    },
    "_left_": {
        "type": "string",
        "value": "0dp"
    },
    "_margin_": [
        0,
        0,
        0,
        0
    ],
    "_orientation_": 1,
    "_padding_": [
        0,
        0,
        0,
        0
    ],
    "_percent_": true,
    "_render_": true,
    "_skin_": "sf94624be61d43e299a4790d019276ba",
    "_top_": {
        "type": "string",
        "value": "0dp"
    },
    "_width_": {
        "type": "string",
        "value": "100%"
    },
    "areflexpropsreferenced": false,
    "autogrowmode": 1,
    "canUpdateUI": true,
    "clipbounds": true,
    "containerweight": 100,
    "dataDiffs": {
        "FlexContainer": {
            "__events__": {},
            "__info__": {
                "kuid": "g749cebb50c149de926c412e8fb487cf",
                "srcKUID": "d60b205a720d4d699c18cad36da37d80",
                "wType": "FlexContainer"
            }
        },
        "FlexContainer0bdb9c7fc9fb14d": {
            "__events__": {},
            "__info__": {
                "kuid": "cb3c2b139f3d4783be9ab5b472de26f7",
                "srcKUID": "eff26023c53141feb09e458888f12ae2",
                "wType": "FlexContainer"
            }
        },
        "FlexContainer1": {
            "__events__": {},
            "__info__": {
                "kuid": "e3ffc06bc3af473f8131b66be121d199",
                "srcKUID": "hbf6dbf26c3943f1a1bbe035025df3f0",
                "wType": "FlexContainer"
            }
        },
        "Label0a0e7a7a5b68f4c": {
            "__events__": {},
            "__info__": {
                "kuid": "bf36931e1b354025aa8e07cc6c012b0f",
                "srcKUID": "d6460f9eea8240c2906b91afd39a6e1f",
                "wType": "Label"
            }
        },
        "RbCurrentBalance": {
            "__events__": {},
            "__info__": {
                "kuid": "e87a588945eb405881c42bfe9bb27f80",
                "srcKUID": "b9b7ce9ae9954b899c72b0f3c35011f5",
                "wType": "RadioButtonGroup"
            }
        },
        "RbNow": {
            "__events__": {},
            "__info__": {
                "kuid": "bd3eeebf3e45410c9852a9c2b0179799",
                "srcKUID": "a1f75d8360ff4c8a8fe03d2c70605946",
                "wType": "RadioButtonGroup"
            }
        },
        "RbNowLoan": {
            "__events__": {},
            "__info__": {
                "kuid": "he302a763fd9437293e3c09aa5671b4f",
                "srcKUID": "bfb500a67a774243828719e256e6679e",
                "wType": "RadioButtonGroup"
            }
        },
        "RbOneTimeLoan": {
            "__events__": {},
            "__info__": {
                "kuid": "d6c4c755d7cd4b59ac878e3d2796cf86",
                "srcKUID": "a049e43ae683429382e9c553d387b2f7",
                "wType": "RadioButtonGroup"
            }
        },
        "RbPaymentAmount": {
            "__events__": {},
            "__info__": {
                "kuid": "h27be3de94794877aece2fad9d99fa2e",
                "srcKUID": "ef184c4bebbe4efba0733ad64b090e48",
                "wType": "RadioButtonGroup"
            }
        },
        "TextField0d83d46c6c06e4b": {
            "__events__": {},
            "__info__": {
                "kuid": "e02c3fcab1034fa6a2276a0652c54281",
                "srcKUID": "ab619f8e491d4a879b2a3f94f72a01e8",
                "wType": "TextField"
            }
        },
        "accountsTolist": {
            "__events__": {},
            "__info__": {
                "kuid": "i144975e9ac946e5bc2fadd131abfdd1",
                "srcKUID": "f3d8abf1b6dd439db3e23a100b2b2408",
                "wType": "UserWidgetInstance"
            }
        },
        "accountsTolist.FlexAccountname": {
            "__events__": {},
            "__info__": {
                "kuid": "b4007f01c8734a00972b55b03e81497e",
                "srcKUID": "a1faca8af1184f14a9a2821c8cbb38eb",
                "wType": "FlexContainer"
            }
        },
        "accountsTolist.flxAccountTypesSegment": {
            "__events__": {},
            "__info__": {
                "kuid": "c78f76cba4ab4b9288a70acb5dc5cf4f",
                "srcKUID": "c2af7ab4128146df9c7499c496927c1f",
                "wType": "FlexContainer"
            }
        },
        "accountsTolist.imgToolTip": {
            "__events__": {},
            "__info__": {
                "kuid": "c14c3aea9eb044788b388d2617c3f86d",
                "srcKUID": "e71e341105d045e9b8320b1487df4b38",
                "wType": "Image"
            }
        },
        "accountsTolist.lblFromAccountName": {
            "__events__": {},
            "__info__": {
                "kuid": "gdec72441e584795abba06b4fcb689b2",
                "srcKUID": "jf3d067e67714baea72204b44594855b",
                "wType": "Label"
            }
        },
        "accountsTolist.lblFromBalance": {
            "__events__": {},
            "__info__": {
                "kuid": "dceecaa6a7834dfdab6bd4ed2f0bfde3",
                "srcKUID": "c21eb850623245528d823d20b20e6510",
                "wType": "Label"
            }
        },
        "accountsTolist.lbldropdown": {
            "__events__": {},
            "__info__": {
                "kuid": "ccd3036d5aec41308869416475708881",
                "srcKUID": "ja5f811fc3a943e7a3226f86601cc7d5",
                "wType": "Label"
            }
        },
        "accountsTolist.segAccountTypes": {
            "__events__": {},
            "__info__": {
                "kuid": "a022e6b8c78a477b8d76de8d385a0d64",
                "srcKUID": "g1d850b8086f46f6ae00dfa862fa5f30",
                "wType": "Segment"
            }
        },
        "accountslist": {
            "__events__": {},
            "__info__": {
                "kuid": "cc44cd0ad0f1440087515c7f894c6528",
                "srcKUID": "g9d41cce0337471b954a91959b9552f1",
                "wType": "UserWidgetInstance"
            }
        },
        "accountslist.FlexAccountname": {
            "__events__": {},
            "__info__": {
                "kuid": "dcdbfa8c02af409ab3168b54723b20e7",
                "srcKUID": "ca805336a9ad4c1b9d68a0c5c88f098f",
                "wType": "FlexContainer"
            }
        },
        "accountslist.flxAccountTypesSegment": {
            "__events__": {},
            "__info__": {
                "kuid": "gafeaf1ce54b4ac68123d7acca3a27a5",
                "srcKUID": "e0b4da6cbff140a5bcf45e8830064f01",
                "wType": "FlexContainer"
            }
        },
        "accountslist.imgToolTip": {
            "__events__": {},
            "__info__": {
                "kuid": "b8de23ab8ec4419c90f6c830a5cd5642",
                "srcKUID": "h2473657ca2c4ce1b95265ceb303f6cf",
                "wType": "Image"
            }
        },
        "accountslist.lblFromAccountName": {
            "__events__": {},
            "__info__": {
                "kuid": "i666df5f51c64a578f801b47c2aa4558",
                "srcKUID": "b9b3452f470a45a9b72fd7c8f2d8ba20",
                "wType": "Label"
            }
        },
        "accountslist.lblFromBalance": {
            "__events__": {},
            "__info__": {
                "kuid": "f101eb1c61504167a38500bb3e495ec3",
                "srcKUID": "a62e3be2d5534b279f2cc406c95f152b",
                "wType": "Label"
            }
        },
        "accountslist.lbldropdown": {
            "__events__": {},
            "__info__": {
                "kuid": "e173a5fd8bba4e00b41dc7f070e61b51",
                "srcKUID": "d9a11e5e971c42ea982ccabd83fe1c1d",
                "wType": "Label"
            }
        },
        "accountslist.segAccountTypes": {
            "__events__": {},
            "__info__": {
                "kuid": "b34c0c60c5bb4907a6d49ce47cb6e3b9",
                "srcKUID": "ec9743bfc11b4163959bbfbdbc0c7c6f",
                "wType": "Segment"
            }
        },
        "btnConfirm": {
            "__events__": {},
            "__info__": {
                "kuid": "ea79e830e076494ab0d92b36dd22867d",
                "srcKUID": "hef1893b66cd4bb6a470f2359733623c",
                "wType": "Button"
            }
        },
        "btnModify": {
            "__events__": {},
            "__info__": {
                "kuid": "i7340afd41844146a71c0c3155e81ec9",
                "srcKUID": "cc060ce62374465fa04ce1ade47e22aa",
                "wType": "Button"
            }
        },
        "calEndingOn": {
            "__events__": {},
            "__info__": {
                "kuid": "eedea989e5404624921b7cb156c6be5e",
                "srcKUID": "cf26686c894748798b8cc6b1e949517a",
                "wType": "Calendar"
            }
        },
        "calEndingOnmod": {
            "__events__": {},
            "__info__": {
                "kuid": "fc84b5066f134fceb03ccea0a2089f3d",
                "srcKUID": "ic6304fe69fa45e681fa830216828231",
                "wType": "Calendar"
            }
        },
        "calSendOn": {
            "__events__": {},
            "__info__": {
                "kuid": "e1a055e16f3146a485d9a07859017ccc",
                "srcKUID": "d76a646608c14893847e46c15c317bec",
                "wType": "Calendar"
            }
        },
        "calSendOnmod": {
            "__events__": {},
            "__info__": {
                "kuid": "g4e3e0fca88640d095d0de3f5f24d109",
                "srcKUID": "a2c1e8dc86f245b5a23671d098777900",
                "wType": "Calendar"
            }
        },
        "calStart": {
            "__events__": {},
            "__info__": {
                "kuid": "e20ac604ad84463b8029b55a0e4f2acf",
                "srcKUID": "e34f1752a0f943578d05c38adb1cea11",
                "wType": "Calendar"
            }
        },
        "caltwicemonthlyone": {
            "__events__": {},
            "__info__": {
                "kuid": "facf9da3502a41329f9f1926690212ff",
                "srcKUID": "b3e9701e5fb345ccada70c21b6e49cc1",
                "wType": "Calendar"
            }
        },
        "caltwicemonthlytwo": {
            "__events__": {},
            "__info__": {
                "kuid": "f6cde250c5a74e33a4dd57a7be66ff7f",
                "srcKUID": "b182a088d9dc432baf19a068e7773d0e",
                "wType": "Calendar"
            }
        },
        "flexNewRecipient": {
            "__events__": {},
            "__info__": {
                "kuid": "ee074fff9bc94c3b98829e39175405e1",
                "srcKUID": "e9deb8714eaa44ba87a8d781cece6f76",
                "wType": "FlexContainer"
            }
        },
        "flexswitchOff": {
            "__events__": {},
            "__info__": {
                "kuid": "ge6d80c0011745a79d191ad62e6a88a9",
                "srcKUID": "de2f04ecd4814f9c8fb2fd3479fbf3ac",
                "wType": "FlexContainer"
            }
        },
        "flexswitchOn": {
            "__events__": {},
            "__info__": {
                "kuid": "ef4e3fbfa6f14a52ad24d76239b05450",
                "srcKUID": "fb1a0e7bb29046e182643b32eb5e6a8a",
                "wType": "FlexContainer"
            }
        },
        "flxAmount": {
            "__events__": {},
            "__info__": {
                "kuid": "c6f64ae602ba4508bfd79361cb6f76ce",
                "srcKUID": "e3c5ca4bb41a424f9b3ab5e01566ab17",
                "wType": "FlexContainer"
            },
            "isVisible": true,
            "width": {
                "Default": {
                    "type": "string",
                    "value": "45.20%"
                }
            }
        },
        "flxAmountRec": {
            "__events__": {},
            "__info__": {
                "kuid": "ef4f1425dfcd48eb97f623cab43bcf9a",
                "srcKUID": "j17993ffc2ff422e8e1fefa1af27cb6c",
                "wType": "FlexContainer"
            }
        },
        "flxAmountmod": {
            "__events__": {},
            "__info__": {
                "kuid": "i556d8c6cfc34107a8667032301c2d92",
                "srcKUID": "c0a95c8a12b941aa97be3422aec2928b",
                "wType": "FlexContainer"
            }
        },
        "flxCalEndingOn": {
            "__events__": {},
            "__info__": {
                "kuid": "h2aad586bcae490f888c7eafb0864dfa",
                "srcKUID": "dffc982293404754a766342bc7fc019c",
                "wType": "FlexContainer"
            }
        },
        "flxCalEndingOnmod": {
            "__events__": {},
            "__info__": {
                "kuid": "bf03d117140f4abb9f4f6e9f75f5edfc",
                "srcKUID": "i6daad9c7cce4b96be3e9c90cf75cbcc",
                "wType": "FlexContainer"
            }
        },
        "flxCalRenderereEndingOn": {
            "__events__": {},
            "__info__": {
                "kuid": "h1a2516268b24fb0b527663d6c22fc3c",
                "srcKUID": "fa3137d8b40741a28d2d8b1066b69891",
                "wType": "FlexContainer"
            }
        },
        "flxCalRenderereSendOn": {
            "__events__": {},
            "__info__": {
                "kuid": "c3605c74d09b4acb9c8f5afc42b1fa81",
                "srcKUID": "e7c28a338d854e3ca4d3e8bdcd27c155",
                "wType": "FlexContainer"
            }
        },
        "flxCalRenderereStartOn": {
            "__events__": {},
            "__info__": {
                "kuid": "c563ff97c85340f7b8f2c43b36243ec5",
                "srcKUID": "cc1c61d755ca452c97bc175bf1fbdf6d",
                "wType": "FlexContainer"
            }
        },
        "flxCalRenderereTwiceMonthlyone": {
            "__events__": {},
            "__info__": {
                "kuid": "hc2322294f784b8c9c43e7ec824f191d",
                "srcKUID": "j667635c6df14143a412177d87250e58",
                "wType": "FlexContainer"
            }
        },
        "flxCalRenderereTwiceMonthlytwo": {
            "__events__": {},
            "__info__": {
                "kuid": "hc8e5c9651514510ac2e0e8773c94083",
                "srcKUID": "fc5f3a490fc3414da3fc9ca29e35a367",
                "wType": "FlexContainer"
            }
        },
        "flxCalSendOn": {
            "__events__": {},
            "__info__": {
                "kuid": "a1c3ba78596f49df8b218640edc71abc",
                "srcKUID": "b27b0bb37c364bb6aa78d2a7e27e09f8",
                "wType": "FlexContainer"
            }
        },
        "flxCalSendOnmod": {
            "__events__": {},
            "__info__": {
                "kuid": "cde07ed6ed3040179a14b66e214a4fe7",
                "srcKUID": "bfb91600fae848ca8d5ade670b43ed6c",
                "wType": "FlexContainer"
            }
        },
        "flxCaltwicemonthlyone": {
            "__events__": {},
            "__info__": {
                "kuid": "fdf0c4933e044f43937a1cd00a43827f",
                "srcKUID": "dcc97401e13341a9a68eae215460ef38",
                "wType": "FlexContainer"
            }
        },
        "flxCaltwicemonthlytwo": {
            "__events__": {},
            "__info__": {
                "kuid": "h938ebf5caf340edba3b06149699c949",
                "srcKUID": "a8bf6e498ab742aba9a63cb6e893fa5f",
                "wType": "FlexContainer"
            }
        },
        "flxContainer1": {
            "__events__": {},
            "__info__": {
                "kuid": "e4d9aafcff76469a9f0fa6fab3cf440a",
                "srcKUID": "e9725855fade438cb38adb1e6a3a9fce",
                "wType": "FlexContainer"
            }
        },
        "flxContainer2": {
            "__events__": {},
            "__info__": {
                "kuid": "dff25021e0d949f38c66dccc8bfd7b8a",
                "srcKUID": "b3553168428f474680e0ea14912c0f6a",
                "wType": "FlexContainer"
            }
        },
        "flxContainer3": {
            "__events__": {},
            "__info__": {
                "kuid": "faccc49b1d3c4cc3ab540479c9af99e0",
                "srcKUID": "d4a6adeaface452d949de4fc58e468f5",
                "wType": "FlexContainer"
            },
            "width": {
                "Default": {
                    "type": "string",
                    "value": "100%"
                }
            }
        },
        "flxContainer4": {
            "__events__": {},
            "__info__": {
                "kuid": "b85cc027eba64b0da5e6df0969d44921",
                "srcKUID": "abfcaf0e343d48e2b23f2f06ebdf933c",
                "wType": "FlexContainer"
            }
        },
        "flxContainer5": {
            "__events__": {},
            "__info__": {
                "kuid": "he3c4cdd8e974aa09b6618064294094b",
                "srcKUID": "g12beb2acde94d3ab65bb9c8ff2e01e1",
                "wType": "FlexContainer"
            }
        },
        "flxContainer6": {
            "__events__": {},
            "__info__": {
                "kuid": "d145786b78b7456182349c9644153ad9",
                "srcKUID": "e70450cc3c124664b98f519cc92f6b57",
                "wType": "FlexContainer"
            }
        },
        "flxCurrentBalance": {
            "__events__": {},
            "__info__": {
                "kuid": "j17ee69a6c3445f3a950ddf6dc79be4d",
                "srcKUID": "ab6e96f73631428ebcec279e0f2d2da8",
                "wType": "FlexContainer"
            }
        },
        "flxDuration": {
            "__events__": {},
            "__info__": {
                "kuid": "b1ad5f1d0492420b99580594440058aa",
                "srcKUID": "b457b428117e4eafbf9cf4d62ebc5c05",
                "wType": "FlexContainer"
            }
        },
        "flxFrom": {
            "__events__": {},
            "__info__": {
                "kuid": "ebaad03fc2c845f0bb51698033cef3e2",
                "srcKUID": "dbbf3fb82aa24b36a72af9395894f4cd",
                "wType": "FlexContainer"
            }
        },
        "flxMainCreditCard": {
            "__events__": {},
            "__info__": {
                "kuid": "h0e594d0f09942049706f242febd60a0",
                "srcKUID": "ife6cfff7ed347eebed0b056cc2979a9",
                "wType": "FlexContainer"
            }
        },
        "flxNUORadioBtn1": {
            "__events__": {},
            "__info__": {
                "kuid": "ed22d08dc9f14bd6bf7fb2080d79a138",
                "srcKUID": "e14c4244af954fdeb40a0e31adcae68b",
                "wType": "FlexContainer"
            }
        },
        "flxNUORadioBtn2": {
            "__events__": {},
            "__info__": {
                "kuid": "eec5c630f515467a83a709cc1ea77dcc",
                "srcKUID": "cc561c32bf41466ca655a1b7da16dcab",
                "wType": "FlexContainer"
            }
        },
        "flxNUORadioBtn3": {
            "__events__": {},
            "__info__": {
                "kuid": "e3ffab2a957b42358a033327353b26e7",
                "srcKUID": "e3271ba8aabf4631aac1c7abae5ebcfb",
                "wType": "FlexContainer"
            }
        },
        "flxNUORadioBtn4": {
            "__events__": {},
            "__info__": {
                "kuid": "h3a99e118282456c93b3cbcc18d5b58f",
                "srcKUID": "i04e96f0236847ed935ca7b0e8fa0d26",
                "wType": "FlexContainer"
            }
        },
        "flxNewTransferForm": {
            "__events__": {},
            "__info__": {
                "kuid": "f6dfe8a748f2404d8e1659cf27281296",
                "srcKUID": "h18f68783c844245870480577431222e",
                "wType": "FlexContainer"
            }
        },
        "flxOption1": {
            "__events__": {},
            "__info__": {
                "kuid": "a01b2e543fe940ff9ff8201cffd6ddcc",
                "srcKUID": "f1f0de33020040aba1a182673f3f5194",
                "wType": "FlexContainer"
            },
            "isVisible": false
        },
        "flxOption2": {
            "__events__": {},
            "__info__": {
                "kuid": "ecc2fd6a384c4bb0b22b8aae69947c7f",
                "srcKUID": "dd598d2d0bba44d3ba3e9e1c12894d58",
                "wType": "FlexContainer"
            },
            "isVisible": false
        },
        "flxOption3": {
            "__events__": {},
            "__info__": {
                "kuid": "cd73037b627d41ebb36f849115cdc529",
                "srcKUID": "f3961f6f8c4f48b693f66f0ea7dd1b91",
                "wType": "FlexContainer"
            },
            "isVisible": false
        },
        "flxOption4": {
            "__events__": {},
            "__info__": {
                "kuid": "cba224a539854f68807335b2b5c24d33",
                "srcKUID": "g211c6d6159c45e68227aefb208910a0",
                "wType": "FlexContainer"
            },
            "isVisible": false
        },
        "flxOptions": {
            "__events__": {},
            "__info__": {
                "kuid": "e28c681e3acf4842818db110d1e308e3",
                "srcKUID": "bd9efe58063d42ceb62cefdd8f5b0a61",
                "wType": "FlexContainer"
            }
        },
        "flxOptions1": {
            "__events__": {},
            "__info__": {
                "kuid": "hc890eccf28d49edb987aa2745921971",
                "srcKUID": "ad1bda1d9b1b430ca03f20a457810b62",
                "wType": "FlexContainer"
            }
        },
        "flxOptions2": {
            "__events__": {},
            "__info__": {
                "kuid": "a1b367ae46ef45a6850df0fcd9924638",
                "srcKUID": "g710d30d34b6485c930aba6cf4152b59",
                "wType": "FlexContainer"
            }
        },
        "flxPayment": {
            "__events__": {},
            "__info__": {
                "kuid": "e30f0ab6b5f347ff90982f76dc3d1f6d",
                "srcKUID": "b492b35205134b809e069dad69fe2a8b",
                "wType": "FlexContainer"
            }
        },
        "flxStartAndEndDate": {
            "__events__": {},
            "__info__": {
                "kuid": "da6d0aaefd7b486eb6b441903a857332",
                "srcKUID": "b7e39d9ee3374896b5efb04c72cab792",
                "wType": "FlexContainer"
            }
        },
        "flxStartDate1": {
            "__events__": {},
            "__info__": {
                "kuid": "b82ee87f2d28405bb4dbaa041ca2315e",
                "srcKUID": "ef02ade582fb4a21aa3f5a812030834f",
                "wType": "FlexContainer"
            }
        },
        "flxSubFrequencyAndSendOn": {
            "__events__": {},
            "__info__": {
                "kuid": "hc116bd78b624c149584c766238815a7",
                "srcKUID": "b7dc77e10507450db4619d477109c19f",
                "wType": "FlexContainer"
            }
        },
        "flxTo": {
            "__events__": {},
            "__info__": {
                "kuid": "e942fbc8234b45d8bb7ce82565f6b184",
                "srcKUID": "cfee958a6e6745f9baa7fd4fdf30bf0a",
                "wType": "FlexContainer"
            }
        },
        "flxTransferForm": {
            "__events__": {},
            "__info__": {
                "kuid": "ee77f3cf5c3b47309c5ce4e95556f972",
                "srcKUID": "ic69e2ad070a4eabb58f062a0de483bd",
                "wType": "FlexContainer"
            }
        },
        "flxTransferSubmit": {
            "__events__": {},
            "__info__": {
                "kuid": "a2aeddc20bb64d7a81f8cabfa30e36a0",
                "srcKUID": "fef06735750d4f829303b18e676966c7",
                "wType": "FlexContainer"
            }
        },
        "flxWhen": {
            "__events__": {},
            "__info__": {
                "kuid": "f279fcc68b37454f80e7bb4f48604cf6",
                "srcKUID": "jff21c8016c74896bbc83a42139a349f",
                "wType": "FlexContainer"
            }
        },
        "flxWhenLoan": {
            "__events__": {},
            "__info__": {
                "kuid": "bc02f2d3842d4410bcfe4487f7365c6a",
                "srcKUID": "e6eaaa71369d4385a807b3d466f4cb2d",
                "wType": "FlexContainer"
            }
        },
        "flxend": {
            "__events__": {},
            "__info__": {
                "kuid": "bcaf748730b74677a9d2644e1d5c0bc1",
                "srcKUID": "e418950ebbae44ab8c54cd34268e0870",
                "wType": "FlexContainer"
            }
        },
        "flxlblFrequency": {
            "__events__": {},
            "__info__": {
                "kuid": "e78984be8e0c4f3681e2005eb83c18f6",
                "srcKUID": "b0dd1e1bbcdd4b54849f809ecaab49b7",
                "wType": "FlexContainer"
            }
        },
        "flxlblSendOn": {
            "__events__": {},
            "__info__": {
                "kuid": "f84bc2f169944244877e51b1a070a9da",
                "srcKUID": "f372251121ba4c7fb62a6a89aee35ca4",
                "wType": "FlexContainer"
            }
        },
        "flxlbltwicemonthly": {
            "__events__": {},
            "__info__": {
                "kuid": "gfcae9977b1345d7a93b8e96a52fa5e9",
                "srcKUID": "e88d45c1b00f4c7cb9a508af2c239dc0",
                "wType": "FlexContainer"
            }
        },
        "flxstart": {
            "__events__": {},
            "__info__": {
                "kuid": "g01989ee1a1547be99a257e499db0697",
                "srcKUID": "e528e7365400475b80a0052519d8899b",
                "wType": "FlexContainer"
            }
        },
        "lblAccountCategory": {
            "__events__": {},
            "__info__": {
                "kuid": "f9a6da15fedf479e98d60d21001cc082",
                "srcKUID": "e8dcf1d94ada4985bb16d5b6a1765122",
                "wType": "Label"
            }
        },
        "lblAmount": {
            "__events__": {},
            "__info__": {
                "kuid": "f64423e48e244ca9944ba4a04026f750",
                "srcKUID": "b57362abd8374a76a6d9a197a77c297b",
                "wType": "Label"
            },
            "isVisible": true
        },
        "lblAmountRec": {
            "__events__": {},
            "__info__": {
                "kuid": "db5eca7b367a4c6d9ca521d30bdcba3b",
                "srcKUID": "f557a383e798473d8a540fac51f8f335",
                "wType": "Label"
            }
        },
        "lblAmountmod": {
            "__events__": {},
            "__info__": {
                "kuid": "c2e86eb976614898b5c6ce3c111f9a4f",
                "srcKUID": "bc141ab894924ff7953d84e4902aab23",
                "wType": "Label"
            }
        },
        "lblCCDueDate": {
            "__events__": {},
            "__info__": {
                "kuid": "h02deb0a88ab4985ab2d17e593e9252e",
                "srcKUID": "i052e12936ce4db7965707ee1a8e043f",
                "wType": "Label"
            }
        },
        "lblCurrencySymbol": {
            "__events__": {},
            "__info__": {
                "kuid": "hcf7a8188d844baa8aa325bcc59e7935",
                "srcKUID": "f96c0c52bfc8461797a434a1f2b8b379",
                "wType": "Label"
            }
        },
        "lblCurrencySymbolRec": {
            "__events__": {},
            "__info__": {
                "kuid": "c0f74bf09b2b47db9bd3342b232b54c4",
                "srcKUID": "e0c8b328f6024cd6bab9e7f7191d629c",
                "wType": "Label"
            }
        },
        "lblCurrencySymbolmod": {
            "__events__": {},
            "__info__": {
                "kuid": "d436b97144f94a5eae775a2dbbf50e42",
                "srcKUID": "c932ed48aa2c460a8a5cfc3775802c5a",
                "wType": "Label"
            }
        },
        "lblCurrencyValue": {
            "__events__": {},
            "__info__": {
                "kuid": "caf3734974f34b68b9d061d3e6216a2e",
                "srcKUID": "ca8c43e45020439da7dc10ec92092784",
                "wType": "Label"
            }
        },
        "lblCurrentBalance": {
            "__events__": {},
            "__info__": {
                "kuid": "f1290f10ab9e456194b80e10136c12b1",
                "srcKUID": "a1f8938a98f747a8a22332340dab6b50",
                "wType": "Label"
            }
        },
        "lblCurrentBalanceValue": {
            "__events__": {},
            "__info__": {
                "kuid": "bde597d4c84a48e488b323c34e30ed4c",
                "srcKUID": "c5682f6d254b4c5ab9c9ba738e1d9d21",
                "wType": "Label"
            }
        },
        "lblDueDate": {
            "__events__": {},
            "__info__": {
                "kuid": "g84d0bf483ad416eaad093a031f14fcb",
                "srcKUID": "d910aa7b85814cdabd7ae03578bd6d31",
                "wType": "Label"
            }
        },
        "lblDueDateLoan": {
            "__events__": {},
            "__info__": {
                "kuid": "d5268e81362941cd9cc293419129a8b1",
                "srcKUID": "ede17c2ebb6649259aac181f400e6144",
                "wType": "Label"
            }
        },
        "lblForhowLong": {
            "__events__": {},
            "__info__": {
                "kuid": "i1b5a21a64b34657992a91259b3a8c72",
                "srcKUID": "bc0e6f15771545c4a6914733ea547f0e",
                "wType": "Label"
            }
        },
        "lblForhowLongmod": {
            "__events__": {},
            "__info__": {
                "kuid": "e86e7fde8c794dfc90a872937223ee36",
                "srcKUID": "h5a456abd67e42f2a52f4fca93ac8bea",
                "wType": "Label"
            }
        },
        "lblFrequency": {
            "__events__": {},
            "__info__": {
                "kuid": "cc024d082e1b4917b3ad86a6b54a72d6",
                "srcKUID": "e360ba57cb0545bab7a85e22d94bcdfb",
                "wType": "Label"
            }
        },
        "lblFrequencymod": {
            "__events__": {},
            "__info__": {
                "kuid": "d248bd12bf5f4028b9b009c90bc9318b",
                "srcKUID": "eb1b6d08a65f42a99968c1961a80ba4d",
                "wType": "Label"
            }
        },
        "lblLastName": {
            "__events__": {},
            "__info__": {
                "kuid": "b8347a8b25cf42a5ba3692898058604b",
                "srcKUID": "ba4cb10835774f4282bd99ce62bf451e",
                "wType": "Label"
            }
        },
        "lblMembershipID": {
            "__events__": {},
            "__info__": {
                "kuid": "c5f72a1f8e0840419350d9705bb27f73",
                "srcKUID": "g220faccae6a4300b5ac56aa44bdfe19",
                "wType": "Label"
            }
        },
        "lblMinimumBalance": {
            "__events__": {},
            "__info__": {
                "kuid": "c5d0bf43ccf54773b4539da66adb4a84",
                "srcKUID": "a4943c8700c549e899ba3462a7b35788",
                "wType": "Label"
            }
        },
        "lblMinimumDueBalance": {
            "__events__": {},
            "__info__": {
                "kuid": "e04211d9b6d64c159086244ba605af0d",
                "srcKUID": "f474e17d4c124d5c8ed16576cbf2ede3",
                "wType": "Label"
            }
        },
        "lblMinimumDueBalanceValue": {
            "__events__": {},
            "__info__": {
                "kuid": "bca0be51930e483b86528c5f8f703909",
                "srcKUID": "fa8a988b614148b0a4e9af96451ab3f9",
                "wType": "Label"
            }
        },
        "lblNoOfRecOrEndingOn": {
            "__events__": {},
            "__info__": {
                "kuid": "af5c65187e21464bb27b32ac7179d11f",
                "srcKUID": "gcfeedceec484239a92b93c8f8f31bc9",
                "wType": "Label"
            }
        },
        "lblNoOfRecOrEndingOnmod": {
            "__events__": {},
            "__info__": {
                "kuid": "dbe03813e3a74a8888eb2f146a2c1299",
                "srcKUID": "a826f039ce714d938dcc487cd0c3fcd2",
                "wType": "Label"
            }
        },
        "lblNotes": {
            "__events__": {},
            "__info__": {
                "kuid": "j4bafac93a9e4c369f5d90fa8a0fe981",
                "srcKUID": "eedc5ed01f3c4d52bf532db55576fc80",
                "wType": "Label"
            }
        },
        "lblNotesdup": {
            "__events__": {},
            "__info__": {
                "kuid": "dde4643e7f644a96a5da56ea97f92896",
                "srcKUID": "f477fd72fef34f1d93495717585a05e4",
                "wType": "Label"
            }
        },
        "lblOtherAmount": {
            "__events__": {},
            "__info__": {
                "kuid": "i9f03cf7e65d406a89462f6d89390550",
                "srcKUID": "ccd41d2374e74c1f98bad76e922c73c0",
                "wType": "Label"
            }
        },
        "lblOtherAmountValue": {
            "__events__": {},
            "__info__": {
                "kuid": "aa46e1011b0c42d2b29b13a4e8e4a84e",
                "srcKUID": "ja071ac8a6ca4e40a504c7bed010bc82",
                "wType": "FlexContainer"
            }
        },
        "lblPAymentAmount": {
            "__events__": {},
            "__info__": {
                "kuid": "cc3061c1d135408689527605a9968992",
                "srcKUID": "g7fc524733b64b0a91b77762c4dbe6e5",
                "wType": "Label"
            }
        },
        "lblRadioBtn1": {
            "__events__": {},
            "__info__": {
                "kuid": "a50a769688e940c083be6a6751e21347",
                "srcKUID": "bbf54053674a4deeb42fbf2ac5ecdf8e",
                "wType": "Label"
            }
        },
        "lblRadioBtn2": {
            "__events__": {},
            "__info__": {
                "kuid": "e28c736fc8cb4ba889c4fea4ec1f85c5",
                "srcKUID": "af9496fef6da44b98ec75b2db0802d7e",
                "wType": "Label"
            }
        },
        "lblRadioBtn3": {
            "__events__": {},
            "__info__": {
                "kuid": "f5ec792d25e744718834ebfc12800ab9",
                "srcKUID": "fd27a2d593164f8dab5b87c7e2432e58",
                "wType": "Label"
            }
        },
        "lblRadioBtn4": {
            "__events__": {},
            "__info__": {
                "kuid": "i556c01cd4e6425aa98348731eb512b1",
                "srcKUID": "d5d6c5ddd53042ef86710b97c828b4fb",
                "wType": "Label"
            }
        },
        "lblRegDLimit": {
            "__events__": {},
            "__info__": {
                "kuid": "cfd6e2d3d469413a85e59174ac3e120d",
                "srcKUID": "e5aeac0036774151bc9b8c50ae452a81",
                "wType": "Label"
            }
        },
        "lblSendOn": {
            "__events__": {},
            "__info__": {
                "kuid": "d1cd1c0acf584fe6819544b7e9530332",
                "srcKUID": "bb3434d327ba47c4adcec76bc418295e",
                "wType": "Label"
            }
        },
        "lblSendOnmod": {
            "__events__": {},
            "__info__": {
                "kuid": "hab30f7eeefb41db8b50985e9bff6394",
                "srcKUID": "dc31749db94b44b684beb79917d63996",
                "wType": "Label"
            }
        },
        "lblShareID": {
            "__events__": {},
            "__info__": {
                "kuid": "f71a0a7ff4f14fad87e79920100b9be3",
                "srcKUID": "dcda42b6ec024b4da5f13208803e6726",
                "wType": "Label"
            }
        },
        "lblStart": {
            "__events__": {},
            "__info__": {
                "kuid": "he7a95bb889f4ba1927085c62e713d30",
                "srcKUID": "b060d4ca51e3407f9fa40b6e79b7aae3",
                "wType": "Label"
            }
        },
        "lblStatementBalance": {
            "__events__": {},
            "__info__": {
                "kuid": "ed20ef29adef4a829fd78d0e206dcd57",
                "srcKUID": "ee7d00729f7e47b4b2b47d20626458cd",
                "wType": "Label"
            }
        },
        "lblStatementBalanceValue": {
            "__events__": {},
            "__info__": {
                "kuid": "f472413188c44d39944713b8e44e3415",
                "srcKUID": "b4772d24085c45f1a113cb1421f2b96d",
                "wType": "Label"
            }
        },
        "lblTransferFrom": {
            "__events__": {},
            "__info__": {
                "kuid": "ge39737abac542cdba4d619c34f73f7c",
                "srcKUID": "e1a0bdbae96e488f9abf6bc3109c8b37",
                "wType": "Label"
            }
        },
        "lblTransferFrommod": {
            "__events__": {},
            "__info__": {
                "kuid": "cd257a18bfb04e54bc9523873b2dc203",
                "srcKUID": "f445cebb06c6436c81a31d4c334e6266",
                "wType": "Label"
            }
        },
        "lblTransferTo": {
            "__events__": {},
            "__info__": {
                "kuid": "d1af47a532b948aa9b86438f6933bcd5",
                "srcKUID": "c24eb0e7f5554e98a040269c494bbb9b",
                "wType": "Label"
            }
        },
        "lblTransferTomod": {
            "__events__": {},
            "__info__": {
                "kuid": "a5b028ed95d745bbb3be23dbda3ce2da",
                "srcKUID": "f12cd4038a2547a392b23bacf58b8c16",
                "wType": "Label"
            }
        },
        "lblWarning": {
            "__events__": {},
            "__info__": {
                "kuid": "hb0658dd22214043be5f777f96ddf7e6",
                "srcKUID": "e8699e4b91504fd299ccd5053a164245",
                "wType": "Label"
            }
        },
        "lblWhen": {
            "__events__": {},
            "__info__": {
                "kuid": "d687a7a4cb594eaba4c00a0e2e54bd92",
                "srcKUID": "ga4cd4436cb146d68765cefe4b6e45c7",
                "wType": "Label"
            }
        },
        "lblWhenLoan": {
            "__events__": {},
            "__info__": {
                "kuid": "e7215bc7a16a4d1e832b1a75151583b2",
                "srcKUID": "d3250c414f734b4e9f79d3f3b75e25d0",
                "wType": "Label"
            }
        },
        "lblmonthlyDateone": {
            "__events__": {},
            "__info__": {
                "kuid": "b4c0680c457345dea52f9b1f6ebf9689",
                "srcKUID": "aededa68d07f44d79771a85121231a92",
                "wType": "Label"
            }
        },
        "lblmonthlyDatetwo": {
            "__events__": {},
            "__info__": {
                "kuid": "j95b538bda934c88b81457c657232e5c",
                "srcKUID": "h55bd1d6a5c545ad98d4420be6a5dc2f",
                "wType": "Label"
            }
        },
        "lbxAccountCategory": {
            "__events__": {},
            "__info__": {
                "kuid": "d865cf46fe454eab98bec6f38e551cbc",
                "srcKUID": "ba089f83d0534ac6a3420c6896fc48ca",
                "wType": "ListBox"
            }
        },
        "lbxForHowLong": {
            "__events__": {},
            "__info__": {
                "kuid": "h2693edad2ed4b02a89f11cce5e5dd9f",
                "srcKUID": "ccc4d74b19ee4dc2ba827def1e990f19",
                "wType": "ListBox"
            }
        },
        "lbxForHowLongmod": {
            "__events__": {},
            "__info__": {
                "kuid": "f93485d73f9148358cc32e5fa76da45c",
                "srcKUID": "d39b7010b91247a2bf1789f1dbc70d11",
                "wType": "ListBox"
            }
        },
        "lbxFrequency": {
            "__events__": {},
            "__info__": {
                "kuid": "h4cda23cd7b948b68d16ee3a9945ca02",
                "srcKUID": "j892f111e64c4096bf753fc6f23c1e17",
                "wType": "ListBox"
            }
        },
        "lbxFrequencymod": {
            "__events__": {},
            "__info__": {
                "kuid": "dc9af67f1e0543baa7452b2f7a147dfb",
                "srcKUID": "af02bca2d81d411d8586a3ebf6932e9e",
                "wType": "ListBox"
            }
        },
        "lbxFromAccount": {
            "__events__": {},
            "__info__": {
                "kuid": "b1917080b55746f1bd46fde9d9ae6506",
                "srcKUID": "a333c27cc49b451e8630fc4629f62f61",
                "wType": "ListBox"
            }
        },
        "lbxFromAccountmod": {
            "__events__": {},
            "__info__": {
                "kuid": "f139b85d06ab407aa56c8546d9bc3b18",
                "srcKUID": "jaaeb95d39f0464b956c717450a94f3d",
                "wType": "ListBox"
            }
        },
        "lbxToAccount": {
            "__events__": {},
            "__info__": {
                "kuid": "c3c73a9eadae4c97ae7028d660f6d24b",
                "srcKUID": "a84b0639eab84a4abfc672b5fcd8ebbb",
                "wType": "ListBox"
            }
        },
        "lbxToAccountmod": {
            "__events__": {},
            "__info__": {
                "kuid": "c197b9b965be465c8dd2b4014e1c06d5",
                "srcKUID": "e45b010a17954e0d9c322493aa3d75b5",
                "wType": "ListBox"
            }
        },
        "maketransfer": {
            "__events__": {},
            "__info__": {
                "isRoot": true,
                "kuid": "a3d7dcbf498b48c0888d5c54a792c10d",
                "srcKUID": "f4a832f7018140aabbbf317c33235857",
                "wType": "FlexContainer"
            },
            "autogrowMode": 1,
            "height": {
                "Default": {
                    "type": "ref",
                    "value": "preferred"
                }
            },
            "left": {
                "Default": {
                    "type": "string",
                    "value": "0dp"
                }
            },
            "top": {
                "Default": {
                    "type": "string",
                    "value": "0dp"
                }
            },
            "zIndex": {
                "Default": 1
            }
        },
        "tbxAmount": {
            "__events__": {},
            "__info__": {
                "kuid": "ecc97f9dbf21463aae5addfe030f30fc",
                "srcKUID": "e40225ee83c14dee8d81efedb42bb307",
                "wType": "TextField"
            }
        },
        "tbxAmountRec": {
            "__events__": {},
            "__info__": {
                "kuid": "h0e3fba92de34a0881b840dc07dd3400",
                "srcKUID": "e37077adf8864328a724ff922f5e9de3",
                "wType": "TextField"
            }
        },
        "tbxAmountValue": {
            "__events__": {},
            "__info__": {
                "kuid": "b145d3926cb645dfb3cddd63ff8737ea",
                "srcKUID": "af55a27f4ea442b485b455421d78c2dd",
                "wType": "TextField"
            }
        },
        "tbxAmountmod": {
            "__events__": {},
            "__info__": {
                "kuid": "ea2c75edb12c4cb7a2131ca8c5c5ab9c",
                "srcKUID": "d114563df74749ec8c7fa561d04ef386",
                "wType": "TextField"
            }
        },
        "tbxLastName": {
            "__events__": {},
            "__info__": {
                "kuid": "hc020616de814f49aa70c31f1d26a6bf",
                "srcKUID": "d08e75b8ba46435cae6f43a512fd11b9",
                "wType": "TextField"
            }
        },
        "tbxMembershipID": {
            "__events__": {},
            "__info__": {
                "kuid": "d3b64390c81c43eea670203ac368c31b",
                "srcKUID": "g1f028294f8147acaa245150d97fc3a2",
                "wType": "TextField"
            }
        },
        "tbxNoOfRecurrences": {
            "__events__": {},
            "__info__": {
                "kuid": "g767afdea8bb4bd08afbf922a5340abb",
                "srcKUID": "dc80402137314e0a96886d5c754d6f50",
                "wType": "TextField"
            }
        },
        "tbxNoOfRecurrencesmod": {
            "__events__": {},
            "__info__": {
                "kuid": "b867fe564fca4292b5dda0d014093583",
                "srcKUID": "f25665ee07714d7eb3db081ce8d97427",
                "wType": "TextField"
            }
        },
        "tbxNotesmain": {
            "__events__": {},
            "__info__": {
                "kuid": "d89e4331cd744ad58e982ddbf3b405da",
                "srcKUID": "f9bca86760de44bfbe928ff76792c05a",
                "wType": "TextField"
            }
        },
        "tbxShareID": {
            "__events__": {},
            "__info__": {
                "kuid": "jf9f24adefcd4cf8880153499c1cbec7",
                "srcKUID": "d0664de8e4d146db93213db29fe1612d",
                "wType": "TextField"
            }
        },
        "txtBxOtherAmount": {
            "__events__": {},
            "__info__": {
                "kuid": "e7c42fcc2a244fd6aa6cb435c171ef1f",
                "srcKUID": "d1537063e390451397cb9c6ba4d2e1f0",
                "wType": "TextField"
            }
        },
        "txtEndingOn": {
            "__events__": {},
            "__info__": {
                "kuid": "ff242619891643a8b78bf415642620f3",
                "srcKUID": "fcba474f7ec240f38c6387c62e50e623",
                "wType": "TextField"
            }
        },
        "txtNotes": {
            "__events__": {},
            "__info__": {
                "kuid": "j1e7515f9bb44cce8074bf6dfcf41302",
                "srcKUID": "c891987268264644b36f8640fa343e46",
                "wType": "TextField"
            }
        },
        "txtOtherAmount": {
            "__events__": {},
            "__info__": {
                "kuid": "b1a03e615cbb4d00a389649dc31b3344",
                "srcKUID": "a52b68c563f74d2f90330468e9a6687a",
                "wType": "TextField"
            }
        }
    },
    "id": "maketransfer",
    "info": null,
    "isdatareferenced": false,
    "isvisible": true,
    "kuid": "b34acbe7ce264e749b4502e4fafbbec7",
    "layouttype": 4,
    "masterType": 0,
    "name": "kony.ui.UserWidgetInstance",
    "parent": "flxMakeTransferForm",
    "pf": "userwidgetmodel",
    "snaptogrid": true,
    "sourceUserWidget": "f4a832f7018140aabbbf317c33235857",
    "wType": "UserWidgetInstance",
    "zindex": 1
}