{
  "DNDConfig": null,
  "__parentReadjusting__": false,
  "_height_": {
    "type": "string",
    "value": "30dp"
  },
  "_left_": {
    "type": "string",
    "value": "3%"
  },
  "_margin_": [
    0,
    0,
    0,
    0
  ],
  "_orientation_": 6,
  "_padding_": [
    0,
    0,
    0,
    0
  ],
  "_percent_": true,
  "_skin_": "s24c92fc23b14f5484b693ee9b8a9b35",
  "_top_": {
    "type": "string",
    "value": "70dp"
  },
  "_width_": {
    "type": "ref",
    "value": "preferred"
  },
  "allboxes": [],
  "autogrowmode": 0,
  "canUpdateUI": true,
  "children": [
    "lblBillDate",
    "lblColon1",
    "lblPostDateValue"
  ],
  "clipbounds": true,
  "containerweight": 100,
  "enablescrolling": true,
  "id": "flxBillDate",
  "info": null,
  "isvisible": true,
  "kuid": "e75ba0cbd6e746ae8c7d21e448bd7db6",
  "layouttype": 3,
  "name": "kony.ui.FlexContainer",
  "parent": "ViewEBill",
  "pf": "userwidgetmodel",
  "snapgridsize": 10,
  "snaptogrid": true,
  "wType": "FlexContainer",
  "widgetalignment": 1,
  "zindex": 1
}