{
  "@class": "com.kony.gen.viz.model.component.KVizLabel",
  "DNDConfig": null,
  "__parentReadjusting__": false,
  "_height_": {
    "type": "ref",
    "value": "preferred"
  },
  "_margin_": [
    1,
    1,
    1,
    1
  ],
  "_padding_": [
    0,
    0,
    0,
    0
  ],
  "_skin_": "s88b3db7b8744179a645e63daf90e49e",
  "_text_": "Label",
  "_top_": {
    "type": "string",
    "value": "2%"
  },
  "_width_": {
    "type": "ref",
    "value": "preferred"
  },
  "_wrapping_": 2,
  "android": {
    "textStyle": {
      "letterSpacing": 0,
      "strikeThrough": false
    }
  },
  "canUpdateUI": true,
  "centerx": {
    "type": "string",
    "value": "50%"
  },
  "containerweight": 100,
  "contentalignment": 5,
  "id": "lblResetPasswordMsg",
  "info": null,
  "ipad": {
    "psp": {
      "wrapping": 2
    }
  },
  "iphone": {
    "psp": {
      "wrapping": 2
    }
  },
  "isvisible": true,
  "kuid": "931c6f165faa477c906db55e37ab7358",
  "name": "kony.ui.Label",
  "parent": "sendOTP",
  "pf": "userwidgetmodel",
  "texti18n": "i18n.enrollNow.Enrolling",
  "tooltip": "",
  "wType": "Label",
  "zindex": 1
}