{
  "DNDConfig": null,
  "__parentReadjusting__": false,
  "_height_": {
    "type": "string",
    "value": "46dp"
  },
  "_margin_": [
    0,
    0,
    0,
    0
  ],
  "_orientation_": 6,
  "_padding_": [
    0,
    0,
    0,
    0
  ],
  "_percent_": true,
  "_skin_": "s9bdf03b6bd44eae8b6fa0cd52bb1713",
  "_top_": {
    "type": "string",
    "value": "5.30%"
  },
  "_width_": {
    "type": "string",
    "value": "85%"
  },
  "allboxes": [],
  "autogrowmode": 0,
  "canUpdateUI": true,
  "centerx": {
    "type": "string",
    "value": "50%"
  },
  "children": [
    "imgViewCVV",
    "tbxCVV"
  ],
  "clipbounds": true,
  "containerweight": 100,
  "enablescrolling": true,
  "id": "flxCVV",
  "info": null,
  "isvisible": false,
  "kuid": "7c3d82dee7a44724a9d8a1782ffca9f7",
  "layouttype": 2,
  "name": "kony.ui.FlexContainer",
  "parent": "resetusingOTPP",
  "pf": "userwidgetmodel",
  "snapgridsize": 10,
  "snaptogrid": true,
  "wType": "FlexContainer",
  "widgetalignment": 1,
  "zindex": 1
}