{
  "@class": "com.kony.gen.viz.model.component.KVizRichText",
  "DNDConfig": null,
  "__parentReadjusting__": false,
  "_height_": {
    "type": "ref",
    "value": "preferred"
  },
  "_margin_": [
    0,
    0,
    0,
    0
  ],
  "_padding_": [
    0,
    0,
    0,
    0
  ],
  "_skin_": "sef1dee9beaf41eeb2d0cc942604b38f",
  "_text_": "RichText",
  "_top_": {
    "type": "string",
    "value": "4.40%"
  },
  "_width_": {
    "type": "string",
    "value": "85%"
  },
  "_wrapping_": 2,
  "canUpdateUI": true,
  "centerx": {
    "type": "string",
    "value": "50%"
  },
  "containerweight": 100,
  "contentalignment": 5,
  "id": "rtxUseOTP",
  "info": null,
  "isvisible": true,
  "kuid": "bebc3ba286f94968b02acf246dbdeb08",
  "name": "kony.ui.RichText",
  "parent": "resetusingOTPP",
  "pf": "userwidgetmodel",
  "texti18n": "i18n.common.CVVOption",
  "wType": "RichText",
  "widgetalignment": 5,
  "zindex": 1
}