{
  "@class": "com.kony.gen.viz.model.component.KVizButton",
  "DNDConfig": null,
  "__parentReadjusting__": false,
  "_height_": {
    "type": "string",
    "value": "50%"
  },
  "_left_": {
    "type": "string",
    "value": "0dp"
  },
  "_margin_": [
    6,
    6,
    6,
    6
  ],
  "_padding_": [
    0,
    0,
    0,
    0
  ],
  "_skin_": "sbe3e7a1c4044f848399e201c367dec6",
  "_text_": "Stop Check",
  "_top_": {
    "type": "string",
    "value": "0dp"
  },
  "_width_": {
    "type": "ref",
    "value": "preferred"
  },
  "canUpdateUI": true,
  "containerId": true,
  "containerweight": 100,
  "contentalignment": 5,
  "displaytext": true,
  "focusskin": "sd71d0678a0a43cc89a6755d3752caa4",
  "id": "btnStopCheck",
  "info": null,
  "iscustomlayout": false,
  "isvisible": true,
  "kuid": "e706e3d595af463183928513c8958d06",
  "name": "kony.ui.Button",
  "parent": "flxStopCheck",
  "pf": "segTransactionsRowSelectedSavings",
  "retaincontentalignment": false,
  "retainflexpositionproperties": false,
  "wType": "Button",
  "zindex": 1
}