{
  "DNDConfig": null,
  "__parentReadjusting__": false,
  "_height_": {
    "type": "string",
    "value": "100%"
  },
  "_left_": {
    "type": "string",
    "value": "-15dp"
  },
  "_margin_": [
    0,
    0,
    0,
    0
  ],
  "_orientation_": 6,
  "_padding_": [
    0,
    0,
    0,
    0
  ],
  "_percent_": true,
  "_skin_": "sfe7c6ddceef4b24a7f6bb890bb111a5",
  "_top_": {
    "type": "string",
    "value": "0dp"
  },
  "_width_": {
    "type": "string",
    "value": "79%"
  },
  "allboxes": [],
  "autogrowmode": 0,
  "canUpdateUI": true,
  "children": [
    "flxDetailHeader",
    "flxDetailData",
    "flxDetailHeaderTwo",
    "flxDetailDataTwo",
    "flxCheckDetails"
  ],
  "clipbounds": true,
  "containerId": true,
  "containerweight": 100,
  "enablescrolling": true,
  "id": "flxInformation",
  "info": null,
  "isvisible": true,
  "kuid": "ia1ae9346fde46138096cd466333d66c",
  "layouttype": 4,
  "name": "kony.ui.FlexContainer",
  "parent": "flxDetail",
  "pf": "segTransactionsRowSelectedSavings",
  "snapgridsize": 10,
  "snaptogrid": true,
  "wType": "FlexContainer",
  "widgetalignment": 1,
  "zindex": 1
}