{
  "@class": "com.kony.gen.viz.model.component.KVizLabel",
  "DNDConfig": null,
  "__parentReadjusting__": false,
  "_height_": {
    "type": "ref",
    "value": "preferred"
  },
  "_left_": {
    "type": "string",
    "value": "0dp"
  },
  "_margin_": [
    1,
    1,
    1,
    1
  ],
  "_padding_": [
    0,
    0,
    0,
    0
  ],
  "_skin_": "s7430d55973048da9e66a8804b019227",
  "_text_": "Swift Code",
  "_width_": {
    "type": "string",
    "value": "50%"
  },
  "_wrapping_": 2,
  "android": {
    "textStyle": {
      "letterSpacing": 0,
      "strikeThrough": false
    }
  },
  "canUpdateUI": true,
  "centery": {
    "type": "string",
    "value": "50%"
  },
  "containerweight": 100,
  "contentalignment": 4,
  "id": "lblSwiftCode",
  "info": null,
  "ipad": {
    "psp": {
      "wrapping": 2
    }
  },
  "iphone": {
    "psp": {
      "wrapping": 2
    }
  },
  "isvisible": true,
  "kuid": "b1e6ea94289d49c099397b94d9d7e882",
  "name": "kony.ui.Label",
  "parent": "flxSwiftCode",
  "pf": "userwidgetmodel",
  "texti18n": "i18n.accounts.swiftCode",
  "tooltip": "Swift Code",
  "wType": "Label",
  "zindex": 1
}