{
  "@class": "com.kony.gen.viz.model.component.KVizUserWidget",
  "DNDConfig": null,
  "__parentReadjusting__": false,
  "_children_": [],
  "_height_": "370dp",
  "_left_": {
    "type": "string",
    "value": "8dp"
  },
  "_margin_": [
    0,
    0,
    0,
    0
  ],
  "_orientation_": 1,
  "_padding_": [
    0,
    0,
    0,
    0
  ],
  "_percent_": true,
  "_render_": true,
  "_skin_": "se85abaf599e4066908a190ec0505648",
  "_top_": {
    "type": "string",
    "value": "19dp"
  },
  "_width_": "100%",
  "areflexpropsreferenced": false,
  "autogrowmode": 0,
  "canUpdateUI": true,
  "clipbounds": true,
  "containerweight": 0,
  "dataDiffs": {
    "FlexContainer0f1496209679448": {
      "__events__": {},
      "__info__": {
        "kuid": "b42824a15d75432c898d3bb5393297c1",
        "srcKUID": "cd364d9fcd9147228f1682fd67a71e13",
        "wType": "FlexContainer"
      }
    },
    "btnLogin": {
      "__events__": {},
      "__info__": {
        "kuid": "ged6662145b94961b86a0e1bbf5c1c56",
        "srcKUID": "f541cbaa3c484706a79058cb4ec13ce6",
        "wType": "Button"
      }
    },
    "flexcheckuncheck": {
      "__events__": {},
      "__info__": {
        "kuid": "d6b1321846a449929736ba8b3b7cf69a",
        "srcKUID": "be28720e11984a04ad12822d9f4c35ac",
        "wType": "FlexContainer"
      }
    },
    "flxContainer": {
      "__events__": {},
      "__info__": {
        "kuid": "hb79886168fa42eb874a62988f43058f",
        "srcKUID": "j5f107febdb74809908722b1170da29c",
        "wType": "FlexContainer"
      }
    },
    "flxPassword": {
      "__events__": {},
      "__info__": {
        "kuid": "h0fba518f31d4c2aba5fbbbe4aa7cf8b",
        "srcKUID": "f753a2451f3345c6ac0bb2c268dd0922",
        "wType": "FlexContainer"
      }
    },
    "flxRemember": {
      "__events__": {},
      "__info__": {
        "kuid": "a694c922bfde4f66a8899f69cd789443",
        "srcKUID": "a0dc23271c3c4b8d809024d9364a7dc2",
        "wType": "FlexContainer"
      }
    },
    "flxRememberMe": {
      "__events__": {},
      "__info__": {
        "kuid": "ea132da2a4144cc0ba78eb4a262318a8",
        "srcKUID": "j8c1e4a5218e48deb5c2bb9b24fab517",
        "wType": "FlexContainer"
      }
    },
    "flxUserName": {
      "__events__": {},
      "__info__": {
        "kuid": "aea089a508a049e09ddb3ed98e6825b5",
        "srcKUID": "d093f37e1a9740f9ac89cb12490fb04d",
        "wType": "FlexContainer"
      }
    },
    "imgPassword": {
      "__events__": {},
      "__info__": {
        "kuid": "a09ea5f8251f47438c1a018cf717bb32",
        "srcKUID": "j5421ee579244779ad636004a270844b",
        "wType": "Image"
      }
    },
    "imgRememberMe": {
      "__events__": {},
      "__info__": {
        "kuid": "gdc961244d1148ec96cc317969355fe9",
        "srcKUID": "h985ff223fbf41fb8f09f27763b13db4",
        "wType": "Image"
      }
    },
    "imgUser": {
      "__events__": {},
      "__info__": {
        "kuid": "hd736b4c0d6744b38951a34689fe2b56",
        "srcKUID": "b659c804b4854ec88e16293e8f881fa0",
        "wType": "Image"
      }
    },
    "imgUserName": {
      "__events__": {},
      "__info__": {
        "kuid": "eb9b4c5a0aed47d89fde5ad26f9baceb",
        "srcKUID": "e4926413e7b04056a3648a9cb2c5bc0f",
        "wType": "Image"
      }
    },
    "imgViewPassword": {
      "__events__": {},
      "__info__": {
        "kuid": "je6781de243145d0b0cff316fb067db5",
        "srcKUID": "ibc4be4e806e4092bb6ea2b70aae75ca",
        "wType": "Image"
      }
    },
    "lblAppName": {
      "__events__": {},
      "__info__": {
        "kuid": "ad1d437512464f339c40c2751d578097",
        "srcKUID": "b688a6e65d9d4587addab17d2e601caf",
        "wType": "Label"
      }
    },
    "lblForgotPassword": {
      "__events__": {},
      "__info__": {
        "kuid": "b8d00b658e3441999357dabd9ade6d1d",
        "srcKUID": "bdfad19fefc54fc1a0598d6231f5af96",
        "wType": "Label"
      }
    },
    "lblOnlineAccessEnroll": {
      "__events__": {},
      "__info__": {
        "kuid": "hb510e400ff44b059db6f5f8d3af3625",
        "srcKUID": "hec09a41c2ab4cd68201306649030162",
        "wType": "Label"
      }
    },
    "lblRememberMe": {
      "__events__": {},
      "__info__": {
        "kuid": "bf5009d05dc346a9adf5bed756369501",
        "srcKUID": "jd7a1760c7134b86964476225ddd89b7",
        "wType": "Label"
      }
    },
    "lblWelcome": {
      "__events__": {},
      "__info__": {
        "kuid": "h8f3bac0be0d4d1193a0ca43352bf5fc",
        "srcKUID": "b0658895f2464a41bd8dbb6d495aedd5",
        "wType": "Label"
      }
    },
    "mainP": {
      "__events__": {},
      "__info__": {
        "isRoot": true,
        "kuid": "b278efeebfc14e5abcf26e80d0b253b7",
        "srcKUID": "b1cb80cb812141b1b88a47f4909e88bc",
        "wType": "FlexContainer"
      },
      "left": {
        "Default": {
          "type": "string",
          "value": "8dp"
        }
      },
      "top": {
        "Default": {
          "type": "string",
          "value": "19dp"
        }
      },
      "zIndex": {
        "Default": 1
      }
    },
    "tbxPassword": {
      "__events__": {},
      "__info__": {
        "kuid": "d2e6fa998d2e4ca19b1ba9a14476b784",
        "srcKUID": "e49f70ab321f432d985be131d36b448e",
        "wType": "TextField"
      }
    },
    "tbxUserName": {
      "__events__": {},
      "__info__": {
        "kuid": "a9d24d2afc0b465abdaeb0e720799431",
        "srcKUID": "f15e7f6bef8f4662854d3d1cb93f6c50",
        "wType": "TextField"
      }
    }
  },
  "id": "CopymainP0c221be7fd95e45",
  "info": null,
  "isdatareferenced": false,
  "isvisible": true,
  "kuid": "cd36c01692474aa082fc9128e6e1274f",
  "layouttype": 2,
  "masterType": 0,
  "name": "kony.ui.UserWidgetInstance",
  "parent": "flxResetSuccessful",
  "pf": "frmLoginP",
  "snaptogrid": true,
  "sourceUserWidget": "b1cb80cb812141b1b88a47f4909e88bc",
  "wType": "UserWidgetInstance",
  "zindex": 1
}