{
  "@class": "com.kony.gen.viz.model.component.KVizUserWidget",
  "DNDConfig": null,
  "__parentReadjusting__": false,
  "_children_": [],
  "_height_": "370dp",
  "_left_": {
    "type": "string",
    "value": "8dp"
  },
  "_margin_": [
    0,
    0,
    0,
    0
  ],
  "_orientation_": 1,
  "_padding_": [
    0,
    0,
    0,
    0
  ],
  "_percent_": true,
  "_render_": true,
  "_skin_": "se85abaf599e4066908a190ec0505648",
  "_top_": {
    "type": "string",
    "value": "19dp"
  },
  "_width_": "100%",
  "areflexpropsreferenced": false,
  "autogrowmode": 0,
  "canUpdateUI": true,
  "clipbounds": true,
  "containerweight": 0,
  "dataDiffs": {
    "FlexContainer0f1496209679448": {
      "__events__": {},
      "__info__": {
        "kuid": "b739ef7faa4d460aa772f4322742e998",
        "srcKUID": "cd364d9fcd9147228f1682fd67a71e13",
        "wType": "FlexContainer"
      }
    },
    "btnLogin": {
      "__events__": {},
      "__info__": {
        "kuid": "f4a1eda63a304d0bb1ab89736652e105",
        "srcKUID": "f541cbaa3c484706a79058cb4ec13ce6",
        "wType": "Button"
      }
    },
    "flexcheckuncheck": {
      "__events__": {},
      "__info__": {
        "kuid": "b6291101361b4e7ea0ebb822755f6749",
        "srcKUID": "be28720e11984a04ad12822d9f4c35ac",
        "wType": "FlexContainer"
      }
    },
    "flxContainer": {
      "__events__": {},
      "__info__": {
        "kuid": "e08cc149dbc74319bc00238a4ed62677",
        "srcKUID": "j5f107febdb74809908722b1170da29c",
        "wType": "FlexContainer"
      }
    },
    "flxPassword": {
      "__events__": {},
      "__info__": {
        "kuid": "h72ce9fe7757454e9e3a59d8ff4d2560",
        "srcKUID": "f753a2451f3345c6ac0bb2c268dd0922",
        "wType": "FlexContainer"
      }
    },
    "flxRemember": {
      "__events__": {},
      "__info__": {
        "kuid": "i3845c8309d140889c693e796003c4ef",
        "srcKUID": "a0dc23271c3c4b8d809024d9364a7dc2",
        "wType": "FlexContainer"
      }
    },
    "flxRememberMe": {
      "__events__": {},
      "__info__": {
        "kuid": "f2b7d514c7dd477b917690bd461de3e9",
        "srcKUID": "j8c1e4a5218e48deb5c2bb9b24fab517",
        "wType": "FlexContainer"
      }
    },
    "flxUserName": {
      "__events__": {},
      "__info__": {
        "kuid": "ef18957e9ed04a5da7decdf44af24ff4",
        "srcKUID": "d093f37e1a9740f9ac89cb12490fb04d",
        "wType": "FlexContainer"
      }
    },
    "imgPassword": {
      "__events__": {},
      "__info__": {
        "kuid": "aafdc4c9df904ee499a0ccbb0b96adef",
        "srcKUID": "j5421ee579244779ad636004a270844b",
        "wType": "Image"
      }
    },
    "imgRememberMe": {
      "__events__": {},
      "__info__": {
        "kuid": "eba4d04646cf4c5589babcf28a4815ec",
        "srcKUID": "h985ff223fbf41fb8f09f27763b13db4",
        "wType": "Image"
      }
    },
    "imgUser": {
      "__events__": {},
      "__info__": {
        "kuid": "adcaf4c59a23463cb66b67a50b46d41a",
        "srcKUID": "b659c804b4854ec88e16293e8f881fa0",
        "wType": "Image"
      }
    },
    "imgUserName": {
      "__events__": {},
      "__info__": {
        "kuid": "d84619c53bd2480c857fdf2bb1f59965",
        "srcKUID": "e4926413e7b04056a3648a9cb2c5bc0f",
        "wType": "Image"
      }
    },
    "imgViewPassword": {
      "__events__": {},
      "__info__": {
        "kuid": "b789248ad2ca432babb6cf57fa5161a5",
        "srcKUID": "ibc4be4e806e4092bb6ea2b70aae75ca",
        "wType": "Image"
      }
    },
    "lblAppName": {
      "__events__": {},
      "__info__": {
        "kuid": "ae95447339c141138064a3ea78c7ca71",
        "srcKUID": "b688a6e65d9d4587addab17d2e601caf",
        "wType": "Label"
      }
    },
    "lblForgotPassword": {
      "__events__": {},
      "__info__": {
        "kuid": "ffd42364cc6a46d49659eff55759ee09",
        "srcKUID": "bdfad19fefc54fc1a0598d6231f5af96",
        "wType": "Label"
      }
    },
    "lblOnlineAccessEnroll": {
      "__events__": {},
      "__info__": {
        "kuid": "d63e75d1dd6d4c90aa64beae6bf8c144",
        "srcKUID": "hec09a41c2ab4cd68201306649030162",
        "wType": "Label"
      }
    },
    "lblRememberMe": {
      "__events__": {},
      "__info__": {
        "kuid": "fa0fd02e05c24016a48f0b5e25093637",
        "srcKUID": "jd7a1760c7134b86964476225ddd89b7",
        "wType": "Label"
      }
    },
    "lblWelcome": {
      "__events__": {},
      "__info__": {
        "kuid": "f96a0e2a4e7f4c93b41cdcc2e046ffd0",
        "srcKUID": "b0658895f2464a41bd8dbb6d495aedd5",
        "wType": "Label"
      }
    },
    "mainP": {
      "__events__": {},
      "__info__": {
        "isRoot": true,
        "kuid": "f9c0ffa4fb49473fb3875d60b723d2a7",
        "srcKUID": "b1cb80cb812141b1b88a47f4909e88bc",
        "wType": "FlexContainer"
      },
      "left": {
        "Default": {
          "type": "string",
          "value": "8dp"
        }
      },
      "top": {
        "Default": {
          "type": "string",
          "value": "19dp"
        }
      },
      "zIndex": {
        "Default": 1
      }
    },
    "tbxPassword": {
      "__events__": {},
      "__info__": {
        "kuid": "ad120b93f7db4ee8a442429b2a3f5d0e",
        "srcKUID": "e49f70ab321f432d985be131d36b448e",
        "wType": "TextField"
      }
    },
    "tbxUserName": {
      "__events__": {},
      "__info__": {
        "kuid": "fadde77cc6c44251a09cd6a210498725",
        "srcKUID": "f15e7f6bef8f4662854d3d1cb93f6c50",
        "wType": "TextField"
      }
    }
  },
  "id": "CopymainP0a8be209cfc7041",
  "info": null,
  "isdatareferenced": false,
  "isvisible": true,
  "kuid": "ea49478fff914f5a9dca50a3eb8596f0",
  "layouttype": 2,
  "masterType": 0,
  "name": "kony.ui.UserWidgetInstance",
  "parent": "flxResetPassword",
  "pf": "frmLoginP",
  "snaptogrid": true,
  "sourceUserWidget": "b1cb80cb812141b1b88a47f4909e88bc",
  "wType": "UserWidgetInstance",
  "zindex": 1
}