{
  "@class": "com.kony.gen.viz.model.component.KVizUserWidget",
  "DNDConfig": null,
  "__parentReadjusting__": false,
  "_children_": [],
  "_height_": "370dp",
  "_left_": {
    "type": "string",
    "value": "8dp"
  },
  "_margin_": [
    0,
    0,
    0,
    0
  ],
  "_orientation_": 1,
  "_padding_": [
    0,
    0,
    0,
    0
  ],
  "_percent_": true,
  "_render_": true,
  "_skin_": "se85abaf599e4066908a190ec0505648",
  "_top_": {
    "type": "string",
    "value": "19dp"
  },
  "_width_": "100%",
  "areflexpropsreferenced": false,
  "autogrowmode": 0,
  "canUpdateUI": true,
  "clipbounds": true,
  "containerweight": 0,
  "dataDiffs": {
    "FlexContainer0f1496209679448": {
      "__events__": {},
      "__info__": {
        "kuid": "d3f6c1ba29ec4984b65843df4cdeb49e",
        "srcKUID": "cd364d9fcd9147228f1682fd67a71e13",
        "wType": "FlexContainer"
      }
    },
    "btnLogin": {
      "__events__": {},
      "__info__": {
        "kuid": "h05f9efb5c8247eba1b8b8bdbd4cf8fc",
        "srcKUID": "f541cbaa3c484706a79058cb4ec13ce6",
        "wType": "Button"
      }
    },
    "flexcheckuncheck": {
      "__events__": {},
      "__info__": {
        "kuid": "bab47788b16840b3bf696260eeccd729",
        "srcKUID": "be28720e11984a04ad12822d9f4c35ac",
        "wType": "FlexContainer"
      }
    },
    "flxContainer": {
      "__events__": {},
      "__info__": {
        "kuid": "c9e0bd5101894150a552ec4d037cad10",
        "srcKUID": "j5f107febdb74809908722b1170da29c",
        "wType": "FlexContainer"
      }
    },
    "flxPassword": {
      "__events__": {},
      "__info__": {
        "kuid": "e9d629a3cc16472094da9233b0d7a926",
        "srcKUID": "f753a2451f3345c6ac0bb2c268dd0922",
        "wType": "FlexContainer"
      }
    },
    "flxRemember": {
      "__events__": {},
      "__info__": {
        "kuid": "ed3148f1d9af4cfcaf0cef50142645ca",
        "srcKUID": "a0dc23271c3c4b8d809024d9364a7dc2",
        "wType": "FlexContainer"
      }
    },
    "flxRememberMe": {
      "__events__": {},
      "__info__": {
        "kuid": "j8db7a7a8b2e463597914e92e5bdf451",
        "srcKUID": "j8c1e4a5218e48deb5c2bb9b24fab517",
        "wType": "FlexContainer"
      }
    },
    "flxUserName": {
      "__events__": {},
      "__info__": {
        "kuid": "b5b6b7e045ae4237bfbd716624a3ad2e",
        "srcKUID": "d093f37e1a9740f9ac89cb12490fb04d",
        "wType": "FlexContainer"
      }
    },
    "imgPassword": {
      "__events__": {},
      "__info__": {
        "kuid": "b19e4bb81a03468ca080fbe0c74e2ca4",
        "srcKUID": "j5421ee579244779ad636004a270844b",
        "wType": "Image"
      }
    },
    "imgRememberMe": {
      "__events__": {},
      "__info__": {
        "kuid": "i83bfd55c32d4b0a835183652b246cdf",
        "srcKUID": "h985ff223fbf41fb8f09f27763b13db4",
        "wType": "Image"
      }
    },
    "imgUser": {
      "__events__": {},
      "__info__": {
        "kuid": "i9fa0e13f0e74177b23a41ebafdadaec",
        "srcKUID": "b659c804b4854ec88e16293e8f881fa0",
        "wType": "Image"
      }
    },
    "imgUserName": {
      "__events__": {},
      "__info__": {
        "kuid": "c20400b0cc1b45719a28b9f628891d92",
        "srcKUID": "e4926413e7b04056a3648a9cb2c5bc0f",
        "wType": "Image"
      }
    },
    "imgViewPassword": {
      "__events__": {},
      "__info__": {
        "kuid": "c45ad60d49d647d5a7aaccc962a7ec2b",
        "srcKUID": "ibc4be4e806e4092bb6ea2b70aae75ca",
        "wType": "Image"
      }
    },
    "lblAppName": {
      "__events__": {},
      "__info__": {
        "kuid": "g9054da9dfdc458387b544a835b5d5ad",
        "srcKUID": "b688a6e65d9d4587addab17d2e601caf",
        "wType": "Label"
      }
    },
    "lblForgotPassword": {
      "__events__": {},
      "__info__": {
        "kuid": "dc98ee4b8bff476ba2b511c8388263ab",
        "srcKUID": "bdfad19fefc54fc1a0598d6231f5af96",
        "wType": "Label"
      }
    },
    "lblOnlineAccessEnroll": {
      "__events__": {},
      "__info__": {
        "kuid": "g8c1c667bc184b099ff1a1f753788e1e",
        "srcKUID": "hec09a41c2ab4cd68201306649030162",
        "wType": "Label"
      }
    },
    "lblRememberMe": {
      "__events__": {},
      "__info__": {
        "kuid": "e7864e51376c40dc896956751e3d0393",
        "srcKUID": "jd7a1760c7134b86964476225ddd89b7",
        "wType": "Label"
      }
    },
    "lblWelcome": {
      "__events__": {},
      "__info__": {
        "kuid": "b0e12f7973504453b334364358dde60b",
        "srcKUID": "b0658895f2464a41bd8dbb6d495aedd5",
        "wType": "Label"
      }
    },
    "mainP": {
      "__events__": {},
      "__info__": {
        "isRoot": true,
        "kuid": "e9a7bca5271d487690f43b10e534d6e1",
        "srcKUID": "b1cb80cb812141b1b88a47f4909e88bc",
        "wType": "FlexContainer"
      },
      "left": {
        "Default": {
          "type": "string",
          "value": "8dp"
        }
      },
      "top": {
        "Default": {
          "type": "string",
          "value": "19dp"
        }
      },
      "zIndex": {
        "Default": 1
      }
    },
    "tbxPassword": {
      "__events__": {},
      "__info__": {
        "kuid": "ce05c3387368486ebb7579ff88d12b21",
        "srcKUID": "e49f70ab321f432d985be131d36b448e",
        "wType": "TextField"
      }
    },
    "tbxUserName": {
      "__events__": {},
      "__info__": {
        "kuid": "e6d5e0abc96149c68ba0d8a32a8fb48d",
        "srcKUID": "f15e7f6bef8f4662854d3d1cb93f6c50",
        "wType": "TextField"
      }
    }
  },
  "id": "CopymainP0ffeef1cc8ec849",
  "info": null,
  "isdatareferenced": false,
  "isvisible": true,
  "kuid": "e67cf9d8bbfc4f3b82ab3047b86ede55",
  "layouttype": 2,
  "masterType": 0,
  "name": "kony.ui.UserWidgetInstance",
  "parent": "flxBlocked",
  "pf": "frmLoginP",
  "snaptogrid": true,
  "sourceUserWidget": "b1cb80cb812141b1b88a47f4909e88bc",
  "wType": "UserWidgetInstance",
  "zindex": 1
}