{
  "DNDConfig": null,
  "__parentReadjusting__": false,
  "_height_": {
    "type": "string",
    "value": "10.60%"
  },
  "_left_": {
    "type": "string",
    "value": "0dp"
  },
  "_margin_": [
    0,
    0,
    0,
    0
  ],
  "_orientation_": 6,
  "_padding_": [
    0,
    0,
    0,
    0
  ],
  "_percent_": true,
  "_skin_": "sd17643dae7b497ba2ce9d5321c27db5",
  "_top_": {
    "type": "string",
    "value": "89.40%"
  },
  "_width_": {
    "type": "string",
    "value": "100%"
  },
  "allboxes": [],
  "autogrowmode": 0,
  "canUpdateUI": true,
  "children": [
    "customfooterM"
  ],
  "clipbounds": true,
  "containerweight": 100,
  "enablescrolling": true,
  "id": "flxFooter",
  "info": null,
  "isvisible": true,
  "kuid": "b7e89b6017654cee92302b0033fad98f",
  "layouttype": 2,
  "name": "kony.ui.FlexContainer",
  "parent": "frmLoginP",
  "pf": "frmLoginP",
  "snapgridsize": 10,
  "snaptogrid": true,
  "wType": "FlexContainer",
  "widgetalignment": 1,
  "zindex": 1
}