{
  "@class": "com.kony.gen.viz.model.container.KVizScrollFlexForm",
  "DNDConfig": null,
  "_margin_": [
    0,
    0,
    0,
    0
  ],
  "_orientation_": 1,
  "_padding_": [
    0,
    0,
    0,
    0
  ],
  "_percent_": true,
  "_skin_": "sdc82ba24d044110b8ece6f713b1f716",
  "_title_": null,
  "addWidgetsdone": false,
  "allboxes": [],
  "android": {
    "needAppMenu": false,
    "psp": {
      "windowSoftInputMode": 2
    }
  },
  "canUpdateUI": true,
  "children": [
    "flxMain",
    "flxFooter"
  ],
  "containerweight": 100,
  "controllerInfo": {
    "default": {
      "channel": "mobile",
      "name": "frmLoginPController"
    }
  },
  "currentLocale": "default",
  "desktopweb": {
    "needAppMenu": false
  },
  "device": "iPhone5",
  "displayorientation": 1,
  "enabledforidletimeout": false,
  "id": "frmLoginP",
  "ide_postShow": "AS_Form_ha200aaf6e0c438597be81c5af347a70",
  "info": null,
  "initdone": false,
  "inputaccessoryviewtype": 4,
  "ipad": {
    "psp": {
      "inputAccessoryViewType": 4
    }
  },
  "iphone": {
    "needAppMenu": false,
    "psp": {
      "inputAccessoryViewType": 4,
      "titleBarAttributes": {
        "barStyle": 0,
        "hidesBackButton": true,
        "kuid": "h5a4346fb8644b559afedd73a52a4bb4",
        "leftBarButtonItems": [
          {
            "buttonClosureLeftSideView": "",
            "kuid": "j78570c440524c7897388106083163ac",
            "leftButtonText": "Back",
            "leftTitle": "Back",
            "prevFormTitle": false,
            "titleBarLeftSideView": "button",
            "titleClosureLeftSideView": "",
            "type": 4
          }
        ],
        "leftItemsSupplementBackButton": true,
        "prompt": "",
        "renderTitleText": true,
        "rightBarButtonItems": [
          {
            "enabled": true,
            "info": {
              "title": "Edit"
            },
            "kuid": "bfea5df637ed4accbf33a8aa3a0ab022",
            "onClick": "",
            "style": 0,
            "type": 1
          }
        ],
        "tintColor": "333333",
        "translucent": true
      }
    },
    "titleBar": false
  },
  "isvisible": true,
  "kuid": "f81c16a5678f4fca8d8e85ff31eccfbb",
  "layouttype": 2,
  "name": "kony.ui.Form2",
  "needappmenu": true,
  "paddinginpixel": false,
  "platform": "spaip",
  "prevDevice": "iPhone6",
  "prevPlatform": "iphone",
  "retainscrollposition": false,
  "shellCSS": "iOS_iPhone5",
  "snapgridsize": 10,
  "snaptogrid": true,
  "spaan": {
    "needAppMenu": false
  },
  "spabb": {
    "needAppMenu": false
  },
  "spaip": {
    "needAppMenu": false
  },
  "spawinphone8": {
    "needAppMenu": false
  },
  "titleBarSkin": "s2e24ee0a8ca46b089d8a5bea8a1a32e",
  "titlebar": true,
  "type": 3,
  "wType": "Form",
  "winphone8": {
    "needAppMenu": false
  }
}