{
  "@class": "com.kony.gen.viz.model.component.KVizUserWidget",
  "DNDConfig": null,
  "__parentReadjusting__": false,
  "_bottom_": {
    "type": "string",
    "value": ""
  },
  "_children_": [],
  "_height_": "380dp",
  "_left_": {
    "type": "string",
    "value": "0dp"
  },
  "_margin_": [
    0,
    0,
    0,
    0
  ],
  "_orientation_": 1,
  "_padding_": [
    0,
    0,
    0,
    0
  ],
  "_percent_": true,
  "_render_": true,
  "_right_": {
    "type": "string",
    "value": ""
  },
  "_skin_": "se85abaf599e4066908a190ec0505648",
  "_top_": {
    "type": "string",
    "value": "0dp"
  },
  "_width_": {
    "type": "string",
    "value": "100%"
  },
  "areflexpropsreferenced": false,
  "autogrowmode": 0,
  "canUpdateUI": true,
  "clipbounds": true,
  "containerweight": 0,
  "dataDiffs": {
    "btnProceed": {
      "__events__": {},
      "__info__": {
        "kuid": "d84477c5533b4aedaca708cd57eedc99",
        "srcKUID": "8d2325722e80437c8a61987c71bdbe13",
        "wType": "Button"
      }
    },
    "flexSSN": {
      "__events__": {},
      "__info__": {
        "kuid": "e92cf49b6346458f9b09260227f77354",
        "srcKUID": "fd07b0dc168a4249beb2a8ba8b831d99",
        "wType": "FlexContainer"
      }
    },
    "flxDOB": {
      "__events__": {},
      "__info__": {
        "kuid": "i63583d1fc6c4f08abd4020ef55ebda4",
        "srcKUID": "f2608d8e49a3400085dc1f1817ae42af",
        "wType": "FlexContainer"
      }
    },
    "flxPhone": {
      "__events__": {},
      "__info__": {
        "kuid": "g1d87a0172204f6da10ad373d3377946",
        "srcKUID": "f08fe417a11d44ebaced4ab9753f13ee",
        "wType": "FlexContainer"
      }
    },
    "flxUserVerify": {
      "__events__": {},
      "__info__": {
        "kuid": "e64fe3fea66346f48a458d720106be5d",
        "srcKUID": "f6e214ba0e254f01ab57edf8a3a635f4",
        "wType": "FlexContainer"
      }
    },
    "imgUserVerify": {
      "__events__": {},
      "__info__": {
        "kuid": "i89966c822cb42fd8a5172f1d6c008ef",
        "srcKUID": "a839d476f6764b879ef87cd5c5e31912",
        "wType": "Image"
      }
    },
    "imgWhatIsSSN": {
      "__events__": {},
      "__info__": {
        "kuid": "ecb3c7eb69c1425f86fa6ee0b8eb16f0",
        "srcKUID": "964b6fc92f484cf2b258d891990e3482",
        "wType": "Image"
      }
    },
    "lblCallUs": {
      "__events__": {},
      "__info__": {
        "kuid": "j545e2cf939847bf9d53776e906ab592",
        "srcKUID": "2dcb70c8d6024fff95d4ff6e06f50b60",
        "wType": "Label"
      }
    },
    "lblDOB": {
      "__events__": {},
      "__info__": {
        "kuid": "a323bc9579f244f6a180f950f9a702ea",
        "srcKUID": "270b018baada4d95a632ea43b28d2d4f",
        "wType": "Label"
      }
    },
    "lblLastName": {
      "__events__": {},
      "__info__": {
        "kuid": "h863817233344af98ededa623fe6610e",
        "srcKUID": "41ed3ae9182d45c4bf9dd6e37dfd6f6b",
        "wType": "Label"
      }
    },
    "lblLetsVerify": {
      "__events__": {},
      "__info__": {
        "kuid": "f8a90f57fb91494ba01c170c8ac5389c",
        "srcKUID": "b0cbee02727d46a0a06d22cd4250fb92",
        "wType": "Label"
      }
    },
    "lblPhone": {
      "__events__": {},
      "__info__": {
        "kuid": "d0dd58f475a7483e944b7741253964b0",
        "srcKUID": "540dfa5beeb34603a0cedd6fabc886f8",
        "wType": "Label"
      }
    },
    "lblSSN": {
      "__events__": {},
      "__info__": {
        "kuid": "dd8bd994d54944edb8771877837610e7",
        "srcKUID": "03d8fa0997bf4c7e9c089704f13dff7c",
        "wType": "Label"
      }
    },
    "lbxDate": {
      "__events__": {},
      "__info__": {
        "kuid": "b956644112b94b2184dbe4975d000ebe",
        "srcKUID": "92ab8f1bd3c14f93beece940c8e29e22",
        "wType": "ListBox"
      }
    },
    "lbxMonth": {
      "__events__": {},
      "__info__": {
        "kuid": "dc5eb8078a414816a9a185d84b7f33f1",
        "srcKUID": "c30f54596613436aa3befd671059b41a",
        "wType": "ListBox"
      }
    },
    "lbxYear": {
      "__events__": {},
      "__info__": {
        "kuid": "jf932494ba1647039d8d20a5f7204183",
        "srcKUID": "3856c3a66c2c4d08842cac2b1faeb0d5",
        "wType": "ListBox"
      }
    },
    "letsverifyP": {
      "__events__": {},
      "__info__": {
        "isRoot": true,
        "kuid": "f24a389c636646329fca967966aef6aa",
        "srcKUID": "c9380b1a7d574ef5a4416e05f7811d36",
        "wType": "FlexContainer"
      },
      "bottom": {
        "Default": {
          "type": "string",
          "value": ""
        }
      },
      "left": {
        "Default": {
          "type": "string",
          "value": "0dp"
        }
      },
      "right": {
        "Default": {
          "type": "string",
          "value": ""
        }
      },
      "top": {
        "Default": {
          "type": "string",
          "value": "0dp"
        }
      },
      "width": {
        "Default": {
          "type": "string",
          "value": "100%"
        }
      },
      "zIndex": {
        "Default": 1
      }
    },
    "tbxLastName": {
      "__events__": {},
      "__info__": {
        "kuid": "h64a29a015c543ccaf1d62fe0399238e",
        "srcKUID": "5104993d3a6f403dae2b765324fbc5f7",
        "wType": "TextField"
      }
    },
    "tbxSSN": {
      "__events__": {},
      "__info__": {
        "kuid": "h861e3db5a624bea904d822347eb6af7",
        "srcKUID": "b09dbd372e20415ca879da4e62a8a3ec",
        "wType": "TextField"
      }
    }
  },
  "id": "letsverifyP",
  "info": null,
  "isdatareferenced": false,
  "isvisible": true,
  "kuid": "f24a389c636646329fca967966aef6aa",
  "layouttype": 4,
  "masterType": 0,
  "name": "kony.ui.UserWidgetInstance",
  "parent": "flxVerification",
  "pf": "frmLoginP",
  "snaptogrid": true,
  "sourceUserWidget": "c9380b1a7d574ef5a4416e05f7811d36",
  "wType": "UserWidgetInstance",
  "zindex": 1
}