{
  "@class": "com.kony.gen.viz.model.component.KVizTextBox2",
  "DNDConfig": null,
  "__parentReadjusting__": false,
  "_height_": {
    "type": "string",
    "value": "40dp"
  },
  "_left_": {
    "type": "string",
    "value": "38.90%"
  },
  "_margin_": [
    0,
    0,
    0,
    0
  ],
  "_padding_": [
    3,
    0,
    0,
    0
  ],
  "_placeholder_": "Enter Amount here",
  "_skin_": "s98fcd6969c34f8c9f5052194d229ef9",
  "_text_": "",
  "_top_": {
    "type": "string",
    "value": "0dp"
  },
  "_width_": {
    "type": "string",
    "value": "260dp"
  },
  "autocapitalize": "none",
  "autocomplete": false,
  "autocorrect": false,
  "autofilter": false,
  "canUpdateUI": true,
  "containerheight": "",
  "containerheightmode": 1,
  "containerweight": 100,
  "contentalignment": 4,
  "id": "tbxUsername",
  "info": null,
  "isvisible": true,
  "keyboardtype": "A",
  "kuid": "cc42290b5061491cb7ee348c4f30cc32",
  "mode": "A",
  "name": "kony.ui.TextBox2",
  "parent": "flxUsername",
  "pf": "userwidgetmodel",
  "securetextentry": false,
  "textinputmode": "A",
  "viewtype": "default",
  "wType": "TextField",
  "zindex": 1
}