{
  "@class": "com.kony.gen.viz.model.component.KVizTextBox2",
  "DNDConfig": null,
  "__parentReadjusting__": false,
  "_height_": {
    "type": "string",
    "value": "40dp"
  },
  "_left_": {
    "type": "string",
    "value": "2.50%"
  },
  "_margin_": [
    0,
    0,
    0,
    0
  ],
  "_padding_": [
    2,
    0,
    0,
    0
  ],
  "_placeholder_": "",
  "_skin_": "s83e26f7c15142168975443e7c22dd44",
  "_text_": "",
  "_top_": {
    "type": "string",
    "value": "10dp"
  },
  "_width_": {
    "type": "string",
    "value": "43.58%"
  },
  "autocapitalize": "none",
  "autocomplete": false,
  "autocorrect": false,
  "autofilter": false,
  "canUpdateUI": true,
  "containerId": true,
  "containerheight": "",
  "containerheightmode": 1,
  "containerweight": 100,
  "contentalignment": 4,
  "id": "txtFieldMemo",
  "info": null,
  "isvisible": true,
  "keyboardtype": "A",
  "kiosk": {
    "render": false
  },
  "kuid": "b07db341c6644ff3a14fb40b0b6c6c39",
  "mode": "A",
  "name": "kony.ui.TextBox2",
  "paddinginpixel": false,
  "parent": "flxInformation",
  "pf": "segCheckImages",
  "placeholderi18n": "i18n.CheckImages.MemoOptional",
  "securetextentry": false,
  "textinputmode": "A",
  "tooltip": "",
  "viewtype": "default",
  "wType": "TextField",
  "watchos": {
    "render": false
  },
  "windows10": {
    "render": false
  },
  "winphone10": {
    "render": false
  },
  "zindex": 1
}