{
  "@class": "com.kony.gen.viz.model.component.KVizButton",
  "DNDConfig": null,
  "__parentReadjusting__": false,
  "_height_": {
    "type": "ref",
    "value": "preferred"
  },
  "_margin_": [
    6,
    6,
    6,
    6
  ],
  "_padding_": [
    0,
    0,
    0,
    0
  ],
  "_right_": {
    "type": "string",
    "value": "2.18%"
  },
  "_skin_": "sdb9d18f726a491390c0de98860b057a",
  "_text_": "EDIT",
  "_top_": {
    "type": "string",
    "value": "20dp"
  },
  "_width_": {
    "type": "ref",
    "value": "preferred"
  },
  "canUpdateUI": true,
  "containerId": true,
  "containerweight": 100,
  "contentalignment": 5,
  "disabledSkins": {
    "focusSkin": "sf44d06ca8224832827ea7fdff757013"
  },
  "displaytext": true,
  "id": "btnEdit",
  "ide_onClick": "AS_Button_ef1c1b6024da4fc7857bb49174de12e7",
  "info": null,
  "isvisible": true,
  "kuid": "e0d2d25c6d6249e8a9ba2936453a049d",
  "name": "kony.ui.Button",
  "parent": "flxAddressWrapper",
  "pf": "segProfileManagementAddresses",
  "texti18n": "i18n.ProfileManagement.Edit",
  "tooltip": "EDIT",
  "wType": "Button",
  "zindex": 1
}