{
  "@class": "com.kony.gen.viz.model.component.KVizUserWidget",
  "DNDConfig": null,
  "__parentReadjusting__": false,
  "_children_": [],
  "_height_": {
    "type": "ref",
    "value": "preferred"
  },
  "_left_": {
    "type": "string",
    "value": "0dp"
  },
  "_margin_": [
    0,
    0,
    0,
    0
  ],
  "_orientation_": 1,
  "_padding_": [
    0,
    0,
    0,
    0
  ],
  "_percent_": true,
  "_render_": true,
  "_skin_": "s24c92fc23b14f5484b693ee9b8a9b35",
  "_top_": {
    "type": "string",
    "value": "20dp"
  },
  "_width_": {
    "type": "string",
    "value": "100%"
  },
  "areflexpropsreferenced": false,
  "autogrowmode": 1,
  "canUpdateUI": true,
  "clipbounds": true,
  "containerweight": 0,
  "dataDiffs": {
    "flxContainer": {
      "__events__": {},
      "__info__": {
        "kuid": "a08726349b3242e98cb17534fc161a21",
        "srcKUID": "f13dc08cac9b42cf84a6cd0eb46e5de8",
        "wType": "FlexContainer"
      }
    },
    "flxKey": {
      "__events__": {},
      "__info__": {
        "kuid": "f719146f4c044d4196e8586b95dbc98c",
        "srcKUID": "d4492c719df94445a861e97f34dc4949",
        "wType": "FlexContainer"
      },
      "left": {
        "Default": {
          "type": "string",
          "value": "3.50%"
        }
      },
      "width": {
        "Default": {
          "type": "string",
          "value": "20%"
        }
      }
    },
    "flxValue": {
      "__events__": {},
      "__info__": {
        "kuid": "cbddbe340baf47009f81b1031fe784ca",
        "srcKUID": "b141325e5e9048519b71af002cfee26a",
        "wType": "FlexContainer"
      },
      "left": {
        "Default": {
          "type": "string",
          "value": "26.20%"
        }
      },
      "width": {
        "Default": {
          "type": "string",
          "value": "70%"
        }
      }
    },
    "keyValue": {
      "__events__": {},
      "__info__": {
        "isRoot": true,
        "kuid": "a63d46295191434ab06ee0f122e8d948",
        "srcKUID": "cc43b83fad51498eaee44e391076b1e1",
        "wType": "FlexContainer"
      },
      "autogrowMode": 1,
      "height": {
        "Default": {
          "type": "ref",
          "value": "preferred"
        }
      },
      "left": {
        "Default": {
          "type": "string",
          "value": "0dp"
        }
      },
      "top": {
        "Default": {
          "type": "string",
          "value": "20dp"
        }
      },
      "zIndex": {
        "Default": 5
      }
    },
    "lblColon": {
      "__events__": {},
      "__info__": {
        "kuid": "ed8074c8c476433fa76aad25627e0fa0",
        "srcKUID": "c1b15d6a704e4365be1c4ff0a75c3f55",
        "wType": "Label"
      },
      "isVisible": false,
      "left": {
        "Default": {
          "type": "string",
          "value": "28.75%"
        }
      }
    },
    "lblKey": {
      "__events__": {},
      "__info__": {
        "kuid": "ad4d0d21fdb240f2b9aeea45181f98c5",
        "srcKUID": "daa1384a75084c57b8a708d751b05837",
        "wType": "Label"
      },
      "i18n_text": "i18n.StopCheckPayments.Notes",
      "text": "Primary Contact for Sending Money"
    },
    "lblValue": {
      "__events__": {},
      "__info__": {
        "kuid": "f19689e8fdcc43b19eccd34a1cbc48ec",
        "srcKUID": "had7006a19c947e7ae413b191f0cc841",
        "wType": "Label"
      },
      "text": "Time Warner Cable On-Line"
    },
    "flxInfo": {
      "__events__": {},
      "__info__": {
        "kuid": "ccdc5f6308ce4462a788d1fbf31cf673",
        "srcKUID": "e95f6b8ffb5f415db6652af917c31c62",
        "wType": "FlexContainer"
      }
    },
    "imgWhatIsSSN": {
      "__events__": {},
      "__info__": {
        "kuid": "if1273d4ff264475b8d53467216efd6c",
        "srcKUID": "f54ec2da1e9d451d9345687646b48cc3",
        "wType": "Image"
      }
    }
  },
  "id": "KeyvalueSix",
  "info": null,
  "isdatareferenced": false,
  "isvisible": true,
  "kuid": "bcfb6cfdaa6d48beac1fa4859901b93d",
  "layouttype": 2,
  "masterType": 0,
  "name": "kony.ui.UserWidgetInstance",
  "parent": "flxKeyValues",
  "pf": "userwidgetmodel",
  "snaptogrid": true,
  "sourceUserWidget": "cc43b83fad51498eaee44e391076b1e1",
  "wType": "UserWidgetInstance",
  "zindex": 5
}