{
  "@class": "com.kony.gen.viz.model.component.KVizTextBox2",
  "DNDConfig": null,
  "__parentReadjusting__": false,
  "_height_": {
    "type": "string",
    "value": "40dp"
  },
  "_left_": {
    "type": "string",
    "value": "3.50%"
  },
  "_margin_": [
    0,
    0,
    0,
    0
  ],
  "_padding_": [
    2,
    0,
    0,
    0
  ],
  "_placeholder_": "",
  "_skin_": "s165551386c24c7b8ab5690277c05529",
  "_text_": "Wrong tax charged at 7%",
  "_top_": {
    "type": "string",
    "value": "10dp"
  },
  "_width_": {
    "type": "string",
    "value": "92.50%"
  },
  "autocapitalize": "none",
  "autocomplete": false,
  "autocorrect": false,
  "autofilter": false,
  "canUpdateUI": true,
  "containerheight": "",
  "containerheightmode": 1,
  "containerweight": 100,
  "contentalignment": 4,
  "id": "txtBoxDescription",
  "info": null,
  "isvisible": true,
  "keyboardtype": "A",
  "kuid": "ed81ba799f8e4870965769196b767fe6",
  "mode": "A",
  "name": "kony.ui.TextBox2",
  "parent": "flxMain",
  "pf": "userwidgetmodel",
  "securetextentry": false,
  "textinputmode": "A",
  "tooltip": "",
  "viewtype": "default",
  "wType": "TextField",
  "zindex": 5
}