{
  "@class": "com.kony.gen.viz.model.component.KVizButton",
  "DNDConfig": null,
  "__parentReadjusting__": false,
  "_height_": {
    "type": "string",
    "value": "100%"
  },
  "_left_": {
    "type": "string",
    "value": "0dp"
  },
  "_margin_": [
    6,
    6,
    6,
    6
  ],
  "_padding_": [
    2,
    0,
    2,
    0
  ],
  "_skin_": "s691cbbc573349d5ba1da3a566d2f584",
  "_text_": "CHECKS",
  "_width_": {
    "type": "ref",
    "value": "preferred"
  },
  "canUpdateUI": true,
  "centery": {
    "type": "string",
    "value": "50%"
  },
  "containerweight": 100,
  "contentalignment": 5,
  "desktopweb": {
    "psp": {
      "hoverSkin": "sa7e62b7df68444198c9a4b4c212f80f"
    }
  },
  "disabledSkins": {
    "focusSkin": "sf44d06ca8224832827ea7fdff757013"
  },
  "displaytext": true,
  "id": "btnChecks",
  "info": null,
  "isvisible": true,
  "kuid": "CopyButton0h789737fab4444",
  "name": "kony.ui.Button",
  "paddinginpixel": false,
  "parent": "flxTabsChecking",
  "pf": "userwidgetmodel",
  "tooltip": "History",
  "wType": "Button",
  "zindex": 1
}