{
  "background_color": "d3d3d3ff",
  "bg_type": "one",
  "border_color": "d3d3d3ff",
  "border_style": "rc",
  "border_type": 0,
  "border_width": 1,
  "isDefaultSkin": false,
  "kuid": "sbffe54c0cb94c738eb94257cee4bd5e",
  "wType": "FlexContainer"
}