{
  "background_color": "d8d8d87f",
  "bg_type": "one",
  "border_color": "000000ff",
  "border_style": "plain",
  "border_type": 0,
  "border_width": 0,
  "isDefaultSkin": false,
  "kuid": "s34493464abb44d693134bf701cd5a14",
  "wType": "FlexContainer"
}