{
  "background_color": "ffffff00",
  "bg_type": "one",
  "border_color": "282828ff",
  "border_style": "plain",
  "border_type": 0,
  "border_width": 0,
  "font_color": "555555ff",
  "font_name": "Helvetica",
  "font_size": 126,
  "font_style": "normal",
  "font_weight": "normal",
  "isDefaultSkin": false,
  "kuid": "scdcb72df01b46b29cd8f0d35c289dc1",
  "wType": "TextField"
}