{
  "background_color": "00000000",
  "bg_type": "one",
  "border_color": "000000ff",
  "border_style": "plain",
  "border_type": 0,
  "border_width": 0,
  "desktopweb": {
    "bottom_left_border_color": "000000ff",
    "bottom_left_border_style": "plain",
    "bottom_left_border_width": 0,
    "bottom_right_border_color": "000000ff",
    "bottom_right_border_style": "plain",
    "bottom_right_border_width": 0,
    "customCSS": "cursor:pointer !important;\n",
    "isCustomCSSEnabled": true,
    "isForked": true,
    "shadow": {
      "br": 2,
      "color": "e3e3e3ff",
      "inner": false,
      "nm": 0,
      "x": 1,
      "y": 1
    },
    "top_left_border_color": "000000ff",
    "top_left_border_style": "plain",
    "top_left_border_width": 0,
    "top_right_border_color": "000000ff",
    "top_right_border_style": "plain",
    "top_right_border_width": 0
  },
  "ipad": {
    "isForked": true
  },
  "iphone": {
    "isForked": true
  },
  "isDefaultSkin": false,
  "kuid": "s174dc5ab00f4532a8118bd55fb59517",
  "spaan": {
    "isForked": true
  },
  "spaandroidtablet": {
    "isForked": true
  },
  "spabb": {
    "isForked": true
  },
  "spaip": {
    "isForked": true
  },
  "spaipad": {
    "isForked": true
  },
  "spawindowstablet": {
    "isForked": true
  },
  "spawinphone8": {
    "isForked": true
  },
  "wType": "FlexContainer"
}