{
  "background_color": "ffffffff",
  "bg_type": "one",
  "border_color": "ffffffff",
  "border_radius": 3,
  "border_style": "custom",
  "border_type": 0,
  "border_width": 1,
  "isDefaultSkin": false,
  "kuid": "s6c801425113440f9292523a3df3e5c2",
  "wType": "FlexContainer"
}