{
  "background_color": "f4f4f4ff",
  "bg_type": "one",
  "border_color": "000000ff",
  "border_style": "plain",
  "border_type": 0,
  "border_width": 0,
  "isDefaultSkin": false,
  "kuid": "s3f114b235944ad4813e9abcfc6c961c",
  "wType": "FlexContainer"
}