{
  "background_color": "e3e3e3ff",
  "bg_type": "one",
  "border_color": "000000ff",
  "border_style": "plain",
  "border_type": 0,
  "border_width": 0,
  "isDefaultSkin": false,
  "kuid": "safb627f52114d688af89e29c1a5b0e7",
  "wType": "FlexContainer"
}