{
  "background_color": "00000000",
  "bg_type": "one",
  "border_color": "000000ff",
  "border_style": "plain",
  "border_type": 0,
  "border_width": 0,
  "isDefaultSkin": false,
  "kuid": "se6374f31a8f4f5aa79fdfb98685ef3d",
  "wType": "FlexContainer"
}