{
  "background_color": "f7f7f700",
  "bg_type": "one",
  "border_color": "f7f7f7ff",
  "border_radius": 5,
  "border_style": "custom",
  "border_type": 0,
  "border_width": 1,
  "desktopweb": {
    "bottom_left_border_color": "f7f7f7ff",
    "bottom_left_border_style": "plain",
    "bottom_left_border_width": 1,
    "bottom_right_border_color": "f7f7f7ff",
    "bottom_right_border_style": "plain",
    "bottom_right_border_width": 1,
    "isForked": true,
    "top_left_border_color": "f7f7f7ff",
    "top_left_border_style": "plain",
    "top_left_border_width": 1,
    "top_right_border_color": "f7f7f7ff",
    "top_right_border_style": "plain",
    "top_right_border_width": 1
  },
  "isDefaultSkin": false,
  "kuid": "s4717b6b4dd94773ac9fe53f5bbdefca",
  "wType": "FlexContainer"
}