{
  "background_color": "ffffffff",
  "bg_type": "one",
  "border_color": "ffffffff",
  "border_radius": 3,
  "border_style": "custom",
  "border_type": 0,
  "border_width": 1,
  "isDefaultSkin": false,
  "kuid": "s00130c5534141abad20086b7e15e45f",
  "wType": "FlexContainer"
}