{
  "background_color": "00000000",
  "bg_type": "one",
  "border_color": "000000ff",
  "border_style": "plain",
  "border_type": 0,
  "border_width": 0,
  "isDefaultSkin": false,
  "kuid": "s77c4e10eae54a4a9240a2531c7ca5eb",
  "wType": "FlexContainer"
}