{
  "android": {
    "font_size": 23,
    "isForked": false
  },
  "background_color": "ffffffff",
  "bg_type": "one",
  "border_color": "e3e3e3ff",
  "border_radius": 2,
  "border_style": "custom",
  "border_type": 0,
  "border_width": 1,
  "desktopweb": {
    "font_name": "Lato-Regular",
    "font_size": 108,
    "isForked": false
  },
  "fontSizeInPx": true,
  "font_color": "424242ff",
  "font_name": "Helvetica",
  "font_size": 108,
  "font_style": "normal",
  "font_weight": "normal",
  "ipad": {
    "font_size": 46,
    "isForked": false
  },
  "iphone": {
    "font_size": 31,
    "isForked": false
  },
  "isDefaultSkin": false,
  "kiosk": {
    "font_size": 81,
    "isForked": false
  },
  "kuid": "sfbdba3294874c128c510053e8925f33",
  "spaan": {
    "font_size": 108,
    "isForked": false
  },
  "spaandroidtablet": {
    "font_size": 108,
    "isForked": false
  },
  "spabb": {
    "font_size": 108,
    "isForked": false
  },
  "spaip": {
    "font_size": 108,
    "isForked": false
  },
  "spaipad": {
    "font_size": 108,
    "isForked": false
  },
  "spawindowstablet": {
    "font_size": 108,
    "isForked": false
  },
  "spawinphone8": {
    "font_size": 108,
    "isForked": false
  },
  "tabrcandroid": {
    "font_size": 77,
    "isForked": false
  },
  "wType": "ListBox",
  "watchos": {
    "font_size": 46,
    "isForked": false
  },
  "windows8": {
    "font_size": 32,
    "isForked": false
  },
  "winphone8": {
    "font_size": 43,
    "isForked": false
  }
}