{
  "background_color": "dee0e2ff",
  "bg_type": "one",
  "border_color": "000000ff",
  "border_style": "plain",
  "border_type": 0,
  "border_width": 0,
  "isDefaultSkin": false,
  "kuid": "s186f6d6015f49e0813bd8056370d350",
  "wType": "FlexContainer"
}