{
  "background_color": "5c4f7933",
  "bg_type": "one",
  "border_color": "000000ff",
  "border_style": "plain",
  "border_type": 0,
  "border_width": 0,
  "isDefaultSkin": false,
  "kuid": "sdd870edf67c45f19ab85b90daf067dd",
  "wType": "FlexContainer"
}