{
  "background_color": "7e57c633",
  "bg_type": "one",
  "border_color": "000000ff",
  "border_style": "plain",
  "border_type": 0,
  "border_width": 0,
  "isDefaultSkin": false,
  "kuid": "sc222c198dcf4e8a862741d6e1d1b9a1",
  "wType": "FlexContainer"
}