{
  "background_color": "3645a7ff",
  "bg_type": "one",
  "border_color": "3645a7ff",
  "border_style": "rc",
  "border_type": 0,
  "border_width": 1,
  "isDefaultSkin": false,
  "kuid": "s7a7f5bb71b2496594c3a0e867630c92",
  "wType": "FlexContainer"
}