{
  "android": {
    "font_color": "464646ff",
    "font_size": 36,
    "isForked": true
  },
  "background_color": "fbfbfbff",
  "bg_type": "one",
  "border_color": "ffffffff",
  "border_style": "plain",
  "border_type": 0,
  "border_width": 0,
  "desktopweb": {
    "background_color": "fbfbfbff",
    "bg_type": "one",
    "border_type": 0,
    "bottom_left_border_color": "ffffffff",
    "bottom_left_border_style": "plain",
    "bottom_left_border_width": 0,
    "bottom_right_border_color": "e8e9ebff",
    "bottom_right_border_style": "plain",
    "bottom_right_border_width": "1",
    "font_color": "464646ff",
    "font_name": "Lato-Regular",
    "font_size": 125,
    "isForked": true,
    "shadow": {
      "br": 0,
      "color": "000000ff",
      "inner": false,
      "nm": 0,
      "x": 0,
      "y": 0
    },
    "text_shadow": {
      "br": 0,
      "color": "000000ff",
      "x": 0,
      "y": -1
    },
    "top_left_border_color": "ffffffff",
    "top_left_border_style": "plain",
    "top_left_border_width": 0,
    "top_right_border_color": "ffffffff",
    "top_right_border_style": "plain",
    "top_right_border_width": 0
  },
  "fontSizeInPx": true,
  "font_color": "000000ff",
  "font_name": "Helvetica",
  "font_size": 54,
  "font_style": "normal",
  "font_weight": "normal",
  "ipad": {
    "font_color": "464646ff",
    "font_size": 54,
    "isForked": true
  },
  "iphone": {
    "font_color": "464646ff",
    "font_size": 54,
    "isForked": true
  },
  "isDefaultSkin": false,
  "kiosk": {
    "font_color": "464646ff",
    "font_size": 94,
    "isForked": true
  },
  "kuid": "s8d285dbd7ec4412a3f288326f68cd3e",
  "spaan": {
    "border_type": 0,
    "bottom_left_border_color": "ffffffff",
    "bottom_left_border_style": "plain",
    "bottom_left_border_width": 0,
    "bottom_right_border_color": "e8e9ebff",
    "bottom_right_border_style": "plain",
    "bottom_right_border_width": "1",
    "font_color": "464646ff",
    "font_name": "Lato-Regular",
    "font_size": 125,
    "isForked": true,
    "shadow": {
      "br": 0,
      "color": "000000ff",
      "inner": false,
      "nm": 0,
      "x": 0,
      "y": 0
    },
    "top_left_border_color": "ffffffff",
    "top_left_border_style": "plain",
    "top_left_border_width": 0,
    "top_right_border_color": "ffffffff",
    "top_right_border_style": "plain",
    "top_right_border_width": 0
  },
  "spaandroidtablet": {
    "border_type": 0,
    "bottom_left_border_color": "ffffffff",
    "bottom_left_border_style": "plain",
    "bottom_left_border_width": 0,
    "bottom_right_border_color": "e8e9ebff",
    "bottom_right_border_style": "plain",
    "bottom_right_border_width": "1",
    "font_color": "464646ff",
    "font_name": "Lato-Regular",
    "font_size": 125,
    "isForked": true,
    "shadow": {
      "br": 0,
      "color": "000000ff",
      "inner": false,
      "nm": 0,
      "x": 0,
      "y": 0
    },
    "top_left_border_color": "ffffffff",
    "top_left_border_style": "plain",
    "top_left_border_width": 0,
    "top_right_border_color": "ffffffff",
    "top_right_border_style": "plain",
    "top_right_border_width": 0
  },
  "spabb": {
    "border_type": 0,
    "bottom_left_border_color": "ffffffff",
    "bottom_left_border_style": "plain",
    "bottom_left_border_width": 0,
    "bottom_right_border_color": "e8e9ebff",
    "bottom_right_border_style": "plain",
    "bottom_right_border_width": "1",
    "font_color": "464646ff",
    "font_size": 125,
    "isForked": true,
    "shadow": {
      "br": 0,
      "color": "000000ff",
      "inner": false,
      "nm": 0,
      "x": 0,
      "y": 0
    },
    "top_left_border_color": "ffffffff",
    "top_left_border_style": "plain",
    "top_left_border_width": 0,
    "top_right_border_color": "ffffffff",
    "top_right_border_style": "plain",
    "top_right_border_width": 0
  },
  "spaip": {
    "border_type": 0,
    "bottom_left_border_color": "ffffffff",
    "bottom_left_border_style": "plain",
    "bottom_left_border_width": 0,
    "bottom_right_border_color": "e8e9ebff",
    "bottom_right_border_style": "plain",
    "bottom_right_border_width": "1",
    "font_color": "464646ff",
    "font_name": "Lato-Regular",
    "font_size": 125,
    "isForked": true,
    "shadow": {
      "br": 0,
      "color": "000000ff",
      "inner": false,
      "nm": 0,
      "x": 0,
      "y": 0
    },
    "top_left_border_color": "ffffffff",
    "top_left_border_style": "plain",
    "top_left_border_width": 0,
    "top_right_border_color": "ffffffff",
    "top_right_border_style": "plain",
    "top_right_border_width": 0
  },
  "spaipad": {
    "border_type": 0,
    "bottom_left_border_color": "ffffffff",
    "bottom_left_border_style": "plain",
    "bottom_left_border_width": 0,
    "bottom_right_border_color": "e8e9ebff",
    "bottom_right_border_style": "plain",
    "bottom_right_border_width": "1",
    "font_color": "464646ff",
    "font_name": "Lato-Regular",
    "font_size": 125,
    "isForked": true,
    "shadow": {
      "br": 0,
      "color": "000000ff",
      "inner": false,
      "nm": 0,
      "x": 0,
      "y": 0
    },
    "top_left_border_color": "ffffffff",
    "top_left_border_style": "plain",
    "top_left_border_width": 0,
    "top_right_border_color": "ffffffff",
    "top_right_border_style": "plain",
    "top_right_border_width": 0
  },
  "spawindowstablet": {
    "border_type": 0,
    "bottom_left_border_color": "ffffffff",
    "bottom_left_border_style": "plain",
    "bottom_left_border_width": 0,
    "bottom_right_border_color": "e8e9ebff",
    "bottom_right_border_style": "plain",
    "bottom_right_border_width": "1",
    "font_color": "464646ff",
    "font_size": 125,
    "isForked": true,
    "shadow": {
      "br": 0,
      "color": "000000ff",
      "inner": false,
      "nm": 0,
      "x": 0,
      "y": 0
    },
    "top_left_border_color": "ffffffff",
    "top_left_border_style": "plain",
    "top_left_border_width": 0,
    "top_right_border_color": "ffffffff",
    "top_right_border_style": "plain",
    "top_right_border_width": 0
  },
  "spawinphone8": {
    "border_type": 0,
    "bottom_left_border_color": "ffffffff",
    "bottom_left_border_style": "plain",
    "bottom_left_border_width": 0,
    "bottom_right_border_color": "e8e9ebff",
    "bottom_right_border_style": "plain",
    "bottom_right_border_width": "1",
    "font_color": "464646ff",
    "font_size": 125,
    "isForked": true,
    "shadow": {
      "br": 0,
      "color": "000000ff",
      "inner": false,
      "nm": 0,
      "x": 0,
      "y": 0
    },
    "top_left_border_color": "ffffffff",
    "top_left_border_style": "plain",
    "top_left_border_width": 0,
    "top_right_border_color": "ffffffff",
    "top_right_border_style": "plain",
    "top_right_border_width": 0
  },
  "tabrcandroid": {
    "font_color": "464646ff",
    "font_size": 89,
    "isForked": true
  },
  "wType": "Button",
  "watchos": {
    "font_color": "464646ff",
    "font_size": 54,
    "isForked": true
  },
  "windows8": {
    "font_color": "464646ff",
    "font_size": 37,
    "isForked": true
  },
  "winphone8": {
    "font_color": "464646ff",
    "font_size": 50,
    "isForked": true
  }
}