{
  "android": {
    "font_size": 0,
    "isForked": false
  },
  "background_color": "ffffffff",
  "bg_type": "one",
  "border_color": "e3e3e3ff",
  "border_style": "custom",
  "border_type": 0,
  "border_width": 1,
  "desktopweb": {
    "background_color": "ffffffff",
    "bg_type": "one",
    "bottom_left_border_color": "e3e3e3ff",
    "bottom_left_border_radius": "2",
    "bottom_left_border_style": "rc",
    "bottom_left_border_width": 1,
    "bottom_right_border_color": "e3e3e3ff",
    "bottom_right_border_radius": "2",
    "bottom_right_border_style": "rc",
    "bottom_right_border_width": 1,
    "customCSS": "cursor:pointer !important;",
    "font_color": "333333ff",
    "font_name": "Lato-Regular",
    "font_size": 125,
    "isCustomCSSEnabled": true,
    "isForked": true,
    "top_left_border_color": "e3e3e3ff",
    "top_left_border_radius": "2",
    "top_left_border_style": "rc",
    "top_left_border_width": 1,
    "top_right_border_color": "e3e3e3ff",
    "top_right_border_radius": "2",
    "top_right_border_style": "rc",
    "top_right_border_width": 1
  },
  "fontSizeInPx": true,
  "font_color": "33333300",
  "font_name": "Helvetica",
  "font_size": 0,
  "font_style": "normal",
  "font_weight": "normal",
  "ipad": {
    "font_size": 0,
    "isForked": false
  },
  "iphone": {
    "font_size": 0,
    "isForked": false
  },
  "isDefaultSkin": false,
  "kiosk": {
    "font_size": 0,
    "isForked": false
  },
  "kuid": "sadf25ae77c04d5fbbebf5956f7697da",
  "spaan": {
    "font_size": 0,
    "isForked": false
  },
  "spaandroidtablet": {
    "font_size": 0,
    "isForked": false
  },
  "spabb": {
    "font_size": 0,
    "isForked": false
  },
  "spaip": {
    "font_size": 0,
    "isForked": false
  },
  "spaipad": {
    "font_size": 0,
    "isForked": false
  },
  "spawindowstablet": {
    "font_size": 0,
    "isForked": false
  },
  "spawinphone8": {
    "font_size": 0,
    "isForked": false
  },
  "tabrcandroid": {
    "font_size": 0,
    "isForked": false
  },
  "wType": "ListBox",
  "watchos": {
    "font_size": 0,
    "isForked": false
  },
  "windows8": {
    "background_color": "ffffffff",
    "bg_type": "one",
    "font_color": "333333ff",
    "font_size": 37,
    "isForked": true
  },
  "winphone8": {
    "font_size": 0,
    "isForked": false
  }
}