{
  "android": {
    "background_color": "3343a8ff",
    "bg_type": "one",
    "font_name": "Helvetica",
    "font_size": 40,
    "isForked": true
  },
  "background_color": "3343a8e5",
  "bg_type": "one",
  "border_color": "3343a8ff",
  "border_radius": 3,
  "border_style": "custom",
  "border_type": 0,
  "border_width": 1,
  "desktopweb": {
    "font_name": "Lato-Regular",
    "font_size": 125,
    "isCustomCSSEnabled": false,
    "isForked": true
  },
  "fontSizeInPx": true,
  "font_color": "ffffffff",
  "font_name": "Helvetica",
  "font_size": 125,
  "font_style": "normal",
  "font_weight": "normal",
  "ipad": {
    "background_color": "3343a8ff",
    "bg_type": "one",
    "font_name": "Helvetica",
    "font_size": 61,
    "isForked": true
  },
  "iphone": {
    "background_color": "3343a8ff",
    "bg_type": "one",
    "font_name": "Helvetica",
    "font_size": 461,
    "isForked": true
  },
  "isDefaultSkin": false,
  "kiosk": {
    "background_color": "3343a8ff",
    "bg_type": "one",
    "font_name": "GenericMonospace",
    "font_size": 106,
    "isForked": true
  },
  "kuid": "s170a20716ce46e897cd17742b4c9a9f",
  "spaan": {
    "background_color": "3343a8ff",
    "bg_type": "one",
    "border_type": 0,
    "font_name": "Lato-Regular",
    "font_size": 142,
    "isForked": true
  },
  "spaandroidtablet": {
    "background_color": "3343a8ff",
    "bg_type": "one",
    "border_type": 0,
    "font_name": "Lato-Regular",
    "font_size": 142,
    "isForked": true
  },
  "spabb": {
    "background_color": "3343a8ff",
    "bg_type": "one",
    "border_type": 0,
    "font_name": "Helvetica",
    "font_size": 142,
    "isForked": true
  },
  "spaip": {
    "background_color": "3343a8ff",
    "bg_type": "one",
    "border_type": 0,
    "font_name": "Lato-Regular",
    "font_size": 142,
    "isForked": true
  },
  "spaipad": {
    "background_color": "3343a8ff",
    "bg_type": "one",
    "border_type": 0,
    "font_name": "Lato-Regular",
    "font_size": 142,
    "isForked": true
  },
  "spawindowstablet": {
    "background_color": "3343a8ff",
    "bg_type": "one",
    "border_type": 0,
    "font_name": "Helvetica",
    "font_size": 142,
    "isForked": true
  },
  "spawinphone8": {
    "background_color": "3343a8ff",
    "bg_type": "one",
    "border_type": 0,
    "font_name": "Helvetica",
    "font_size": 142,
    "isForked": true
  },
  "tabrcandroid": {
    "background_color": "3343a8ff",
    "bg_type": "one",
    "font_name": "Helvetica",
    "font_size": 101,
    "isForked": true
  },
  "wType": "Button",
  "watchos": {
    "background_color": "3343a8ff",
    "bg_type": "one",
    "font_name": "Helvetica",
    "font_size": 61,
    "isForked": true
  },
  "windows8": {
    "background_color": "3343a8ff",
    "bg_type": "one",
    "font_name": "GenericMonospace",
    "font_size": 41,
    "isForked": true
  },
  "winphone8": {
    "background_color": "3343a8ff",
    "bg_type": "one",
    "font_name": "GenericMonospace",
    "font_size": 57,
    "isForked": true
  }
}