{
  "android": {
    "background_color": "f4f4f400",
    "bg_type": "one",
    "font_color": "424242ff",
    "font_size": 36,
    "isForked": true,
    "text_shadow": {
      "br": 0,
      "color": "000000ff",
      "nm": 0,
      "x": 0,
      "y": 0
    }
  },
  "background_color": "56a9ddff",
  "bg_type": "one",
  "border_color": "ffffffff",
  "border_style": "plain",
  "border_type": 0,
  "border_width": 0,
  "desktopweb": {
    "background_color": "f4f4f400",
    "bg_type": "one",
    "border_type": 0,
    "bottom_left_border_color": "d7d8daff",
    "bottom_left_border_style": "plain",
    "bottom_left_border_width": "0",
    "bottom_right_border_color": "e5e5e599",
    "bottom_right_border_style": "plain",
    "bottom_right_border_width": "1",
    "font_color": "424242ff",
    "font_name": "Lato-Regular",
    "font_size": 125,
    "isCustomCSSEnabled": false,
    "isForked": true,
    "shadow": {
      "br": 0,
      "color": "000000ff",
      "inner": false,
      "nm": 0,
      "x": 0,
      "y": 0
    },
    "text_shadow": {
      "br": 0,
      "color": "000000ff",
      "nm": 0,
      "x": 0,
      "y": 0
    },
    "top_left_border_color": "d7d8daff",
    "top_left_border_style": "plain",
    "top_left_border_width": "0",
    "top_right_border_color": "9b9b9b7f",
    "top_right_border_style": "plain",
    "top_right_border_width": "0"
  },
  "fontSizeInPx": true,
  "font_color": "ffffffff",
  "font_name": "Helvetica",
  "font_size": 148,
  "font_style": "normal",
  "font_weight": "normal",
  "ipad": {
    "background_color": "f4f4f400",
    "bg_type": "one",
    "font_color": "424242ff",
    "font_size": 54,
    "isForked": true,
    "text_shadow": {
      "br": 0,
      "color": "000000ff",
      "nm": 0,
      "x": 0,
      "y": 0
    }
  },
  "iphone": {
    "background_color": "f4f4f400",
    "bg_type": "one",
    "font_color": "424242ff",
    "font_size": 54,
    "isForked": true,
    "text_shadow": {
      "br": 0,
      "color": "000000ff",
      "nm": 0,
      "x": 0,
      "y": 0
    }
  },
  "isDefaultSkin": false,
  "kiosk": {
    "background_color": "f4f4f400",
    "bg_type": "one",
    "font_color": "424242ff",
    "font_size": 94,
    "isForked": true
  },
  "kuid": "s1dc3190d8ac4a5ea9ef9c71d1b551bd",
  "spaan": {
    "background_color": "f4f4f400",
    "bg_type": "one",
    "border_type": 0,
    "bottom_left_border_color": "d7d8daff",
    "bottom_left_border_style": "plain",
    "bottom_left_border_width": "0",
    "bottom_right_border_color": "e5e5e599",
    "bottom_right_border_style": "plain",
    "bottom_right_border_width": "1",
    "font_color": "424242ff",
    "font_name": "Lato-Regular",
    "font_size": 125,
    "isCustomCSSEnabled": false,
    "isForked": true,
    "shadow": {
      "br": 0,
      "color": "000000ff",
      "inner": false,
      "nm": 0,
      "x": 0,
      "y": 0
    },
    "text_shadow": {
      "br": 0,
      "color": "000000ff",
      "nm": 0,
      "x": 0,
      "y": 0
    },
    "top_left_border_color": "d7d8daff",
    "top_left_border_style": "plain",
    "top_left_border_width": "0",
    "top_right_border_color": "9b9b9b7f",
    "top_right_border_style": "plain",
    "top_right_border_width": "0"
  },
  "spaandroidtablet": {
    "background_color": "f4f4f400",
    "bg_type": "one",
    "border_type": 0,
    "bottom_left_border_color": "d7d8daff",
    "bottom_left_border_style": "plain",
    "bottom_left_border_width": "0",
    "bottom_right_border_color": "e5e5e599",
    "bottom_right_border_style": "plain",
    "bottom_right_border_width": "1",
    "font_color": "424242ff",
    "font_name": "Lato-Regular",
    "font_size": 125,
    "isCustomCSSEnabled": false,
    "isForked": true,
    "shadow": {
      "br": 0,
      "color": "000000ff",
      "inner": false,
      "nm": 0,
      "x": 0,
      "y": 0
    },
    "text_shadow": {
      "br": 0,
      "color": "000000ff",
      "nm": 0,
      "x": 0,
      "y": 0
    },
    "top_left_border_color": "d7d8daff",
    "top_left_border_style": "plain",
    "top_left_border_width": "0",
    "top_right_border_color": "9b9b9b7f",
    "top_right_border_style": "plain",
    "top_right_border_width": "0"
  },
  "spabb": {
    "background_color": "f4f4f400",
    "bg_type": "one",
    "border_type": 0,
    "bottom_left_border_color": "d7d8daff",
    "bottom_left_border_style": "plain",
    "bottom_left_border_width": "0",
    "bottom_right_border_color": "e5e5e599",
    "bottom_right_border_style": "plain",
    "bottom_right_border_width": "1",
    "font_color": "424242ff",
    "font_size": 125,
    "isCustomCSSEnabled": false,
    "isForked": true,
    "shadow": {
      "br": 0,
      "color": "000000ff",
      "inner": false,
      "nm": 0,
      "x": 0,
      "y": 0
    },
    "text_shadow": {
      "br": 0,
      "color": "000000ff",
      "nm": 0,
      "x": 0,
      "y": 0
    },
    "top_left_border_color": "d7d8daff",
    "top_left_border_style": "plain",
    "top_left_border_width": "0",
    "top_right_border_color": "9b9b9b7f",
    "top_right_border_style": "plain",
    "top_right_border_width": "0"
  },
  "spaip": {
    "background_color": "f4f4f400",
    "bg_type": "one",
    "border_type": 0,
    "bottom_left_border_color": "d7d8daff",
    "bottom_left_border_style": "plain",
    "bottom_left_border_width": "0",
    "bottom_right_border_color": "e5e5e599",
    "bottom_right_border_style": "plain",
    "bottom_right_border_width": "1",
    "font_color": "424242ff",
    "font_name": "Lato-Regular",
    "font_size": 125,
    "isCustomCSSEnabled": false,
    "isForked": true,
    "shadow": {
      "br": 0,
      "color": "000000ff",
      "inner": false,
      "nm": 0,
      "x": 0,
      "y": 0
    },
    "text_shadow": {
      "br": 0,
      "color": "000000ff",
      "nm": 0,
      "x": 0,
      "y": 0
    },
    "top_left_border_color": "d7d8daff",
    "top_left_border_style": "plain",
    "top_left_border_width": "0",
    "top_right_border_color": "9b9b9b7f",
    "top_right_border_style": "plain",
    "top_right_border_width": "0"
  },
  "spaipad": {
    "background_color": "f4f4f400",
    "bg_type": "one",
    "border_type": 0,
    "bottom_left_border_color": "d7d8daff",
    "bottom_left_border_style": "plain",
    "bottom_left_border_width": "0",
    "bottom_right_border_color": "e5e5e599",
    "bottom_right_border_style": "plain",
    "bottom_right_border_width": "1",
    "font_color": "424242ff",
    "font_name": "Lato-Regular",
    "font_size": 125,
    "isCustomCSSEnabled": false,
    "isForked": true,
    "shadow": {
      "br": 0,
      "color": "000000ff",
      "inner": false,
      "nm": 0,
      "x": 0,
      "y": 0
    },
    "text_shadow": {
      "br": 0,
      "color": "000000ff",
      "nm": 0,
      "x": 0,
      "y": 0
    },
    "top_left_border_color": "d7d8daff",
    "top_left_border_style": "plain",
    "top_left_border_width": "0",
    "top_right_border_color": "9b9b9b7f",
    "top_right_border_style": "plain",
    "top_right_border_width": "0"
  },
  "spawindowstablet": {
    "background_color": "f4f4f400",
    "bg_type": "one",
    "border_type": 0,
    "bottom_left_border_color": "d7d8daff",
    "bottom_left_border_style": "plain",
    "bottom_left_border_width": "0",
    "bottom_right_border_color": "e5e5e599",
    "bottom_right_border_style": "plain",
    "bottom_right_border_width": "1",
    "font_color": "424242ff",
    "font_size": 125,
    "isCustomCSSEnabled": false,
    "isForked": true,
    "shadow": {
      "br": 0,
      "color": "000000ff",
      "inner": false,
      "nm": 0,
      "x": 0,
      "y": 0
    },
    "text_shadow": {
      "br": 0,
      "color": "000000ff",
      "nm": 0,
      "x": 0,
      "y": 0
    },
    "top_left_border_color": "d7d8daff",
    "top_left_border_style": "plain",
    "top_left_border_width": "0",
    "top_right_border_color": "9b9b9b7f",
    "top_right_border_style": "plain",
    "top_right_border_width": "0"
  },
  "spawinphone8": {
    "background_color": "f4f4f400",
    "bg_type": "one",
    "border_type": 0,
    "bottom_left_border_color": "d7d8daff",
    "bottom_left_border_style": "plain",
    "bottom_left_border_width": "0",
    "bottom_right_border_color": "e5e5e599",
    "bottom_right_border_style": "plain",
    "bottom_right_border_width": "1",
    "font_color": "424242ff",
    "font_size": 125,
    "isCustomCSSEnabled": false,
    "isForked": true,
    "shadow": {
      "br": 0,
      "color": "000000ff",
      "inner": false,
      "nm": 0,
      "x": 0,
      "y": 0
    },
    "text_shadow": {
      "br": 0,
      "color": "000000ff",
      "nm": 0,
      "x": 0,
      "y": 0
    },
    "top_left_border_color": "d7d8daff",
    "top_left_border_style": "plain",
    "top_left_border_width": "0",
    "top_right_border_color": "9b9b9b7f",
    "top_right_border_style": "plain",
    "top_right_border_width": "0"
  },
  "tabrcandroid": {
    "background_color": "f4f4f400",
    "bg_type": "one",
    "font_color": "424242ff",
    "font_size": 89,
    "isForked": true,
    "text_shadow": {
      "br": 0,
      "color": "000000ff",
      "nm": 0,
      "x": 0,
      "y": 0
    }
  },
  "wType": "Button",
  "watchos": {
    "background_color": "f4f4f400",
    "bg_type": "one",
    "font_color": "424242ff",
    "font_size": 54,
    "isForked": true
  },
  "windows8": {
    "background_color": "f4f4f400",
    "bg_type": "one",
    "font_color": "424242ff",
    "font_size": 37,
    "isForked": true
  },
  "winphone8": {
    "background_color": "f4f4f400",
    "bg_type": "one",
    "font_color": "424242ff",
    "font_size": 50,
    "isForked": true
  }
}