{
  "background_color": "727272b2",
  "bg_type": "one",
  "border_color": "000000ff",
  "border_style": "plain",
  "border_type": 0,
  "border_width": 0,
  "isDefaultSkin": false,
  "kuid": "s61c0080c6984bea8e156f40833b67ec",
  "wType": "FlexContainer"
}