{
  "background_color": "f4f4f4ff",
  "bg_type": "one",
  "border_color": "f4f4f400",
  "border_style": "plain",
  "border_type": 0,
  "border_width": 0,
  "isDefaultSkin": false,
  "kuid": "s28a49c743a64b05aabfb3fcbc6147c3",
  "wType": "FlexContainer"
}