{
  "background_color": "ffffffff",
  "bg_type": "one",
  "border_color": "d3d3d3ff",
  "border_radius": 3,
  "border_style": "custom",
  "border_type": 0,
  "border_width": 1,
  "desktopweb": {
    "bottom_left_border_color": "d3d3d3ff",
    "bottom_left_border_style": "plain",
    "bottom_left_border_width": "0",
    "bottom_right_border_color": "d3d3d3ff",
    "bottom_right_border_style": "plain",
    "bottom_right_border_width": "1",
    "customCSS": "border-top: 1px solid #d3d3d3;\nborder-bottom: 1px solid #d3d3d3;\ncolor: #000000;\nbackground-color: #ffffff;",
    "isCustomCSSEnabled": true,
    "isForked": true,
    "top_left_border_color": "d3d3d3ff",
    "top_left_border_style": "plain",
    "top_left_border_width": "1",
    "top_right_border_color": "d3d3d3ff",
    "top_right_border_style": "plain",
    "top_right_border_width": "0"
  },
  "isDefaultSkin": false,
  "kuid": "s7f8e7fe1ed94635a33e64a329cd3e2f",
  "spaan": {
    "bottom_left_border_color": "d3d3d3ff",
    "bottom_left_border_style": "plain",
    "bottom_left_border_width": "0",
    "bottom_right_border_color": "d3d3d3ff",
    "bottom_right_border_style": "plain",
    "bottom_right_border_width": "1",
    "customCSS": "border-top: 1px solid #d3d3d3;\nborder-bottom: 1px solid #d3d3d3;\ncolor: #000000;\nbackground-color: #ffffff;",
    "isCustomCSSEnabled": true,
    "isForked": true,
    "top_left_border_color": "d3d3d3ff",
    "top_left_border_style": "plain",
    "top_left_border_width": "1",
    "top_right_border_color": "d3d3d3ff",
    "top_right_border_style": "plain",
    "top_right_border_width": "0"
  },
  "spaandroidtablet": {
    "bottom_left_border_color": "d3d3d3ff",
    "bottom_left_border_style": "plain",
    "bottom_left_border_width": "0",
    "bottom_right_border_color": "d3d3d3ff",
    "bottom_right_border_style": "plain",
    "bottom_right_border_width": "1",
    "customCSS": "border-top: 1px solid #d3d3d3;\nborder-bottom: 1px solid #d3d3d3;\ncolor: #000000;\nbackground-color: #ffffff;",
    "isCustomCSSEnabled": true,
    "isForked": true,
    "top_left_border_color": "d3d3d3ff",
    "top_left_border_style": "plain",
    "top_left_border_width": "1",
    "top_right_border_color": "d3d3d3ff",
    "top_right_border_style": "plain",
    "top_right_border_width": "0"
  },
  "spabb": {
    "bottom_left_border_color": "d3d3d3ff",
    "bottom_left_border_style": "plain",
    "bottom_left_border_width": "0",
    "bottom_right_border_color": "d3d3d3ff",
    "bottom_right_border_style": "plain",
    "bottom_right_border_width": "1",
    "customCSS": "border-top: 1px solid #d3d3d3;\nborder-bottom: 1px solid #d3d3d3;\ncolor: #000000;\nbackground-color: #ffffff;",
    "isCustomCSSEnabled": true,
    "isForked": true,
    "top_left_border_color": "d3d3d3ff",
    "top_left_border_style": "plain",
    "top_left_border_width": "1",
    "top_right_border_color": "d3d3d3ff",
    "top_right_border_style": "plain",
    "top_right_border_width": "0"
  },
  "spaip": {
    "bottom_left_border_color": "d3d3d3ff",
    "bottom_left_border_style": "plain",
    "bottom_left_border_width": "0",
    "bottom_right_border_color": "d3d3d3ff",
    "bottom_right_border_style": "plain",
    "bottom_right_border_width": "1",
    "customCSS": "border-top: 1px solid #d3d3d3;\nborder-bottom: 1px solid #d3d3d3;\ncolor: #000000;\nbackground-color: #ffffff;",
    "isCustomCSSEnabled": true,
    "isForked": true,
    "top_left_border_color": "d3d3d3ff",
    "top_left_border_style": "plain",
    "top_left_border_width": "1",
    "top_right_border_color": "d3d3d3ff",
    "top_right_border_style": "plain",
    "top_right_border_width": "0"
  },
  "spaipad": {
    "bottom_left_border_color": "d3d3d3ff",
    "bottom_left_border_style": "plain",
    "bottom_left_border_width": "0",
    "bottom_right_border_color": "d3d3d3ff",
    "bottom_right_border_style": "plain",
    "bottom_right_border_width": "1",
    "customCSS": "border-top: 1px solid #d3d3d3;\nborder-bottom: 1px solid #d3d3d3;\ncolor: #000000;\nbackground-color: #ffffff;",
    "isCustomCSSEnabled": true,
    "isForked": true,
    "top_left_border_color": "d3d3d3ff",
    "top_left_border_style": "plain",
    "top_left_border_width": "1",
    "top_right_border_color": "d3d3d3ff",
    "top_right_border_style": "plain",
    "top_right_border_width": "0"
  },
  "spawindowstablet": {
    "bottom_left_border_color": "d3d3d3ff",
    "bottom_left_border_style": "plain",
    "bottom_left_border_width": "0",
    "bottom_right_border_color": "d3d3d3ff",
    "bottom_right_border_style": "plain",
    "bottom_right_border_width": "1",
    "customCSS": "border-top: 1px solid #d3d3d3;\nborder-bottom: 1px solid #d3d3d3;\ncolor: #000000;\nbackground-color: #ffffff;",
    "isCustomCSSEnabled": true,
    "isForked": true,
    "top_left_border_color": "d3d3d3ff",
    "top_left_border_style": "plain",
    "top_left_border_width": "1",
    "top_right_border_color": "d3d3d3ff",
    "top_right_border_style": "plain",
    "top_right_border_width": "0"
  },
  "spawinphone8": {
    "bottom_left_border_color": "d3d3d3ff",
    "bottom_left_border_style": "plain",
    "bottom_left_border_width": "0",
    "bottom_right_border_color": "d3d3d3ff",
    "bottom_right_border_style": "plain",
    "bottom_right_border_width": "1",
    "customCSS": "border-top: 1px solid #d3d3d3;\nborder-bottom: 1px solid #d3d3d3;\ncolor: #000000;\nbackground-color: #ffffff;",
    "isCustomCSSEnabled": true,
    "isForked": true,
    "top_left_border_color": "d3d3d3ff",
    "top_left_border_style": "plain",
    "top_left_border_width": "1",
    "top_right_border_color": "d3d3d3ff",
    "top_right_border_style": "plain",
    "top_right_border_width": "0"
  },
  "wType": "FlexContainer"
}