{
  "background_color": "d3d3d3cc",
  "bg_type": "one",
  "border_color": "000000ff",
  "border_style": "plain",
  "border_type": 0,
  "border_width": 0,
  "isDefaultSkin": false,
  "kuid": "sb850cb757d84a89889ee30fa25e7312",
  "wType": "FlexContainer"
}