{
  "background_color": "f4f4f4ff",
  "bg_type": "one",
  "border_color": "00000000",
  "border_radius": 3,
  "border_style": "custom",
  "border_type": 0,
  "border_width": 1,
  "isDefaultSkin": false,
  "kuid": "sad8b2db93e04d74a1fe527810ad01ec",
  "wType": "FlexContainer"
}