{
  "background_color": "e5e5e5ff",
  "bg_type": "one",
  "border_color": "000000ff",
  "border_style": "plain",
  "border_type": 0,
  "border_width": 0,
  "isDefaultSkin": false,
  "kuid": "sba50675a571438abe9f291cec4c043c",
  "wType": "FlexContainer"
}