{
  "background_color": "ffffffff",
  "bg_type": "one",
  "border_color": "bababaff",
  "border_style": "plain",
  "border_type": 0,
  "border_width": 1,
  "isDefaultSkin": false,
  "kuid": "sdb8c976738d4880b51ed07212224e30",
  "wType": "FlexContainer"
}