{
  "background_color": "dee0e2ff",
  "bg_type": "one",
  "border_color": "000000ff",
  "border_style": "plain",
  "border_type": 0,
  "border_width": 0,
  "isDefaultSkin": false,
  "kuid": "sbb81b62333b4188a18fc6dcd941c613",
  "wType": "FlexContainer"
}