{
  "background_color": "dbdbdbff",
  "bg_type": "one",
  "border_color": "000000ff",
  "border_style": "plain",
  "border_type": 0,
  "border_width": 0,
  "isDefaultSkin": false,
  "kuid": "se81a225411a44f9bbc79e09b322646a",
  "wType": "FlexContainer"
}