{
  "background_color": "fbfbfbff",
  "bg_type": "one",
  "border_color": "fbfbfbff",
  "border_style": "plain",
  "border_type": 0,
  "border_width": 0,
  "isDefaultSkin": false,
  "kuid": "se2c51e2a5574dcc8bc00a48bc7649ca",
  "wType": "FlexContainer"
}