{
  "background_color": "9898987f",
  "bg_type": "one",
  "border_color": "000000ff",
  "border_style": "plain",
  "border_type": 0,
  "border_width": 0,
  "isDefaultSkin": false,
  "kuid": "sdba4909a7d343e482555986701c7a61",
  "wType": "FlexContainer"
}