{
  "background_color": "f7f7f7ff",
  "bg_type": "one",
  "border_color": "e3e3e3ff",
  "border_radius": 2,
  "border_style": "custom",
  "border_type": 0,
  "border_width": 1,
  "isDefaultSkin": false,
  "kuid": "s1052a3ba22c44aa8a622b8ef1123e89",
  "wType": "FlexContainer"
}