{
  "background_color": "d8d8d899",
  "bg_type": "one",
  "border_color": "000000ff",
  "border_style": "plain",
  "border_type": 0,
  "border_width": 0,
  "isDefaultSkin": false,
  "kuid": "sb6d825ac29d42f7bf7f1896302439de",
  "wType": "FlexContainer"
}