{
  "background_color": "f7f7f7ff",
  "bg_type": "one",
  "border_color": "97979733",
  "border_radius": 5,
  "border_style": "custom",
  "border_type": 0,
  "border_width": 1,
  "isDefaultSkin": false,
  "kuid": "s0304818ef6b43ee9ffb2c6345011548",
  "wType": "FlexContainer"
}