{
  "background_color": "4242424c",
  "bg_type": "one",
  "border_color": "000000ff",
  "border_style": "plain",
  "border_type": 0,
  "border_width": 0,
  "isDefaultSkin": false,
  "kuid": "s919dcf867064e66879fe12b3c7de52c",
  "wType": "FlexContainer"
}