{
  "background_color": "4f2683ff",
  "bg_type": "one",
  "border_color": "fbfbfbff",
  "border_style": "plain",
  "border_type": 0,
  "border_width": 0,
  "isDefaultSkin": false,
  "kuid": "seb1321eb65d4f26a222b37a06fa53a9",
  "wType": "FlexContainer"
}