{
  "android": {
    "background_color": "f4f4f4ff",
    "bg_type": "one",
    "isForked": true
  },
  "background_color": "f4f4f4ff",
  "bg_type": "one",
  "border_color": "f4f4f4ff",
  "border_style": "plain",
  "border_type": 0,
  "border_width": 0,
  "desktopweb": {
    "background_color": "f4f4f4ff",
    "bg_type": "one",
    "border_type": 0,
    "bottom_left_border_color": "9b9b9b4c",
    "bottom_left_border_style": "plain",
    "bottom_left_border_width": "0",
    "bottom_right_border_color": "f4f4f4ff",
    "bottom_right_border_style": "plain",
    "bottom_right_border_width": 0,
    "isForked": true,
    "shadow": {
      "br": 2,
      "color": "d9d9d9ff",
      "inner": false,
      "nm": 0,
      "x": 1,
      "y": 1
    },
    "top_left_border_color": "f4f4f4ff",
    "top_left_border_style": "plain",
    "top_left_border_width": "1",
    "top_right_border_color": "9b9b9b4c",
    "top_right_border_style": "plain",
    "top_right_border_width": "0"
  },
  "ipad": {
    "background_color": "f4f4f4ff",
    "bg_type": "one",
    "isForked": true,
    "shadow": {
      "br": 2,
      "color": "d9d9d9ff",
      "inner": false,
      "nm": 0,
      "x": 1,
      "y": 1
    }
  },
  "iphone": {
    "background_color": "f4f4f4ff",
    "bg_type": "one",
    "isForked": true,
    "shadow": {
      "br": 2,
      "color": "d9d9d9ff",
      "inner": false,
      "nm": 0,
      "x": 1,
      "y": 1
    }
  },
  "isDefaultSkin": false,
  "kiosk": {
    "background_color": "f4f4f4ff",
    "bg_type": "one",
    "isForked": true
  },
  "kuid": "sbe8c581320947268b840a3c3820252e",
  "spaan": {
    "background_color": "f4f4f4ff",
    "bg_type": "one",
    "border_type": 0,
    "bottom_left_border_color": "9b9b9b4c",
    "bottom_left_border_style": "plain",
    "bottom_left_border_width": "0",
    "bottom_right_border_color": "f4f4f4ff",
    "bottom_right_border_style": "plain",
    "bottom_right_border_width": 0,
    "isForked": true,
    "shadow": {
      "br": 2,
      "color": "d9d9d9ff",
      "inner": false,
      "nm": 0,
      "x": 1,
      "y": 1
    },
    "top_left_border_color": "f4f4f4ff",
    "top_left_border_style": "plain",
    "top_left_border_width": "1",
    "top_right_border_color": "9b9b9b4c",
    "top_right_border_style": "plain",
    "top_right_border_width": "0"
  },
  "spaandroidtablet": {
    "background_color": "f4f4f4ff",
    "bg_type": "one",
    "border_type": 0,
    "bottom_left_border_color": "9b9b9b4c",
    "bottom_left_border_style": "plain",
    "bottom_left_border_width": "0",
    "bottom_right_border_color": "f4f4f4ff",
    "bottom_right_border_style": "plain",
    "bottom_right_border_width": 0,
    "isForked": true,
    "shadow": {
      "br": 2,
      "color": "d9d9d9ff",
      "inner": false,
      "nm": 0,
      "x": 1,
      "y": 1
    },
    "top_left_border_color": "f4f4f4ff",
    "top_left_border_style": "plain",
    "top_left_border_width": "1",
    "top_right_border_color": "9b9b9b4c",
    "top_right_border_style": "plain",
    "top_right_border_width": "0"
  },
  "spabb": {
    "background_color": "f4f4f4ff",
    "bg_type": "one",
    "border_type": 0,
    "bottom_left_border_color": "9b9b9b4c",
    "bottom_left_border_style": "plain",
    "bottom_left_border_width": "0",
    "bottom_right_border_color": "f4f4f4ff",
    "bottom_right_border_style": "plain",
    "bottom_right_border_width": 0,
    "isForked": true,
    "shadow": {
      "br": 2,
      "color": "d9d9d9ff",
      "inner": false,
      "nm": 0,
      "x": 1,
      "y": 1
    },
    "top_left_border_color": "f4f4f4ff",
    "top_left_border_style": "plain",
    "top_left_border_width": "1",
    "top_right_border_color": "9b9b9b4c",
    "top_right_border_style": "plain",
    "top_right_border_width": "0"
  },
  "spaip": {
    "background_color": "f4f4f4ff",
    "bg_type": "one",
    "border_type": 0,
    "bottom_left_border_color": "9b9b9b4c",
    "bottom_left_border_style": "plain",
    "bottom_left_border_width": "0",
    "bottom_right_border_color": "f4f4f4ff",
    "bottom_right_border_style": "plain",
    "bottom_right_border_width": 0,
    "isForked": true,
    "shadow": {
      "br": 2,
      "color": "d9d9d9ff",
      "inner": false,
      "nm": 0,
      "x": 1,
      "y": 1
    },
    "top_left_border_color": "f4f4f4ff",
    "top_left_border_style": "plain",
    "top_left_border_width": "1",
    "top_right_border_color": "9b9b9b4c",
    "top_right_border_style": "plain",
    "top_right_border_width": "0"
  },
  "spaipad": {
    "background_color": "f4f4f4ff",
    "bg_type": "one",
    "border_type": 0,
    "bottom_left_border_color": "9b9b9b4c",
    "bottom_left_border_style": "plain",
    "bottom_left_border_width": "0",
    "bottom_right_border_color": "f4f4f4ff",
    "bottom_right_border_style": "plain",
    "bottom_right_border_width": 0,
    "isForked": true,
    "shadow": {
      "br": 2,
      "color": "d9d9d9ff",
      "inner": false,
      "nm": 0,
      "x": 1,
      "y": 1
    },
    "top_left_border_color": "f4f4f4ff",
    "top_left_border_style": "plain",
    "top_left_border_width": "1",
    "top_right_border_color": "9b9b9b4c",
    "top_right_border_style": "plain",
    "top_right_border_width": "0"
  },
  "spawindowstablet": {
    "background_color": "f4f4f4ff",
    "bg_type": "one",
    "border_type": 0,
    "bottom_left_border_color": "9b9b9b4c",
    "bottom_left_border_style": "plain",
    "bottom_left_border_width": "0",
    "bottom_right_border_color": "f4f4f4ff",
    "bottom_right_border_style": "plain",
    "bottom_right_border_width": 0,
    "isForked": true,
    "shadow": {
      "br": 2,
      "color": "d9d9d9ff",
      "inner": false,
      "nm": 0,
      "x": 1,
      "y": 1
    },
    "top_left_border_color": "f4f4f4ff",
    "top_left_border_style": "plain",
    "top_left_border_width": "1",
    "top_right_border_color": "9b9b9b4c",
    "top_right_border_style": "plain",
    "top_right_border_width": "0"
  },
  "spawinphone8": {
    "background_color": "f4f4f4ff",
    "bg_type": "one",
    "border_type": 0,
    "bottom_left_border_color": "9b9b9b4c",
    "bottom_left_border_style": "plain",
    "bottom_left_border_width": "0",
    "bottom_right_border_color": "f4f4f4ff",
    "bottom_right_border_style": "plain",
    "bottom_right_border_width": 0,
    "isForked": true,
    "shadow": {
      "br": 2,
      "color": "d9d9d9ff",
      "inner": false,
      "nm": 0,
      "x": 1,
      "y": 1
    },
    "top_left_border_color": "f4f4f4ff",
    "top_left_border_style": "plain",
    "top_left_border_width": "1",
    "top_right_border_color": "9b9b9b4c",
    "top_right_border_style": "plain",
    "top_right_border_width": "0"
  },
  "tabrcandroid": {
    "background_color": "f4f4f4ff",
    "bg_type": "one",
    "isForked": true
  },
  "wType": "FlexContainer",
  "windows8": {
    "background_color": "f4f4f4ff",
    "bg_type": "one",
    "isForked": true
  },
  "winphone8": {
    "background_color": "f4f4f4ff",
    "bg_type": "one",
    "isForked": true
  }
}