{
  "background_color": "f7f7f7b2",
  "bg_type": "one",
  "border_color": "000000ff",
  "border_style": "plain",
  "border_type": 0,
  "border_width": 0,
  "isDefaultSkin": false,
  "kuid": "sb65072dabe44d73894726ded1ad9649",
  "wType": "FlexContainer"
}