{
  "background_color": "dededeff",
  "bg_type": "one",
  "border_color": "000000ff",
  "border_style": "plain",
  "border_type": 0,
  "border_width": 0,
  "isDefaultSkin": false,
  "kuid": "scadaba732b94b41a9ebade7691b91f7",
  "wType": "FlexContainer"
}