{
  "background_color": "ffffffff",
  "bg_type": "one",
  "border_color": "3343a8ff",
  "border_radius": 2,
  "border_style": "custom",
  "border_type": 0,
  "border_width": 1,
  "isDefaultSkin": false,
  "kuid": "s5b6514159444e50b4fe197bea8ff4ea",
  "wType": "FlexContainer"
}