{
  "background_color": "ffffffff",
  "bg_type": "one",
  "border_color": "ffffffff",
  "border_radius": 3,
  "border_style": "custom",
  "border_type": 0,
  "border_width": 1,
  "desktopweb": {
    "border_type": 0,
    "bottom_left_border_color": "ffffff00",
    "bottom_left_border_radius": "3",
    "bottom_left_border_style": "rc",
    "bottom_left_border_width": 1,
    "bottom_right_border_color": "ffffff00",
    "bottom_right_border_radius": "3",
    "bottom_right_border_style": "rc",
    "bottom_right_border_width": 1,
    "isForked": true,
    "shadow": {
      "br": 12,
      "color": "000000",
      "inner": false,
      "nm": 0,
      "x": 0,
      "y": 8
    },
    "top_left_border_color": "ffffff00",
    "top_left_border_radius": "3",
    "top_left_border_style": "rc",
    "top_left_border_width": 1,
    "top_right_border_color": "ffffff00",
    "top_right_border_radius": "3",
    "top_right_border_style": "rc",
    "top_right_border_width": 1
  },
  "ipad": {
    "isForked": true,
    "shadow": {
      "br": 12,
      "color": "000000",
      "inner": false,
      "nm": 0,
      "x": 0,
      "y": 8
    }
  },
  "iphone": {
    "isForked": true,
    "shadow": {
      "br": 12,
      "color": "000000",
      "inner": false,
      "nm": 0,
      "x": 0,
      "y": 8
    }
  },
  "isDefaultSkin": false,
  "kuid": "se85abaf599e4066908a190ec0505648",
  "spaan": {
    "border_type": 0,
    "bottom_left_border_color": "ffffff00",
    "bottom_left_border_radius": "3",
    "bottom_left_border_style": "rc",
    "bottom_left_border_width": 1,
    "bottom_right_border_color": "ffffff00",
    "bottom_right_border_radius": "3",
    "bottom_right_border_style": "rc",
    "bottom_right_border_width": 1,
    "isForked": true,
    "shadow": {
      "br": 12,
      "color": "000000",
      "inner": false,
      "nm": 0,
      "x": 0,
      "y": 8
    },
    "top_left_border_color": "ffffff00",
    "top_left_border_radius": "3",
    "top_left_border_style": "rc",
    "top_left_border_width": 1,
    "top_right_border_color": "ffffff00",
    "top_right_border_radius": "3",
    "top_right_border_style": "rc",
    "top_right_border_width": 1
  },
  "spaandroidtablet": {
    "border_type": 0,
    "bottom_left_border_color": "ffffff00",
    "bottom_left_border_radius": "3",
    "bottom_left_border_style": "rc",
    "bottom_left_border_width": 1,
    "bottom_right_border_color": "ffffff00",
    "bottom_right_border_radius": "3",
    "bottom_right_border_style": "rc",
    "bottom_right_border_width": 1,
    "isForked": true,
    "shadow": {
      "br": 12,
      "color": "000000",
      "inner": false,
      "nm": 0,
      "x": 0,
      "y": 8
    },
    "top_left_border_color": "ffffff00",
    "top_left_border_radius": "3",
    "top_left_border_style": "rc",
    "top_left_border_width": 1,
    "top_right_border_color": "ffffff00",
    "top_right_border_radius": "3",
    "top_right_border_style": "rc",
    "top_right_border_width": 1
  },
  "spabb": {
    "border_type": 0,
    "bottom_left_border_color": "ffffff00",
    "bottom_left_border_style": "plain",
    "bottom_left_border_width": 1,
    "bottom_right_border_color": "ffffff00",
    "bottom_right_border_style": "plain",
    "bottom_right_border_width": 1,
    "isForked": true,
    "shadow": {
      "br": 12,
      "color": "000000",
      "inner": false,
      "nm": 0,
      "x": 0,
      "y": 8
    },
    "top_left_border_color": "ffffff00",
    "top_left_border_style": "plain",
    "top_left_border_width": 1,
    "top_right_border_color": "ffffff00",
    "top_right_border_style": "plain",
    "top_right_border_width": 1
  },
  "spaip": {
    "border_type": 0,
    "bottom_left_border_color": "ffffff00",
    "bottom_left_border_radius": "3",
    "bottom_left_border_style": "rc",
    "bottom_left_border_width": 1,
    "bottom_right_border_color": "ffffff00",
    "bottom_right_border_radius": "3",
    "bottom_right_border_style": "rc",
    "bottom_right_border_width": 1,
    "isForked": true,
    "shadow": {
      "br": 12,
      "color": "000000",
      "inner": false,
      "nm": 0,
      "x": 0,
      "y": 8
    },
    "top_left_border_color": "ffffff00",
    "top_left_border_radius": "3",
    "top_left_border_style": "rc",
    "top_left_border_width": 1,
    "top_right_border_color": "ffffff00",
    "top_right_border_radius": "3",
    "top_right_border_style": "rc",
    "top_right_border_width": 1
  },
  "spaipad": {
    "border_type": 0,
    "bottom_left_border_color": "ffffff00",
    "bottom_left_border_radius": "3",
    "bottom_left_border_style": "rc",
    "bottom_left_border_width": 1,
    "bottom_right_border_color": "ffffff00",
    "bottom_right_border_radius": "3",
    "bottom_right_border_style": "rc",
    "bottom_right_border_width": 1,
    "isForked": true,
    "shadow": {
      "br": 12,
      "color": "000000",
      "inner": false,
      "nm": 0,
      "x": 0,
      "y": 8
    },
    "top_left_border_color": "ffffff00",
    "top_left_border_radius": "3",
    "top_left_border_style": "rc",
    "top_left_border_width": 1,
    "top_right_border_color": "ffffff00",
    "top_right_border_radius": "3",
    "top_right_border_style": "rc",
    "top_right_border_width": 1
  },
  "spawindowstablet": {
    "border_type": 0,
    "bottom_left_border_color": "ffffff00",
    "bottom_left_border_radius": "3",
    "bottom_left_border_style": "rc",
    "bottom_left_border_width": 1,
    "bottom_right_border_color": "ffffff00",
    "bottom_right_border_radius": "3",
    "bottom_right_border_style": "rc",
    "bottom_right_border_width": 1,
    "isForked": true,
    "shadow": {
      "br": 12,
      "color": "000000",
      "inner": false,
      "nm": 0,
      "x": 0,
      "y": 8
    },
    "top_left_border_color": "ffffff00",
    "top_left_border_radius": "3",
    "top_left_border_style": "rc",
    "top_left_border_width": 1,
    "top_right_border_color": "ffffff00",
    "top_right_border_radius": "3",
    "top_right_border_style": "rc",
    "top_right_border_width": 1
  },
  "spawinphone8": {
    "border_type": 0,
    "bottom_left_border_color": "ffffff00",
    "bottom_left_border_style": "plain",
    "bottom_left_border_width": 1,
    "bottom_right_border_color": "ffffff00",
    "bottom_right_border_style": "plain",
    "bottom_right_border_width": 1,
    "isForked": true,
    "shadow": {
      "br": 12,
      "color": "000000",
      "inner": false,
      "nm": 0,
      "x": 0,
      "y": 8
    },
    "top_left_border_color": "ffffff00",
    "top_left_border_style": "plain",
    "top_left_border_width": 1,
    "top_right_border_color": "ffffff00",
    "top_right_border_style": "plain",
    "top_right_border_width": 1
  },
  "wType": "FlexContainer"
}