{
  "background_color": "f7f7f7ff",
  "bg_type": "one",
  "border_color": "f7f7f7ff",
  "border_radius": 5,
  "border_style": "custom",
  "border_type": 0,
  "border_width": 1,
  "desktopweb": {
    "bottom_left_border_color": "f7f7f7ff",
    "bottom_left_border_radius": "2",
    "bottom_left_border_style": "rc",
    "bottom_left_border_width": 1,
    "bottom_right_border_color": "f7f7f7ff",
    "bottom_right_border_radius": "2",
    "bottom_right_border_style": "rc",
    "bottom_right_border_width": 1,
    "isForked": true,
    "shadow": {
      "br": 2,
      "color": "d9d9d9ff",
      "inner": false,
      "nm": 0,
      "x": 0,
      "y": 1
    },
    "top_left_border_color": "f7f7f7ff",
    "top_left_border_radius": "2",
    "top_left_border_style": "rc",
    "top_left_border_width": 1,
    "top_right_border_color": "f7f7f7ff",
    "top_right_border_radius": "2",
    "top_right_border_style": "rc",
    "top_right_border_width": 1
  },
  "ipad": {
    "isForked": true,
    "shadow": {
      "br": 2,
      "color": "d9d9d9ff",
      "inner": false,
      "nm": 0,
      "x": 0,
      "y": 1
    }
  },
  "iphone": {
    "isForked": true,
    "shadow": {
      "br": 2,
      "color": "d9d9d9ff",
      "inner": false,
      "nm": 0,
      "x": 0,
      "y": 1
    }
  },
  "isDefaultSkin": false,
  "kuid": "saec8ad43b0e4b4c8f3bbda23f4bb18a",
  "spaan": {
    "bottom_left_border_color": "f7f7f7ff",
    "bottom_left_border_radius": "2",
    "bottom_left_border_style": "rc",
    "bottom_left_border_width": 1,
    "bottom_right_border_color": "f7f7f7ff",
    "bottom_right_border_radius": "2",
    "bottom_right_border_style": "rc",
    "bottom_right_border_width": 1,
    "isForked": true,
    "shadow": {
      "br": 2,
      "color": "d9d9d9ff",
      "inner": false,
      "nm": 0,
      "x": 0,
      "y": 1
    },
    "top_left_border_color": "f7f7f7ff",
    "top_left_border_radius": "2",
    "top_left_border_style": "rc",
    "top_left_border_width": 1,
    "top_right_border_color": "f7f7f7ff",
    "top_right_border_radius": "2",
    "top_right_border_style": "rc",
    "top_right_border_width": 1
  },
  "spaandroidtablet": {
    "bottom_left_border_color": "f7f7f7ff",
    "bottom_left_border_radius": "2",
    "bottom_left_border_style": "rc",
    "bottom_left_border_width": 1,
    "bottom_right_border_color": "f7f7f7ff",
    "bottom_right_border_radius": "2",
    "bottom_right_border_style": "rc",
    "bottom_right_border_width": 1,
    "isForked": true,
    "shadow": {
      "br": 2,
      "color": "d9d9d9ff",
      "inner": false,
      "nm": 0,
      "x": 0,
      "y": 1
    },
    "top_left_border_color": "f7f7f7ff",
    "top_left_border_radius": "2",
    "top_left_border_style": "rc",
    "top_left_border_width": 1,
    "top_right_border_color": "f7f7f7ff",
    "top_right_border_radius": "2",
    "top_right_border_style": "rc",
    "top_right_border_width": 1
  },
  "spabb": {
    "bottom_left_border_color": "f7f7f7ff",
    "bottom_left_border_radius": "2",
    "bottom_left_border_style": "rc",
    "bottom_left_border_width": 1,
    "bottom_right_border_color": "f7f7f7ff",
    "bottom_right_border_radius": "2",
    "bottom_right_border_style": "rc",
    "bottom_right_border_width": 1,
    "isForked": true,
    "shadow": {
      "br": 2,
      "color": "d9d9d9ff",
      "inner": false,
      "nm": 0,
      "x": 0,
      "y": 1
    },
    "top_left_border_color": "f7f7f7ff",
    "top_left_border_radius": "2",
    "top_left_border_style": "rc",
    "top_left_border_width": 1,
    "top_right_border_color": "f7f7f7ff",
    "top_right_border_radius": "2",
    "top_right_border_style": "rc",
    "top_right_border_width": 1
  },
  "spaip": {
    "bottom_left_border_color": "f7f7f7ff",
    "bottom_left_border_radius": "2",
    "bottom_left_border_style": "rc",
    "bottom_left_border_width": 1,
    "bottom_right_border_color": "f7f7f7ff",
    "bottom_right_border_radius": "2",
    "bottom_right_border_style": "rc",
    "bottom_right_border_width": 1,
    "isForked": true,
    "shadow": {
      "br": 2,
      "color": "d9d9d9ff",
      "inner": false,
      "nm": 0,
      "x": 0,
      "y": 1
    },
    "top_left_border_color": "f7f7f7ff",
    "top_left_border_radius": "2",
    "top_left_border_style": "rc",
    "top_left_border_width": 1,
    "top_right_border_color": "f7f7f7ff",
    "top_right_border_radius": "2",
    "top_right_border_style": "rc",
    "top_right_border_width": 1
  },
  "spaipad": {
    "bottom_left_border_color": "f7f7f7ff",
    "bottom_left_border_radius": "2",
    "bottom_left_border_style": "rc",
    "bottom_left_border_width": 1,
    "bottom_right_border_color": "f7f7f7ff",
    "bottom_right_border_radius": "2",
    "bottom_right_border_style": "rc",
    "bottom_right_border_width": 1,
    "isForked": true,
    "shadow": {
      "br": 2,
      "color": "d9d9d9ff",
      "inner": false,
      "nm": 0,
      "x": 0,
      "y": 1
    },
    "top_left_border_color": "f7f7f7ff",
    "top_left_border_radius": "2",
    "top_left_border_style": "rc",
    "top_left_border_width": 1,
    "top_right_border_color": "f7f7f7ff",
    "top_right_border_radius": "2",
    "top_right_border_style": "rc",
    "top_right_border_width": 1
  },
  "spawindowstablet": {
    "bottom_left_border_color": "f7f7f7ff",
    "bottom_left_border_radius": "2",
    "bottom_left_border_style": "rc",
    "bottom_left_border_width": 1,
    "bottom_right_border_color": "f7f7f7ff",
    "bottom_right_border_radius": "2",
    "bottom_right_border_style": "rc",
    "bottom_right_border_width": 1,
    "isForked": true,
    "shadow": {
      "br": 2,
      "color": "d9d9d9ff",
      "inner": false,
      "nm": 0,
      "x": 0,
      "y": 1
    },
    "top_left_border_color": "f7f7f7ff",
    "top_left_border_radius": "2",
    "top_left_border_style": "rc",
    "top_left_border_width": 1,
    "top_right_border_color": "f7f7f7ff",
    "top_right_border_radius": "2",
    "top_right_border_style": "rc",
    "top_right_border_width": 1
  },
  "spawinphone8": {
    "bottom_left_border_color": "f7f7f7ff",
    "bottom_left_border_radius": "2",
    "bottom_left_border_style": "rc",
    "bottom_left_border_width": 1,
    "bottom_right_border_color": "f7f7f7ff",
    "bottom_right_border_radius": "2",
    "bottom_right_border_style": "rc",
    "bottom_right_border_width": 1,
    "isForked": true,
    "shadow": {
      "br": 2,
      "color": "d9d9d9ff",
      "inner": false,
      "nm": 0,
      "x": 0,
      "y": 1
    },
    "top_left_border_color": "f7f7f7ff",
    "top_left_border_radius": "2",
    "top_left_border_style": "rc",
    "top_left_border_width": 1,
    "top_right_border_color": "f7f7f7ff",
    "top_right_border_radius": "2",
    "top_right_border_style": "rc",
    "top_right_border_width": 1
  },
  "wType": "FlexContainer"
}