{
  "background_color": "4a90e2ff",
  "bg_type": "one",
  "border_color": "000000ff",
  "border_style": "plain",
  "border_type": 0,
  "border_width": 0,
  "isDefaultSkin": false,
  "kuid": "s203bc3001ff46cdbbfde8d74fd0204a",
  "wType": "FlexContainer"
}