{
  "background_color": "f4f4f499",
  "bg_type": "one",
  "border_color": "000000ff",
  "border_style": "plain",
  "border_type": 0,
  "border_width": 0,
  "isDefaultSkin": false,
  "kuid": "se4977ac99f04b71b6809f5ddf8db485",
  "wType": "FlexContainer"
}