{
  "background_color": "ffffffff",
  "bg_type": "one",
  "border_color": "72727233",
  "border_radius": 3,
  "border_style": "custom",
  "border_type": 0,
  "border_width": 1,
  "bottom_left_border_radius": "3",
  "bottom_left_border_style": "rc",
  "bottom_left_border_width": "1",
  "bottom_right_border_radius": "3",
  "bottom_right_border_style": "rc",
  "bottom_right_border_width": "1",
  "isDefaultSkin": false,
  "kuid": "s7c8c7e0772e4788b840a8b9602c98d5",
  "top_left_border_radius": "3",
  "top_left_border_style": "rc",
  "top_left_border_width": "1",
  "top_right_border_radius": "3",
  "top_right_border_style": "rc",
  "top_right_border_width": "1",
  "wType": "FlexContainer"
}