{
  "android": {
    "background_image": "icon_zoom_frame.png",
    "bg_type": "image",
    "isForked": true
  },
  "background_image": "",
  "bg_type": "image",
  "border_color": "ccccccff",
  "border_style": "plain",
  "border_type": 0,
  "border_width": 1,
  "desktopweb": {
    "backgroundSize": true,
    "background_image": "icon_zoom_frame.png",
    "bg_type": "image",
    "bottom_left_border_color": "ccccccff",
    "bottom_left_border_style": "plain",
    "bottom_left_border_width": 1,
    "bottom_right_border_color": "ccccccff",
    "bottom_right_border_style": "plain",
    "bottom_right_border_width": 1,
    "isForked": true,
    "top_left_border_color": "ccccccff",
    "top_left_border_style": "plain",
    "top_left_border_width": 1,
    "top_right_border_color": "ccccccff",
    "top_right_border_style": "plain",
    "top_right_border_width": 1
  },
  "ipad": {
    "background_image": "icon_zoom_frame.png",
    "bg_type": "image",
    "isForked": true
  },
  "iphone": {
    "background_image": "icon_zoom_frame.png",
    "bg_type": "image",
    "isForked": true
  },
  "isDefaultSkin": false,
  "kiosk": {
    "background_image": "icon_zoom_frame.png",
    "bg_type": "image",
    "isForked": true
  },
  "kuid": "s8f6fd52fe0c46fe84100b4ecce190f6",
  "spaan": {
    "backgroundSize": true,
    "background_image": "icon_zoom_frame.png",
    "bg_type": "image",
    "bottom_left_border_color": "ccccccff",
    "bottom_left_border_style": "plain",
    "bottom_left_border_width": 1,
    "bottom_right_border_color": "ccccccff",
    "bottom_right_border_style": "plain",
    "bottom_right_border_width": 1,
    "isForked": true,
    "top_left_border_color": "ccccccff",
    "top_left_border_style": "plain",
    "top_left_border_width": 1,
    "top_right_border_color": "ccccccff",
    "top_right_border_style": "plain",
    "top_right_border_width": 1
  },
  "spaandroidtablet": {
    "backgroundSize": true,
    "background_image": "icon_zoom_frame.png",
    "bg_type": "image",
    "bottom_left_border_color": "ccccccff",
    "bottom_left_border_style": "plain",
    "bottom_left_border_width": 1,
    "bottom_right_border_color": "ccccccff",
    "bottom_right_border_style": "plain",
    "bottom_right_border_width": 1,
    "isForked": true,
    "top_left_border_color": "ccccccff",
    "top_left_border_style": "plain",
    "top_left_border_width": 1,
    "top_right_border_color": "ccccccff",
    "top_right_border_style": "plain",
    "top_right_border_width": 1
  },
  "spabb": {
    "backgroundSize": true,
    "background_image": "icon_zoom_frame.png",
    "bg_type": "image",
    "bottom_left_border_color": "ccccccff",
    "bottom_left_border_style": "plain",
    "bottom_left_border_width": 1,
    "bottom_right_border_color": "ccccccff",
    "bottom_right_border_style": "plain",
    "bottom_right_border_width": 1,
    "isForked": true,
    "top_left_border_color": "ccccccff",
    "top_left_border_style": "plain",
    "top_left_border_width": 1,
    "top_right_border_color": "ccccccff",
    "top_right_border_style": "plain",
    "top_right_border_width": 1
  },
  "spaip": {
    "backgroundSize": true,
    "background_image": "icon_zoom_frame.png",
    "bg_type": "image",
    "bottom_left_border_color": "ccccccff",
    "bottom_left_border_style": "plain",
    "bottom_left_border_width": 1,
    "bottom_right_border_color": "ccccccff",
    "bottom_right_border_style": "plain",
    "bottom_right_border_width": 1,
    "isForked": true,
    "top_left_border_color": "ccccccff",
    "top_left_border_style": "plain",
    "top_left_border_width": 1,
    "top_right_border_color": "ccccccff",
    "top_right_border_style": "plain",
    "top_right_border_width": 1
  },
  "spaipad": {
    "background_image": "icon_zoom_frame.png",
    "bg_type": "image",
    "bottom_left_border_color": "ccccccff",
    "bottom_left_border_style": "plain",
    "bottom_left_border_width": 1,
    "bottom_right_border_color": "ccccccff",
    "bottom_right_border_style": "plain",
    "bottom_right_border_width": 1,
    "isForked": true,
    "top_left_border_color": "ccccccff",
    "top_left_border_style": "plain",
    "top_left_border_width": 1,
    "top_right_border_color": "ccccccff",
    "top_right_border_style": "plain",
    "top_right_border_width": 1
  },
  "spawindowstablet": {
    "background_image": "icon_zoom_frame.png",
    "bg_type": "image",
    "bottom_left_border_color": "ccccccff",
    "bottom_left_border_style": "plain",
    "bottom_left_border_width": 1,
    "bottom_right_border_color": "ccccccff",
    "bottom_right_border_style": "plain",
    "bottom_right_border_width": 1,
    "isForked": true,
    "top_left_border_color": "ccccccff",
    "top_left_border_style": "plain",
    "top_left_border_width": 1,
    "top_right_border_color": "ccccccff",
    "top_right_border_style": "plain",
    "top_right_border_width": 1
  },
  "spawinphone8": {
    "backgroundSize": true,
    "background_image": "icon_zoom_frame.png",
    "bg_type": "image",
    "bottom_left_border_color": "ccccccff",
    "bottom_left_border_style": "plain",
    "bottom_left_border_width": 1,
    "bottom_right_border_color": "ccccccff",
    "bottom_right_border_style": "plain",
    "bottom_right_border_width": 1,
    "isForked": true,
    "top_left_border_color": "ccccccff",
    "top_left_border_style": "plain",
    "top_left_border_width": 1,
    "top_right_border_color": "ccccccff",
    "top_right_border_style": "plain",
    "top_right_border_width": 1
  },
  "tabrcandroid": {
    "background_image": "icon_zoom_frame.png",
    "bg_type": "image",
    "isForked": true
  },
  "wType": "FlexContainer",
  "windows8": {
    "background_image": "icon_zoom_frame.png",
    "bg_type": "image",
    "isForked": true
  },
  "winphone8": {
    "background_image": "icon_zoom_frame.png",
    "bg_type": "image",
    "isForked": true
  }
}