{
  "android": {
    "font_name": "Helvetica",
    "font_size": 45,
    "isForked": false
  },
  "background_color": "00000000",
  "bg_type": "one",
  "border_color": "424242ff",
  "border_style": "plain",
  "border_type": 0,
  "border_width": 0,
  "desktopweb": {
    "font_name": "Lato-Medium",
    "font_size": 158,
    "isForked": false
  },
  "fontSizeInPx": true,
  "font_color": "464646d8",
  "font_name": "Helvetica",
  "font_size": 158,
  "font_style": "normal",
  "font_weight": "normal",
  "ipad": {
    "font_name": "Helvetica",
    "font_size": 68,
    "isForked": false
  },
  "iphone": {
    "font_name": "Helvetica",
    "font_size": 68,
    "isForked": false
  },
  "isDefaultSkin": false,
  "kiosk": {
    "font_name": "GenericMonospace",
    "font_size": 119,
    "isForked": false
  },
  "kuid": "s4f7b8b870f94682bad92a85107abaae",
  "spaan": {
    "font_name": "Lato-Medium",
    "font_size": 158,
    "isForked": false
  },
  "spaandroidtablet": {
    "font_name": "Lato-Medium",
    "font_size": 158,
    "isForked": false
  },
  "spabb": {
    "font_name": "Helvetica",
    "font_size": 158,
    "isForked": false
  },
  "spaip": {
    "font_name": "Lato-Medium",
    "font_size": 158,
    "isForked": false
  },
  "spaipad": {
    "font_name": "Lato-Medium",
    "font_size": 158,
    "isForked": false
  },
  "spawindowstablet": {
    "font_name": "Helvetica",
    "font_size": 158,
    "isForked": false
  },
  "spawinphone8": {
    "font_name": "Helvetica",
    "font_size": 158,
    "isForked": false
  },
  "tabrcandroid": {
    "font_name": "Helvetica",
    "font_size": 113,
    "isForked": false
  },
  "wType": "Label",
  "watchos": {
    "font_name": "Helvetica",
    "font_size": 68,
    "isForked": false
  },
  "windows8": {
    "font_name": "GenericMonospace",
    "font_size": 46,
    "isForked": false
  },
  "winphone8": {
    "font_name": "GenericMonospace",
    "font_size": 63,
    "isForked": false
  }
}