{
  "android": {
    "font_name": "Helvetica",
    "font_size": 31,
    "isForked": false
  },
  "background_color": "00000000",
  "bg_type": "one",
  "border_color": "424242ff",
  "border_style": "plain",
  "border_type": 0,
  "border_width": 0,
  "delinkedPltfrms": {
    "desktop": [
      "desktopweb"
    ],
    "mobile": [],
    "tablet": [
      "spaipad"
    ],
    "watch": []
  },
  "desktopweb": {
    "customCSS": "cursor:pointer !important;",
    "font_name": "Lato-Regular",
    "font_size": 108,
    "isCustomCSSEnabled": true,
    "isForked": true
  },
  "fontSizeInPx": true,
  "font_color": "3343a8ff",
  "font_name": "Helvetica",
  "font_size": 108,
  "font_style": "normal",
  "font_weight": "normal",
  "ipad": {
    "font_name": "Helvetica",
    "font_size": 46,
    "isForked": false
  },
  "iphone": {
    "font_name": "Helvetica",
    "font_size": 46,
    "isForked": false
  },
  "isDefaultSkin": false,
  "kiosk": {
    "font_name": "GenericMonospace",
    "font_size": 81,
    "isForked": false
  },
  "kuid": "sb0b08db6e3a4193918761d40ba1d32a",
  "spaan": {
    "font_name": "Lato-Regular",
    "font_size": 108,
    "isForked": false
  },
  "spaandroidtablet": {
    "font_name": "Lato-Regular",
    "font_size": 108,
    "isForked": false
  },
  "spabb": {
    "font_name": "Helvetica",
    "font_size": 108,
    "isForked": false
  },
  "spaip": {
    "font_name": "Lato-Regular",
    "font_size": 108,
    "isForked": false
  },
  "spaipad": {
    "font_name": "Lato-Regular",
    "font_size": 108,
    "isForked": true
  },
  "spawindowstablet": {
    "font_name": "Helvetica",
    "font_size": 108,
    "isForked": false
  },
  "spawinphone8": {
    "font_name": "Helvetica",
    "font_size": 108,
    "isForked": false
  },
  "tabrcandroid": {
    "font_name": "Helvetica",
    "font_size": 77,
    "isForked": false
  },
  "wType": "Label",
  "watchos": {
    "font_name": "Helvetica",
    "font_size": 46,
    "isForked": false
  },
  "windows8": {
    "font_name": "GenericMonospace",
    "font_size": 32,
    "isForked": false
  },
  "winphone8": {
    "font_name": "GenericMonospace",
    "font_size": 43,
    "isForked": false
  }
}