{
  "android": {
    "font_name": "Helvetica",
    "font_size": 26,
    "isForked": false
  },
  "background_color": "00000000",
  "bg_type": "one",
  "border_color": "424242ff",
  "border_style": "plain",
  "border_type": 0,
  "border_width": 0,
  "delinkedPltfrms": {
    "desktop": [
      "desktopweb"
    ],
    "mobile": [],
    "tablet": [
      "spaipad"
    ],
    "watch": []
  },
  "desktopweb": {
    "font_name": "Lato-Regular",
    "font_size": 142,
    "isForked": true
  },
  "fontSizeInPx": true,
  "font_color": "3343a8ff",
  "font_name": "Helvetica",
  "font_size": 92,
  "font_style": "normal",
  "font_weight": "normal",
  "ipad": {
    "font_name": "Helvetica",
    "font_size": 39,
    "isForked": false
  },
  "iphone": {
    "font_name": "Helvetica",
    "font_size": 39,
    "isForked": false
  },
  "isDefaultSkin": false,
  "kiosk": {
    "font_name": "GenericMonospace",
    "font_size": 69,
    "isForked": false
  },
  "kuid": "s6142e777f8b43afb5289cb3eb44b8c3",
  "spaan": {
    "font_name": "Lato-Regular",
    "font_size": 92,
    "isForked": false
  },
  "spaandroidtablet": {
    "font_name": "Lato-Regular",
    "font_size": 92,
    "isForked": false
  },
  "spabb": {
    "font_name": "Helvetica",
    "font_size": 92,
    "isForked": false
  },
  "spaip": {
    "font_name": "Lato-Regular",
    "font_size": 92,
    "isForked": false
  },
  "spaipad": {
    "font_name": "Lato-Regular",
    "font_size": 141,
    "isForked": true
  },
  "spawindowstablet": {
    "font_name": "Helvetica",
    "font_size": 92,
    "isForked": false
  },
  "spawinphone8": {
    "font_name": "Helvetica",
    "font_size": 92,
    "isForked": false
  },
  "tabrcandroid": {
    "font_name": "Helvetica",
    "font_size": 65,
    "isForked": false
  },
  "wType": "Label",
  "watchos": {
    "font_name": "Helvetica",
    "font_size": 39,
    "isForked": false
  },
  "windows8": {
    "font_name": "GenericMonospace",
    "font_size": 27,
    "isForked": false
  },
  "winphone8": {
    "font_name": "GenericMonospace",
    "font_size": 37,
    "isForked": false
  }
}