{
  "android": {
    "font_size": 15,
    "isForked": false
  },
  "background_color": "ffffffff",
  "bg_type": "one",
  "border_color": "000000ff",
  "border_style": "plain",
  "border_type": 0,
  "border_width": 0,
  "desktopweb": {
    "font_size": 15,
    "isForked": false
  },
  "fontSizeInPx": false,
  "font_color": "000000ff",
  "font_name": "Helvetica",
  "font_size": 15,
  "font_style": "normal",
  "font_weight": "normal",
  "ipad": {
    "font_size": 15,
    "isForked": false
  },
  "iphone": {
    "font_size": 15,
    "isForked": false
  },
  "isDefaultSkin": false,
  "kiosk": {
    "font_size": 15,
    "isForked": false
  },
  "kuid": "s3f6b29b16b54fd494eb76e98d4522f5",
  "spaan": {
    "font_size": 15,
    "isForked": false
  },
  "spaandroidtablet": {
    "font_size": 15,
    "isForked": false
  },
  "spabb": {
    "font_size": 15,
    "isForked": false
  },
  "spaip": {
    "font_size": 15,
    "isForked": false
  },
  "spaipad": {
    "font_size": 15,
    "isForked": false
  },
  "spawindowstablet": {
    "font_size": 15,
    "isForked": false
  },
  "spawinphone8": {
    "font_size": 15,
    "isForked": false
  },
  "tabrcandroid": {
    "font_size": 15,
    "isForked": false
  },
  "wType": "RadioButtonGroup",
  "watchos": {
    "font_size": 15,
    "isForked": false
  },
  "windows8": {
    "font_size": 15,
    "isForked": false
  },
  "winphone8": {
    "font_size": 15,
    "isForked": false
  }
}