{
  "android": {
    "font_size": 31,
    "isForked": false
  },
  "background_color": "e9ebeeff",
  "bg_type": "one",
  "border_color": "000000ff",
  "border_style": "plain",
  "border_type": 0,
  "border_width": 0,
  "desktopweb": {
    "font_name": "Lato-Regular",
    "font_size": 108,
    "isForked": false
  },
  "fontSizeInPx": true,
  "font_color": "3948aa",
  "font_size": 108,
  "ipad": {
    "font_size": 46,
    "isForked": false
  },
  "iphone": {
    "font_size": 46,
    "isForked": false
  },
  "isDefaultSkin": false,
  "kiosk": {
    "font_size": 81,
    "isForked": false
  },
  "kuid": "s6fd9491969e4f9e86b5370ac934fff8",
  "spaan": {
    "font_size": 108,
    "isForked": false
  },
  "spaandroidtablet": {
    "font_size": 108,
    "isForked": false
  },
  "spabb": {
    "font_size": 108,
    "isForked": false
  },
  "spaip": {
    "font_size": 108,
    "isForked": false
  },
  "spaipad": {
    "font_size": 108,
    "isForked": false
  },
  "spawindowstablet": {
    "font_size": 108,
    "isForked": false
  },
  "spawinphone8": {
    "font_size": 108,
    "isForked": false
  },
  "tabrcandroid": {
    "font_size": 77,
    "isForked": false
  },
  "wType": "Segment",
  "watchos": {
    "font_size": 46,
    "isForked": false
  },
  "windows8": {
    "font_size": 32,
    "isForked": false
  },
  "winphone8": {
    "font_size": 43,
    "isForked": false
  }
}