{
  "background_color": "fdfdfdff",
  "bg_type": "one",
  "border_color": "000000ff",
  "border_style": "plain",
  "border_type": 0,
  "border_width": 0,
  "isDefaultSkin": false,
  "kuid": "s79f16313a0a48ac9d5944e770e95aa0",
  "wType": "Segment"
}