{
  "background_color": "dae3daff",
  "bg_type": "one",
  "border_color": "dae3daff",
  "border_radius": 99,
  "border_style": "custom",
  "border_type": 0,
  "border_width": 1,
  "isDefaultSkin": false,
  "kuid": "se5b648ac7e24bd19a336c42c107594a",
  "wType": "FlexContainer"
}