{
  "@class": "com.kony.gen.viz.model.component.KVizButton",
  "DNDConfig": null,
  "__parentReadjusting__": false,
  "_height_": {
    "type": "string",
    "value": "50dp"
  },
  "_left_": {
    "type": "string",
    "value": "0dp"
  },
  "_margin_": [
    6,
    6,
    6,
    6
  ],
  "_padding_": [
    3,
    0,
    3,
    0
  ],
  "_skin_": "sa36ab97255641859b9973479782cf35",
  "_text_": "INTERNATIONAL ACCOUNT",
  "_top_": {
    "type": "string",
    "value": "0dp"
  },
  "_width_": {
    "type": "ref",
    "value": "preferred"
  },
  "canUpdateUI": true,
  "containerweight": 100,
  "contentalignment": 5,
  "desktopweb": {
    "psp": {
      "hoverSkin": "s14e5f4459414366a95c5a71c1f39486"
    }
  },
  "disabledSkins": {
    "focusSkin": "sf44d06ca8224832827ea7fdff757013"
  },
  "displaytext": true,
  "focusskin": null,
  "id": "btnManageRecipient",
  "info": null,
  "isvisible": true,
  "kuid": "e2df99d66b81433a929f775bf0600df1",
  "name": "kony.ui.Button",
  "paddingLocked": false,
  "paddinginpixel": false,
  "parent": "flxTabs",
  "pf": "userwidgetmodel",
  "texti18n": "i18n.PayAPerson.ManageRecipient",
  "tooltip": "MANAGE RECIPIENT",
  "wType": "Button",
  "zindex": 1
}