{
  "@class": "com.kony.gen.viz.model.container.KVizSegment2",
  "DNDConfig": null,
  "__markedForDelete__": true,
  "__parentReadjusting__": false,
  "_data_": [
    {},
    {},
    {}
  ],
  "_height_": {
    "type": "ref",
    "value": "preferred"
  },
  "_indicator_": "none",
  "_left_": {
    "type": "string",
    "value": "0dp"
  },
  "_margin_": [
    0,
    0,
    0,
    0
  ],
  "_orientation_": 2,
  "_padding_": [
    0,
    0,
    0,
    0
  ],
  "_top_": {
    "type": "string",
    "value": "0dp"
  },
  "_width_": {
    "type": "string",
    "value": "100%"
  },
  "autogrowmode": 1,
  "canUpdateUI": true,
  "containerweight": 100,
  "counter": "09",
  "desktop": {
    "_data_": [
      {
        "btnAction": {
          "@class": "com.viz.ide.model.segment.SimpleTextSegmentData",
          "i18nkey": "i18n.transfers.make_transfer",
          "text": "Button"
        },
        "imgDropdown": {
          "@class": "com.viz.ide.model.segment.ImageSegmentData",
          "src": "arrow_down.png"
        },
        "lblAccountName": {
          "@class": "com.viz.ide.model.segment.SimpleTextSegmentData",
          "text": "Benjamin Das"
        },
        "lblAccountType": {
          "@class": "com.viz.ide.model.segment.SimpleTextSegmentData",
          "text": "International"
        },
        "lblBankName": {
          "@class": "com.viz.ide.model.segment.SimpleTextSegmentData",
          "text": "Bank Of America"
        },
        "lblSeparator": {
          "@class": "com.viz.ide.model.segment.SimpleTextSegmentData",
          "text": ""
        }
      },
      {
        "btnAction": {
          "@class": "com.viz.ide.model.segment.SimpleTextSegmentData",
          "i18nkey": "i18n.transfers.make_transfer",
          "text": "Button"
        },
        "imgDropdown": {
          "@class": "com.viz.ide.model.segment.ImageSegmentData",
          "src": "arrow_down.png"
        },
        "lblAccountName": {
          "@class": "com.viz.ide.model.segment.SimpleTextSegmentData",
          "text": "Benjamin Das"
        },
        "lblAccountType": {
          "@class": "com.viz.ide.model.segment.SimpleTextSegmentData",
          "text": "International"
        },
        "lblBankName": {
          "@class": "com.viz.ide.model.segment.SimpleTextSegmentData",
          "text": "Bank Of America"
        },
        "lblSeparator": {
          "@class": "com.viz.ide.model.segment.SimpleTextSegmentData",
          "text": ""
        }
      },
      {
        "btnAction": {
          "@class": "com.viz.ide.model.segment.SimpleTextSegmentData",
          "i18nkey": "i18n.transfers.make_transfer",
          "text": "Button"
        },
        "imgDropdown": {
          "@class": "com.viz.ide.model.segment.ImageSegmentData",
          "src": "arrow_down.png"
        },
        "lblAccountName": {
          "@class": "com.viz.ide.model.segment.SimpleTextSegmentData",
          "text": "Benjamin Das"
        },
        "lblAccountType": {
          "@class": "com.viz.ide.model.segment.SimpleTextSegmentData",
          "text": "International"
        },
        "lblBankName": {
          "@class": "com.viz.ide.model.segment.SimpleTextSegmentData",
          "text": "Bank Of America"
        },
        "lblSeparator": {
          "@class": "com.viz.ide.model.segment.SimpleTextSegmentData",
          "text": ""
        }
      },
      {
        "btnAction": {
          "@class": "com.viz.ide.model.segment.SimpleTextSegmentData",
          "i18nkey": "i18n.transfers.make_transfer",
          "text": "Button"
        },
        "imgDropdown": {
          "@class": "com.viz.ide.model.segment.ImageSegmentData",
          "src": "arrow_down.png"
        },
        "lblAccountName": {
          "@class": "com.viz.ide.model.segment.SimpleTextSegmentData",
          "text": "Benjamin Das"
        },
        "lblAccountType": {
          "@class": "com.viz.ide.model.segment.SimpleTextSegmentData",
          "text": "International"
        },
        "lblBankName": {
          "@class": "com.viz.ide.model.segment.SimpleTextSegmentData",
          "text": "Bank Of America"
        },
        "lblSeparator": {
          "@class": "com.viz.ide.model.segment.SimpleTextSegmentData",
          "text": ""
        }
      },
      {
        "btnAction": {
          "@class": "com.viz.ide.model.segment.SimpleTextSegmentData",
          "i18nkey": "i18n.transfers.make_transfer",
          "text": "Button"
        },
        "imgDropdown": {
          "@class": "com.viz.ide.model.segment.ImageSegmentData",
          "src": "arrow_down.png"
        },
        "lblAccountName": {
          "@class": "com.viz.ide.model.segment.SimpleTextSegmentData",
          "text": "Benjamin Das"
        },
        "lblAccountType": {
          "@class": "com.viz.ide.model.segment.SimpleTextSegmentData",
          "text": "International"
        },
        "lblBankName": {
          "@class": "com.viz.ide.model.segment.SimpleTextSegmentData",
          "text": "Bank Of America"
        },
        "lblSeparator": {
          "@class": "com.viz.ide.model.segment.SimpleTextSegmentData",
          "text": ""
        }
      },
      {
        "btnAction": {
          "@class": "com.viz.ide.model.segment.SimpleTextSegmentData",
          "i18nkey": "i18n.transfers.make_transfer",
          "text": "Button"
        },
        "imgDropdown": {
          "@class": "com.viz.ide.model.segment.ImageSegmentData",
          "src": "arrow_down.png"
        },
        "lblAccountName": {
          "@class": "com.viz.ide.model.segment.SimpleTextSegmentData",
          "text": "Benjamin Das"
        },
        "lblAccountType": {
          "@class": "com.viz.ide.model.segment.SimpleTextSegmentData",
          "text": "International"
        },
        "lblBankName": {
          "@class": "com.viz.ide.model.segment.SimpleTextSegmentData",
          "text": "Bank Of America"
        },
        "lblSeparator": {
          "@class": "com.viz.ide.model.segment.SimpleTextSegmentData",
          "text": ""
        }
      },
      {
        "btnAction": {
          "@class": "com.viz.ide.model.segment.SimpleTextSegmentData",
          "i18nkey": "i18n.transfers.make_transfer",
          "text": "Button"
        },
        "imgDropdown": {
          "@class": "com.viz.ide.model.segment.ImageSegmentData",
          "src": "arrow_down.png"
        },
        "lblAccountName": {
          "@class": "com.viz.ide.model.segment.SimpleTextSegmentData",
          "text": "Benjamin Das"
        },
        "lblAccountType": {
          "@class": "com.viz.ide.model.segment.SimpleTextSegmentData",
          "text": "International"
        },
        "lblBankName": {
          "@class": "com.viz.ide.model.segment.SimpleTextSegmentData",
          "text": "Bank Of America"
        },
        "lblSeparator": {
          "@class": "com.viz.ide.model.segment.SimpleTextSegmentData",
          "text": ""
        }
      },
      {
        "btnAction": {
          "@class": "com.viz.ide.model.segment.SimpleTextSegmentData",
          "i18nkey": "i18n.transfers.make_transfer",
          "text": "Button"
        },
        "imgDropdown": {
          "@class": "com.viz.ide.model.segment.ImageSegmentData",
          "src": "arrow_down.png"
        },
        "lblAccountName": {
          "@class": "com.viz.ide.model.segment.SimpleTextSegmentData",
          "text": "Benjamin Das"
        },
        "lblAccountType": {
          "@class": "com.viz.ide.model.segment.SimpleTextSegmentData",
          "text": "International"
        },
        "lblBankName": {
          "@class": "com.viz.ide.model.segment.SimpleTextSegmentData",
          "text": "Bank Of America"
        },
        "lblSeparator": {
          "@class": "com.viz.ide.model.segment.SimpleTextSegmentData",
          "text": ""
        }
      },
      {
        "btnAction": {
          "@class": "com.viz.ide.model.segment.SimpleTextSegmentData",
          "i18nkey": "i18n.transfers.make_transfer",
          "text": "Button"
        },
        "imgDropdown": {
          "@class": "com.viz.ide.model.segment.ImageSegmentData",
          "src": "arrow_down.png"
        },
        "lblAccountName": {
          "@class": "com.viz.ide.model.segment.SimpleTextSegmentData",
          "text": "Benjamin Das"
        },
        "lblAccountType": {
          "@class": "com.viz.ide.model.segment.SimpleTextSegmentData",
          "text": "International"
        },
        "lblBankName": {
          "@class": "com.viz.ide.model.segment.SimpleTextSegmentData",
          "text": "Bank Of America"
        },
        "lblSeparator": {
          "@class": "com.viz.ide.model.segment.SimpleTextSegmentData",
          "text": ""
        }
      },
      {
        "btnAction": {
          "@class": "com.viz.ide.model.segment.SimpleTextSegmentData",
          "i18nkey": "i18n.transfers.make_transfer",
          "text": "Button"
        },
        "imgDropdown": {
          "@class": "com.viz.ide.model.segment.ImageSegmentData",
          "src": "arrow_down.png"
        },
        "lblAccountName": {
          "@class": "com.viz.ide.model.segment.SimpleTextSegmentData",
          "text": "Benjamin Das"
        },
        "lblAccountType": {
          "@class": "com.viz.ide.model.segment.SimpleTextSegmentData",
          "text": "International"
        },
        "lblBankName": {
          "@class": "com.viz.ide.model.segment.SimpleTextSegmentData",
          "text": "Bank Of America"
        },
        "lblSeparator": {
          "@class": "com.viz.ide.model.segment.SimpleTextSegmentData",
          "text": ""
        }
      }
    ],
    "rowTemplateId": "e4f36e3dc67e41febf96a063d5f72ffa",
    "rowtemplate": "flxMakeTransfersTransfersUnselected",
    "widgetdatamap": {
      "btnAction": "btnAction",
      "flxAccountName": "flxAccountName",
      "flxAccountType": "flxAccountType",
      "flxBankName": "flxBankName",
      "flxDropdown": "flxDropdown",
      "flxMakeTransfersTransfersUnselected": "flxMakeTransfersTransfersUnselected",
      "flxRow": "flxRow",
      "imgDropdown": "imgDropdown",
      "lblAccountName": "lblAccountName",
      "lblAccountType": "lblAccountType",
      "lblBankName": "lblBankName",
      "lblSeparator": "lblSeparator"
    }
  },
  "focusedindex": null,
  "focuseditem": null,
  "groupcells": false,
  "hasSections": false,
  "id": "segWireTransfers",
  "info": null,
  "ipad": {
    "psp": {
      "indicator": "rowselect"
    }
  },
  "iphone": {
    "psp": {
      "indicator": "rowselect"
    }
  },
  "isvisible": true,
  "kuid": "a7f918b865e64d5a9040050c6864f161",
  "masterdata": {},
  "mobile": {
    "rowTemplateId": null,
    "rowtemplate": null,
    "sectionHeaderTemplateId": null
  },
  "name": "kony.ui.SegmentedUI2",
  "needpageindicator": true,
  "pageoffdotimage": "pageoffdot.png",
  "pageondotimage": "pageondot.png",
  "paginationconfig": {
    "position": "bottom"
  },
  "parent": "flxMainContainerTable",
  "pf": "userwidgetmodel",
  "retainselection": false,
  "rowcounter": 9,
  "rowfocusskin": "s9f69e977910472eb44c62ae28c41fe1",
  "rowskin": "s7ca26b79d7d4146a97e10e34b00a1c2",
  "rowtemplate": null,
  "screenlevelwidget": false,
  "seccounter": 0,
  "sectionheaderskin": "sdc4ff4ed1584272be2ae69045dfb29d",
  "selectedRows": null,
  "selectedState": false,
  "selectedindex": null,
  "selectedindices": null,
  "selecteditems": null,
  "selectedsectionindex": 0,
  "selectionbehavior": "default",
  "separatorcolor": "e9ebee00",
  "separatorrequired": true,
  "separatorthickness": 1,
  "showscrollbars": false,
  "viewtype": "tableview",
  "wType": "Segment",
  "widgetalignment": 5,
  "widgetdatamap": {
    "btnAction": "btnAction",
    "flxAccountName": "flxAccountName",
    "flxAccountType": "flxAccountType",
    "flxBankName": "flxBankName",
    "flxDropdown": "flxDropdown",
    "flxMakeTransfersTransfersUnselected": "flxMakeTransfersTransfersUnselected",
    "flxRow": "flxRow",
    "imgDropdown": "imgDropdown",
    "lblAccountName": "lblAccountName",
    "lblAccountType": "lblAccountType",
    "lblBankName": "lblBankName",
    "lblSeparator": "lblSeparator"
  },
  "zindex": 1
}