{
  "@class": "com.kony.gen.viz.model.component.KVizUserWidget",
  "DNDConfig": null,
  "__parentReadjusting__": false,
  "_children_": [],
  "_height_": {
    "type": "string",
    "value": "52dp"
  },
  "_left_": {
    "type": "string",
    "value": "0dp"
  },
  "_margin_": [
    0,
    0,
    0,
    0
  ],
  "_orientation_": 1,
  "_padding_": [
    0,
    0,
    0,
    0
  ],
  "_percent_": true,
  "_render_": true,
  "_skin_": "s2ce93a13331476c8dd4bdd20e9a2e14",
  "_top_": {
    "type": "string",
    "value": "0dp"
  },
  "_width_": {
    "type": "string",
    "value": "100%"
  },
  "areflexpropsreferenced": false,
  "autogrowmode": 0,
  "canUpdateUI": true,
  "clipbounds": true,
  "containerweight": 0,
  "dataDiffs": {
    "breadcrumb": {
      "__events__": {},
      "__info__": {
        "isRoot": true,
        "kuid": "ccb188c339974eaa821b790d88b86fa0",
        "srcKUID": "jdbd779e0c7743739197ebb17ae3c27e",
        "wType": "FlexContainer"
      },
      "autogrowMode": {
        "Default": 0
      },
      "height": {
        "Default": {
          "type": "string",
          "value": "52dp"
        }
      },
      "top": {
        "Default": {
          "type": "string",
          "value": "0dp"
        }
      }
    },
    "btnBreadcrumb1": {
      "__events__": {
        "ide_onClick": "AS_Button_c8b7fd526d4e44a1be8becac26b9d13a"
      },
      "__info__": {
        "kuid": "d093435aa4264e2e82daf6445779f256",
        "srcKUID": "j8c10426f5ad4cc5abe5b3dafa2dbb1c",
        "wType": "Button"
      },
      "text": "ACCOUNTS"
    },
    "btnBreadcrumb2": {
      "__events__": {},
      "__info__": {
        "kuid": "e263656556f94726a5b82f00b1c8c7a1",
        "srcKUID": "e8107b226c2b40cf90a9a46174bc7f1d",
        "wType": "Button"
      }
    },
    "flxBottomBorder": {
      "__events__": {},
      "__info__": {
        "kuid": "f83a4ffc0a5e423d9289ce769e7d0f16",
        "srcKUID": "i0ec1627a998464aade04cd886ef46aa",
        "wType": "FlexContainer"
      }
    },
    "flxBreadcrumbcontainer": {
      "__events__": {},
      "__info__": {
        "kuid": "c0e5af5570504a71909207adabf20f35",
        "srcKUID": "j0c7057677fd4a26b82f7fa59cdd360e",
        "wType": "FlexContainer"
      },
      "autogrowMode": {
        "Default": 0
      },
      "centerX": {
        "Default": {
          "type": "string",
          "value": "50%"
        }
      },
      "height": {
        "Default": {
          "type": "string",
          "value": "50dp"
        }
      },
      "top": {
        "Default": {
          "type": "string",
          "value": "1dp"
        }
      },
      "width": {
        "Default": {
          "type": "string",
          "value": "1366dp"
        }
      }
    },
    "flxTopBorder": {
      "__events__": {},
      "__info__": {
        "kuid": "cf673f87d5194705889b7aff6c3b1ae1",
        "srcKUID": "bb6bda1822574264b7678002ffe888d6",
        "wType": "FlexContainer"
      },
      "top": {
        "Default": {
          "type": "string",
          "value": "0dp"
        }
      }
    },
    "imgBreadcrumb": {
      "__events__": {},
      "__info__": {
        "kuid": "cf02238e3f8540a58aa0116619f6b3f2",
        "srcKUID": "f5a4304fad2f41a3b5b783c4326dfc7f",
        "wType": "Image"
      }
    },
    "imgBreadcrumb2": {
      "__events__": {},
      "__info__": {
        "kuid": "fdf9198140e0497abdfcc12eb7efe665",
        "srcKUID": "ec657451494941c9970301e279e7bf1a",
        "wType": "Image"
      }
    },
    "lblBreadcrumb2": {
      "__events__": {},
      "__info__": {
        "kuid": "ebf338d7d7af41a0be0dd326ec9bb622",
        "srcKUID": "c087aea595bb4c9fa3e64e58b7e245f9",
        "wType": "Label"
      }
    },
    "lblBreadcrumb3": {
      "__events__": {},
      "__info__": {
        "kuid": "ebbc17012bb54d45b258c873264a0781",
        "srcKUID": "ec107db8650a4c9db78a5676ab665c29",
        "wType": "Label"
      }
    }
  },
  "id": "breadcrumb",
  "info": null,
  "isdatareferenced": false,
  "isvisible": true,
  "kuid": "b0daeda834e3410586933ca0b56b9d73",
  "layouttype": 2,
  "masterType": 0,
  "name": "kony.ui.UserWidgetInstance",
  "parent": "flxMainWrapper",
  "pf": "frmScheduledTransactions",
  "snaptogrid": true,
  "sourceUserWidget": "jdbd779e0c7743739197ebb17ae3c27e",
  "wType": "UserWidgetInstance"
}