{
  "@class": "com.kony.gen.viz.model.component.KVizUserWidget",
  "DNDConfig": null,
  "__parentReadjusting__": false,
  "_children_": [],
  "_height_": {
    "type": "string",
    "value": "121px"
  },
  "_left_": {
    "type": "string",
    "value": "0dp"
  },
  "_margin_": [
    0,
    0,
    0,
    0
  ],
  "_orientation_": 1,
  "_padding_": [
    0,
    0,
    0,
    0
  ],
  "_percent_": true,
  "_render_": true,
  "_skin_": "s08469efda4a4826a2c833ec32b9f5e5",
  "_top_": {
    "type": "string",
    "value": "0dp"
  },
  "_width_": {
    "type": "string",
    "value": "100%"
  },
  "areflexpropsreferenced": false,
  "autogrowmode": 0,
  "canUpdateUI": true,
  "clipbounds": false,
  "containerweight": 0,
  "dataDiffs": {
    "CopyflxHamburgerBack0f9d52b864a8c4e": {
      "__events__": {},
      "__info__": {
        "kuid": "b426d1acc57d4e4e9d201587e30a1331",
        "srcKUID": "e54748b344d245529c0ccb38cd8d1fcb",
        "wType": "FlexContainer"
      }
    },
    "CopyflxUserDetails0b35eb5be884043": {
      "__events__": {},
      "__info__": {
        "kuid": "g9c8324aa95546adbeba14c7dfb9dbc8",
        "srcKUID": "b692716bd51e422ead7f111a1bfbe5cb",
        "wType": "FlexContainer"
      }
    },
    "CopyflxVerticalSeperator0dbd20466efa64b": {
      "__events__": {},
      "__info__": {
        "kuid": "b051c83c9a3b430d965e409878585ffc",
        "srcKUID": "d06f368d0065481d81dc512212fd2b95",
        "wType": "FlexContainer"
      }
    },
    "FlexContainer0e2898aa93bca45": {
      "__events__": {},
      "__info__": {
        "kuid": "cfd87de0176c436e9b159af8aaefc9b4",
        "srcKUID": "f85d68fc07dd44c2938e507df0fe87fc",
        "wType": "FlexContainer"
      },
      "width": {
        "Default": {
          "type": "string",
          "value": "1366dp"
        }
      }
    },
    "Label0e243933e8fa34e": {
      "__events__": {},
      "__info__": {
        "kuid": "g8109d6741ce4f6a9fbb8f74d67c69dd",
        "srcKUID": "e4ac7c6df45f47999b2250e0bcb58bcb",
        "wType": "Label"
      }
    },
    "customhamburger": {
      "__events__": {},
      "__info__": {
        "kuid": "dbfc061f5de94c54aaf81e82edfe90a0",
        "srcKUID": "dea66199c9fd433fab636de553a6116f",
        "wType": "UserWidgetInstance"
      }
    },
    "customhamburger.CopyflxMyAccounts0b54df1795b674c": {
      "__events__": {},
      "__info__": {
        "kuid": "i69466dc6e724076a2047560c8cb5409",
        "srcKUID": "dc4c58f3d34b49b6a828fb1092938fd9",
        "wType": "FlexContainer"
      }
    },
    "customhamburger.CopyflxMyAccounts0d2a58860676d43": {
      "__events__": {},
      "__info__": {
        "kuid": "jf331021571a41c6a4e7badbe5d04471",
        "srcKUID": "ic7b9b97e0a34ff9a3bb27ee8e7dc13f",
        "wType": "FlexContainer"
      }
    },
    "customhamburger.CopyflxMyAccounts0f8a8e9530ccc43": {
      "__events__": {},
      "__info__": {
        "kuid": "a20c286d95d14d419d22688f9164ba90",
        "srcKUID": "bbe7100a7f7940d39db5b7b1de5a774e",
        "wType": "FlexContainer"
      }
    },
    "customhamburger.CopyflxMyAccounts0fb3509ebda8a4d": {
      "__events__": {},
      "__info__": {
        "kuid": "ec9cb93d0eb74fa6820cb1a026c2382d",
        "srcKUID": "d9cef119e5a942c9b89b4e9733af8f59",
        "wType": "FlexContainer"
      }
    },
    "customhamburger.CopyflxSeperator0ab6ff437e8524e": {
      "__events__": {},
      "__info__": {
        "kuid": "f0c537f766a54dbcb88a8f366fa73b5e",
        "srcKUID": "ca4dec9fb13344e8a9eaab7c89b68088",
        "wType": "FlexContainer"
      }
    },
    "customhamburger.CopyflxSeperator0acb2897e84374f": {
      "__events__": {},
      "__info__": {
        "kuid": "eb7d3a92cce84b528658b62ac5ba436b",
        "srcKUID": "h931230261a14f28817596d7d2bbfee2",
        "wType": "FlexContainer"
      }
    },
    "customhamburger.CopyflxSeperator0bd0b5a0f50074d": {
      "__events__": {},
      "__info__": {
        "kuid": "b61c525d352a463b9fbf955d658f43b8",
        "srcKUID": "b8213949527b424f92c6600b3e792ecc",
        "wType": "FlexContainer"
      }
    },
    "customhamburger.CopyflxSeperator0c1fe53523f5e44": {
      "__events__": {},
      "__info__": {
        "kuid": "bc56e99eeb9f41848e32a6a8e7f9b1d6",
        "srcKUID": "ffdae6459d5d450c9b5a5df56704081e",
        "wType": "FlexContainer"
      }
    },
    "customhamburger.CopyflxSeperator0d1cf533b0a1e41": {
      "__events__": {},
      "__info__": {
        "kuid": "ee1f7cce6a924d3e931c31c715702bce",
        "srcKUID": "fef29e5fb0c4475aaea53717a412f37c",
        "wType": "FlexContainer"
      }
    },
    "customhamburger.CopyflxSeperator0dd0dea943f174f": {
      "__events__": {},
      "__info__": {
        "kuid": "i74e2b3cd78e4dba95b1441782bb2e23",
        "srcKUID": "j5306d2984814d9d93c24f84d7db8ba7",
        "wType": "FlexContainer"
      }
    },
    "customhamburger.CopyflxSeperator0dfe0994effc642": {
      "__events__": {},
      "__info__": {
        "kuid": "ge66341a1b714ecea028364638b9ba65",
        "srcKUID": "c7eb127bdde140e382ab0f3726c08d48",
        "wType": "FlexContainer"
      }
    },
    "customhamburger.CopyflxSeperator0e0b844b2206d42": {
      "__events__": {},
      "__info__": {
        "kuid": "ebab03919bbc4dd28296b148a6e6e4fa",
        "srcKUID": "d407d1c0e2b74a5c8858107d1963ab91",
        "wType": "FlexContainer"
      }
    },
    "customhamburger.CopyflxSeperator0e26671ec477148": {
      "__events__": {},
      "__info__": {
        "kuid": "edfbcdfbe40f44aa952ace4208bbe9a6",
        "srcKUID": "e67fd2e22af044b486baf8def557575c",
        "wType": "FlexContainer"
      }
    },
    "customhamburger.CopyflxSeperator0ef41d1ef612f4a": {
      "__events__": {},
      "__info__": {
        "kuid": "c189a2b8d5cd4199aec35ffec0c2498c",
        "srcKUID": "adeb509fbec84150b31a2aa4a215fb19",
        "wType": "FlexContainer"
      }
    },
    "customhamburger.CopyflxSeperator0f0efd703f4a84e": {
      "__events__": {},
      "__info__": {
        "kuid": "gfcfc69bf3e7493f8ba09ee7b9c1b0e8",
        "srcKUID": "jc0b907adf1f4e1ea39d354fc2e41d23",
        "wType": "FlexContainer"
      }
    },
    "customhamburger.CopyflxSeperator0f546de30843d4a": {
      "__events__": {},
      "__info__": {
        "kuid": "f434b382193c44cca90f5bba53387e92",
        "srcKUID": "b2e0303156ee4279b58a400c45658cbe",
        "wType": "FlexContainer"
      }
    },
    "customhamburger.CopyflxSeperator0f697b8a8bbcf46": {
      "__events__": {},
      "__info__": {
        "kuid": "d2077441ed2846268bb91bd1bc0314a2",
        "srcKUID": "d7122805ba3b40f493b7d79f749c5c1f",
        "wType": "FlexContainer"
      }
    },
    "customhamburger.CopyflxSeperator0f7229c978c5c47": {
      "__events__": {},
      "__info__": {
        "kuid": "d3acab13844a478ba800a0d260ee9929",
        "srcKUID": "a87745dcb66b4f4c83b0725af5c1251b",
        "wType": "FlexContainer"
      }
    },
    "customhamburger.CopyflxSeperator0f85cfae3ca0048": {
      "__events__": {},
      "__info__": {
        "kuid": "i24231ad0ed5472bbc4196495db3efab",
        "srcKUID": "dc99871787d24ab28840acb5727529ca",
        "wType": "FlexContainer"
      }
    },
    "customhamburger.CopyflxSeperator0h8ae88a56a9d41": {
      "__events__": {},
      "__info__": {
        "kuid": "f22c3977d8dc4f81bfc5955901f8a17c",
        "srcKUID": "e98fbb42ce4f4cd892d9d78a174599bc",
        "wType": "FlexContainer"
      }
    },
    "customhamburger.CopyflxSeperator0ha67bcc4ced74d": {
      "__events__": {},
      "__info__": {
        "kuid": "b1f4e792acf34f0f84f8f52d589f53f7",
        "srcKUID": "eb357a4d0a5444ce9fe205a0d44588f7",
        "wType": "FlexContainer"
      }
    },
    "customhamburger.CopyflxSeperator0i4d31af56d2d40": {
      "__events__": {},
      "__info__": {
        "kuid": "i9c5e3e8ba8246b0b89d263f3812efbc",
        "srcKUID": "f3f4b62efb0a4dd8bf89e2d38860cfd7",
        "wType": "FlexContainer"
      }
    },
    "customhamburger.CopyflxSeperator0i8b9bac42bb244": {
      "__events__": {},
      "__info__": {
        "kuid": "f04f678d21f64a39a7d551d7e3f43b0c",
        "srcKUID": "b27ca988af24429ba3da202b454cc21f",
        "wType": "FlexContainer"
      }
    },
    "customhamburger.CopyflxSeperator0j3213d9f303b41": {
      "__events__": {},
      "__info__": {
        "kuid": "g606486f3b904b3b877da0aa01568aa1",
        "srcKUID": "fe9c8dd71102415db76f64c461560080",
        "wType": "FlexContainer"
      }
    },
    "customhamburger.CopyflxSeperator0jc2b704f97fa4d": {
      "__events__": {},
      "__info__": {
        "kuid": "e6bced15680942d3926a7c560d7682af",
        "srcKUID": "d0c5fd0e52bf405ab3a5b62910c15dfc",
        "wType": "FlexContainer"
      }
    },
    "customhamburger.CopylblAddPayee0b508c1c7ac1342": {
      "__events__": {},
      "__info__": {
        "kuid": "hb9be2812786466ea1d4f9f8bc90d58d",
        "srcKUID": "gecce85ab70e458f8184668a61d2a72a",
        "wType": "Label"
      }
    },
    "customhamburger.CopylblAddPayee0bee2cf73d22b4d": {
      "__events__": {},
      "__info__": {
        "kuid": "b76c3c5733244efbac1b68fb4b6421bf",
        "srcKUID": "e21a4f39e45c4ea4b684e82952e0da1f",
        "wType": "Label"
      }
    },
    "customhamburger.CopylblAddPayee0g70cc090ed6245": {
      "__events__": {},
      "__info__": {
        "kuid": "b2f0f59898e947ddb75a9199bdd54fcb",
        "srcKUID": "f6dfffbbcd7d48ac80ff2d95331aeef0",
        "wType": "Label"
      }
    },
    "customhamburger.CopylblBillPay0a6bc0b0a48dd4b": {
      "__events__": {},
      "__info__": {
        "kuid": "ec11cf556dcc40069b7030d31e3b8989",
        "srcKUID": "iece97379dcf4992bd7afc5f0ac6ed8a",
        "wType": "Label"
      }
    },
    "customhamburger.CopylblBillPay0e8e9903a20a440": {
      "__events__": {},
      "__info__": {
        "kuid": "i5c03ece536b4eaeb637ef6470202f96",
        "srcKUID": "i5c72f4c617e4a9fa18d6460cc8c41cb",
        "wType": "Label"
      }
    },
    "customhamburger.CopylblBillPay0eda6178b407a4e": {
      "__events__": {},
      "__info__": {
        "kuid": "e55807aa06294fa3acd890dcbba050e6",
        "srcKUID": "b5f49ce65f43422e8ba064d0383c8b60",
        "wType": "Label"
      }
    },
    "customhamburger.CopylblBillPayHistory0b38a2ee4fe0d47": {
      "__events__": {},
      "__info__": {
        "kuid": "beb442d79b2e4d6e837dd998f8fdd09c",
        "srcKUID": "hbc213bb8f7a4233b1396cd4bdabbaa3",
        "wType": "Label"
      }
    },
    "customhamburger.CopylblBillPayHistory0gc07c297701741": {
      "__events__": {},
      "__info__": {
        "kuid": "i1fc15fa514f48f0814cd9f41d37dcf2",
        "srcKUID": "cb22b1482ffc4bfb95ecec9f6a141fab",
        "wType": "Label"
      }
    },
    "customhamburger.CopylblMyAccounts0c708334cd15c43": {
      "__events__": {},
      "__info__": {
        "kuid": "b619c6dd833e469f8b3a71295a479e8f",
        "srcKUID": "dc2cbfc36e79444ab78448553e873210",
        "wType": "Label"
      }
    },
    "customhamburger.CopylblMyAccounts0cbb159605a3b44": {
      "__events__": {},
      "__info__": {
        "kuid": "a74f2d547af249e6a3987f277140d025",
        "srcKUID": "afec2e14a4a3441b95c42cc142db3bf2",
        "wType": "Label"
      }
    },
    "customhamburger.CopylblMyAccounts0d0f2bf7fe79545": {
      "__events__": {},
      "__info__": {
        "kuid": "eb422afb1980430896e5bc262125dbaf",
        "srcKUID": "c6f86a1de73246a09b5c79361693bc21",
        "wType": "Label"
      }
    },
    "customhamburger.CopylblMyAccounts0hc2685e27c2c44": {
      "__events__": {},
      "__info__": {
        "kuid": "b66e3ae208624f98ae5e3d59d80947f2",
        "srcKUID": "faab113b9bf8424580d0e0812fa98971",
        "wType": "Label"
      }
    },
    "customhamburger.CopylblMyAccounts0i08ff33ddccd42": {
      "__events__": {},
      "__info__": {
        "kuid": "g89a1b9111c84716aae67fb020d30993",
        "srcKUID": "a42c5516493c41799b8383460faa4847",
        "wType": "Label"
      }
    },
    "customhamburger.CopylblMyPayee0dcb9e690692a4f": {
      "__events__": {},
      "__info__": {
        "kuid": "bc64d6394fd84aca9c6bc425290772fc",
        "srcKUID": "bed01243f6a547179d4bf810e22191f0",
        "wType": "Label"
      }
    },
    "customhamburger.CopylblMyPayee0e33403d7890441": {
      "__events__": {},
      "__info__": {
        "kuid": "a449cb5fb6ac4a52b92c8f3c97882d7d",
        "srcKUID": "bce63faed54a4d5f8189fb31de9e3ee7",
        "wType": "Label"
      }
    },
    "customhamburger.CopylblMyPayee0i8f11a9bf3734f": {
      "__events__": {},
      "__info__": {
        "kuid": "cc145440832845489e298ac70314ca53",
        "srcKUID": "b43285cfc5b14a5ba8ac5b1edff46d10",
        "wType": "Label"
      }
    },
    "customhamburger.CopylblPayABill0d56ffee2b48f4c": {
      "__events__": {},
      "__info__": {
        "kuid": "j0f7453c37824599bf6c4e00d192837c",
        "srcKUID": "a37d5172e5d04c99a7b381dbdb0c1f0e",
        "wType": "Label"
      }
    },
    "customhamburger.CopylblPayABill0g84c7aa6fce048": {
      "__events__": {},
      "__info__": {
        "kuid": "beac227a623e4716ac52c79d69ace8bf",
        "srcKUID": "e68c07ae9fae4911aa7ec55b76ac1d9e",
        "wType": "Label"
      }
    },
    "customhamburger.CopylblPayABill0h56a2d285cea46": {
      "__events__": {},
      "__info__": {
        "kuid": "if878f04f72c4e53aae53a048826476e",
        "srcKUID": "ade9130b3841494c9f59781a7587c3e1",
        "wType": "Label"
      }
    },
    "customhamburger.FlexContainer0a82014659b0e48": {
      "__events__": {},
      "__info__": {
        "kuid": "cc39036a66e14bbb97f093d47760cc32",
        "srcKUID": "h7ad82c8fb9b437486ad6c4d49320ce2",
        "wType": "FlexContainer"
      }
    },
    "customhamburger.flxAboutUs": {
      "__events__": {},
      "__info__": {
        "kuid": "dcf1ca00ea474aa880a5830a2ede5ca4",
        "srcKUID": "cca79f5d16b045408f311a815ae6b289",
        "wType": "FlexContainer"
      }
    },
    "customhamburger.flxAboutUsCollapse": {
      "__events__": {},
      "__info__": {
        "kuid": "d2cecd72e16c49a6a7999af0ee810f70",
        "srcKUID": "e41d16cfc04e458693670ae7e87e34aa",
        "wType": "FlexContainer"
      }
    },
    "customhamburger.flxAboutUsSubMenu": {
      "__events__": {},
      "__info__": {
        "kuid": "j7f939d2cc984c3ba1b281c333326789",
        "srcKUID": "ad066a23a8cd41e983c434b90da35923",
        "wType": "FlexContainer"
      }
    },
    "customhamburger.flxAccountSettings": {
      "__events__": {},
      "__info__": {
        "kuid": "beba2c7017904c0d810182473a516232",
        "srcKUID": "g69da15184e04d089b0f58da40a7157e",
        "wType": "FlexContainer"
      }
    },
    "customhamburger.flxAccountsCollapse": {
      "__events__": {},
      "__info__": {
        "kuid": "da05038d43e1495f90276db8ecddf609",
        "srcKUID": "e0af0f6ab9614020b7fc5e89406a63dc",
        "wType": "FlexContainer"
      }
    },
    "customhamburger.flxAccountsMenu": {
      "__events__": {},
      "__info__": {
        "kuid": "af23a68012b545638a465e84d863a843",
        "srcKUID": "cf43ccc491384cce8e692bf0c7b73f90",
        "wType": "FlexContainer"
      }
    },
    "customhamburger.flxAccountsSubMenu": {
      "__events__": {},
      "__info__": {
        "kuid": "b52843e511884c1cb0fa3510b37d1207",
        "srcKUID": "dc00eecfa1d34328ba4230f17db49066",
        "wType": "FlexContainer"
      }
    },
    "customhamburger.flxAddKonyAccounts": {
      "__events__": {},
      "__info__": {
        "kuid": "e61d3a946bae4e8f948bcd50465a1c27",
        "srcKUID": "i7907247783340e6bd2e6d28ef1b46ee",
        "wType": "FlexContainer"
      }
    },
    "customhamburger.flxAddNonKonyAccounts": {
      "__events__": {},
      "__info__": {
        "kuid": "d93485e2155f40c4a19b4cce7c77cfae",
        "srcKUID": "ic3031f46db3438a903562f1278ef9cc",
        "wType": "FlexContainer"
      }
    },
    "customhamburger.flxAddPayee": {
      "__events__": {},
      "__info__": {
        "kuid": "h41bf9c7fef14c3baa2a6bc56b536945",
        "srcKUID": "aefd502a752f424387ac0e1a7d6cee42",
        "wType": "FlexContainer"
      }
    },
    "customhamburger.flxAddRecipient": {
      "__events__": {},
      "__info__": {
        "kuid": "e1198d72c3ac4f23bd9252030bdfbc93",
        "srcKUID": "cfec2a2a551a45d188b7bf6c9954c85d",
        "wType": "FlexContainer"
      }
    },
    "customhamburger.flxAddRecipients": {
      "__events__": {},
      "__info__": {
        "kuid": "e8fc0559093344a18233118e4b50f861",
        "srcKUID": "f96d8995e54f407cb41a20dbef08e36f",
        "wType": "FlexContainer"
      }
    },
    "customhamburger.flxAlerts": {
      "__events__": {},
      "__info__": {
        "kuid": "d4af05bb30b74476a824be852147fdc4",
        "srcKUID": "habdea8c510a4db183a6c1d319dc26cf",
        "wType": "FlexContainer"
      }
    },
    "customhamburger.flxAlertsAndMessages": {
      "__events__": {},
      "__info__": {
        "kuid": "j05d500cc352464fa1de3143b75c908b",
        "srcKUID": "a6047045dc8a45488e4434ae31a9d04e",
        "wType": "FlexContainer"
      }
    },
    "customhamburger.flxAlertsAndMessagesCollapse": {
      "__events__": {},
      "__info__": {
        "kuid": "f102376bf3cb41acad353e0de43d3b1d",
        "srcKUID": "b5b47f89075c4e738fdfbe5afa6a27a2",
        "wType": "FlexContainer"
      }
    },
    "customhamburger.flxAlertsAndMessagesSeperator": {
      "__events__": {},
      "__info__": {
        "kuid": "a0d85d8298e24ec998adb9b4d5f09204",
        "srcKUID": "g5f28c8fa61149299a48ec5562c1c35b",
        "wType": "FlexContainer"
      }
    },
    "customhamburger.flxAlertsAndMessagesSubMenu": {
      "__events__": {},
      "__info__": {
        "kuid": "h74da136df474391a5053bf362e40ffb",
        "srcKUID": "ec498bbee2a54caf825c1cc57f8c0f46",
        "wType": "FlexContainer"
      }
    },
    "customhamburger.flxBillPay": {
      "__events__": {},
      "__info__": {
        "kuid": "g4d9938981dd4f5fb7a7f366d8284b3d",
        "srcKUID": "bafa4dff778347ac84a9f492a0e5dff1",
        "wType": "FlexContainer"
      }
    },
    "customhamburger.flxBillPayCollapse": {
      "__events__": {},
      "__info__": {
        "kuid": "cb6dc0a4e8b144cd8bda8b74a5fef11a",
        "srcKUID": "a0dcaee0ed354e579861b6fe542d4093",
        "wType": "FlexContainer"
      }
    },
    "customhamburger.flxBillPayHistory": {
      "__events__": {},
      "__info__": {
        "kuid": "c4eea5829e12409cab85dc97b6f6da72",
        "srcKUID": "f62b8e2cab074c0c9fa00cc1d81c39d0",
        "wType": "FlexContainer"
      }
    },
    "customhamburger.flxBillPaySubMenu": {
      "__events__": {},
      "__info__": {
        "kuid": "c3a1f4c40c854056bfbf41473d1151bb",
        "srcKUID": "ea568784be934341979a1fd5e490e2cb",
        "wType": "FlexContainer"
      }
    },
    "customhamburger.flxClose": {
      "__events__": {},
      "__info__": {
        "kuid": "c4df1681655a4d6ab9fb11b644e474fc",
        "srcKUID": "c66fd7f3bd2c4e6e8f7bd01e6287550e",
        "wType": "FlexContainer"
      }
    },
    "customhamburger.flxCollapseTransfers": {
      "__events__": {},
      "__info__": {
        "kuid": "f910ef1e265d47e594df28d3a193bbe4",
        "srcKUID": "h384e8dc0bd24e29af85efafe7e025fc",
        "wType": "FlexContainer"
      }
    },
    "customhamburger.flxContactUs": {
      "__events__": {},
      "__info__": {
        "kuid": "if50f313cafc4fddb64e24b7ad47e598",
        "srcKUID": "abf11674e0d94d85a1fe50e46f4c51bc",
        "wType": "FlexContainer"
      }
    },
    "customhamburger.flxExternalAccounts": {
      "__events__": {},
      "__info__": {
        "kuid": "j5f403885a124b88944ad9b2d38a98e5",
        "srcKUID": "abc9ac58f56e4fb493c8d1f1bff47b24",
        "wType": "FlexContainer"
      }
    },
    "customhamburger.flxFaq": {
      "__events__": {},
      "__info__": {
        "kuid": "dc3876cdba3945b19d38db5c4aa7846b",
        "srcKUID": "h28703eed887497abf8a3f907abdbc2e",
        "wType": "FlexContainer"
      }
    },
    "customhamburger.flxHamburgerHeader": {
      "__events__": {},
      "__info__": {
        "kuid": "i63912d971d4426897fc88bf8c4f1223",
        "srcKUID": "h465700017fe4781975045dab9ed41c5",
        "wType": "FlexContainer"
      }
    },
    "customhamburger.flxHistory": {
      "__events__": {},
      "__info__": {
        "kuid": "b0844ba19d094804b70559e62f520139",
        "srcKUID": "af822cb01fd549e09ae70f7a5caf134d",
        "wType": "FlexContainer"
      }
    },
    "customhamburger.flxLocateUs": {
      "__events__": {},
      "__info__": {
        "kuid": "d34f3c87a3aa4f58b252570e9ff29640",
        "srcKUID": "g85f2c9a423e42a58e10e8686c1fba74",
        "wType": "FlexContainer"
      }
    },
    "customhamburger.flxLogout": {
      "__events__": {},
      "__info__": {
        "kuid": "f843fc6baf0541b7a8f69821d5882617",
        "srcKUID": "c9904c20e8a5464285e846a22514783d",
        "wType": "FlexContainer"
      }
    },
    "customhamburger.flxMenu": {
      "__events__": {},
      "__info__": {
        "kuid": "jfb8426292024ead9d40c82b1edeb17e",
        "srcKUID": "i1c684442e854218bc2c08f78c55f971",
        "wType": "FlexContainer"
      }
    },
    "customhamburger.flxMenuWrapper": {
      "__events__": {},
      "__info__": {
        "kuid": "a7a3c547cd81474bbae764a1a5dcd2ae",
        "srcKUID": "ad010d1f868d49eea330fb84586cbd46",
        "wType": "FlexScrollContainer"
      }
    },
    "customhamburger.flxMessages": {
      "__events__": {},
      "__info__": {
        "kuid": "h20b7592770744438ed9bab8c0d097b5",
        "srcKUID": "a8c136feada044d8aae02c45642a3aef",
        "wType": "FlexContainer"
      }
    },
    "customhamburger.flxMyAccounts": {
      "__events__": {},
      "__info__": {
        "kuid": "d629e7fb05914a1bb1fd0fa3b61494f8",
        "srcKUID": "f7379b95da4148de8bad2885b68ce3c6",
        "wType": "FlexContainer"
      }
    },
    "customhamburger.flxMyPayeeList": {
      "__events__": {},
      "__info__": {
        "kuid": "c8928822d1ff46aeac46a26b8a0469e8",
        "srcKUID": "j0ff9253248645ff8612f1090fabea1b",
        "wType": "FlexContainer"
      }
    },
    "customhamburger.flxMyRecipients": {
      "__events__": {},
      "__info__": {
        "kuid": "b6871589add447bfa9bd9724988d7663",
        "srcKUID": "gc5138a3b6ed40e5a8d376d8900322ac",
        "wType": "FlexContainer"
      }
    },
    "customhamburger.flxNewMessages": {
      "__events__": {},
      "__info__": {
        "kuid": "a821f10f2dac4b3898e76627c621cbd4",
        "srcKUID": "bfad3abb96b54f6687ec8d8ae08b8a89",
        "wType": "FlexContainer"
      }
    },
    "customhamburger.flxPayABill": {
      "__events__": {},
      "__info__": {
        "kuid": "f42176ee73944fc9a2add6ece9daa30d",
        "srcKUID": "cabc5ae19734442ca472692f76360a26",
        "wType": "FlexContainer"
      }
    },
    "customhamburger.flxPayAPerson": {
      "__events__": {},
      "__info__": {
        "kuid": "e2dcbe0153c74c0e9ae257208288a39e",
        "srcKUID": "c3c34d9fdac2420fb3cf01ada4338616",
        "wType": "FlexContainer"
      }
    },
    "customhamburger.flxPayAPersonCollapse": {
      "__events__": {},
      "__info__": {
        "kuid": "e45ae02a88c24fad93e35a5022f218e4",
        "srcKUID": "f0eb0c0751d7408db1c234c07637bb8f",
        "wType": "FlexContainer"
      }
    },
    "customhamburger.flxPayAPersonSubMenu": {
      "__events__": {},
      "__info__": {
        "kuid": "ge2ef89739734b06bf9cbea340ae1175",
        "srcKUID": "aeb2426f276a4cdc8c73046302e57323",
        "wType": "FlexContainer"
      }
    },
    "customhamburger.flxPrivacyPolicy": {
      "__events__": {},
      "__info__": {
        "kuid": "bb5d4e6da5464429a8c23de79b27132c",
        "srcKUID": "e53f0d53bf524807b19900124ae5e5cc",
        "wType": "FlexContainer"
      }
    },
    "customhamburger.flxProfileManagement": {
      "__events__": {},
      "__info__": {
        "kuid": "j5b6c3cf7bc3478b82635aad94e7ca20",
        "srcKUID": "c4c99abbdc854639a275f0d1966f9d2a",
        "wType": "FlexContainer"
      }
    },
    "customhamburger.flxProfileManagementCollapse": {
      "__events__": {},
      "__info__": {
        "kuid": "a5df026663a94392b42d0359147512d0",
        "srcKUID": "e3074e95c1584c26b3c00839871a8ec1",
        "wType": "FlexContainer"
      }
    },
    "customhamburger.flxProfileManagementSubMenu": {
      "__events__": {},
      "__info__": {
        "kuid": "eed25c658e6f47f1bb4f6f61b3b0e1a3",
        "srcKUID": "dedf5323b4f04d9bb0857acaba413ed2",
        "wType": "FlexContainer"
      }
    },
    "customhamburger.flxProfileSettings": {
      "__events__": {},
      "__info__": {
        "kuid": "eb014577fc7d446fac6b1ccd79bc47c5",
        "srcKUID": "c9e266a61e794666abaa382a1974bd50",
        "wType": "FlexContainer"
      }
    },
    "customhamburger.flxSecuritySettings": {
      "__events__": {},
      "__info__": {
        "kuid": "j9a5225bb2ca48c1869ef355bca8eaa7",
        "srcKUID": "h35c8ab7f8114eb883dbe77eb239d5bc",
        "wType": "FlexContainer"
      }
    },
    "customhamburger.flxSendRequest": {
      "__events__": {},
      "__info__": {
        "kuid": "hfa4f6c2f66b430f975b2057310ef222",
        "srcKUID": "d977218b05dc49ada933fde699153602",
        "wType": "FlexContainer"
      }
    },
    "customhamburger.flxSeperator10": {
      "__events__": {},
      "__info__": {
        "kuid": "f288627955e34803a0261430e3288794",
        "srcKUID": "f9bfa4fca0dd4125be7663cbecdaaee0",
        "wType": "FlexContainer"
      }
    },
    "customhamburger.flxSeperator11": {
      "__events__": {},
      "__info__": {
        "kuid": "h8e42ba9435044a888ae14acc39dcf05",
        "srcKUID": "f0e6a5bf00e24b55a131b00e736ad0f1",
        "wType": "FlexContainer"
      }
    },
    "customhamburger.flxSeperator12": {
      "__events__": {},
      "__info__": {
        "kuid": "hb02d7d2ec5b46f7958940825d849e68",
        "srcKUID": "c0ad725976704507a8aa1b268bc97087",
        "wType": "FlexContainer"
      }
    },
    "customhamburger.flxSeperator13": {
      "__events__": {},
      "__info__": {
        "kuid": "ga5316eb22894f549ae76ba6899c16a0",
        "srcKUID": "j636db10e4604851913f33aee409ae48",
        "wType": "FlexContainer"
      }
    },
    "customhamburger.flxSeperator14": {
      "__events__": {},
      "__info__": {
        "kuid": "a877ec8cf20f4f2fa81a3a1d4d03b161",
        "srcKUID": "f671f1951bbd44bcbaea3b445e3c6c3b",
        "wType": "FlexContainer"
      }
    },
    "customhamburger.flxSeperator15": {
      "__events__": {},
      "__info__": {
        "kuid": "f173fd3b11b94bd482b8976e748a9a04",
        "srcKUID": "j11be2166fc34b419da967d077f32299",
        "wType": "FlexContainer"
      }
    },
    "customhamburger.flxSeperator16": {
      "__events__": {},
      "__info__": {
        "kuid": "af2969cc1e154f41b57d0235eef11946",
        "srcKUID": "if0c694e156a4703b7545e789492c020",
        "wType": "FlexContainer"
      }
    },
    "customhamburger.flxSeperator17": {
      "__events__": {},
      "__info__": {
        "kuid": "be48d15ff7574cc6a2d32eed84fba26e",
        "srcKUID": "b50f7b34350e4dec8af632653ab083c5",
        "wType": "FlexContainer"
      }
    },
    "customhamburger.flxSeperator18": {
      "__events__": {},
      "__info__": {
        "kuid": "f733beff082746c3969e7714fbee14ba",
        "srcKUID": "dccbe42cfb7b4494b0ef8aa3c4f6be41",
        "wType": "FlexContainer"
      }
    },
    "customhamburger.flxSeperator2": {
      "__events__": {},
      "__info__": {
        "kuid": "f15b8e11d1614a789b34dc572ee26088",
        "srcKUID": "c80156f4b587452bb66f7eeceecaf50a",
        "wType": "FlexContainer"
      }
    },
    "customhamburger.flxSeperator3": {
      "__events__": {},
      "__info__": {
        "kuid": "a1a253635a2d42cbadb94142f454e8e7",
        "srcKUID": "b6518efe46a64f52901e8c3d65c11ce9",
        "wType": "FlexContainer"
      }
    },
    "customhamburger.flxSeperator4": {
      "__events__": {},
      "__info__": {
        "kuid": "i31a1850b2c143cf98bc359f66166871",
        "srcKUID": "cc2eee43aa8a45d08bf13a5e5718afcd",
        "wType": "FlexContainer"
      }
    },
    "customhamburger.flxSeperator5": {
      "__events__": {},
      "__info__": {
        "kuid": "b520dc895d724c9198ecce04dfe73b29",
        "srcKUID": "c8c3ef97147f40f2865efb0cb670d50b",
        "wType": "FlexContainer"
      }
    },
    "customhamburger.flxSeperator6": {
      "__events__": {},
      "__info__": {
        "kuid": "a8e4c18690ec4157afdf19552d62c9ea",
        "srcKUID": "jdcc06ffd6c140b09d7a452d4412adef",
        "wType": "FlexContainer"
      }
    },
    "customhamburger.flxSeperator7": {
      "__events__": {},
      "__info__": {
        "kuid": "f87e8cd70e874bcc9511bd228f9c3105",
        "srcKUID": "ga22cbc58a634b6fb13935ed90d0aced",
        "wType": "FlexContainer"
      }
    },
    "customhamburger.flxSeperator8": {
      "__events__": {},
      "__info__": {
        "kuid": "ia966c87215a416f924864cd73d6c594",
        "srcKUID": "c7558fdf51bf47fe824b91a07cf6b714",
        "wType": "FlexContainer"
      }
    },
    "customhamburger.flxSeperator9": {
      "__events__": {},
      "__info__": {
        "kuid": "h21772e58e8b4a128f0eb00771bcd8b8",
        "srcKUID": "b122e6579708465082812c6e7068d7f6",
        "wType": "FlexContainer"
      }
    },
    "customhamburger.flxSeperatorAlerts": {
      "__events__": {},
      "__info__": {
        "kuid": "ed3ff460ad854dcca47c464c0d9ceeba",
        "srcKUID": "b2fe1d61dbc64712ad4e576fb2bd332f",
        "wType": "FlexContainer"
      }
    },
    "customhamburger.flxSeperatorMessages": {
      "__events__": {},
      "__info__": {
        "kuid": "g88cbdac1bf64a3ca1712bcbad284943",
        "srcKUID": "c5a23363d5df48049106898aa405a723",
        "wType": "FlexContainer"
      }
    },
    "customhamburger.flxSeperatorNewMessage": {
      "__events__": {},
      "__info__": {
        "kuid": "gec4f95f631d43e5964eaa56936b5e5e",
        "srcKUID": "c929fa4f76ed416185ce33e12111609d",
        "wType": "FlexContainer"
      }
    },
    "customhamburger.flxTerms": {
      "__events__": {},
      "__info__": {
        "kuid": "f6b1fa40ac274dbabf5361503cfa5242",
        "srcKUID": "a3d4d9ba1e264ec2a3de4b87bc4d7aa3",
        "wType": "FlexContainer"
      }
    },
    "customhamburger.flxTransferHistory": {
      "__events__": {},
      "__info__": {
        "kuid": "h9e28f086e994257a921c9d719cc3e7f",
        "srcKUID": "ib9de73a2bf246eeb639fa215853db61",
        "wType": "FlexContainer"
      }
    },
    "customhamburger.flxTransfers": {
      "__events__": {},
      "__info__": {
        "kuid": "c487484f5e084cf0a4246894aa84a5e8",
        "srcKUID": "jc0266e969b0495d868043c84bcc2ab8",
        "wType": "FlexContainer"
      }
    },
    "customhamburger.flxTransfersMoney": {
      "__events__": {},
      "__info__": {
        "kuid": "e085923aaf164fcab94ea2d1cd1af0c5",
        "srcKUID": "jf6d2609ea48459e90552691ca5777fe",
        "wType": "FlexContainer"
      }
    },
    "customhamburger.flxTransfersSubMenu": {
      "__events__": {},
      "__info__": {
        "kuid": "c3927621cf9241c19aaa5f96e7beb78c",
        "srcKUID": "fbf8ca4f00d34558966f6061a5087f14",
        "wType": "FlexContainer"
      }
    },
    "customhamburger.flxWireTransfer": {
      "__events__": {},
      "__info__": {
        "kuid": "b3f7c5769d4e446cb1a0cb3791c7f3ff",
        "srcKUID": "aae2b1dec0f44ac0ae2c1e3063ff7ba4",
        "wType": "FlexContainer"
      }
    },
    "customhamburger.flxWireTransferCollapse": {
      "__events__": {},
      "__info__": {
        "kuid": "c23c194c247042888419392f99f5af6b",
        "srcKUID": "bfc055b1e7c542d1bfa1c23419d834be",
        "wType": "FlexContainer"
      }
    },
    "customhamburger.flxWireTransferHistory": {
      "__events__": {},
      "__info__": {
        "kuid": "e7bae9ce831b4d33ba4d0315d8b85269",
        "srcKUID": "dffd4d61c8a144d4be8f8449855f4c6a",
        "wType": "FlexContainer"
      }
    },
    "customhamburger.flxWireTransferMakeTransfer": {
      "__events__": {},
      "__info__": {
        "kuid": "e60a448a02164b77b37aecf9e6e3566f",
        "srcKUID": "f7a63b1bb18644bdbb1f0a7d1c1fc108",
        "wType": "FlexContainer"
      }
    },
    "customhamburger.flxWireTransferMyRecipients": {
      "__events__": {},
      "__info__": {
        "kuid": "a6e838460d904034a64e1f2ca01f8246",
        "srcKUID": "ic7afce86593464b830c20b7eaaa7000",
        "wType": "FlexContainer"
      }
    },
    "customhamburger.flxWireTransferSubMenu": {
      "__events__": {},
      "__info__": {
        "kuid": "a239a225807d472fba4f5ccb08e55e62",
        "srcKUID": "c1b6035a15254cd380f2d7f0bccc1a35",
        "wType": "FlexContainer"
      }
    },
    "customhamburger.flxWireTransfersAddRecipient": {
      "__events__": {},
      "__info__": {
        "kuid": "b64b495998624cf28250207bce239b71",
        "srcKUID": "d8d7ecb1da3b431b8a8f09ecfd49dfb4",
        "wType": "FlexContainer"
      }
    },
    "customhamburger.imgAboutUs": {
      "__events__": {},
      "__info__": {
        "kuid": "a594fb1067694b399bc0704d92caafac",
        "srcKUID": "aedf72df6b6646e4b0541f118b852737",
        "wType": "Image"
      }
    },
    "customhamburger.imgAboutUsCollapse": {
      "__events__": {},
      "__info__": {
        "kuid": "jd6df3a42f98463f925d790b893c707f",
        "srcKUID": "j47f6cdfaec144f1bc183fc1ee131f6f",
        "wType": "Image"
      }
    },
    "customhamburger.imgAccounts": {
      "__events__": {},
      "__info__": {
        "kuid": "baeedc65491545ad88dde8bb40a86904",
        "srcKUID": "b12cdc793bce49a48965b40e1599be38",
        "wType": "Image"
      }
    },
    "customhamburger.imgAlertsAndMessages": {
      "__events__": {},
      "__info__": {
        "kuid": "c118bdd57b4e4f94baa5df672c028325",
        "srcKUID": "j15a94b7920346d4bc2ad8031f893737",
        "wType": "Image"
      }
    },
    "customhamburger.imgAlertsAndMessagesCollapse": {
      "__events__": {},
      "__info__": {
        "kuid": "f441a40759dd4f04812effe958f39867",
        "srcKUID": "aca93ef7e22940b2934c21108b51accd",
        "wType": "Image"
      }
    },
    "customhamburger.imgBillBay": {
      "__events__": {},
      "__info__": {
        "kuid": "j7b913ae5ec24fb4a3d210e0574aa4d5",
        "srcKUID": "d9d417ef42e34752838998db97365d9f",
        "wType": "Image"
      }
    },
    "customhamburger.imgBillPayCollapse": {
      "__events__": {},
      "__info__": {
        "kuid": "f2541f2b15154d9fa39802d935e1115a",
        "srcKUID": "e2c091a5a06b4bd99605cb431850b92a",
        "wType": "Image"
      }
    },
    "customhamburger.imgClose": {
      "__events__": {},
      "__info__": {
        "kuid": "fffd21a131a34b7fb3960102dda2bf89",
        "srcKUID": "b16e44ed01844172894d7476bf054a4e",
        "wType": "Image"
      }
    },
    "customhamburger.imgCollapseAccounts": {
      "__events__": {},
      "__info__": {
        "kuid": "h75e950a2feb453caec9d050e562bc12",
        "srcKUID": "cc9717fdf0ce469aa167f4b79dc1f439",
        "wType": "Image"
      }
    },
    "customhamburger.imgCollapseTransfers": {
      "__events__": {},
      "__info__": {
        "kuid": "d8cce4fee8ed48d8a628165f9d967cb6",
        "srcKUID": "g8ac7330ba6a4fcc94c6de0c85163b0a",
        "wType": "Image"
      }
    },
    "customhamburger.imgKony": {
      "__events__": {},
      "__info__": {
        "kuid": "b18d6a6ce3ed4b1897423e1d5e361b08",
        "srcKUID": "e51c8a8198184739b48a18c3fbc65273",
        "wType": "Image"
      }
    },
    "customhamburger.imgLogout": {
      "__events__": {},
      "__info__": {
        "kuid": "j71605efb6c24e22865d755e6bf38930",
        "srcKUID": "g8c77dbeed3b43038e912f34fbe614fd",
        "wType": "Image"
      }
    },
    "customhamburger.imgPayAPerson": {
      "__events__": {},
      "__info__": {
        "kuid": "ha57492c45b24a209aefe134eac55e70",
        "srcKUID": "c40e76c18b114f96a40918df9e984c72",
        "wType": "Image"
      }
    },
    "customhamburger.imgPayAPersonCollapse": {
      "__events__": {},
      "__info__": {
        "kuid": "h4d83d62d4bd40b7a13c20bcfdc75bbe",
        "srcKUID": "d4487e371bca4c0ab4fed6a829640f23",
        "wType": "Image"
      }
    },
    "customhamburger.imgProfileManagement": {
      "__events__": {},
      "__info__": {
        "kuid": "ce7b7a4dab8a4d26b827d8b3358591e3",
        "srcKUID": "c256c4de888b46eda952c16c301a26e6",
        "wType": "Image"
      }
    },
    "customhamburger.imgProfileManagementCollapse": {
      "__events__": {},
      "__info__": {
        "kuid": "bb737104f1a740268bad592336f1e8b7",
        "srcKUID": "cc11b10b955f4de8ac2e1f5349683cdc",
        "wType": "Image"
      }
    },
    "customhamburger.imgTransfers": {
      "__events__": {},
      "__info__": {
        "kuid": "f8afd8da112249c3aadd5c2909ca91f6",
        "srcKUID": "f226bd307bf34f2a8645072816db1907",
        "wType": "Image"
      }
    },
    "customhamburger.imgWireTransfer": {
      "__events__": {},
      "__info__": {
        "kuid": "e951c92f55c0423c90a768bc22404e9b",
        "srcKUID": "d1eaae0c6e784ef3b1eace4495b3f8f7",
        "wType": "Image"
      }
    },
    "customhamburger.imgWireTransferCollapse": {
      "__events__": {},
      "__info__": {
        "kuid": "j2060d142ce4414390aa5c7ad1af69c3",
        "srcKUID": "j64b6a202cfa4080a0cb2b9e0c591e00",
        "wType": "Image"
      }
    },
    "customhamburger.lblAboutUs": {
      "__events__": {},
      "__info__": {
        "kuid": "f3bd8032a5374d16bb15c706b0a0ef7b",
        "srcKUID": "i493eec7d326462f92313816d7ae5961",
        "wType": "Label"
      }
    },
    "customhamburger.lblAccounts": {
      "__events__": {},
      "__info__": {
        "kuid": "c1f3e1036eb6433495187d390a3693eb",
        "srcKUID": "aed697189cee47098907b5f830c7134b",
        "wType": "Label"
      }
    },
    "customhamburger.lblAddKonyAccounts": {
      "__events__": {},
      "__info__": {
        "kuid": "ce9c76903de44b39bd6d152c7fa3bbe9",
        "srcKUID": "ff5d216a556e426ea0485d1305d1cdfc",
        "wType": "Label"
      }
    },
    "customhamburger.lblAddNonKonyAccounts": {
      "__events__": {},
      "__info__": {
        "kuid": "c9679512665a41f8b89cf9b6a4182f27",
        "srcKUID": "c0b0a03608614e5f893ef37dabfa17a8",
        "wType": "Label"
      }
    },
    "customhamburger.lblAddPayee": {
      "__events__": {},
      "__info__": {
        "kuid": "f2c20736b6d14172994a7bdbafa0b912",
        "srcKUID": "b1ed43109a994044957b192e976111d5",
        "wType": "Label"
      }
    },
    "customhamburger.lblAlerts": {
      "__events__": {},
      "__info__": {
        "kuid": "bd7861eaf7974c5f98effcd817dbe193",
        "srcKUID": "jdf83704ef2b4947a774852f4c514bb6",
        "wType": "Label"
      }
    },
    "customhamburger.lblAlertsAndMessages": {
      "__events__": {},
      "__info__": {
        "kuid": "h5e8e377bada42fc9de3b4bd93a47810",
        "srcKUID": "c8bfe7de3cb1469aaef6d3ffee8c215e",
        "wType": "Label"
      }
    },
    "customhamburger.lblBillPay": {
      "__events__": {},
      "__info__": {
        "kuid": "ee3861a67071437b8cb0b715990a02f2",
        "srcKUID": "e219504191c84becaee171477e34698a",
        "wType": "Label"
      }
    },
    "customhamburger.lblBillPayHistory": {
      "__events__": {},
      "__info__": {
        "kuid": "bb7a394c2ef4421e9340eb4432e7db6c",
        "srcKUID": "ce6923a7ee8b477bab3d1bfa0979246d",
        "wType": "Label"
      }
    },
    "customhamburger.lblContactUs": {
      "__events__": {},
      "__info__": {
        "kuid": "j66f1fa25d814045bd1cb9c5d8376389",
        "srcKUID": "efd35344776642a49ef6e3aae807a692",
        "wType": "Label"
      }
    },
    "customhamburger.lblExternalAccounts": {
      "__events__": {},
      "__info__": {
        "kuid": "d0b60dacf17847eaa0106e7234317562",
        "srcKUID": "abc7e43bdfb142efb0d94a00a797f211",
        "wType": "Label"
      }
    },
    "customhamburger.lblFaq": {
      "__events__": {},
      "__info__": {
        "kuid": "d0102d3cf8cf459bb2852cfc47e19680",
        "srcKUID": "d8ba96ef5a2e4bf8be5c973713049dc0",
        "wType": "Label"
      }
    },
    "customhamburger.lblLocateUs": {
      "__events__": {},
      "__info__": {
        "kuid": "bc1b207c3eb24884a9e4942b96a4c67f",
        "srcKUID": "g3b7ff8590d0445197ae60ef7a93a17d",
        "wType": "Label"
      }
    },
    "customhamburger.lblLogout": {
      "__events__": {},
      "__info__": {
        "kuid": "j5e45c5908074f97aff82ad065b856ae",
        "srcKUID": "h4feb1ebd1d844adbbb270e5f22582cd",
        "wType": "Label"
      }
    },
    "customhamburger.lblMessages": {
      "__events__": {},
      "__info__": {
        "kuid": "j02080c63faf444998c277f4517b4638",
        "srcKUID": "bc3a860393a642769c9453d52202a501",
        "wType": "Label"
      }
    },
    "customhamburger.lblMyAccounts": {
      "__events__": {},
      "__info__": {
        "kuid": "c38d1be06aa942c98e1df1c4c4b04db4",
        "srcKUID": "a202b406f5f04a1698b17c9f0f9e1694",
        "wType": "Label"
      }
    },
    "customhamburger.lblMyPayee": {
      "__events__": {},
      "__info__": {
        "kuid": "f19f6598e5cc490b9e54a0cd68769eb5",
        "srcKUID": "gac82f09141642e3bc00bf3a4c27e7a0",
        "wType": "Label"
      }
    },
    "customhamburger.lblNewMessage": {
      "__events__": {},
      "__info__": {
        "kuid": "d54ab29979854e12a28bd777bd2220ff",
        "srcKUID": "d62536e6a959458a97d070c4fbc8bbcb",
        "wType": "Label"
      }
    },
    "customhamburger.lblPayABill": {
      "__events__": {},
      "__info__": {
        "kuid": "c78e06fa2cb44f3cbbb7d5c27ff2d46a",
        "srcKUID": "dc6b9bef9ddf45c0864525e01b4b08d8",
        "wType": "Label"
      }
    },
    "customhamburger.lblPrivacyPolicy": {
      "__events__": {},
      "__info__": {
        "kuid": "c1db4084269446d881d984c49806b59b",
        "srcKUID": "ba595802100f49ed8ebfbfc56c559f36",
        "wType": "Label"
      }
    },
    "customhamburger.lblTermsAndCondition": {
      "__events__": {},
      "__info__": {
        "kuid": "j62610bd49824c2aa83b0e66cfa53f37",
        "srcKUID": "dc7b8618b5ed4cf3ba5a013618d07063",
        "wType": "Label"
      }
    },
    "customhamburger.lblTransferHistory": {
      "__events__": {},
      "__info__": {
        "kuid": "e1fd56d457a7452e944053a6e8ba3f4f",
        "srcKUID": "d62b43e095964b29b436135534a7afec",
        "wType": "Label"
      }
    },
    "customhamburger.lblTransferMoney": {
      "__events__": {},
      "__info__": {
        "kuid": "bb2539c840b24f699ba33c0c36cc88b0",
        "srcKUID": "b61740e755f3405791224a340675e733",
        "wType": "Label"
      }
    },
    "customhamburger.lblTransfers": {
      "__events__": {},
      "__info__": {
        "kuid": "j21c1ab89bc24a98a191c0801d387f7a",
        "srcKUID": "d4c40832e9a140ab8fafbb30d4d1df1d",
        "wType": "Label"
      }
    },
    "customheader": {
      "__events__": {},
      "__info__": {
        "isRoot": true,
        "kuid": "bed47e6a52ea4d51aeb2fb00e16cdca9",
        "srcKUID": "c04bbf50611342ca895c5e0a329aeb52",
        "wType": "FlexContainer"
      }
    },
    "flxAccountTypesSegment": {
      "__events__": {},
      "__info__": {
        "kuid": "e5cb1b7d2fb64f08a038af77022c169c",
        "srcKUID": "d431114047984f3ba84cf9829500caf5",
        "wType": "FlexContainer"
      }
    },
    "flxBottomContainer": {
      "__events__": {},
      "__info__": {
        "kuid": "daca0ba031544df08a0bdbeeb628c0a0",
        "srcKUID": "h9bdf039c3f54878b18ff66171c8c6c6",
        "wType": "FlexContainer"
      }
    },
    "flxHamburger": {
      "__events__": {},
      "__info__": {
        "kuid": "g2ee5358956d471a993b9cec7c4cf189",
        "srcKUID": "f04c6e11e7da43b49dd181b8b47d93c4",
        "wType": "FlexContainer"
      },
      "width": {
        "Default": {
          "type": "string",
          "value": "450dp"
        }
      }
    },
    "flxHamburgerBack": {
      "__events__": {},
      "__info__": {
        "kuid": "c1cfee58421948d18628619b7fc5d63d",
        "srcKUID": "d74ea43244984beda96f3fdfd7e1de6b",
        "wType": "FlexContainer"
      }
    },
    "flxSeperatorHor2": {
      "__events__": {},
      "__info__": {
        "kuid": "d9073afee2d04653bf995c948c1275c1",
        "srcKUID": "hadeefb9ccf84d75b58e19e7a860af8f",
        "wType": "FlexContainer"
      }
    },
    "flxSeperatorhor": {
      "__events__": {},
      "__info__": {
        "kuid": "f592843ef37d43389251ba6fdbfbc516",
        "srcKUID": "d0d14e359d9b4f2bae40325782d5d3d0",
        "wType": "FlexContainer"
      }
    },
    "flxTopmenu": {
      "__events__": {},
      "__info__": {
        "kuid": "c76df89ce9ba4090bc4a46ac19c14a31",
        "srcKUID": "ed60ec01cd4843d8acaf4c0c4767b493",
        "wType": "FlexContainer"
      },
      "width": {
        "Default": {
          "type": "string",
          "value": "1366dp"
        }
      }
    },
    "flxUserActions": {
      "__events__": {},
      "__info__": {
        "kuid": "d35f96cbc1d442a7b6805c65abf8782c",
        "srcKUID": "j914824243a446a18dc539def72a7642",
        "wType": "FlexContainer"
      }
    },
    "headermenu": {
      "__events__": {},
      "__info__": {
        "kuid": "c4e05ff479f94b489d102503fdd0a95b",
        "srcKUID": "haabafcdc12f4455b3af44d1e0d8f80b",
        "wType": "UserWidgetInstance"
      }
    },
    "headermenu.btnLogout": {
      "__events__": {},
      "__info__": {
        "kuid": "dddb12adb497409b994f4da169cdae4f",
        "srcKUID": "a766f3cd9f714697b54e4cdcbe1c544b",
        "wType": "Button"
      },
      "i18n_text": "i18n.common.logout"
    },
    "headermenu.flxMessages": {
      "__events__": {},
      "__info__": {
        "kuid": "c639f570007242e48827793d109a5d6c",
        "srcKUID": "ac3447a671db4ff79c563e385d237583",
        "wType": "FlexContainer"
      }
    },
    "headermenu.flxResetUserImg": {
      "__events__": {},
      "__info__": {
        "kuid": "f62fd309e81d476aa9e42d7d53d37b16",
        "srcKUID": "adcf593a077c4c0cb56c90ee73238583",
        "wType": "FlexContainer"
      }
    },
    "headermenu.flxUserId": {
      "__events__": {},
      "__info__": {
        "kuid": "d95ca91c67da4f72b39104e6798e113b",
        "srcKUID": "c135ea56ffd24834a20c4f3af08e75ed",
        "wType": "FlexContainer"
      }
    },
    "headermenu.flxVerticalSeperator1": {
      "__events__": {},
      "__info__": {
        "kuid": "c6b1f859b511479793d7ae681e89deb0",
        "srcKUID": "g1cf2c5ea04748138b67069bf6443784",
        "wType": "FlexContainer"
      }
    },
    "headermenu.flxVerticalSeperator2": {
      "__events__": {},
      "__info__": {
        "kuid": "e86bb2e044634ae89c4cfc5fc7669482",
        "srcKUID": "i869d64f25f744c7a219ce87160f4fa9",
        "wType": "FlexContainer"
      }
    },
    "headermenu.flxWarning": {
      "__events__": {},
      "__info__": {
        "kuid": "j673fab068b84efb908950e9d087c9f9",
        "srcKUID": "a3f637c9fa154e6ca5621edf7af7f744",
        "wType": "FlexContainer"
      }
    },
    "headermenu.flximgUserResetWrapper": {
      "__events__": {},
      "__info__": {
        "kuid": "ife1d798b2ce41dd90490f501692cf2f",
        "srcKUID": "e3916b40967c456aa3942940472ad47e",
        "wType": "FlexContainer"
      }
    },
    "headermenu.imgDropdown": {
      "__events__": {},
      "__info__": {
        "kuid": "b4e66cb097954e2584c38e9d89a6625f",
        "srcKUID": "h3d2b4b7f954464d931e34492064ab17",
        "wType": "Image"
      }
    },
    "headermenu.imgNotifications": {
      "__events__": {},
      "__info__": {
        "kuid": "b4941bbb9d5e4184b1a430831da6b444",
        "srcKUID": "j053dc709b2c497681932e7129f70ddb",
        "wType": "Image"
      }
    },
    "headermenu.imgUserBoundary": {
      "__events__": {},
      "__info__": {
        "kuid": "f1000284c14a4bba811426624e89043c",
        "srcKUID": "g6047dd874ff440fab7ed86f7b808fdd",
        "wType": "Image"
      }
    },
    "headermenu.imgUserReset": {
      "__events__": {},
      "__info__": {
        "kuid": "jecb4ab5f60244cfb7d0b38f22ece256",
        "srcKUID": "i9a593cdf8934086b62dd5b4b4d93eda",
        "wType": "Image"
      }
    },
    "headermenu.imgWarning": {
      "__events__": {},
      "__info__": {
        "kuid": "f5d4fa4d229f4c0ab1a3b91b2ff07c65",
        "srcKUID": "j00ce4f7525e4f2aa69884ac2cc7b8a0",
        "wType": "Image"
      }
    },
    "headermenu.imgheaderdefault": {
      "__events__": {},
      "__info__": {
        "kuid": "ie117af94d4547ada43e850d93636960",
        "srcKUID": "i589d54c00ef4b33bc0e54ccd9b1e9b9",
        "wType": "Image"
      }
    },
    "headermenu.lblNewMessages": {
      "__events__": {},
      "__info__": {
        "kuid": "f536b34d3cc3433196d0407fa84ee4e3",
        "srcKUID": "bc2f4a9f76164bc18e8e1663bbba3a61",
        "wType": "Label"
      }
    },
    "headermenu.rtxWarning": {
      "__events__": {},
      "__info__": {
        "kuid": "f4916da05bc2403d8741548cd190687d",
        "srcKUID": "i05c5f9533194937886bb0d238f640e3",
        "wType": "RichText"
      }
    },
    "imgKony": {
      "__events__": {},
      "__info__": {
        "kuid": "cd53d3a3f89f4995a746a46816d1bff3",
        "srcKUID": "i89a4c93ab68416c8f6a24b3e85d037c",
        "wType": "Image"
      }
    },
    "imgToolTip": {
      "__events__": {},
      "__info__": {
        "kuid": "fb39de1b750c41b4b04381edabba093b",
        "srcKUID": "b05c4200ee7747f2b596bc0eafc18760",
        "wType": "Image"
      }
    },
    "lblUserEmail": {
      "__events__": {},
      "__info__": {
        "kuid": "g23adf438a7f4bcaac95495dc143b4fa",
        "srcKUID": "j0ea4a96f1104289ad3d0312ed141d3b",
        "wType": "Label"
      }
    },
    "leftcontainer": {
      "__events__": {},
      "__info__": {
        "kuid": "cc89b7feb2ff484f9735d014b9fe54a4",
        "srcKUID": "bd51d17a858b470f86d30f1fdb49d6d3",
        "wType": "FlexContainer"
      }
    },
    "rightcontainer": {
      "__events__": {},
      "__info__": {
        "kuid": "c4cda76f95c747d1a2f66ffdc8efacc1",
        "srcKUID": "j9e2ac398ee647f8b33a80640560a977",
        "wType": "FlexContainer"
      }
    },
    "segUserActions": {
      "__events__": {},
      "__info__": {
        "kuid": "af5d79b0d9f047849e4fe6c2c838c1bb",
        "srcKUID": "h6bf423223694ef0be1f75d0abee1c0a",
        "wType": "Segment"
      }
    },
    "topmenu": {
      "__events__": {},
      "__info__": {
        "kuid": "c29689d452e842d3882656e36b77f753",
        "srcKUID": "f3bc1d211a8342419317a1f649e456a0",
        "wType": "UserWidgetInstance"
      }
    },
    "topmenu.CopyLabel0a8b12f7002084d": {
      "__events__": {},
      "__info__": {
        "kuid": "a92c612d7074419a9b72f1a64994f1bd",
        "srcKUID": "a051506ea3864885b198b844795df50e",
        "wType": "Label"
      }
    },
    "topmenu.CopyLabel0b07dfb57de2445": {
      "__events__": {},
      "__info__": {
        "kuid": "dd059a53391e4fc6a8bce746b58ac008",
        "srcKUID": "f0f9e56b281d4eceb0749c61522f4a90",
        "wType": "Label"
      }
    },
    "topmenu.CopyLabel0b53cc10abb0342": {
      "__events__": {},
      "__info__": {
        "kuid": "e0a07607a0f14d4298f41e54a7381347",
        "srcKUID": "a28491ec994f45f18c08fe5d1f9b23c5",
        "wType": "Label"
      }
    },
    "topmenu.CopyLabel0bb648d916e554d": {
      "__events__": {},
      "__info__": {
        "kuid": "d954b3f872a247308483e44e6875e8ea",
        "srcKUID": "bc077f5775344d05abc4b26b93f547e2",
        "wType": "Label"
      }
    },
    "topmenu.CopyLabel0h9e71b8a76ad44": {
      "__events__": {},
      "__info__": {
        "kuid": "f50540a78bc648c6a96fd94fd52a1a5d",
        "srcKUID": "j8cfefac3629406384cc9ab091131d25",
        "wType": "Label"
      }
    },
    "topmenu.CopyLabel0ifdc84d9814842": {
      "__events__": {},
      "__info__": {
        "kuid": "c8850c03bc2b41b792526f3fd773b65a",
        "srcKUID": "ja80f2c849514793bc2b7ef76880027c",
        "wType": "Label"
      }
    },
    "topmenu.Label0b60331706e5e45": {
      "__events__": {},
      "__info__": {
        "kuid": "aa72c6707b62480198794f4d9262d38e",
        "srcKUID": "f5dfdacb3a9c44f0a62033ada65c55ec",
        "wType": "Label"
      }
    },
    "topmenu.Label0dcf00103bdba46": {
      "__events__": {},
      "__info__": {
        "kuid": "b857e39c3e16417bb99d6387701e8a26",
        "srcKUID": "c696e7354c7341469fe1c6fac1869c9b",
        "wType": "Label"
      }
    },
    "topmenu.flxContextualMenu": {
      "__events__": {},
      "__info__": {
        "kuid": "c3c6564dc213468d903f21f0bcfce886",
        "srcKUID": "d93e029b84b847fc81a03de1b30f353f",
        "wType": "FlexContainer"
      }
    },
    "topmenu.flxFeedback": {
      "__events__": {},
      "__info__": {
        "kuid": "be5935f156e94f5181ecf333222c9c2c",
        "srcKUID": "cd10d4b4f565433fb35f2d2d0a97fe1e",
        "wType": "FlexContainer"
      }
    },
    "topmenu.flxFeedbackimg": {
      "__events__": {},
      "__info__": {
        "kuid": "e7fbb39af8594afc892b2cc1a82a604c",
        "srcKUID": "g11b5488a8d343ae866e1de13660acda",
        "wType": "FlexContainer"
      }
    },
    "topmenu.flxHelp": {
      "__events__": {},
      "__info__": {
        "kuid": "d4ef61ba2b5c4abaab642ff9ef85025d",
        "srcKUID": "i2d06c634cdc4172ba80e744bcdcfebb",
        "wType": "FlexContainer"
      }
    },
    "topmenu.flxMenu": {
      "__events__": {},
      "__info__": {
        "kuid": "a4392f37f3ae4c039ce32c3394090372",
        "srcKUID": "e3be9a8fdce047e6bfc57c6134e9a975",
        "wType": "FlexContainer"
      }
    },
    "topmenu.flxMenusMain": {
      "__events__": {},
      "__info__": {
        "kuid": "j732d69eb06743cfaf568f2cccd99a48",
        "srcKUID": "da5555fd4c164726bf9860ec53363048",
        "wType": "FlexContainer"
      },
      "vizProps": {
        "hide": true
      }
    },
    "topmenu.flxPayBills": {
      "__events__": {},
      "__info__": {
        "kuid": "g0a1be54aacd4c6fa7e6d177c3ffb86a",
        "srcKUID": "b0405a53deab419f93cadece0ff2e29e",
        "wType": "FlexContainer"
      }
    },
    "topmenu.flxSendMoney": {
      "__events__": {},
      "__info__": {
        "kuid": "c46f96b5b93e4ab39ee03192885d15e8",
        "srcKUID": "aa94ebd29fcb48ee8d1006f949210f98",
        "wType": "FlexContainer"
      }
    },
    "topmenu.flxSeperator": {
      "__events__": {},
      "__info__": {
        "kuid": "aba779c35fb54e55a003f023c7c9c9f7",
        "srcKUID": "d7f042bfaaf046d5942ed568eec44b23",
        "wType": "FlexContainer"
      }
    },
    "topmenu.flxSeperator1": {
      "__events__": {},
      "__info__": {
        "kuid": "d41cecd3f1154da4a2193a2f4124c434",
        "srcKUID": "i09ec806e136452589e84e2f83e53e68",
        "wType": "FlexContainer"
      }
    },
    "topmenu.flxSeperator3": {
      "__events__": {},
      "__info__": {
        "kuid": "jadcf2814fc545fba740cce10f935198",
        "srcKUID": "c7f495ff87f14421b1740a719941e64b",
        "wType": "FlexContainer"
      }
    },
    "topmenu.flxTransferMoney": {
      "__events__": {},
      "__info__": {
        "kuid": "b76eff4c578743d3aa8c5cbca9594cb6",
        "srcKUID": "ceecbd5ac73749c0b95918674f9ffb17",
        "wType": "FlexContainer"
      }
    },
    "topmenu.flxTransfersAndPay": {
      "__events__": {},
      "__info__": {
        "kuid": "a020fc25142b473fb2bb5e996fca7d09",
        "srcKUID": "j83fe7fb58c04ec394a0d8313351f539",
        "wType": "FlexContainer"
      }
    },
    "topmenu.flxWireMoney": {
      "__events__": {},
      "__info__": {
        "kuid": "efca32bc9c4041aca483d9a094190c2e",
        "srcKUID": "bed5646364634571b664cc577ca65144",
        "wType": "FlexContainer"
      }
    },
    "topmenu.flxaccounts": {
      "__events__": {},
      "__info__": {
        "kuid": "ef11302eb74343c0a76d9d3b636d6ea1",
        "srcKUID": "b6366fc9b5854ca5aecefb68e89386e7",
        "wType": "FlexContainer"
      }
    },
    "topmenu.flxverseperator1": {
      "__events__": {},
      "__info__": {
        "kuid": "fb13496e52924226ab364fb2d67b0714",
        "srcKUID": "cd2f891c8cc94e9b87555c8c6066f221",
        "wType": "FlexContainer"
      }
    },
    "topmenu.flxverseperator2": {
      "__events__": {},
      "__info__": {
        "kuid": "ab7cbf1324534075a0910c676dac1ff0",
        "srcKUID": "f9719a0b9d3f42b690d0b92a4477ec5d",
        "wType": "FlexContainer"
      }
    },
    "topmenu.imgAccounts": {
      "__events__": {},
      "__info__": {
        "kuid": "c7507d0344a74afba3a121118942ba00",
        "srcKUID": "h41efc3bbd044c57a91bf7a47617cb38",
        "wType": "Image"
      }
    },
    "topmenu.imgFeedback": {
      "__events__": {},
      "__info__": {
        "kuid": "d50b3ff624a04ad49e0089b1e1d95ea8",
        "srcKUID": "f4a6ae818e504daab62eabcb47b9a961",
        "wType": "Image"
      }
    },
    "topmenu.imgHelp": {
      "__events__": {},
      "__info__": {
        "kuid": "cc241b77d7474d73b948820f55ddd5c8",
        "srcKUID": "h95d6926104248c4abfea8af0ad0bb2d",
        "wType": "Image"
      }
    },
    "topmenu.imgMenu": {
      "__events__": {},
      "__info__": {
        "kuid": "dd8cdac123ab4818b01a831977250709",
        "srcKUID": "be1e045b3a3347d88509b7efc7d8015b",
        "wType": "Image"
      }
    },
    "topmenu.imgTransfers": {
      "__events__": {},
      "__info__": {
        "kuid": "dcfcdc63d48a49cf81449f6c972bd2bd",
        "srcKUID": "aa4f2882266a4cdda63980b155b9df71",
        "wType": "Image"
      }
    },
    "topmenu.lblAccounts": {
      "__events__": {},
      "__info__": {
        "kuid": "c54cc3a8f37548b8927ce9c107bd123d",
        "srcKUID": "bcf724a120b24fdbb2278444060c639c",
        "wType": "Label"
      }
    },
    "topmenu.lblFeedback": {
      "__events__": {},
      "__info__": {
        "kuid": "g61d86e2803742e0bf591a383785d38e",
        "srcKUID": "i45ffb2e674e425ba9e5542807008a2e",
        "wType": "Label"
      }
    },
    "topmenu.lblHelp": {
      "__events__": {},
      "__info__": {
        "kuid": "i7b5cce2de4b4941b0e1ec7a7aec4b37",
        "srcKUID": "b910c72e31ac4950b9d4fcca565a1df4",
        "wType": "Label"
      }
    },
    "topmenu.lblMenu": {
      "__events__": {},
      "__info__": {
        "kuid": "b1e3e121585a4144b6137fec074e0cd5",
        "srcKUID": "h7239719ed104114b04620b3da15cd02",
        "wType": "Label"
      }
    },
    "topmenu.lblTransferAndPay": {
      "__events__": {},
      "__info__": {
        "kuid": "a5a1bdb5096e49dbb53f02d2d40f0b65",
        "srcKUID": "gf970d4c8185498db726665e80e4fff7",
        "wType": "Label"
      }
    },
    "CopyflxVerticalSeperator0b961fc23108f4b": {
      "__events__": {},
      "__info__": {
        "kuid": "c841cc2f2f3d406389a04c8f5294bb2d",
        "srcKUID": "b6e0434c2f904010bfff7590777daf67",
        "wType": "FlexContainer"
      }
    },
    "customhamburger.CopyflxSeperator0a7fd02d026804c": {
      "__events__": {},
      "__info__": {
        "kuid": "b0c4b1ad7a2c4fa8be276e2d9cae3cf7",
        "srcKUID": "e6c67e99b0b64a4e83a34c312dc501a5",
        "wType": "FlexContainer"
      }
    },
    "customhamburger.CopyflxSeperator0dfcbfe80de1946": {
      "__events__": {},
      "__info__": {
        "kuid": "a52b0b6985284fc4a8c6d8f18d541e01",
        "srcKUID": "ec5e9cdda1b4473aa156d59730730f65",
        "wType": "FlexContainer"
      }
    },
    "customhamburger.CopyflxSeperator0e9219bd0514c46": {
      "__events__": {},
      "__info__": {
        "kuid": "e821fea67d924f74b5600b873aaa4932",
        "srcKUID": "g39fe81fa7b0498b87ae946e0e5daf27",
        "wType": "FlexContainer"
      }
    },
    "customhamburger.CopyflxSeperator0ef56548331074b": {
      "__events__": {},
      "__info__": {
        "kuid": "fc41f220aaad4548ae767035aab8e98b",
        "srcKUID": "j62d0667a0e5431d94bbeb7127ae6e11",
        "wType": "FlexContainer"
      }
    },
    "customhamburger.CopyflxSeperator0fcac07927fef43": {
      "__events__": {},
      "__info__": {
        "kuid": "af0e9c4c5dd24ee8a2733e9721b30560",
        "srcKUID": "e1a67da7232b497db891680f5147e005",
        "wType": "FlexContainer"
      }
    },
    "customhamburger.flxAddExternalBankAccounts": {
      "__events__": {},
      "__info__": {
        "kuid": "b16675e0278e4dbfa87b528ceb286cb5",
        "srcKUID": "d829e28813f643ab8cc7b53a38a11877",
        "wType": "FlexContainer"
      }
    },
    "customhamburger.flxCardManagement": {
      "__events__": {},
      "__info__": {
        "kuid": "j331f066e4cd412db2ee2179007ad64d",
        "srcKUID": "fca38cea39334c569e00cf833a296ff0",
        "wType": "FlexContainer"
      }
    },
    "customhamburger.flxPFM": {
      "__events__": {},
      "__info__": {
        "kuid": "h6497ac753ca4a6aa23e79be1ec31ec2",
        "srcKUID": "bfc8636c05da4c4e9131d447fb520a97",
        "wType": "FlexContainer"
      }
    },
    "customhamburger.flxStopPaymentRequests": {
      "__events__": {},
      "__info__": {
        "kuid": "e566aed9bbd14ced915c1acc67a28613",
        "srcKUID": "c6e0f2b6aa1948688094395a053fa1d8",
        "wType": "FlexContainer"
      }
    },
    "customhamburger.lblAddExternalBankAccounts": {
      "__events__": {},
      "__info__": {
        "kuid": "a72bbfe06d9945efaae0b393aadd0bd2",
        "srcKUID": "edabb77d8ed2442ab7ed61fb91558f23",
        "wType": "Label"
      }
    },
    "customhamburger.lblCardManagement": {
      "__events__": {},
      "__info__": {
        "kuid": "eb80679d08eb4cb882c3ff24ed4f1bd0",
        "srcKUID": "b0c732201f424826b31b883b5eec6956",
        "wType": "Label"
      }
    },
    "customhamburger.lblPFM": {
      "__events__": {},
      "__info__": {
        "kuid": "j4e2c1c197be46b7bc8f8d002c8af573",
        "srcKUID": "e09127ede361436abb545b5527fba0e0",
        "wType": "Label"
      }
    },
    "customhamburger.lblStopPaymentRequests": {
      "__events__": {},
      "__info__": {
        "kuid": "ibec7cd36b6d4ec8a2bfc2bdc2637074",
        "srcKUID": "a87770408c7e42698c673972b990dd6d",
        "wType": "Label"
      }
    }
  },
  "id": "customheader",
  "info": null,
  "isdatareferenced": false,
  "isvisible": true,
  "kuid": "d4999d0fa31b470aa5779e0aa20c6eb4",
  "layouttype": 2,
  "masterType": 0,
  "name": "kony.ui.UserWidgetInstance",
  "parent": "flxHeader",
  "pf": "frmScheduledTransactions",
  "snaptogrid": true,
  "sourceUserWidget": "c04bbf50611342ca895c5e0a329aeb52",
  "wType": "UserWidgetInstance",
  "zindex": 1000
}