{
  "@class": "com.kony.gen.viz.model.component.KVizUserWidget",
  "DNDConfig": null,
  "__parentReadjusting__": false,
  "_children_": [],
  "_height_": {
    "type": "string",
    "value": "268px"
  },
  "_left_": {
    "type": "string",
    "value": "0dp"
  },
  "_margin_": [
    0,
    0,
    0,
    0
  ],
  "_orientation_": 1,
  "_padding_": [
    0,
    0,
    0,
    0
  ],
  "_percent_": true,
  "_render_": true,
  "_skin_": "s4b3bfcb27c14526bcdce6dec3972d8d",
  "_top_": {
    "type": "string",
    "value": "300dp"
  },
  "_width_": {
    "type": "string",
    "value": "44.30%"
  },
  "areflexpropsreferenced": false,
  "canUpdateUI": true,
  "centerx": {
    "type": "string",
    "value": "50.00%"
  },
  "centery": {
    "type": "string",
    "value": ""
  },
  "clipbounds": false,
  "containerweight": 0,
  "dataDiffs": {
    "CustomPopup": {
      "__events__": {},
      "__info__": {
        "isRoot": true,
        "kuid": "aefd630722c7402bb08b5b13852a2999",
        "srcKUID": "eb2d311dcb4744a7b05aa4f5428a6c53",
        "wType": "FlexContainer"
      },
      "centerX": {
        "Default": {
          "type": "string",
          "value": "50.00%"
        }
      },
      "centerY": {
        "Default": {
          "type": "string",
          "value": ""
        }
      },
      "top": {
        "Default": {
          "type": "string",
          "value": "300dp"
        }
      },
      "width": {
        "Default": {
          "type": "string",
          "value": "44.30%"
        }
      },
      "zIndex": {
        "Default": 1100
      }
    },
    "btnNo": {
      "__events__": {},
      "__info__": {
        "kuid": "e9967ac149e24c48ae232463d840eae6",
        "srcKUID": "h61577b4448c4e22a2636221e8fe0d6d",
        "wType": "Button"
      }
    },
    "btnYes": {
      "__events__": {},
      "__info__": {
        "kuid": "d8584f9533d24178a3afe299bd806d0c",
        "srcKUID": "e1c11d09edb846848d4aaf921cb1e5a0",
        "wType": "Button"
      }
    },
    "flxCross": {
      "__events__": {},
      "__info__": {
        "kuid": "j56992cef39a4774a5a83a88d06f41d9",
        "srcKUID": "e896a8d6e1244397be41e1011101c6ec",
        "wType": "FlexContainer"
      }
    },
    "flxHeader": {
      "__events__": {},
      "__info__": {
        "kuid": "fe03ee2dda4d4a258056372bdb46e4af",
        "srcKUID": "b6d465d7232a428eba11c466c6843856",
        "wType": "FlexContainer"
      }
    },
    "flxSeperator": {
      "__events__": {},
      "__info__": {
        "kuid": "d44bd7707bad41f181c5368ed15fd7db",
        "srcKUID": "b469cc45156e429d8fa47b9786168d10",
        "wType": "FlexContainer"
      }
    },
    "flxSeperator2": {
      "__events__": {},
      "__info__": {
        "kuid": "de5ffab24fca4f8a8f56d9911b67fbc0",
        "srcKUID": "e909e4e4b4a145b1aa92b22ece7050d3",
        "wType": "FlexContainer"
      }
    },
    "imgCross": {
      "__events__": {},
      "__info__": {
        "kuid": "f7d4e97a4f874838b508d4cd71880bd0",
        "srcKUID": "ja13bba308404016b1cd223dbcdf01ae",
        "wType": "Image"
      },
      "height": {
        "Default": {
          "type": "string",
          "value": "15dp"
        }
      }
    },
    "lblHeading": {
      "__events__": {},
      "__info__": {
        "kuid": "d7a945d6d2b048f49af69b746a16a32b",
        "srcKUID": "f97c1408984847af9f3cd9984a260c74",
        "wType": "Label"
      },
      "i18n_text": "i18n.transfers.Cancel",
      "text": ""
    },
    "lblPopupMessage": {
      "__events__": {},
      "__info__": {
        "kuid": "gdad065088a54124ac62b5dc5e43bb1b",
        "srcKUID": "f7c7509dccf24b88aeb13dc3d34fcc6b",
        "wType": "Label"
      }
    }
  },
  "id": "CustomPopupCancel",
  "info": null,
  "isdatareferenced": false,
  "isvisible": true,
  "kuid": "aefd630722c7402bb08b5b13852a2999",
  "layouttype": 2,
  "masterType": 0,
  "name": "kony.ui.UserWidgetInstance",
  "parent": "flxCancelPopup",
  "pf": "frmScheduledTransactions",
  "snaptogrid": true,
  "sourceUserWidget": "eb2d311dcb4744a7b05aa4f5428a6c53",
  "wType": "UserWidgetInstance",
  "zindex": 1100
}