{
  "@class": "com.kony.gen.viz.model.component.KVizLabel",
  "DNDConfig": null,
  "__parentReadjusting__": false,
  "_height_": {
    "type": "ref",
    "value": "preferred"
  },
  "_left_": {
    "type": "string",
    "value": "0dp"
  },
  "_margin_": [
    1,
    1,
    1,
    1
  ],
  "_padding_": [
    0,
    0,
    0,
    0
  ],
  "_skin_": "s7f2d51a99b949c28b1d912286bfd6cd",
  "_text_": "My Checking Account...3254",
  "_width_": {
    "type": "ref",
    "value": "preferred"
  },
  "_wrapping_": 2,
  "canUpdateUI": true,
  "centery": {
    "type": "string",
    "value": "50%"
  },
  "containerweight": 100,
  "contentalignment": 4,
  "id": "lblAccountTypesmod",
  "info": null,
  "iphone": {
    "psp": {
      "wrapping": 2
    }
  },
  "isvisible": false,
  "kuid": "f5bc1b1ec75f4d1293149a35fe7ef921",
  "name": "kony.ui.Label",
  "parent": "flxAccountTypes",
  "pf": "frmScheduledTransactions",
  "tooltip": "Account Type",
  "wType": "Label",
  "zindex": 1
}