{
  "@class": "com.kony.gen.viz.model.component.KVizUserWidget",
  "DNDConfig": null,
  "__parentReadjusting__": false,
  "_children_": [],
  "_height_": {
    "type": "ref",
    "value": "preferred"
  },
  "_left_": {
    "type": "string",
    "value": "0dp"
  },
  "_margin_": [
    0,
    0,
    0,
    0
  ],
  "_orientation_": 1,
  "_padding_": [
    0,
    0,
    0,
    0
  ],
  "_percent_": true,
  "_render_": true,
  "_skin_": "s24c92fc23b14f5484b693ee9b8a9b35",
  "_top_": {
    "type": "string",
    "value": "0dp"
  },
  "_width_": {
    "type": "string",
    "value": "100%"
  },
  "areflexpropsreferenced": false,
  "autogrowmode": 1,
  "canUpdateUI": true,
  "clipbounds": true,
  "containerweight": 0,
  "dataDiffs": {
    "flxLeftKeyValue": {
      "__events__": {},
      "__info__": {
        "kuid": "ea5386ab453845f2b2d4830cbe47afa1",
        "srcKUID": "bb9994115f8e43d0b2804570d0fdf86e",
        "wType": "FlexContainer"
      }
    },
    "flxRightKeyValue": {
      "__events__": {},
      "__info__": {
        "kuid": "fdf217bd327949b383f1d13ddadc4425",
        "srcKUID": "e8fd71dd7bba489b935b9c3b6b23909b",
        "wType": "FlexContainer"
      }
    },
    "inboundKeyValue": {
      "__events__": {},
      "__info__": {
        "isRoot": true,
        "kuid": "ba07c17ab0fc42d689eb6dc12acc69bc",
        "srcKUID": "b730959e6a1f455ab7345ff3c4fb878a",
        "wType": "FlexContainer"
      }
    },
    "lblLeftKey": {
      "__events__": {},
      "__info__": {
        "kuid": "c89867548e0e4db4b341be64ce3779ff",
        "srcKUID": "c6f674632a7744aaab81c7302d8dcc08",
        "wType": "Label"
      }
    },
    "lblRightKey": {
      "__events__": {},
      "__info__": {
        "kuid": "fc187ecf90d045b18851c5c6999fdd27",
        "srcKUID": "c514ef2b9d5642e38e5c66b916272aec",
        "wType": "Label"
      }
    },
    "rtxLeftValue": {
      "__events__": {},
      "__info__": {
        "kuid": "dd60ed0281e34f5890114a49564beaad",
        "srcKUID": "he470e837fc34cccbfc6f526c97163b1",
        "wType": "RichText"
      }
    },
    "rtxRightValue": {
      "__events__": {},
      "__info__": {
        "kuid": "dd5dd43594df48d2ba1f1c26be2f52ac",
        "srcKUID": "cf6fe37a9d924fc0991a08ff3b9bd760",
        "wType": "RichText"
      }
    }
  },
  "id": "accountInfoRow2",
  "info": null,
  "isdatareferenced": false,
  "isvisible": true,
  "kuid": "g670e0a7417047cd870eef1d4a6dda39",
  "layouttype": 2,
  "masterType": 0,
  "name": "kony.ui.UserWidgetInstance",
  "parent": "flxAccountInfoRow2",
  "pf": "userwidgetmodel",
  "snaptogrid": true,
  "sourceUserWidget": "b730959e6a1f455ab7345ff3c4fb878a",
  "wType": "UserWidgetInstance"
}