{
  "@class": "com.kony.gen.viz.model.component.KVizUserWidget",
  "DNDConfig": null,
  "__parentReadjusting__": false,
  "_children_": [],
  "_height_": {
    "type": "ref",
    "value": "preferred"
  },
  "_left_": {
    "type": "string",
    "value": "0dp"
  },
  "_margin_": [
    0,
    0,
    0,
    0
  ],
  "_orientation_": 1,
  "_padding_": [
    0,
    0,
    0,
    0
  ],
  "_percent_": true,
  "_render_": true,
  "_skin_": "s24c92fc23b14f5484b693ee9b8a9b35",
  "_top_": {
    "type": "string",
    "value": "0dp"
  },
  "_width_": {
    "type": "string",
    "value": "100%"
  },
  "areflexpropsreferenced": false,
  "autogrowmode": 1,
  "canUpdateUI": true,
  "clipbounds": true,
  "containerweight": 0,
  "dataDiffs": {
    "flxLeftKeyValue": {
      "__events__": {},
      "__info__": {
        "kuid": "h43d0485cac4410a914fed20f14e67e5",
        "srcKUID": "bb9994115f8e43d0b2804570d0fdf86e",
        "wType": "FlexContainer"
      }
    },
    "flxRightKeyValue": {
      "__events__": {},
      "__info__": {
        "kuid": "f29909d6d6044746a8b7bf4781c0ea5f",
        "srcKUID": "e8fd71dd7bba489b935b9c3b6b23909b",
        "wType": "FlexContainer"
      }
    },
    "inboundKeyValue": {
      "__events__": {},
      "__info__": {
        "isRoot": true,
        "kuid": "b4b9f6695bf04e909992e7742e836744",
        "srcKUID": "b730959e6a1f455ab7345ff3c4fb878a",
        "wType": "FlexContainer"
      }
    },
    "lblLeftKey": {
      "__events__": {},
      "__info__": {
        "kuid": "j9474422565d4ed8aec905f9e2e6c61a",
        "srcKUID": "c6f674632a7744aaab81c7302d8dcc08",
        "wType": "Label"
      },
      "i18n_text": "i18n.accounts.routingNumber"
    },
    "lblRightKey": {
      "__events__": {},
      "__info__": {
        "kuid": "a9465a69f3294ee3b1748d2d313b3ddf",
        "srcKUID": "c514ef2b9d5642e38e5c66b916272aec",
        "wType": "Label"
      },
      "i18n_text": "i18n.inboundTransfer.IntermediaryBankSWIFTCode"
    },
    "rtxLeftValue": {
      "__events__": {},
      "__info__": {
        "kuid": "ff1786455fbe4fb48597690d856b73a0",
        "srcKUID": "he470e837fc34cccbfc6f526c97163b1",
        "wType": "RichText"
      },
      "text": "098765432"
    },
    "rtxRightValue": {
      "__events__": {},
      "__info__": {
        "kuid": "cd95ece8e3d449ed8eaacd693a23c36d",
        "srcKUID": "cf6fe37a9d924fc0991a08ff3b9bd760",
        "wType": "RichText"
      },
      "text": "9897-8494-9090"
    }
  },
  "id": "bankDetailsRow3",
  "info": null,
  "isdatareferenced": false,
  "isvisible": true,
  "kuid": "e5a991eeedcb475abab781aa6dc37cbc",
  "layouttype": 2,
  "masterType": 0,
  "name": "kony.ui.UserWidgetInstance",
  "parent": "flxBankDetailsRow3",
  "pf": "userwidgetmodel",
  "snaptogrid": true,
  "sourceUserWidget": "b730959e6a1f455ab7345ff3c4fb878a",
  "wType": "UserWidgetInstance"
}