{
  "@class": "com.kony.gen.viz.model.component.KVizUserWidget",
  "DNDConfig": null,
  "__parentReadjusting__": false,
  "_children_": [],
  "_height_": {
    "type": "ref",
    "value": "preferred"
  },
  "_left_": {
    "type": "string",
    "value": "0dp"
  },
  "_margin_": [
    0,
    0,
    0,
    0
  ],
  "_orientation_": 1,
  "_padding_": [
    0,
    0,
    0,
    0
  ],
  "_percent_": true,
  "_render_": true,
  "_skin_": "s24c92fc23b14f5484b693ee9b8a9b35",
  "_top_": {
    "type": "string",
    "value": "0dp"
  },
  "_width_": {
    "type": "string",
    "value": "100%"
  },
  "areflexpropsreferenced": false,
  "autogrowmode": 1,
  "canUpdateUI": true,
  "clipbounds": true,
  "containerweight": 0,
  "dataDiffs": {
    "flxLeftKeyValue": {
      "__events__": {},
      "__info__": {
        "kuid": "gb92ffab870a4f519cc79670e57f01b2",
        "srcKUID": "bb9994115f8e43d0b2804570d0fdf86e",
        "wType": "FlexContainer"
      }
    },
    "flxRightKeyValue": {
      "__events__": {},
      "__info__": {
        "kuid": "e2cab8103549444fbacdc64c9e92b9da",
        "srcKUID": "e8fd71dd7bba489b935b9c3b6b23909b",
        "wType": "FlexContainer"
      },
      "isVisible": false
    },
    "inboundKeyValue": {
      "__events__": {},
      "__info__": {
        "isRoot": true,
        "kuid": "d2f8d4d81dec4ce285e7df6011d979ec",
        "srcKUID": "b730959e6a1f455ab7345ff3c4fb878a",
        "wType": "FlexContainer"
      }
    },
    "lblLeftKey": {
      "__events__": {},
      "__info__": {
        "kuid": "fa87a51da1604f5981e850d9f0b7015d",
        "srcKUID": "c6f674632a7744aaab81c7302d8dcc08",
        "wType": "Label"
      },
      "i18n_text": "i18n.accounts.swiftCode"
    },
    "lblRightKey": {
      "__events__": {},
      "__info__": {
        "kuid": "ca624620d100449ab895f91980199a7c",
        "srcKUID": "c514ef2b9d5642e38e5c66b916272aec",
        "wType": "Label"
      }
    },
    "rtxLeftValue": {
      "__events__": {},
      "__info__": {
        "kuid": "c54ff6bcab3a4e98a77b37f3c1379fa2",
        "srcKUID": "he470e837fc34cccbfc6f526c97163b1",
        "wType": "RichText"
      },
      "text": "9897-8494-9090"
    },
    "rtxRightValue": {
      "__events__": {},
      "__info__": {
        "kuid": "b93fcaf121284082ba0e9220f97b73e7",
        "srcKUID": "cf6fe37a9d924fc0991a08ff3b9bd760",
        "wType": "RichText"
      }
    }
  },
  "id": "bankDetailsRow4",
  "info": null,
  "isdatareferenced": false,
  "isvisible": true,
  "kuid": "g14d0b1fb7fb4daca7193ebcd7463a9f",
  "layouttype": 2,
  "masterType": 0,
  "name": "kony.ui.UserWidgetInstance",
  "parent": "flxBankDetailsRow4",
  "pf": "userwidgetmodel",
  "snaptogrid": true,
  "sourceUserWidget": "b730959e6a1f455ab7345ff3c4fb878a",
  "wType": "UserWidgetInstance"
}