{
  "@class": "com.kony.gen.viz.model.component.KVizUserWidget",
  "DNDConfig": null,
  "__parentReadjusting__": false,
  "_children_": [],
  "_height_": {
    "type": "ref",
    "value": "preferred"
  },
  "_left_": {
    "type": "string",
    "value": "0dp"
  },
  "_margin_": [
    0,
    0,
    0,
    0
  ],
  "_orientation_": 1,
  "_padding_": [
    0,
    0,
    0,
    0
  ],
  "_percent_": true,
  "_render_": true,
  "_skin_": "s24c92fc23b14f5484b693ee9b8a9b35",
  "_top_": {
    "type": "string",
    "value": "0dp"
  },
  "_width_": {
    "type": "string",
    "value": "100%"
  },
  "areflexpropsreferenced": false,
  "autogrowmode": 1,
  "canUpdateUI": true,
  "clipbounds": true,
  "containerweight": 0,
  "dataDiffs": {
    "flxLeftKeyValue": {
      "__events__": {},
      "__info__": {
        "kuid": "daef5232ed9b483cad79f89a2f4a35a9",
        "srcKUID": "bb9994115f8e43d0b2804570d0fdf86e",
        "wType": "FlexContainer"
      }
    },
    "flxRightKeyValue": {
      "__events__": {},
      "__info__": {
        "kuid": "j2f47e82124e40d595b88f820242353b",
        "srcKUID": "e8fd71dd7bba489b935b9c3b6b23909b",
        "wType": "FlexContainer"
      },
      "isVisible": false
    },
    "inboundKeyValue": {
      "__events__": {},
      "__info__": {
        "isRoot": true,
        "kuid": "fd1ff420085f40398f06db82968466b9",
        "srcKUID": "b730959e6a1f455ab7345ff3c4fb878a",
        "wType": "FlexContainer"
      }
    },
    "lblLeftKey": {
      "__events__": {},
      "__info__": {
        "kuid": "h5f6cce2aa3a4fb489072532f622aa06",
        "srcKUID": "c6f674632a7744aaab81c7302d8dcc08",
        "wType": "Label"
      },
      "i18n_text": "i18n.inboundTransfer.ServiceFeesapplicable"
    },
    "lblRightKey": {
      "__events__": {},
      "__info__": {
        "kuid": "f9772d8223e94aeca6ef263fb5e517e2",
        "srcKUID": "c514ef2b9d5642e38e5c66b916272aec",
        "wType": "Label"
      }
    },
    "rtxLeftValue": {
      "__events__": {},
      "__info__": {
        "kuid": "fc046f044b9c499c91c79827d58e06a0",
        "srcKUID": "he470e837fc34cccbfc6f526c97163b1",
        "wType": "RichText"
      },
      "text": "$ 5.00"
    },
    "rtxRightValue": {
      "__events__": {},
      "__info__": {
        "kuid": "ca0d43a39e8440ca8f495f407cde8813",
        "srcKUID": "cf6fe37a9d924fc0991a08ff3b9bd760",
        "wType": "RichText"
      }
    }
  },
  "id": "bankDetailsRow6",
  "info": null,
  "isdatareferenced": false,
  "isvisible": true,
  "kuid": "c876df5fcc5644b89451fd1e09c49155",
  "layouttype": 2,
  "masterType": 0,
  "name": "kony.ui.UserWidgetInstance",
  "parent": "flxBankDetailsRow6",
  "pf": "userwidgetmodel",
  "snaptogrid": true,
  "sourceUserWidget": "b730959e6a1f455ab7345ff3c4fb878a",
  "wType": "UserWidgetInstance"
}