{
  "@class": "com.kony.gen.viz.model.component.KVizButton",
  "DNDConfig": null,
  "__parentReadjusting__": false,
  "_height_": {
    "type": "string",
    "value": "50dp"
  },
  "_margin_": [
    6,
    6,
    6,
    6
  ],
  "_padding_": [
    0,
    0,
    0,
    0
  ],
  "_right_": {
    "type": "string",
    "value": "307px"
  },
  "_skin_": "sd93406756c64689acabc6c6ca718fdc",
  "_text_": "NO THANKS",
  "_top_": {
    "type": "string",
    "value": "30px"
  },
  "_width_": {
    "type": "string",
    "value": "257px"
  },
  "canUpdateUI": true,
  "containerweight": 100,
  "contentalignment": 5,
  "disabledSkins": {
    "focusSkin": "sf44d06ca8224832827ea7fdff757013"
  },
  "displaytext": true,
  "id": "btnPrint",
  "info": null,
  "isvisible": true,
  "kuid": "df62bad14c324cceaa1154661b32a45b",
  "name": "kony.ui.Button",
  "parent": "flxButtons",
  "pf": "userwidgetmodel",
  "texti18n": "i18n.accounts.print",
  "wType": "Button",
  "zindex": 2,
  "tooltip": "Print"
}