{
  "DNDConfig": null,
  "__parentReadjusting__": false,
  "_height_": {
    "type": "ref",
    "value": "preferred"
  },
  "_left_": {
    "type": "string",
    "value": "0dp"
  },
  "_margin_": [
    0,
    0,
    0,
    0
  ],
  "_orientation_": 6,
  "_padding_": [
    0,
    0,
    0,
    0
  ],
  "_percent_": true,
  "_skin_": "s24c92fc23b14f5484b693ee9b8a9b35",
  "_top_": {
    "type": "string",
    "value": "0dp"
  },
  "_width_": {
    "type": "string",
    "value": "100%"
  },
  "allboxes": [],
  "autogrowmode": 1,
  "canUpdateUI": true,
  "children": [
    "lblSubHeader1",
    "lbxAccountNumber",
    "flxAccountInfoRow1",
    "flxAccountInfoRow2",
    "flxAccountInfoRow3",
    "flxInfoSeperator",
    "lblSubHeader2",
    "flxBankDetailsRow1",
    "flxBankDetailsRow2",
    "flxBankDetailsRow3",
    "flxBankDetailsRow4",
    "flxBankDetailsRow5",
    "flxBankDetailsRow6"
  ],
  "clipbounds": true,
  "containerweight": 100,
  "enablescrolling": true,
  "id": "flxDetails",
  "info": null,
  "isvisible": true,
  "kuid": "d1015deef02c4444b6a153145c241880",
  "layouttype": 4,
  "name": "kony.ui.FlexContainer",
  "parent": "flxMain",
  "pf": "userwidgetmodel",
  "snapgridsize": 10,
  "snaptogrid": true,
  "wType": "FlexContainer",
  "widgetalignment": 1,
  "zindex": 1
}