{
  "DNDConfig": null,
  "_height_": {
    "type": "string",
    "value": "150dp"
  },
  "_margin_": [
    0,
    0,
    0,
    0
  ],
  "_orientation_": 6,
  "_padding_": [
    0,
    0,
    0,
    0
  ],
  "_percent_": true,
  "_skin_": "se2c51e2a5574dcc8bc00a48bc7649ca",
  "allboxes": [],
  "autogrowmode": 0,
  "canUpdateUI": true,
  "children": [
    "flxIdentifier",
    "flxPFMUnCategorizedTransactionSelected"
  ],
  "clipbounds": true,
  "containerId": true,
  "containerweight": 100,
  "controllerInfo": {
    "default": {
      "channel": "desktop",
      "name": "flxPFMUnCategorizedTransactionsSelectedController"
    }
  },
  "desktopweb": {
    "psp": {}
  },
  "enablescrolling": true,
  "id": "flxPFMUnCategorizedTransactionsSelected",
  "info": null,
  "isTemplate": true,
  "isvisible": true,
  "kuid": "gd7716fc0f844f2694547a11d19da9e1",
  "layouttype": 3,
  "name": "kony.ui.FlexContainer",
  "parent": "segPFMUnCategorizedTransactionsPFMSelected",
  "pf": "segPFMUnCategorizedTransactionsPFMSelected",
  "snapgridsize": 10,
  "snaptogrid": true,
  "wType": "FlexContainer",
  "widgetalignment": 1
}