{
  "DNDConfig": null,
  "_height_": {
    "type": "string",
    "value": "112dp"
  },
  "_margin_": [
    0,
    0,
    0,
    0
  ],
  "_orientation_": 6,
  "_padding_": [
    0,
    0,
    0,
    0
  ],
  "_percent_": true,
  "_skin_": "s344174b66d24a22be7a954acfcdefc5",
  "allboxes": [],
  "autogrowmode": 0,
  "canUpdateUI": true,
  "children": [
    "imgCurrentOne",
    "lblSegHeading",
    "lblSegDescription",
    "lblDateAndTime",
    "imgAttachment",
    "imgBullet",
    "imgBulletIcon"
  ],
  "clipbounds": true,
  "containerId": true,
  "containerweight": 100,
  "controllerInfo": {
    "default": {
      "channel": "desktop",
      "name": "flxNotificationsAndMessagesController"
    }
  },
  "enablescrolling": true,
  "id": "flxNotificationsAndMessages",
  "info": null,
  "isTemplate": true,
  "isvisible": true,
  "kuid": "e15a6a7739dd4c6fb54ae40b54c20a75",
  "layouttype": 2,
  "name": "kony.ui.FlexContainer",
  "parent": "segNotificationsAndMessages",
  "pf": "segNotificationsAndMessages",
  "snapgridsize": 10,
  "snaptogrid": true,
  "wType": "FlexContainer",
  "widgetalignment": 1
}