{
  "DNDConfig": null,
  "__parentReadjusting__": false,
  "_height_": {
    "type": "ref",
    "value": "preferred"
  },
  "_left_": {
    "type": "string",
    "value": "0dp"
  },
  "_margin_": [
    0,
    0,
    0,
    0
  ],
  "_orientation_": 6,
  "_padding_": [
    0,
    0,
    0,
    0
  ],
  "_percent_": true,
  "_skin_": "s24c92fc23b14f5484b693ee9b8a9b35",
  "_top_": {
    "type": "string",
    "value": "0dp"
  },
  "_width_": {
    "type": "string",
    "value": "100%"
  },
  "allboxes": [],
  "autogrowmode": 1,
  "canUpdateUI": true,
  "children": [
    "flxOpenNewAccount"
  ],
  "clipbounds": true,
  "containerweight": 100,
  "enablescrolling": true,
  "id": "EnterUsernamePassword",
  "info": null,
  "iscustomlayout": false,
  "isvisible": true,
  "kuid": "d884e86ba37f455a95e06ac5ae6dc738",
  "layouttype": 2,
  "name": "kony.ui.FlexContainer",
  "parent": "userwidgetmodel",
  "pf": "userwidgetmodel",
  "retaincontentalignment": false,
  "retainflexpositionproperties": false,
  "snapgridsize": 10,
  "snaptogrid": true,
  "vizProps": {
    "hidewidgethierarchy": false
  },
  "wType": "FlexContainer",
  "widgetalignment": 1
}