{
  "@class": "com.kony.gen.viz.model.component.KVizButton",
  "DNDConfig": null,
  "__parentReadjusting__": false,
  "_bottom_": {
    "type": "number",
    "value": "30"
  },
  "_height_": {
    "type": "string",
    "value": "50dp"
  },
  "_left_": {
    "type": "string",
    "value": "67%"
  },
  "_margin_": [
    6,
    6,
    6,
    6
  ],
  "_padding_": [
    0,
    0,
    0,
    0
  ],
  "_skin_": "sb387ebf08b649c99164e8bfb3dc80c8",
  "_text_": "YES",
  "_width_": {
    "type": "string",
    "value": "29.74%"
  },
  "canUpdateUI": true,
  "centery": {
    "type": "string",
    "value": "50%"
  },
  "containerweight": 100,
  "contentalignment": 5,
  "disabledSkins": {
    "focusSkin": "sf44d06ca8224832827ea7fdff757013"
  },
  "displaytext": true,
  "id": "btnSave",
  "ide_onClick": "AS_Button_i1e1ffee73044403aa3cb6afc2426cde",
  "info": null,
  "isvisible": true,
  "kuid": "dbef593454b34942870dc468b332cc42",
  "name": "kony.ui.Button",
  "parent": "flxContentsButtons",
  "pf": "frmStopPayments",
  "texti18n": "i18n.ProfileManagement.Save",
  "wType": "Button",
  "zindex": 1
}