{
  "DNDConfig": null,
  "__parentReadjusting__": false,
  "_height_": {
    "type": "ref",
    "value": "preferred"
  },
  "_left_": {
    "type": "string",
    "value": "0dp"
  },
  "_margin_": [
    0,
    0,
    0,
    0
  ],
  "_orientation_": 6,
  "_padding_": [
    0,
    0,
    0,
    0
  ],
  "_percent_": true,
  "_skin_": "s701c003c4e848c3a7f35139db3e3ffe",
  "_top_": {
    "type": "string",
    "value": "121dp"
  },
  "_width_": {
    "type": "string",
    "value": "100%"
  },
  "allboxes": [],
  "autogrowmode": 1,
  "canUpdateUI": true,
  "children": [
    "breadcrumb",
    "flxMain"
  ],
  "clipbounds": true,
  "containerweight": 100,
  "enablescrolling": true,
  "id": "flxContainer",
  "info": null,
  "isvisible": true,
  "kuid": "a11223537d564040aca01e62d4ed6361",
  "layouttype": 4,
  "name": "kony.ui.FlexContainer",
  "parent": "frmStopPayments",
  "pf": "frmStopPayments",
  "snapgridsize": 10,
  "snaptogrid": true,
  "wType": "FlexContainer",
  "widgetalignment": 1,
  "zindex": 1
}