{
  "DNDConfig": null,
  "__parentReadjusting__": false,
  "_height_": {
    "type": "ref",
    "value": "preferred"
  },
  "_left_": {
    "type": "string",
    "value": "0dp"
  },
  "_margin_": [
    0,
    0,
    0,
    0
  ],
  "_orientation_": 6,
  "_padding_": [
    0,
    0,
    0,
    0
  ],
  "_percent_": true,
  "_skin_": "s12e9117552b4e45a2f5f2631b232fc5",
  "_top_": {
    "type": "string",
    "value": "5px"
  },
  "_width_": {
    "type": "string",
    "value": "330dp"
  },
  "allboxes": [],
  "autogrowmode": 1,
  "canUpdateUI": true,
  "children": [
    "flxPasswordRules",
    "flxRule1",
    "flxRule2",
    "flxRule3",
    "flxRule4",
    "flxRule5",
    "flxRule6",
    "rtxRulesUsername"
  ],
  "clipbounds": true,
  "containerweight": 100,
  "enablescrolling": true,
  "id": "flxRulesUsername",
  "info": null,
  "isvisible": false,
  "kuid": "f0d5e94c23de4aeab117e1ef2d1d77bb",
  "layouttype": 4,
  "name": "kony.ui.FlexContainer",
  "parent": "flxCreateUsernamePasswordMessageBox",
  "pf": "userwidgetmodel",
  "snapgridsize": 10,
  "snaptogrid": true,
  "wType": "FlexContainer",
  "widgetalignment": 1,
  "zindex": 1
}