{
  "@class": "com.kony.gen.viz.model.component.KVizLabel",
  "DNDConfig": null,
  "__parentReadjusting__": false,
  "_height_": {
    "type": "ref",
    "value": "preferred"
  },
  "_left_": {
    "type": "string",
    "value": "4%"
  },
  "_margin_": [
    1,
    1,
    1,
    1
  ],
  "_padding_": [
    0,
    0,
    0,
    0
  ],
  "_skin_": "sa422897ca094aa8bf65e4891da467dd",
  "_text_": "It should be between 8-20 characters length.",
  "_top_": {
    "type": "string",
    "value": "0dp"
  },
  "_width_": {
    "type": "ref",
    "value": "preferred"
  },
  "_wrapping_": 2,
  "android": {
    "textStyle": {
      "letterSpacing": 0,
      "strikeThrough": false
    }
  },
  "canUpdateUI": true,
  "centery": {
    "type": "string",
    "value": "50.00%"
  },
  "containerweight": 100,
  "contentalignment": 4,
  "id": "lblRulesPassword1",
  "info": null,
  "ipad": {
    "psp": {
      "wrapping": 2
    }
  },
  "iphone": {
    "psp": {
      "wrapping": 2
    }
  },
  "isvisible": true,
  "kuid": "fc7a57a46563476696ee7418c2813297",
  "name": "kony.ui.Label",
  "parent": "flxRulesPassword1",
  "pf": "userwidgetmodel",
  "texti18n": "i18n.ProfileManagement.Shouldcontain8to20characters",
  "tooltip": "",
  "wType": "Label",
  "zindex": 1
}