{
  "@class": "com.kony.gen.viz.model.component.KVizLabel",
  "DNDConfig": null,
  "__parentReadjusting__": false,
  "_height_": {
    "type": "ref",
    "value": "preferred"
  },
  "_left_": {
    "type": "string",
    "value": "4%"
  },
  "_margin_": [
    1,
    1,
    1,
    1
  ],
  "_padding_": [
    0,
    0,
    0,
    0
  ],
  "_skin_": "sa422897ca094aa8bf65e4891da467dd",
  "_text_": "Special characters allowed and spaces are allowed.",
  "_top_": {
    "type": "string",
    "value": "5dp"
  },
  "_width_": {
    "type": "string",
    "value": "80%"
  },
  "_wrapping_": 2,
  "android": {
    "textStyle": {
      "letterSpacing": 0,
      "strikeThrough": false
    }
  },
  "canUpdateUI": true,
  "containerweight": 100,
  "contentalignment": 4,
  "id": "lblRule5",
  "info": null,
  "ipad": {
    "psp": {
      "wrapping": 2
    }
  },
  "iphone": {
    "psp": {
      "wrapping": 2
    }
  },
  "isvisible": true,
  "kuid": "bae41f8fdf5d4df188ff1c875d11e193",
  "name": "kony.ui.Label",
  "parent": "flxRule5",
  "pf": "userwidgetmodel",
  "texti18n": "i18n.ProfileManagement.UsernameIsNotCaseSensitive",
  "tooltip": "",
  "wType": "Label",
  "zindex": 1
}