{
  "@class": "com.kony.gen.viz.model.component.KVizRichText",
  "DNDConfig": null,
  "__parentReadjusting__": false,
  "_bottom_": {
    "type": "string",
    "value": "10dp"
  },
  "_height_": {
    "type": "ref",
    "value": "preferred"
  },
  "_left_": {
    "type": "string",
    "value": "8.80%"
  },
  "_margin_": [
    0,
    0,
    0,
    0
  ],
  "_padding_": [
    0,
    0,
    0,
    0
  ],
  "_skin_": "sb12cd38fc0545b19d215f1dce83f42a",
  "_text_": "RichText",
  "_top_": {
    "type": "string",
    "value": "10dp"
  },
  "_width_": {
    "type": "string",
    "value": "87%"
  },
  "_wrapping_": 2,
  "canUpdateUI": true,
  "containerweight": 100,
  "contentalignment": 4,
  "id": "rtxRulesUsername",
  "info": null,
  "iscustomlayout": false,
  "isvisible": true,
  "kuid": "e3a113415ba84fbda2c47e4f89470a24",
  "linkskin": "s68be632cc934210829c785f1cfb09f0",
  "name": "kony.ui.RichText",
  "parent": "flxRulesUsername",
  "pf": "userwidgetmodel",
  "retaincontentalignment": false,
  "retainflexpositionproperties": false,
  "wType": "RichText",
  "widgetalignment": 5,
  "zindex": 1
}