{
  "@class": "com.kony.gen.viz.model.component.KVizTextBox2",
  "DNDConfig": null,
  "__markedForDelete__": true,
  "__parentReadjusting__": false,
  "_height_": {
    "type": "string",
    "value": "99%"
  },
  "_left_": {
    "type": "string",
    "value": "4.55%"
  },
  "_margin_": [
    0,
    0,
    0,
    0
  ],
  "_padding_": [
    0,
    0,
    0,
    0
  ],
  "_placeholder_": "",
  "_right_": {
    "type": "string",
    "value": "11.45%"
  },
  "_skin_": "sb7fc2dbf077409e8c9768d0678b148c",
  "_text_": "",
  "_width_": {
    "type": "string",
    "value": "75%"
  },
  "autocapitalize": "none",
  "autocomplete": false,
  "autocorrect": false,
  "autofilter": false,
  "canUpdateUI": true,
  "centery": {
    "type": "string",
    "value": "50%"
  },
  "containerheight": "",
  "containerheightmode": 1,
  "containerweight": 100,
  "contentalignment": 4,
  "disabledSkins": {
    "focusSkin": "s5f5a9f8c3a548e281fa49915b760e95"
  },
  "focusskin": null,
  "id": "tbxEnterUsername",
  "info": null,
  "isvisible": true,
  "keyboardtype": "A",
  "kuid": "d3207bad44f94a9f97e15dbfd973838e",
  "mode": "A",
  "name": "kony.ui.TextBox2",
  "paddinginpixel": false,
  "parent": "flxEnterUsername",
  "pf": "userwidgetmodel",
  "placeholderi18n": "i18n.NUO.EnterUsername",
  "securetextentry": false,
  "textinputmode": "A",
  "viewtype": "default",
  "wType": "TextField",
  "zindex": 1,
  "texti18n": "i18n.common.EnterUsername"
}