{
  "DNDConfig": null,
  "__parentReadjusting__": false,
  "_height_": {
    "type": "string",
    "value": "30dp"
  },
  "_left_": {
    "type": "string",
    "value": "3.77%"
  },
  "_margin_": [
    0,
    0,
    0,
    0
  ],
  "_orientation_": 6,
  "_padding_": [
    0,
    0,
    0,
    0
  ],
  "_percent_": true,
  "_skin_": "s0c476ed5d2d44eaaf405d10a91ff84b",
  "_top_": {
    "type": "string",
    "value": "500dp"
  },
  "_width_": {
    "type": "string",
    "value": "2.01%"
  },
  "allboxes": [],
  "autogrowmode": 0,
  "canUpdateUI": true,
  "children": [
    "imgCheckbox"
  ],
  "clipbounds": true,
  "containerweight": 100,
  "enablescrolling": true,
  "id": "flxCheckbox",
  "ide_onClick": "AS_FlexContainer_je4475c9bb81487cad6b495a48cdd1de",
  "info": null,
  "isvisible": true,
  "kuid": "cbb6263efbf54bf79e9fe4afaecb84dc",
  "layouttype": 2,
  "name": "kony.ui.FlexContainer",
  "parent": "flxContent",
  "pf": "userwidgetmodel",
  "snapgridsize": 10,
  "snaptogrid": true,
  "wType": "FlexContainer",
  "widgetalignment": 1,
  "zindex": 2
}