{
  "@class": "com.kony.gen.viz.model.component.KVizLabel",
  "DNDConfig": null,
  "__parentReadjusting__": false,
  "_height_": {
    "type": "ref",
    "value": "preferred"
  },
  "_left_": {
    "type": "string",
    "value": "3.77%"
  },
  "_margin_": [
    1,
    1,
    1,
    1
  ],
  "_padding_": [
    0,
    0,
    0,
    0
  ],
  "_skin_": "s7b901f0589e4cbd914447ed46411bf5",
  "_text_": "Note",
  "_top_": {
    "type": "string",
    "value": "423dp"
  },
  "_width_": {
    "type": "string",
    "value": "5%"
  },
  "_wrapping_": 2,
  "android": {
    "textStyle": {
      "letterSpacing": 0,
      "strikeThrough": false
    }
  },
  "canUpdateUI": true,
  "containerweight": 100,
  "contentalignment": 4,
  "id": "lblNote",
  "info": null,
  "ipad": {
    "psp": {
      "wrapping": 2
    }
  },
  "iphone": {
    "psp": {
      "wrapping": 2
    }
  },
  "isvisible": true,
  "kuid": "uda0d03fb1d147159fd4959242baf05a",
  "name": "kony.ui.Label",
  "parent": "flxContent",
  "pf": "userwidgetmodel",
  "tooltip": "",
  "wType": "Label",
  "zindex": 2
}