{
  "@class": "com.kony.gen.viz.model.component.KVizListBox",
  "DNDConfig": null,
  "__parentReadjusting__": false,
  "_height_": {
    "type": "string",
    "value": "40dp"
  },
  "_left_": {
    "type": "string",
    "value": "3.77%"
  },
  "_margin_": [
    0,
    0,
    0,
    0
  ],
  "_padding_": [
    0,
    0,
    0,
    0
  ],
  "_skin_": "s803806aa4b94f3787faeef27985a2d2",
  "_top_": {
    "type": "string",
    "value": "43dp"
  },
  "_width_": {
    "type": "string",
    "value": "45.34%"
  },
  "canUpdateUI": true,
  "containerweight": 100,
  "contentalignment": 4,
  "context": {
    "channel": "desktop",
    "formID": "uwucda9af4868f4f47b4947f3f15660a6f",
    "platform": "desktopweb",
    "templateType": "userwidgets",
    "topLevelBox": null
  },
  "groupcells": false,
  "id": "listbxFrom",
  "info": null,
  "isvisible": true,
  "kuid": "ufabf0e6b6a04476a8d8e07a931496d6",
  "masterdata": [],
  "name": "kony.ui.ListBox",
  "parent": "flxContent",
  "pf": "userwidgetmodel",
  "selectedkeys": null,
  "selectedkeyvalue": null,
  "selectedkeyvalues": null,
  "size": 18,
  "viewconfig": {
    "toggleViewConfig": {
      "viewStyle": 0
    }
  },
  "viewtype": 0,
  "wType": "ListBox",
  "zindex": 2
}