{
  "@class": "com.kony.gen.viz.model.component.KVizUserWidget",
  "DNDConfig": null,
  "__markedForDelete__": true,
  "__parentReadjusting__": false,
  "_bottom_": {
    "type": "string",
    "value": ""
  },
  "_children_": [],
  "_height_": {
    "type": "string",
    "value": "110px"
  },
  "_left_": {
    "type": "string",
    "value": "0%"
  },
  "_margin_": [
    0,
    0,
    0,
    0
  ],
  "_orientation_": 1,
  "_padding_": [
    0,
    0,
    0,
    0
  ],
  "_percent_": true,
  "_render_": true,
  "_skin_": "s4b3bfcb27c14526bcdce6dec3972d8d",
  "_top_": {
    "type": "string",
    "value": "20dp"
  },
  "_width_": {
    "type": "string",
    "value": "100%"
  },
  "areflexpropsreferenced": false,
  "autogrowmode": 0,
  "canUpdateUI": true,
  "centery": {
    "type": "string",
    "value": ""
  },
  "clipbounds": true,
  "containerweight": 0,
  "dataDiffs": {
    "btnCancel": {
      "__events__": {},
      "__info__": {
        "kuid": "d5bd1c2bcca14fc193947d9746200d19",
        "srcKUID": "fe63955edbd24a4ea6b8cae6b9dc4e9d",
        "wType": "Button"
      },
      "left": {
        "Default": {
          "type": "string",
          "value": "30.75%"
        }
      },
      "right": {
        "Default": {
          "type": "string",
          "value": ""
        }
      },
      "width": {
        "Default": {
          "type": "string",
          "value": "21.42%"
        }
      }
    },
    "btnConfirm": {
      "__events__": {},
      "__info__": {
        "kuid": "ff6236d646b0453dbf1d03be3e64c021",
        "srcKUID": "fce03529e50d441ea6385939a861c275",
        "wType": "Button"
      },
      "left": {
        "Default": {
          "type": "string",
          "value": "76.08%"
        }
      },
      "width": {
        "Default": {
          "type": "string",
          "value": "21.42%"
        }
      }
    },
    "btnModify": {
      "__events__": {},
      "__info__": {
        "kuid": "eee9c5115dd345948883fde9d40a7500",
        "srcKUID": "b0db2b5c6b0b4deb89afff129dc620f7",
        "wType": "Button"
      },
      "left": {
        "Default": {
          "type": "string",
          "value": "53.42%"
        }
      },
      "width": {
        "Default": {
          "type": "string",
          "value": "21.42%"
        }
      }
    },
    "confirmButtons": {
      "__events__": {},
      "__info__": {
        "isRoot": true,
        "kuid": "c8a9b04e8f4a4f949d61ff49ccdefff4",
        "srcKUID": "ddfb5a99e80b4d01b3e3abf4c1af4adc",
        "wType": "FlexContainer"
      },
      "autogrowMode": 0,
      "bottom": {
        "Default": {
          "type": "string",
          "value": ""
        }
      },
      "centerY": {
        "Default": {
          "type": "string",
          "value": ""
        }
      },
      "height": {
        "Default": {
          "type": "string",
          "value": "110px"
        }
      },
      "left": {
        "Default": {
          "type": "string",
          "value": "0%"
        }
      },
      "top": {
        "Default": {
          "type": "string",
          "value": "20dp"
        }
      },
      "zIndex": {
        "Default": 1
      }
    },
    "flxHorizontalLine": {
      "__events__": {},
      "__info__": {
        "kuid": "d4755adee65e4d059baa4d0670f16bda",
        "srcKUID": "ac533aa67f084f63ae00d6834110ffa8",
        "wType": "FlexContainer"
      }
    }
  },
  "id": "confirmButtons",
  "info": null,
  "isdatareferenced": false,
  "isvisible": true,
  "kuid": "fc779fd4abea48fbb5638b6f5baf28dc",
  "layouttype": 2,
  "masterType": 0,
  "name": "kony.ui.UserWidgetInstance",
  "parent": "flxMain",
  "pf": "userwidgetmodel",
  "snaptogrid": true,
  "sourceUserWidget": "ddfb5a99e80b4d01b3e3abf4c1af4adc",
  "wType": "UserWidgetInstance",
  "zindex": 1
}