{
  "@class": "com.kony.gen.viz.model.component.KVizButton",
  "DNDConfig": null,
  "__parentReadjusting__": false,
  "_height_": {
    "type": "string",
    "value": "50dp"
  },
  "_left_": {
    "type": "string",
    "value": "5%"
  },
  "_margin_": [
    6,
    6,
    6,
    6
  ],
  "_padding_": [
    0,
    0,
    0,
    0
  ],
  "_skin_": "s53801c8e61d470e99e0141cbf6403eb",
  "_text_": "CANCEL",
  "_top_": {
    "type": "string",
    "value": "20dp"
  },
  "_width_": {
    "type": "string",
    "value": "43.25%"
  },
  "canUpdateUI": true,
  "containerweight": 100,
  "contentalignment": 5,
  "desktopweb": {
    "psp": {
      "hoverSkin": "sba91fb5e9774521856508ab3e21943d"
    }
  },
  "disabledSkins": {
    "focusSkin": "sf44d06ca8224832827ea7fdff757013"
  },
  "displaytext": true,
  "id": "btnSetSecurityQuestionsCancel",
  "info": null,
  "isvisible": true,
  "kuid": "c33107e968a34e43962ce0e0814e096c",
  "name": "kony.ui.Button",
  "parent": "flxEditSecuritySettingsButtons",
  "pf": "userwidgetmodel",
  "wType": "Button",
  "zindex": 1,
  "tooltip": "Cancel"
}