{
  "DNDConfig": null,
  "__markedForDelete__": true,
  "__parentReadjusting__": false,
  "_height_": {
    "type": "string",
    "value": "130px"
  },
  "_left_": {
    "type": "string",
    "value": "0dp"
  },
  "_margin_": [
    0,
    0,
    0,
    0
  ],
  "_orientation_": 6,
  "_padding_": [
    0,
    0,
    0,
    0
  ],
  "_percent_": true,
  "_skin_": "s12e9117552b4e45a2f5f2631b232fc5",
  "_top_": {
    "type": "string",
    "value": "20px"
  },
  "_width_": {
    "type": "string",
    "value": "85%"
  },
  "allboxes": [],
  "autogrowmode": 0,
  "canUpdateUI": true,
  "centerx": {
    "type": "string",
    "value": "50%"
  },
  "children": [
    "flxPasswordRules",
    "lblPleaseNote",
    "flxRule1",
    "flxRule2"
  ],
  "clipbounds": true,
  "containerweight": 100,
  "enablescrolling": true,
  "id": "flxRulesSecurityQuestions",
  "info": null,
  "isvisible": true,
  "kuid": "f250a83724754f78ac274e1cc0ed3b45",
  "layouttype": 4,
  "name": "kony.ui.FlexContainer",
  "parent": "flxScrollContainerSetSecurityQuestions",
  "pf": "userwidgetmodel",
  "snapgridsize": 10,
  "snaptogrid": true,
  "wType": "FlexContainer",
  "widgetalignment": 1,
  "zindex": 1
}