{
  "@class": "com.kony.gen.viz.model.component.KVizButton",
  "DNDConfig": null,
  "__parentReadjusting__": false,
  "_height_": {
    "type": "string",
    "value": "50dp"
  },
  "_margin_": [
    6,
    6,
    6,
    6
  ],
  "_padding_": [
    0,
    0,
    0,
    0
  ],
  "_right_": {
    "type": "string",
    "value": "510dp"
  },
  "_skin_": "s83729feaa224e359d660d5af05c4bac",
  "_text_": "BACK",
  "_width_": {
    "type": "string",
    "value": "220dp"
  },
  "canUpdateUI": true,
  "centery": {
    "type": "string",
    "value": "50%"
  },
  "containerweight": 100,
  "contentalignment": 5,
  "desktopweb": {
    "psp": {
      "hoverSkin": "s83729feaa224e359d660d5af05c4bac"
    }
  },
  "disabledSkins": {
    "blockedUISkin": "s1400c825f384a46b15a0f8d6829ecef",
    "focusSkin": "sf44d06ca8224832827ea7fdff757013"
  },
  "displaytext": true,
  "focusskin": null,
  "id": "btnBack",
  "info": null,
  "isvisible": true,
  "kuid": "b80ac8ac4f0d48148c4a02d07c1eca1a",
  "name": "kony.ui.Button",
  "parent": "flxStep2Buttons",
  "pf": "userwidgetmodel",
  "tooltip": "Back",
  "wType": "Button",
  "zindex": 1,
  "texti18n": "i18n.ProfileManagement.BACK"
}