{
  "@class": "com.kony.gen.viz.model.component.KVizListBox",
  "DNDConfig": null,
  "__parentReadjusting__": false,
  "_height_": {
    "type": "string",
    "value": "40dp"
  },
  "_left_": {
    "type": "string",
    "value": "30dp"
  },
  "_margin_": [
    0,
    0,
    0,
    0
  ],
  "_padding_": [
    2,
    0,
    0,
    0
  ],
  "_skin_": "sbaba22b80b348e6a9f536af0ad26b53",
  "_top_": {
    "type": "string",
    "value": "40dp"
  },
  "_width_": {
    "type": "string",
    "value": "45.16%"
  },
  "canUpdateUI": true,
  "containerweight": 100,
  "contentalignment": 4,
  "context": {
    "channel": "desktop",
    "formID": "uwaf02d7feb5bf4321896d56e24a377888",
    "platform": "desktopweb",
    "templateType": "userwidgets",
    "topLevelBox": null
  },
  "desktopweb": {
    "psp": {
      "hoverSkin": "sba5012deddd4a46a4ba30a09e9df91b"
    }
  },
  "focusskin": "sba5012deddd4a46a4ba30a09e9df91b",
  "groupcells": false,
  "id": "lbxCountry",
  "info": null,
  "isvisible": true,
  "kiosk": {
    "psp": {
      "placeholder": "Select country"
    }
  },
  "kuid": "e3c2cd220139405b8547b8ec817b515c",
  "masterdata": [],
  "name": "kony.ui.ListBox",
  "paddingLocked": false,
  "paddinginpixel": false,
  "parent": "flxCountry",
  "pf": "userwidgetmodel",
  "selectedkeys": null,
  "selectedkeyvalue": null,
  "selectedkeyvalues": null,
  "size": 18,
  "viewconfig": {
    "toggleViewConfig": {
      "viewStyle": 0
    }
  },
  "viewtype": 0,
  "wType": "ListBox",
  "zindex": 1
}