{
  "@class": "com.kony.gen.viz.model.component.KVizTextBox2",
  "DNDConfig": null,
  "__parentReadjusting__": false,
  "_height_": {
    "type": "string",
    "value": "40dp"
  },
  "_left_": {
    "type": "string",
    "value": "30dp"
  },
  "_margin_": [
    0,
    0,
    0,
    0
  ],
  "_padding_": [
    15,
    0,
    0,
    0
  ],
  "_placeholder_": "Enter reason for transfer",
  "_skin_": "sbad3c0dbd09447ea3f81eebcfc69002",
  "_text_": "",
  "_top_": {
    "type": "string",
    "value": "40dp"
  },
  "_width_": {
    "type": "string",
    "value": "45.16%"
  },
  "autocapitalize": "none",
  "autocomplete": false,
  "autocorrect": false,
  "autofilter": false,
  "canUpdateUI": true,
  "containerheight": "",
  "containerheightmode": 1,
  "containerweight": 100,
  "contentalignment": 4,
  "desktopweb": {
    "padding": [
      15,
      0,
      0,
      0
    ],
    "paddingInPixel": true
  },
  "id": "tbxReason",
  "info": null,
  "isvisible": true,
  "keyboardtype": "A",
  "kuid": "jfb4874b9a944d8a8840eb7c7a90d8a9",
  "mode": "A",
  "name": "kony.ui.TextBox2",
  "paddinginpixel": false,
  "parent": "flxReason",
  "pf": "userwidgetmodel",
  "securetextentry": false,
  "textinputmode": "A",
  "tooltip": "",
  "viewtype": "default",
  "wType": "TextField",
  "zindex": 1
}