{
  "@class": "com.kony.gen.viz.model.component.KVizButton",
  "DNDConfig": null,
  "__markedForDelete__": true,
  "__parentReadjusting__": false,
  "_height_": {
    "type": "string",
    "value": "50dp"
  },
  "_left_": {
    "type": "string",
    "value": "0dp"
  },
  "_margin_": [
    6,
    6,
    6,
    6
  ],
  "_padding_": [
    2,
    0,
    2,
    0
  ],
  "_skin_": "s9b4ba5be35543529855497a4f1488f8",
  "_text_": "ALL",
  "_top_": {
    "type": "string",
    "value": "0dp"
  },
  "_width_": {
    "type": "ref",
    "value": "preferred"
  },
  "canUpdateUI": true,
  "containerweight": 100,
  "contentalignment": 5,
  "displaytext": true,
  "focusskin": "s9b4ba5be35543529855497a4f1488f8",
  "id": "btnTab1",
  "info": null,
  "isvisible": true,
  "kuid": "hf15ce5f85284c9285551b5a26015b18",
  "name": "kony.ui.Button",
  "paddinginpixel": false,
  "parent": "tabs",
  "pf": "userwidgetmodel",
  "wType": "Button",
  "zindex": 1
}