{
  "@class": "com.kony.gen.viz.model.component.KVizButton",
  "DNDConfig": null,
  "__parentReadjusting__": false,
  "_height_": {
    "type": "ref",
    "value": "preferred"
  },
  "_left_": {
    "type": "string",
    "value": "0dp"
  },
  "_margin_": [
    6,
    6,
    6,
    6
  ],
  "_padding_": [
    0,
    0,
    0,
    0
  ],
  "_skin_": "s82771fb0d3040339aab7fd2e47af223",
  "_text_": "PAY BILL",
  "_top_": {
    "type": "string",
    "value": "0dp"
  },
  "_width_": {
    "type": "ref",
    "value": "preferred"
  },
  "canUpdateUI": true,
  "centery": {
    "type": "string",
    "value": "50%"
  },
  "containerId": true,
  "containerweight": 100,
  "contentalignment": 4,
  "disabledSkins": {
    "focusSkin": "sf44d06ca8224832827ea7fdff757013"
  },
  "displaytext": true,
  "id": "btnPayBill",
  "ide_onClick": "AS_Button_a487e1aab1ec4f00bad5b68d0b1f1f2d",
  "info": null,
  "isvisible": false,
  "kuid": "da494d5ad46749909601b14b6078ec22",
  "name": "kony.ui.Button",
  "parent": "flxAmount",
  "pf": "segBillPayAllPayees",
  "tooltip": "Pay Bill",
  "wType": "Button",
  "zindex": 1
}