{
  "@class": "com.kony.gen.viz.model.component.KVizDateField",
  "DNDConfig": null,
  "Image": "calender_small.png",
  "__id": "segBillPayAllPayees_calSendOn",
  "__input": "calSendOn",
  "__parentReadjusting__": false,
  "_data_": null,
  "_date_": "16/5/2018",
  "_height_": {
    "type": "string",
    "value": "100%"
  },
  "_left_": {
    "type": "string",
    "value": "0dp"
  },
  "_margin_": [
    0,
    0,
    0,
    0
  ],
  "_padding_": [
    0,
    0,
    0,
    0
  ],
  "_right_": {
    "type": "string",
    "value": "0dp"
  },
  "_skin_": "s309f86f067941bbb828e53b34e06a77",
  "_top_": {
    "type": "string",
    "value": "0dp"
  },
  "_width_": {
    "type": "string",
    "value": "125dp"
  },
  "advview": "default",
  "calendaricon": "calender_small.png",
  "canUpdateUI": true,
  "containerId": true,
  "containerweight": 100,
  "contentalignment": 5,
  "datecomponents": [
    16,
    5,
    2018,
    0,
    0,
    0
  ],
  "dateeditable": true,
  "dateformat": "dd/MM/yyyy",
  "datesGroup": [],
  "datesState": 0,
  "day": 16,
  "daytextalignmentincell": 5,
  "displayedMonths": [
    5,
    2018
  ],
  "entereddate": [
    16,
    5,
    2018,
    0,
    0,
    0
  ],
  "format": "dd/MM/yyyy",
  "formatteddate": "16/05/2018",
  "hidedaysheader": false,
  "hidemonthsheader": false,
  "hour": 0,
  "id": "calSendOn",
  "info": null,
  "iscustomlayout": false,
  "isvisible": true,
  "kiosk": {
    "render": false
  },
  "kuid": "d0a7e4d3e2ad49dc94e8ba8f329b0044",
  "minutes": 0,
  "month": 5,
  "monthsinrow": 3,
  "name": "kony.ui.Calendar",
  "navigatorAlert": "Invalid Selection",
  "noofmonths": 1,
  "pagedate": "/2018",
  "parent": "flxStartDate",
  "pf": "segBillPayAllPayees",
  "popupHeight": "auto",
  "popupWidth": "auto",
  "retaincontentalignment": false,
  "retainflexpositionproperties": false,
  "seconds": 0,
  "selectdate": "//2018",
  "startDay": 0,
  "viewtype": "default",
  "wType": "Calendar",
  "watchos": {
    "render": false
  },
  "widgetalignment": 5,
  "widths": [
    "14.2857%;",
    "14.2857%;",
    "14.2857%;",
    "14.2857%;",
    "14.2857%;",
    "14.2857%;",
    "14.2857%;"
  ],
  "windows10": {
    "render": false
  },
  "winphone10": {
    "render": false
  },
  "year": 2018,
  "zindex": 1
}