{
  "DNDConfig": null,
  "_height_": {
    "type": "string",
    "value": "70dp"
  },
  "_margin_": [
    0,
    0,
    0,
    0
  ],
  "_orientation_": 6,
  "_padding_": [
    0,
    0,
    0,
    0
  ],
  "_percent_": true,
  "_skin_": "se2c51e2a5574dcc8bc00a48bc7649ca",
  "allboxes": [],
  "autogrowmode": 0,
  "canUpdateUI": true,
  "children": [
    "flxBillPayAllPayeesWrapper",
    "lblSeparator"
  ],
  "clipbounds": true,
  "containerId": true,
  "containerweight": 100,
  "controllerInfo": {
    "default": {
      "channel": "desktop",
      "name": "flxBillPayAllPayeesController"
    }
  },
  "enablescrolling": true,
  "id": "flxBillPayAllPayees",
  "info": null,
  "isTemplate": true,
  "isvisible": true,
  "kuid": "a6b79b1364184eeeab51fd4a12e21541",
  "layouttype": 2,
  "name": "kony.ui.FlexContainer",
  "parent": "segBillPayAllPayees",
  "pf": "segBillPayAllPayees",
  "snapgridsize": 10,
  "snaptogrid": true,
  "wType": "FlexContainer",
  "widgetalignment": 1
}