{
  "DNDConfig": null,
  "__parentReadjusting__": false,
  "_height_": {
    "type": "string",
    "value": "220dp"
  },
  "_left_": {
    "type": "string",
    "value": "408dp"
  },
  "_margin_": [
    0,
    0,
    0,
    0
  ],
  "_orientation_": 6,
  "_padding_": [
    0,
    0,
    0,
    0
  ],
  "_percent_": true,
  "_skin_": "s24c92fc23b14f5484b693ee9b8a9b35",
  "_top_": {
    "type": "string",
    "value": "2dp"
  },
  "_width_": {
    "type": "string",
    "value": "100%"
  },
  "allboxes": [],
  "canUpdateUI": true,
  "children": [
    "lblfromAccountNumber",
    "lblBillId",
    "lblPayeeId"
  ],
  "clipbounds": true,
  "containerId": true,
  "containerweight": 100,
  "enablescrolling": true,
  "id": "flxHidden",
  "info": null,
  "isvisible": false,
  "kuid": "b3fcf6271ac744958ed2cbfd976fec19",
  "layouttype": 2,
  "name": "kony.ui.FlexContainer",
  "parent": "flxWrapper",
  "pf": "segBillPayAllPayees",
  "snapgridsize": 10,
  "snaptogrid": true,
  "wType": "FlexContainer",
  "widgetalignment": 1,
  "zindex": 1
}