{
  "BusinessControllerConfig": {
    "BusinessControllerClass": "FeedbackModule/BusinessControllers/BusinessController",
    "CommandHandler": [
      {
        "CommandHandler": "FeedbackModule/BusinessControllers/createFeedback_CommandHandler",
        "CommandId": "com.kony.feedback.createUserFeedback"
      }
    ]
  },
  "Forms": {
    "desktop": {
      "frmCustomerFeedback": {
        "Controller": "FeedbackModule/frmCustomerFeedbackController",
        "ControllerExtensions": [
          "frmCustomerFeedbackController_Extn"
        ],
        "FormController": "kony.mvc.MDAFormController",
        "FormName": "FeedbackModule/frmCustomerFeedback",
        "friendlyName": "frmCustomerFeedback"
      }
    }
  },
  "ModuleName": "FeedbackModule",
  "PresentationControllerConfig": {
    "Default": {
      "PresentationControllerClass": "FeedbackModule/PresentationControllers/PresentationController",
      "PresentationExtensions": [
        "TopBarModule/PresentationControllers/PresentationController",
        "SideMenuModule/PresentationControllers/PresentationController"
      ]
    }
  }
}