{
  "@class": "com.kony.gen.viz.model.component.KVizButton",
  "DNDConfig": null,
  "__parentReadjusting__": false,
  "_height_": {
    "type": "string",
    "value": "50dp"
  },
  "_left_": {
    "type": "string",
    "value": "37.83%"
  },
  "_margin_": [
    6,
    6,
    6,
    6
  ],
  "_padding_": [
    0,
    0,
    0,
    0
  ],
  "_skin_": "s1f8024e78cb40ff8c9569d6c33b94c9",
  "_text_": "NO THANKS",
  "_top_": {
    "type": "string",
    "value": "30px"
  },
  "_width_": {
    "type": "string",
    "value": "28.97%"
  },
  "canUpdateUI": true,
  "containerweight": 100,
  "contentalignment": 5,
  "disabledSkins": {
    "focusSkin": "s30cdf4f9a6c4bbcb797e45d11425d8e"
  },
  "displaytext": true,
  "id": "btnNoThanks",
  "info": null,
  "isvisible": true,
  "kuid": "f11cc6cd1abe41a3a3cae09f6d020d2c",
  "name": "kony.ui.Button",
  "parent": "flxButtons",
  "pf": "userwidgetmodel",
  "wType": "Button",
  "zindex": 2
}