{
  "DNDConfig": null,
  "__parentReadjusting__": false,
  "_height_": {
    "type": "string",
    "value": "70px"
  },
  "_left_": {
    "type": "string",
    "value": "3.77%"
  },
  "_margin_": [
    0,
    0,
    0,
    0
  ],
  "_orientation_": 6,
  "_padding_": [
    0,
    0,
    0,
    0
  ],
  "_percent_": true,
  "_skin_": "s2a410da95484e0babd96658f735e736",
  "_top_": {
    "type": "string",
    "value": "30px"
  },
  "_width_": {
    "type": "string",
    "value": "92.44%"
  },
  "allboxes": [],
  "autogrowmode": 0,
  "canUpdateUI": true,
  "children": [
    "imgError",
    "txtMessage"
  ],
  "clipbounds": true,
  "containerweight": 100,
  "enablescrolling": true,
  "id": "flxMessage",
  "info": null,
  "isvisible": true,
  "kuid": "ee8b510679364d168fb4d47acdf990b7",
  "layouttype": 3,
  "name": "kony.ui.FlexContainer",
  "parent": "flxDetails",
  "pf": "userwidgetmodel",
  "snapgridsize": 10,
  "snaptogrid": true,
  "wType": "FlexContainer",
  "widgetalignment": 1,
  "zindex": 1
}