{
  "@class": "com.kony.gen.viz.model.component.KVizButton",
  "DNDConfig": null,
  "__parentReadjusting__": false,
  "_height_": {
    "type": "ref",
    "value": "preferred"
  },
  "_left_": {
    "type": "string",
    "value": "0dp"
  },
  "_margin_": [
    6,
    6,
    6,
    6
  ],
  "_padding_": [
    0,
    0,
    0,
    0
  ],
  "_skin_": "s82771fb0d3040339aab7fd2e47af223",
  "_text_": "DELETE BILLER",
  "_top_": {
    "type": "string",
    "value": "10dp"
  },
  "_width_": {
    "type": "string",
    "value": "80%"
  },
  "canUpdateUI": true,
  "containerId": true,
  "containerweight": 100,
  "contentalignment": 4,
  "disabledSkins": {
    "focusSkin": "sf44d06ca8224832827ea7fdff757013"
  },
  "displaytext": true,
  "id": "btnDeleteBiller",
  "ide_onClick": "AS_Button_j20e91923a28407fab5bcb22545b0f06",
  "info": null,
  "isvisible": true,
  "kuid": "c679f09ad3b5464a914aaa0d9a07951d",
  "name": "kony.ui.Button",
  "parent": "flxActions",
  "pf": "segBillPayManagePayeesSelected",
  "tooltip": "DELETE BILLER",
  "wType": "Button",
  "zindex": 1,
  "desktopweb": {
    "psp": {
      "hoverSkin": "sd36babbd8f6461f8b492698ab830d13"
    }
  }
}