{
  "@class": "com.kony.gen.viz.model.component.KVizButton",
  "DNDConfig": null,
  "__parentReadjusting__": false,
  "_height_": {
    "type": "string",
    "value": "50dp"
  },
  "_margin_": [
    6,
    6,
    6,
    6
  ],
  "_padding_": [
    0,
    0,
    0,
    0
  ],
  "_right_": {
    "type": "string",
    "value": "300dp"
  },
  "_skin_": "s83729feaa224e359d660d5af05c4bac",
  "_text_": "CANCEL",
  "_top_": {
    "type": "string",
    "value": "0dp"
  },
  "_width_": {
    "type": "string",
    "value": "260dp"
  },
  "canUpdateUI": true,
  "containerId": true,
  "containerweight": 100,
  "contentalignment": 5,
  "desktopweb": {
    "psp": {}
  },
  "disabledSkins": {
    "focusSkin": "sf44d06ca8224832827ea7fdff757013",
    "hoverSkin": "s1c4c020aa7f43459616c0dae48798af"
  },
  "displaytext": true,
  "id": "btnCancel",
  "ide_onClick": "AS_Button_h3557a44a5e84cab935df574868ea442",
  "info": null,
  "isvisible": true,
  "kuid": "b0f0920ef4794cadb93f6a5b8575f3e1",
  "name": "kony.ui.Button",
  "parent": "flxSaveCancelAction",
  "pf": "segBillPayManagePayeesEdit",
  "tooltip": "CANCEL",
  "wType": "Button",
  "zindex": 1
}