{
  "@class": "com.kony.gen.viz.model.component.KVizButton",
  "DNDConfig": null,
  "__markedForDelete__": true,
  "__parentReadjusting__": false,
  "_height_": {
    "type": "string",
    "value": "25dp"
  },
  "_margin_": [
    6,
    6,
    6,
    6
  ],
  "_padding_": [
    0,
    0,
    0,
    0
  ],
  "_right_": {
    "type": "string",
    "value": "10%"
  },
  "_skin_": "sc6cdb14f47b4dc4a58713707ce0c2c4",
  "_text_": "Button",
  "_top_": {
    "type": "string",
    "value": "0px"
  },
  "_width_": {
    "type": "string",
    "value": "36dp"
  },
  "canUpdateUI": true,
  "centery": {
    "type": "string",
    "value": "50%"
  },
  "containerId": true,
  "containerweight": 100,
  "contentalignment": 5,
  "disabledSkins": {
    "focusSkin": "sf44d06ca8224832827ea7fdff757013"
  },
  "displaytext": true,
  "id": "btnEbill",
  "ide_onClick": "AS_Button_be20dde773fa4252b4b0b29b0b117568",
  "info": null,
  "isvisible": false,
  "kuid": "i2974c9707cc49008bba075bef1f5fb2",
  "name": "kony.ui.Button",
  "parent": "flxPayee",
  "pf": "segBillPayManagePayeesEdit",
  "texti18n": "i18n.billPay.EBill",
  "tooltip": "eBill",
  "wType": "Button",
  "zindex": 5
}