{
  "@class": "com.kony.gen.viz.model.component.KVizImage2",
  "DNDConfig": null,
  "__parentReadjusting__": false,
  "_base64_": null,
  "_height_": {
    "type": "string",
    "value": "20dp"
  },
  "_left_": {
    "type": "string",
    "value": "2%"
  },
  "_margin_": [
    0,
    0,
    0,
    0
  ],
  "_padding_": [
    0,
    0,
    0,
    0
  ],
  "_skin_": "s78a5f26c9f14cec9ebed1bb46098f80",
  "_src_": "checked_box.png",
  "_top_": {
    "type": "string",
    "value": "0dp"
  },
  "_width_": {
    "type": "string",
    "value": "20dp"
  },
  "canUpdateUI": true,
  "containerId": true,
  "containerweight": 100,
  "context": {
    "channel": "desktop",
    "platform": "desktopweb",
    "templateType": "segments",
    "topLevelBox": null
  },
  "id": "imgcheckbox4",
  "imagescalemode": 1,
  "info": null,
  "isvisible": true,
  "kuid": "b27c7cb5aaca44cf90085ff41bb5e482",
  "name": "kony.ui.Image2",
  "parent": "flxcheckbox4",
  "pf": "segSurveyQuestion2",
  "srcType": 1,
  "wType": "Image",
  "widgetalignment": 5,
  "zindex": 5
}