{
  "@class": "com.kony.gen.viz.model.component.KVizLabel",
  "DNDConfig": null,
  "__parentReadjusting__": false,
  "_height_": {
    "type": "string",
    "value": "20dp"
  },
  "_left_": {
    "type": "string",
    "value": "5.70%"
  },
  "_margin_": [
    1,
    1,
    1,
    1
  ],
  "_padding_": [
    0,
    0,
    0,
    0
  ],
  "_skin_": "s10e8b1e874b43f8b3545d6a1375c8b5",
  "_text_": "Label",
  "_top_": {
    "type": "string",
    "value": "1dp"
  },
  "_width_": {
    "type": "ref",
    "value": "preferred"
  },
  "_wrapping_": 2,
  "android": {
    "textStyle": {
      "letterSpacing": 0,
      "strikeThrough": false
    }
  },
  "canUpdateUI": true,
  "containerId": true,
  "containerweight": 100,
  "contentalignment": 4,
  "id": "lblBillpay",
  "info": null,
  "ipad": {
    "psp": {
      "wrapping": 2
    }
  },
  "iphone": {
    "psp": {
      "wrapping": 2
    }
  },
  "isvisible": true,
  "kuid": "gc76566059d4420492ea2c3de546bb6d",
  "name": "kony.ui.Label",
  "parent": "flxbillpay",
  "pf": "segSurveyQuestion2",
  "texti18n": "i18n.CustomerFeedback.BillPay",
  "tooltip": "",
  "wType": "Label",
  "zindex": 1
}