{
  "DNDConfig": null,
  "__markedForDelete__": true,
  "__parentReadjusting__": false,
  "_height_": {
    "type": "string",
    "value": "640dp"
  },
  "_left_": {
    "type": "string",
    "value": "10dp"
  },
  "_margin_": [
    0,
    0,
    0,
    0
  ],
  "_orientation_": 6,
  "_padding_": [
    0,
    0,
    0,
    0
  ],
  "_percent_": true,
  "_skin_": "s96c1ab807354105a41f9db9f44c1d73",
  "_top_": {
    "type": "string",
    "value": "10dp"
  },
  "_width_": {
    "type": "string",
    "value": "64.80%"
  },
  "allboxes": [],
  "autogrowmode": 0,
  "canUpdateUI": true,
  "children": [
    "CommonHeaderTransactions",
    "flxSort",
    "flxSegmentContainer"
  ],
  "clipbounds": true,
  "containerweight": 100,
  "enablescrolling": true,
  "id": "flxTransactionsHeader",
  "info": null,
  "isvisible": true,
  "kuid": "dad38b34673c4837b229a8b708599967",
  "layouttype": 4,
  "name": "kony.ui.FlexContainer",
  "parent": "flxTransactions",
  "pf": "userwidgetmodel",
  "snapgridsize": 10,
  "snaptogrid": true,
  "wType": "FlexContainer",
  "widgetalignment": 1,
  "zindex": 5
}