{
  "@class": "com.kony.gen.viz.model.component.KVizLabel",
  "DNDConfig": null,
  "__parentReadjusting__": false,
  "_height_": {
    "type": "ref",
    "value": "preferred"
  },
  "_left_": {
    "type": "string",
    "value": "44dp"
  },
  "_margin_": [
    1,
    1,
    1,
    1
  ],
  "_padding_": [
    0,
    0,
    0,
    0
  ],
  "_skin_": "s27a7d44dab149ffb71bc2798c5997b2",
  "_text_": "",
  "_top_": {
    "type": "string",
    "value": "11dp"
  },
  "_width_": {
    "type": "string",
    "value": "90%"
  },
  "_wrapping_": 2,
  "android": {
    "textStyle": {
      "letterSpacing": 0,
      "strikeThrough": false
    }
  },
  "canUpdateUI": true,
  "containerweight": 100,
  "contentalignment": 4,
  "id": "lblMySpendingUncategorized",
  "info": null,
  "ipad": {
    "psp": {
      "wrapping": 2
    }
  },
  "iphone": {
    "psp": {
      "wrapping": 2
    }
  },
  "isvisible": true,
  "kuid": "e605f51f7c0d41e1a1e74ee04d7110de",
  "name": "kony.ui.Label",
  "parent": "flxNoTransactionsMySpendingUncategorized",
  "pf": "userwidgetmodel",
  "texti18n": "i18n.PFM.MonthlySpendingDataUnavailable",
  "tooltip": "",
  "wType": "Label",
  "zindex": 1
}