{
  "@class": "com.kony.gen.viz.model.component.KVizRichText",
  "DNDConfig": null,
  "__markedForDelete__": true,
  "__parentReadjusting__": false,
  "_height_": {
    "type": "ref",
    "value": "preferred"
  },
  "_left_": {
    "type": "string",
    "value": "9.6%"
  },
  "_margin_": [
    0,
    0,
    0,
    0
  ],
  "_padding_": [
    0,
    0,
    0,
    0
  ],
  "_skin_": "s54053171dc84722aadd410cfc137838",
  "_text_": "RichText",
  "_top_": {
    "type": "string",
    "value": "41dp"
  },
  "_width_": {
    "type": "string",
    "value": "87.94%"
  },
  "_wrapping_": 2,
  "canUpdateUI": true,
  "containerweight": 100,
  "contentalignment": 4,
  "id": "rtxNoPaymentMessage",
  "info": null,
  "isvisible": true,
  "kuid": "bd51a54a3e7445aca34014ae14cebd38",
  "name": "kony.ui.RichText",
  "parent": "flxNoTransactions",
  "pf": "userwidgetmodel",
  "texti18n": "i18n.PFM.NoUncategorizedTransactions",
  "wType": "RichText",
  "widgetalignment": 5,
  "zindex": 1
}