{
  "@class": "com.kony.gen.viz.model.component.KVizLabel",
  "DNDConfig": null,
  "__parentReadjusting__": false,
  "_height_": {
    "type": "ref",
    "value": "preferred"
  },
  "_left_": {
    "type": "string",
    "value": "7.45%"
  },
  "_margin_": [
    1,
    1,
    1,
    1
  ],
  "_padding_": [
    0,
    0,
    3,
    0
  ],
  "_skin_": "sacd76e4942f44e0859c88c1cb9f762d",
  "_text_": "Label",
  "_top_": {
    "type": "string",
    "value": "2.82%"
  },
  "_width_": {
    "type": "ref",
    "value": "preferred"
  },
  "_wrapping_": 2,
  "android": {
    "textStyle": {
      "letterSpacing": 0,
      "strikeThrough": false
    }
  },
  "canUpdateUI": true,
  "containerweight": 100,
  "contentalignment": 4,
  "id": "lblDOB",
  "info": null,
  "ipad": {
    "psp": {
      "wrapping": 2
    }
  },
  "iphone": {
    "psp": {
      "wrapping": 2
    }
  },
  "isvisible": true,
  "kuid": "270b018baada4d95a632ea43b28d2d4f",
  "name": "kony.ui.Label",
  "paddinginpixel": false,
  "parent": "letsverifyP",
  "pf": "userwidgetmodel",
  "texti18n": "i18n.common.DOB",
  "tooltip": "",
  "wType": "Label",
  "zindex": 1
}