{
  "@class": "com.kony.gen.viz.model.component.KVizListBox",
  "DNDConfig": null,
  "__parentReadjusting__": false,
  "_height_": {
    "type": "string",
    "value": "100%"
  },
  "_left_": {
    "type": "string",
    "value": "7.14%"
  },
  "_margin_": [
    0,
    0,
    0,
    0
  ],
  "_padding_": [
    3,
    0,
    0,
    0
  ],
  "_skin_": "sbaba22b80b348e6a9f536af0ad26b53",
  "_top_": {
    "type": "string",
    "value": "0dp"
  },
  "_width_": {
    "type": "string",
    "value": "26%"
  },
  "canUpdateUI": true,
  "containerweight": 100,
  "contentalignment": 5,
  "context": {
    "channel": "mobile",
    "formID": "uw7448d699411c4243bf5ca65134574a4c",
    "platform": "spaip",
    "templateType": "userwidgets",
    "topLevelBox": null
  },
  "groupcells": false,
  "id": "lbxDate",
  "info": null,
  "isvisible": true,
  "kiosk": {
    "psp": {
      "placeholder": "Date"
    }
  },
  "kuid": "92ab8f1bd3c14f93beece940c8e29e22",
  "masterdata": [],
  "name": "kony.ui.ListBox",
  "paddinginpixel": false,
  "parent": "flxDOB",
  "pf": "userwidgetmodel",
  "selectedkeys": null,
  "selectedkeyvalue": null,
  "selectedkeyvalues": null,
  "size": 18,
  "viewconfig": {
    "toggleViewConfig": {
      "viewStyle": 0
    }
  },
  "viewtype": 0,
  "wType": "ListBox",
  "zindex": 1
}