{
  "DNDConfig": null,
  "_height_": {
    "type": "string",
    "value": "42px"
  },
  "_margin_": [
    0,
    0,
    0,
    0
  ],
  "_orientation_": 6,
  "_padding_": [
    0,
    0,
    0,
    0
  ],
  "_percent_": true,
  "_skin_": "s5a5f3773b7b479c935720bf16debe36",
  "allboxes": [],
  "autogrowmode": 0,
  "canUpdateUI": true,
  "children": [
    "lblHeader"
  ],
  "clipbounds": true,
  "containerId": true,
  "containerweight": 100,
  "controllerInfo": {
    "default": {
      "channel": "desktop",
      "name": "flxHelpHeader0ad6e38c0e9894fController"
    }
  },
  "enablescrolling": true,
  "id": "flxHelpHeader0ad6e38c0e9894f",
  "info": null,
  "isTemplate": true,
  "isvisible": true,
  "kuid": "b72ca0e6d7a147708bd398ea46498bea",
  "layouttype": 2,
  "name": "kony.ui.FlexContainer",
  "parent": "segAccountsHeader",
  "pf": "segAccountsHeader",
  "snapgridsize": 10,
  "snaptogrid": true,
  "wType": "FlexContainer",
  "widgetalignment": 1
}