{
  "@class": "com.kony.gen.viz.model.component.KVizImage2",
  "DNDConfig": null,
  "__parentReadjusting__": false,
  "_base64_": null,
  "_height_": {
    "type": "string",
    "value": "16dp"
  },
  "_left_": {
    "type": "string",
    "value": "2%"
  },
  "_margin_": [
    0,
    0,
    0,
    0
  ],
  "_padding_": [
    0,
    0,
    0,
    0
  ],
  "_skin_": "sd4ba83edeff48cea40f71b225631b9a",
  "_src_": "info_grey.png",
  "_width_": {
    "type": "string",
    "value": "16dp"
  },
  "canUpdateUI": true,
  "centery": {
    "type": "string",
    "value": "50%"
  },
  "containerweight": 100,
  "context": {
    "channel": "desktop",
    "formID": "uwu2e90d44812b4638840ff2391e675637",
    "platform": "desktopweb",
    "templateType": "userwidgets",
    "topLevelBox": null
  },
  "id": "imginfo",
  "imagescalemode": 1,
  "imagewhiledownloading": "img_transparent.png",
  "info": null,
  "invokedProperty": "src",
  "isvisible": false,
  "kuid": "i3df224dafe34fcaa329162509cc60d0",
  "name": "kony.ui.Image2",
  "parent": "flxaddkonyaccnt",
  "pf": "userwidgetmodel",
  "srcType": 1,
  "tooltip": "Info",
  "wType": "Image",
  "widgetalignment": 5,
  "zindex": 1
}