{
  "@class": "com.kony.gen.viz.model.container.KVizSegment2",
  "DNDConfig": null,
  "__parentReadjusting__": false,
  "_data_": [
    {},
    {},
    {}
  ],
  "_height_": {
    "type": "string",
    "value": "100dp"
  },
  "_indicator_": "none",
  "_left_": {
    "type": "string",
    "value": "0dp"
  },
  "_margin_": [
    0,
    0,
    0,
    0
  ],
  "_orientation_": 2,
  "_padding_": [
    0,
    0,
    0,
    0
  ],
  "_top_": {
    "type": "string",
    "value": "0dp"
  },
  "_width_": {
    "type": "string",
    "value": "100%"
  },
  "autogrowmode": 0,
  "canUpdateUI": true,
  "containerweight": 100,
  "counter": "00",
  "desktop": {
    "_data_": [
      {
        "lblAccountName": {
          "@class": "com.viz.ide.model.segment.SimpleTextSegmentData",
          "text": ""
        },
        "lblAvailableBalance": {
          "@class": "com.viz.ide.model.segment.SimpleTextSegmentData",
          "text": ""
        },
        "lblBalance": {
          "@class": "com.viz.ide.model.segment.SimpleTextSegmentData",
          "text": ""
        },
        "lblLeft": {
          "@class": "com.viz.ide.model.segment.SimpleTextSegmentData",
          "text": ""
        }
      }
    ],
    "rowTemplateId": "c7aa84ca925840c899755ec4a0b18ec0",
    "rowtemplate": "flxPaymentLayoutContainer",
    "widgetdatamap": {
      "flxLeft": "flxLeft",
      "flxPaymentLayoutContainer": "flxPaymentLayoutContainer",
      "lblAccountName": "lblAccountName",
      "lblAvailableBalance": "lblAvailableBalance",
      "lblBalance": "lblBalance",
      "lblLeft": "lblLeft"
    }
  },
  "disabledSkins": {
    "rowFocusSkin": "s9f69e977910472eb44c62ae28c41fe1",
    "rowSkin": "s76fb4e49333463f8a635becc90bd04f"
  },
  "focusedindex": null,
  "focuseditem": null,
  "groupcells": false,
  "hasSections": false,
  "id": "segMypaymentAccounts",
  "info": null,
  "ipad": {
    "psp": {
      "indicator": "rowselect"
    }
  },
  "iphone": {
    "psp": {
      "indicator": "rowselect"
    }
  },
  "isvisible": false,
  "kuid": "d4d179c63565434e86e99d1446b5c0e6",
  "masterdata": {},
  "name": "kony.ui.SegmentedUI2",
  "needpageindicator": true,
  "pageoffdotimage": "pageoffdot.png",
  "pageondotimage": "pageondot.png",
  "paginationconfig": {
    "position": "bottom"
  },
  "parent": "mypaymentAccounts",
  "pf": "userwidgetmodel",
  "retainselection": false,
  "rowcounter": 0,
  "rowtemplate": null,
  "screenlevelwidget": false,
  "seccounter": 0,
  "sectionheaderskin": "sdc4ff4ed1584272be2ae69045dfb29d",
  "selectedRows": null,
  "selectedState": false,
  "selectedindex": null,
  "selectedindices": null,
  "selecteditems": null,
  "selectedsectionindex": 0,
  "selectionbehavior": "default",
  "separatorcolor": "e3e3e300",
  "separatorrequired": true,
  "separatorthickness": 1,
  "showscrollbars": false,
  "viewtype": "tableview",
  "wType": "Segment",
  "widgetalignment": 5,
  "widgetdatamap": {
    "flxLeft": "flxLeft",
    "flxPaymentLayoutContainer": "flxPaymentLayoutContainer",
    "lblAccountName": "lblAccountName",
    "lblAvailableBalance": "lblAvailableBalance",
    "lblBalance": "lblBalance",
    "lblLeft": "lblLeft"
  },
  "widgetskin": "s995d9d0c8b6496a81bcb66d6642f557",
  "zindex": 1
}