{
  "@class": "com.kony.gen.viz.model.container.KVizScrollFlexForm",
  "DNDConfig": null,
  "_margin_": [
    0,
    0,
    0,
    0
  ],
  "_orientation_": 1,
  "_padding_": [
    0,
    0,
    0,
    0
  ],
  "_percent_": true,
  "_skin_": "s7204077b0944689be58354a2c5a162f",
  "_title_": null,
  "addWidgetsdone": false,
  "allboxes": [],
  "canUpdateUI": true,
  "canvasWidth": 794,
  "children": [
    "flxMyCardsCollapsed"
  ],
  "containerId": true,
  "containerweight": 100,
  "currentLocale": "default",
  "device": "desktopweb",
  "displayorientation": 3,
  "enabledforidletimeout": false,
  "id": "segMyCardsCollapsed",
  "info": null,
  "initdone": false,
  "inputaccessoryviewtype": 4,
  "intransitionconfig": {
    "formTransition": "None"
  },
  "isvisible": true,
  "kuid": "haa20c718ef34166bd1ff8b50dc1bcef",
  "name": "kony.ui.Form2",
  "needappmenu": true,
  "outtransitionconfig": {
    "formTransition": "None"
  },
  "paddinginpixel": false,
  "platform": "desktopweb",
  "prevDevice": "desktopweb",
  "prevPlatform": "desktopweb",
  "retainscrollposition": false,
  "shellCSS": "desktop",
  "titleBarSkin": "s2e24ee0a8ca46b089d8a5bea8a1a32e",
  "titlebar": true,
  "type": 3,
  "wType": "Form"
}