{
  "@class": "com.kony.gen.viz.model.component.KVizDateField",
  "DNDConfig": null,
  "Image": "calbtn.png",
  "__parentReadjusting__": false,
  "_data_": null,
  "_date_": "25/2/2018",
  "_height_": {
    "type": "string",
    "value": "40dp"
  },
  "_left_": {
    "type": "string",
    "value": "12dp"
  },
  "_margin_": [
    0,
    0,
    0,
    0
  ],
  "_padding_": [
    0,
    0,
    0,
    0
  ],
  "_skin_": "s309f86f067941bbb828e53b34e06a77",
  "_top_": {
    "type": "string",
    "value": "0dp"
  },
  "_width_": {
    "type": "string",
    "value": "220dp"
  },
  "advview": "default",
  "calendaricon": "calbtn.png",
  "canUpdateUI": true,
  "containerweight": 100,
  "contentalignment": 5,
  "datecomponents": [
    25,
    2,
    2018,
    0,
    0,
    0
  ],
  "dateeditable": true,
  "dateformat": "dd/MM/yyyy",
  "day": 25,
  "daytextalignmentincell": 5,
  "format": "dd/MM/yyyy",
  "formatteddate": "25/02/2018",
  "hidedaysheader": false,
  "hidemonthsheader": false,
  "hour": 0,
  "id": "calFrom1",
  "info": null,
  "isvisible": true,
  "kuid": "f0efa41cb0a944d5a9a8e4453a4b604e",
  "minutes": 0,
  "month": 2,
  "name": "kony.ui.Calendar",
  "noofmonths": 1,
  "pagedate": "/2018",
  "parent": "flxDuration1",
  "pf": "userwidgetmodel",
  "seconds": 0,
  "selectdate": "//2018",
  "viewtype": "default",
  "wType": "Calendar",
  "widgetalignment": 5,
  "year": 2018,
  "zindex": 1
}