{
  "@class": "com.kony.gen.viz.model.component.KVizUserWidget",
  "DNDConfig": null,
  "__parentReadjusting__": false,
  "_children_": [],
  "_height_": {
    "type": "ref",
    "value": "preferred"
  },
  "_left_": {
    "type": "string",
    "value": "0dp"
  },
  "_margin_": [
    0,
    0,
    0,
    0
  ],
  "_orientation_": 1,
  "_padding_": [
    0,
    0,
    0,
    0
  ],
  "_percent_": true,
  "_render_": true,
  "_skin_": "s24c92fc23b14f5484b693ee9b8a9b35",
  "_top_": {
    "type": "string",
    "value": "0dp"
  },
  "_width_": {
    "type": "string",
    "value": "100%"
  },
  "areflexpropsreferenced": false,
  "autogrowmode": 1,
  "canUpdateUI": true,
  "clipbounds": true,
  "containerweight": 0,
  "dataDiffs": {
    "flxWarningText1": {
      "__events__": {},
      "__info__": {
        "kuid": "ca9ed4dec17a4cbd910e9aa8ff17fed9",
        "srcKUID": "bbb2e3800f7e42f68533aaed3833652e",
        "wType": "FlexContainer"
      }
    },
    "flxWarningText2": {
      "__events__": {},
      "__info__": {
        "kuid": "ia24b2afa4084fc8a4c918f359016c66",
        "srcKUID": "d71ed13f1b3f4248b1268f78ce90d324",
        "wType": "FlexContainer"
      }
    },
    "flxWarningText3": {
      "__events__": {},
      "__info__": {
        "kuid": "ge51b62940c24a39af4ccd856040297c",
        "srcKUID": "aabd6eacb4504f98b51235a430b8573e",
        "wType": "FlexContainer"
      }
    },
    "flxWarningText4": {
      "__events__": {},
      "__info__": {
        "kuid": "jdb5ab3b09b34c4cacae97163f26a064",
        "srcKUID": "fec5e7fd43bb4a80bc187d3416a5f3f4",
        "wType": "FlexContainer"
      }
    },
    "flxWarnings": {
      "__events__": {},
      "__info__": {
        "kuid": "ab24b716460d462081bc1b8d3bbab94a",
        "srcKUID": "e564702bf2424a2cab808de213bb23fa",
        "wType": "FlexContainer"
      }
    },
    "imgDot1": {
      "__events__": {},
      "__info__": {
        "kuid": "hb650db89dcc4a66a8c63c15d57b13d6",
        "srcKUID": "af67ea94da9d4fde827503835b93721a",
        "wType": "Image"
      }
    },
    "imgDot2": {
      "__events__": {},
      "__info__": {
        "kuid": "aac8ea896d1447b2b79c1937a6ce6d0b",
        "srcKUID": "a89c764e898248b09b0c8ac5eaa7f0b5",
        "wType": "Image"
      }
    },
    "imgDot3": {
      "__events__": {},
      "__info__": {
        "kuid": "e480c41937794a4596f736dd2e887d39",
        "srcKUID": "a682ebb70bf44250bd9c1ddfb1f9dd95",
        "wType": "Image"
      }
    },
    "imgDot4": {
      "__events__": {},
      "__info__": {
        "kuid": "cb5c16dc6cb54c5f93ed0ebd670b6c69",
        "srcKUID": "ja7024321ff94832af8b062fe3fa98dc",
        "wType": "Image"
      }
    },
    "imgWarning": {
      "__events__": {},
      "__info__": {
        "kuid": "e85998e230df4811be16bc8b5b91ebf2",
        "srcKUID": "gebecb07c28d453ba96f0a77f078dd28",
        "wType": "Image"
      }
    },
    "rtxWarningText1": {
      "__events__": {},
      "__info__": {
        "kuid": "ea6717da82574bc787a0b27b83315e75",
        "srcKUID": "aac6f59618d448c2902e1c34e037cbb3",
        "wType": "RichText"
      },
      "i18n_text": "i18n.manageCards.CardWillBeBlockedForAnyTransactionWithImmediateEffect."
    },
    "rtxWarningText2": {
      "__events__": {},
      "__info__": {
        "kuid": "d83cd41c90ae4b8fad17a4731234ddf5",
        "srcKUID": "c9283dfe15ec48659d96297aa5df972d",
        "wType": "RichText"
      },
      "i18n_text": "i18n.manageCards.BankWillComeBackToYouWithFurtherReplacement."
    },
    "rtxWarningText3": {
      "__events__": {},
      "__info__": {
        "kuid": "d5678c2fcefb47b6bb9f9138abaaa629",
        "srcKUID": "dd7e1028fa5a43ac819e9bbda29584da",
        "wType": "RichText"
      },
      "i18n_text": "i18n.manageCards.OptionallyYouCanGoAndOptForACardReplacemnt."
    },
    "rtxWarningText4": {
      "__events__": {},
      "__info__": {
        "kuid": "f10fe5506d2244bfafd3fa4ff8c2a24b",
        "srcKUID": "g328e1d4914d4d9ebe6c0b216b91fcd4",
        "wType": "RichText"
      },
      "i18n_text": null
    },
    "warning": {
      "__events__": {},
      "__info__": {
        "isRoot": true,
        "kuid": "g8f471fb327d411d8d9718a4563ca1e2",
        "srcKUID": "b38f9d961cce4cfb84cf7b704b7bb413",
        "wType": "FlexContainer"
      }
    }
  },
  "id": "Copywarning0ba67056c374842",
  "info": null,
  "isdatareferenced": false,
  "isvisible": true,
  "kuid": "cdeb2296c5d9404fb09baa566bcadee9",
  "layouttype": 2,
  "masterType": 0,
  "name": "kony.ui.UserWidgetInstance",
  "parent": "CopyflxWarning0ha1824a2c6f54d",
  "pf": "userwidgetmodel",
  "snaptogrid": true,
  "sourceUserWidget": "b38f9d961cce4cfb84cf7b704b7bb413",
  "wType": "UserWidgetInstance"
}