{
  "DNDConfig": null,
  "__parentReadjusting__": false,
  "_height_": {
    "type": "ref",
    "value": "preferred"
  },
  "_left_": {
    "type": "string",
    "value": "0%"
  },
  "_margin_": [
    0,
    0,
    0,
    0
  ],
  "_orientation_": 6,
  "_padding_": [
    0,
    0,
    0,
    0
  ],
  "_percent_": true,
  "_skin_": "scbd4cac3526468089bf3013adff0549",
  "_top_": {
    "type": "string",
    "value": "16dp"
  },
  "_width_": {
    "type": "string",
    "value": "100%"
  },
  "allboxes": [],
  "autogrowmode": 1,
  "canUpdateUI": true,
  "children": [
    "lblAddress"
  ],
  "clipbounds": true,
  "containerweight": 100,
  "enablescrolling": true,
  "focusskin": "s3308b031b8e4da8a5965b769840b865",
  "id": "flxAddresslabel",
  "info": null,
  "isvisible": true,
  "kuid": "aba36b40a94044cc8aa40f8c8b369e07",
  "layouttype": 2,
  "name": "kony.ui.FlexContainer",
  "parent": "flxCardReplacement",
  "pf": "userwidgetmodel",
  "snapgridsize": 10,
  "snaptogrid": true,
  "wType": "FlexContainer",
  "widgetalignment": 1,
  "zindex": 1
}