{
  "DNDConfig": null,
  "__parentReadjusting__": false,
  "_height_": {
    "type": "string",
    "value": "40dp"
  },
  "_left_": {
    "type": "string",
    "value": "0%"
  },
  "_margin_": [
    0,
    0,
    0,
    0
  ],
  "_orientation_": 6,
  "_padding_": [
    0,
    0,
    0,
    0
  ],
  "_percent_": true,
  "_skin_": "s2f1930e68bc4b258cfe821e7f0122cd",
  "_top_": {
    "type": "string",
    "value": "6dp"
  },
  "_width_": {
    "type": "string",
    "value": "300dp"
  },
  "allboxes": [],
  "autogrowmode": 0,
  "canUpdateUI": true,
  "children": [
    "tbxCurrentPIN",
    "imgCurrentPIN"
  ],
  "clipbounds": true,
  "containerweight": 100,
  "enablescrolling": true,
  "focusskin": "s3308b031b8e4da8a5965b769840b865",
  "id": "flxCurrentPIN",
  "info": null,
  "isvisible": true,
  "kuid": "e458a66c60f8451a8166e72524b081e9",
  "layouttype": 2,
  "name": "kony.ui.FlexContainer",
  "parent": "flxConfirmPIN",
  "pf": "userwidgetmodel",
  "snapgridsize": 10,
  "snaptogrid": true,
  "wType": "FlexContainer",
  "widgetalignment": 1,
  "zindex": 1
}