{
  "@class": "com.kony.gen.viz.model.component.KVizLabel",
  "DNDConfig": null,
  "__parentReadjusting__": false,
  "_height_": {
    "type": "ref",
    "value": "preferred"
  },
  "_left_": {
    "type": "string",
    "value": "158px"
  },
  "_margin_": [
    1,
    1,
    1,
    1
  ],
  "_padding_": [
    0,
    0,
    0,
    0
  ],
  "_skin_": "se56454286124fef97a46e7249497088",
  "_text_": "In which city were you born?",
  "_top_": {
    "type": "string",
    "value": "20dp"
  },
  "_width_": {
    "type": "ref",
    "value": "preferred"
  },
  "_wrapping_": 2,
  "android": {
    "textStyle": {
      "letterSpacing": 0,
      "strikeThrough": false
    }
  },
  "canUpdateUI": true,
  "containerweight": 100,
  "contentalignment": 4,
  "id": "lblAnswerSecurityQuestion1",
  "info": null,
  "ipad": {
    "psp": {
      "wrapping": 2
    }
  },
  "iphone": {
    "psp": {
      "wrapping": 2
    }
  },
  "isvisible": true,
  "kuid": "a09c0eadae0345379842f143d6a557cd",
  "name": "kony.ui.Label",
  "parent": "flxAnswerSecurityQuestionsQASet1",
  "pf": "userwidgetmodel",
  "texti18n": "i18n.ProfileManagement.InWhichCitywereYouBorn",
  "tooltip": "",
  "wType": "Label",
  "zindex": 1
}