{
  "@class": "com.kony.gen.viz.model.component.KVizLabel",
  "DNDConfig": null,
  "__parentReadjusting__": false,
  "_height_": {
    "type": "ref",
    "value": "preferred"
  },
  "_left_": {
    "type": "string",
    "value": "0%"
  },
  "_margin_": [
    1,
    1,
    1,
    1
  ],
  "_padding_": [
    0,
    0,
    0,
    0
  ],
  "_skin_": "se56454286124fef97a46e7249497088",
  "_text_": "Please provide your answers...",
  "_top_": {
    "type": "string",
    "value": "16dp"
  },
  "_width_": {
    "type": "ref",
    "value": "preferred"
  },
  "_wrapping_": 2,
  "android": {
    "textStyle": {
      "letterSpacing": 0,
      "strikeThrough": false
    }
  },
  "canUpdateUI": true,
  "containerweight": 100,
  "contentalignment": 4,
  "id": "lblAnswerSecurityQuestionsAndAnswersSet",
  "info": null,
  "ipad": {
    "psp": {
      "wrapping": 2
    }
  },
  "iphone": {
    "psp": {
      "wrapping": 2
    }
  },
  "isvisible": true,
  "kuid": "ge0f2d479a6e4d179473698775b567b9",
  "name": "kony.ui.Label",
  "parent": "flxAnswerSecurityQuestionSet",
  "pf": "userwidgetmodel",
  "texti18n": "i18n.ProfileManagement.PleaseprovideYourAnswers",
  "tooltip": "",
  "wType": "Label",
  "zindex": 1
}