{
  "@class": "com.kony.gen.viz.model.component.KVizListBox",
  "DNDConfig": null,
  "__parentReadjusting__": false,
  "_height_": {
    "type": "string",
    "value": "40dp"
  },
  "_left_": {
    "type": "string",
    "value": "0dp"
  },
  "_margin_": [
    0,
    0,
    0,
    0
  ],
  "_padding_": [
    2,
    0,
    0,
    0
  ],
  "_skin_": "sfae4459590b4f39af6863186b5f2646",
  "_top_": {
    "type": "string",
    "value": "6px"
  },
  "_width_": {
    "type": "string",
    "value": "300px"
  },
  "canUpdateUI": true,
  "containerweight": 100,
  "contentalignment": 4,
  "context": {
    "channel": "desktop",
    "formID": "uwue8085f3e16547ec803249dc5ad1eb52",
    "platform": "desktopweb",
    "templateType": "userwidgets",
    "topLevelBox": null
  },
  "desktopweb": {
    "psp": {}
  },
  "disabledSkins": {
    "hoverSkin": "s69fd192f56d451ab70e72bcc5c73afd"
  },
  "groupcells": false,
  "id": "lbxReason2",
  "info": null,
  "isvisible": true,
  "kuid": "d86165acd6e7452f9c1321a440cb1fed",
  "masterdata": [],
  "name": "kony.ui.ListBox",
  "parent": "flxCardReplacement",
  "pf": "userwidgetmodel",
  "selectedkey": null,
  "selectedkeys": null,
  "selectedkeyvalue": null,
  "selectedkeyvalues": null,
  "size": 18,
  "viewconfig": {
    "toggleViewConfig": {
      "viewStyle": 0
    }
  },
  "viewtype": 0,
  "wType": "ListBox",
  "zindex": 1
}