{
  "@class": "com.kony.gen.viz.model.component.KVizTextBox2",
  "DNDConfig": null,
  "__parentReadjusting__": false,
  "_height_": {
    "type": "string",
    "value": "100%"
  },
  "_left_": {
    "type": "string",
    "value": "0%"
  },
  "_margin_": [
    0,
    0,
    0,
    0
  ],
  "_padding_": [
    2,
    0,
    2,
    0
  ],
  "_placeholder_": "Optional",
  "_right_": {
    "type": "string",
    "value": "0%"
  },
  "_skin_": "s3122d3c61c54427b7fb82c81b9d58b1",
  "_text_": "",
  "_width_": {
    "type": "string",
    "value": "100%"
  },
  "autocapitalize": "none",
  "autocomplete": false,
  "autocorrect": false,
  "autofilter": false,
  "canUpdateUI": true,
  "centery": {
    "type": "string",
    "value": "50%"
  },
  "containerheight": "",
  "containerheightmode": 1,
  "containerweight": 100,
  "contentalignment": 4,
  "focusskin": "s5472ba1ee3d49d8b87dfd39d43a0055",
  "id": "tbxNote",
  "info": null,
  "isvisible": true,
  "keyboardtype": "A",
  "kuid": "fcbdd794411844f5a58fe8709c1ca9e8",
  "mode": "A",
  "name": "kony.ui.TextBox2",
  "paddinginpixel": false,
  "parent": "flxNote",
  "pf": "userwidgetmodel",
  "securetextentry": false,
  "textinputmode": "A",
  "viewtype": "default",
  "wType": "TextField",
  "zindex": 1
}