{
  "@class": "com.kony.gen.viz.model.component.KVizUserWidget",
  "DNDConfig": null,
  "__parentReadjusting__": false,
  "_children_": [],
  "_height_": {
    "type": "ref",
    "value": "preferred"
  },
  "_left_": {
    "type": "string",
    "value": "0dp"
  },
  "_margin_": [
    0,
    0,
    0,
    0
  ],
  "_orientation_": 1,
  "_padding_": [
    0,
    0,
    0,
    0
  ],
  "_percent_": true,
  "_render_": true,
  "_skin_": "s24c92fc23b14f5484b693ee9b8a9b35",
  "_top_": {
    "type": "string",
    "value": "0dp"
  },
  "_width_": {
    "type": "string",
    "value": "100%"
  },
  "areflexpropsreferenced": false,
  "autogrowmode": 1,
  "canUpdateUI": true,
  "clipbounds": true,
  "containerweight": 0,
  "dataDiffs": {
    "flxWarningText1": {
      "__events__": {},
      "__info__": {
        "kuid": "c5f52f08df0642c5bc0a0d164295518b",
        "srcKUID": "bbb2e3800f7e42f68533aaed3833652e",
        "wType": "FlexContainer"
      }
    },
    "flxWarningText2": {
      "__events__": {},
      "__info__": {
        "kuid": "f67712846bc2446592a93fbe233fa0f1",
        "srcKUID": "d71ed13f1b3f4248b1268f78ce90d324",
        "wType": "FlexContainer"
      }
    },
    "flxWarningText3": {
      "__events__": {},
      "__info__": {
        "kuid": "gc6f6a29d31444d79aa1c67b737ba584",
        "srcKUID": "aabd6eacb4504f98b51235a430b8573e",
        "wType": "FlexContainer"
      }
    },
    "flxWarningText4": {
      "__events__": {},
      "__info__": {
        "kuid": "cd66b7bc82524588a753e117c90ab8da",
        "srcKUID": "fec5e7fd43bb4a80bc187d3416a5f3f4",
        "wType": "FlexContainer"
      }
    },
    "flxWarnings": {
      "__events__": {},
      "__info__": {
        "kuid": "i5ec913a24d24386acb78824713696d2",
        "srcKUID": "e564702bf2424a2cab808de213bb23fa",
        "wType": "FlexContainer"
      }
    },
    "imgDot1": {
      "__events__": {},
      "__info__": {
        "kuid": "dfe9f92c41834c63bdc773fdcb0a3afd",
        "srcKUID": "af67ea94da9d4fde827503835b93721a",
        "wType": "Image"
      }
    },
    "imgDot2": {
      "__events__": {},
      "__info__": {
        "kuid": "d3d724dffe094229aa99df0814636c52",
        "srcKUID": "a89c764e898248b09b0c8ac5eaa7f0b5",
        "wType": "Image"
      }
    },
    "imgDot3": {
      "__events__": {},
      "__info__": {
        "kuid": "f6fca464f2bc4e8199357ad367c45860",
        "srcKUID": "a682ebb70bf44250bd9c1ddfb1f9dd95",
        "wType": "Image"
      }
    },
    "imgDot4": {
      "__events__": {},
      "__info__": {
        "kuid": "aa959ed749294de09e62350ff7793271",
        "srcKUID": "ja7024321ff94832af8b062fe3fa98dc",
        "wType": "Image"
      }
    },
    "imgWarning": {
      "__events__": {},
      "__info__": {
        "kuid": "b356d4239337417a8670a493854ac54d",
        "srcKUID": "gebecb07c28d453ba96f0a77f078dd28",
        "wType": "Image"
      }
    },
    "rtxWarningText1": {
      "__events__": {},
      "__info__": {
        "kuid": "j3e20462cbae4030abcfb3fd26c28bac",
        "srcKUID": "aac6f59618d448c2902e1c34e037cbb3",
        "wType": "RichText"
      },
      "i18n_text": "i18n.manageCards.CardWillBeBlockedForAnyTransactionWithImmediateEffect."
    },
    "rtxWarningText2": {
      "__events__": {},
      "__info__": {
        "kuid": "d6966dfb4cfb477490357421befb9b50",
        "srcKUID": "c9283dfe15ec48659d96297aa5df972d",
        "wType": "RichText"
      },
      "i18n_text": "i18n.manageCards.BankWillComeBackToYouWithFurtherReplacement."
    },
    "rtxWarningText3": {
      "__events__": {},
      "__info__": {
        "kuid": "e10bd2e46fd54f18abe30d034160bae0",
        "srcKUID": "dd7e1028fa5a43ac819e9bbda29584da",
        "wType": "RichText"
      },
      "i18n_text": "i18n.manageCards.OptionallyYouCanGoAndOptForACardReplacemnt."
    },
    "rtxWarningText4": {
      "__events__": {},
      "__info__": {
        "kuid": "i0e109bd0de842a681ca5fb942105aa7",
        "srcKUID": "g328e1d4914d4d9ebe6c0b216b91fcd4",
        "wType": "RichText"
      },
      "i18n_text": null
    },
    "warning": {
      "__events__": {},
      "__info__": {
        "isRoot": true,
        "kuid": "gc18064277664276b02664d135ece32d",
        "srcKUID": "b38f9d961cce4cfb84cf7b704b7bb413",
        "wType": "FlexContainer"
      }
    }
  },
  "id": "warning",
  "info": null,
  "isdatareferenced": false,
  "isvisible": true,
  "kuid": "edcdf87d7f1a4f96872864a54193f60f",
  "layouttype": 2,
  "masterType": 0,
  "name": "kony.ui.UserWidgetInstance",
  "parent": "flxWarning",
  "pf": "userwidgetmodel",
  "snaptogrid": true,
  "sourceUserWidget": "b38f9d961cce4cfb84cf7b704b7bb413",
  "wType": "UserWidgetInstance"
}