{
  "@class": "com.kony.gen.viz.model.component.KVizLabel",
  "DNDConfig": null,
  "__parentReadjusting__": false,
  "_height_": {
    "type": "ref",
    "value": "preferred"
  },
  "_left_": {
    "type": "string",
    "value": "17dp"
  },
  "_margin_": [
    1,
    1,
    1,
    1
  ],
  "_padding_": [
    0,
    0,
    1,
    0
  ],
  "_skin_": "se56454286124fef97a46e7249497088",
  "_text_": "100687435,100687435,100687435,100687435,100687435",
  "_top_": {
    "type": "string",
    "value": "11dp"
  },
  "_width_": {
    "type": "string",
    "value": "90%"
  },
  "_wrapping_": 2,
  "android": {
    "textStyle": {
      "letterSpacing": 0,
      "strikeThrough": false
    }
  },
  "canUpdateUI": true,
  "containerId": true,
  "containerweight": 100,
  "contentalignment": 4,
  "id": "lblReferenceNo",
  "info": null,
  "ipad": {
    "psp": {
      "wrapping": 2
    }
  },
  "iphone": {
    "psp": {
      "wrapping": 2
    }
  },
  "isvisible": true,
  "kuid": "b2052b69e2714624ae907180b2bf67a6",
  "name": "kony.ui.Label",
  "paddinginpixel": false,
  "parent": "flxReferenceNo",
  "pf": "segDisputedtransactionsUnSelected",
  "tooltip": "Category",
  "wType": "Label",
  "zindex": 1
}