{
  "@class": "com.kony.gen.viz.model.component.KVizButton",
  "DNDConfig": null,
  "__parentReadjusting__": false,
  "_height_": {
    "type": "string",
    "value": "50dp"
  },
  "_margin_": [
    6,
    6,
    6,
    6
  ],
  "_padding_": [
    0,
    0,
    0,
    0
  ],
  "_right_": {
    "type": "string",
    "value": "296dp"
  },
  "_skin_": "s83729feaa224e359d660d5af05c4bac",
  "_text_": "",
  "_top_": {
    "type": "string",
    "value": "30dp"
  },
  "_width_": {
    "type": "string",
    "value": "260dp"
  },
  "canUpdateUI": true,
  "containerweight": 100,
  "contentalignment": 5,
  "desktopweb": {
    "psp": {
      "hoverSkin": "s83729feaa224e359d660d5af05c4bac"
    }
  },
  "disabledSkins": {
    "focusSkin": "sf44d06ca8224832827ea7fdff757013"
  },
  "displaytext": true,
  "id": "btnCancel",
  "info": null,
  "isvisible": true,
  "kuid": "ef73a6f374c148c08474f0bbd8ec18df",
  "name": "kony.ui.Button",
  "parent": "flxActions",
  "pf": "userwidgetmodel",
  "texti18n": "i18n.transfers.Cancel",
  "tooltip": "Cancel",
  "wType": "Button",
  "zindex": 2
}