{
  "DNDConfig": null,
  "__parentReadjusting__": false,
  "_height_": {
    "type": "string",
    "value": "20dp"
  },
  "_left_": {
    "type": "string",
    "value": "2.50%"
  },
  "_margin_": [
    0,
    0,
    0,
    0
  ],
  "_orientation_": 6,
  "_padding_": [
    0,
    0,
    0,
    0
  ],
  "_percent_": true,
  "_skin_": "sd8d02531529489a8d85487257bc0ccb",
  "_top_": {
    "type": "string",
    "value": "23dp"
  },
  "_width_": {
    "type": "string",
    "value": "20dp"
  },
  "allboxes": [],
  "autogrowmode": 0,
  "canUpdateUI": true,
  "children": [
    "imgChecbox"
  ],
  "clipbounds": true,
  "containerweight": 100,
  "desktopweb": {
    "psp": {
      "hoverSkin": "s3e0ac30f9774278a868cb7c73908a76"
    }
  },
  "enablescrolling": true,
  "id": "flxCheckbox",
  "ide_onClick": "AS_FlexContainer_g9bfa004c0de4a408821523f35b963c6",
  "info": null,
  "isvisible": true,
  "kuid": "a04732d10c88404d841dfc37355e8207",
  "layouttype": 3,
  "name": "kony.ui.FlexContainer",
  "parent": "flxIAgree",
  "pf": "userwidgetmodel",
  "snapgridsize": 10,
  "snaptogrid": true,
  "wType": "FlexContainer",
  "widgetalignment": 1,
  "zindex": 2
}