{
  "@class": "com.kony.gen.viz.model.component.KVizLabel",
  "DNDConfig": null,
  "__parentReadjusting__": false,
  "_height_": {
    "type": "string",
    "value": "40px"
  },
  "_left_": {
    "type": "string",
    "value": "1%"
  },
  "_margin_": [
    1,
    1,
    1,
    1
  ],
  "_padding_": [
    0,
    0,
    0,
    0
  ],
  "_skin_": "s9739fe0569d4851a6e139a20b64dd6e",
  "_text_": "Payment guidline number four.",
  "_width_": {
    "type": "string",
    "value": "90%"
  },
  "_wrapping_": 2,
  "android": {
    "textStyle": {
      "letterSpacing": 0,
      "strikeThrough": false
    }
  },
  "canUpdateUI": true,
  "centery": {
    "type": "string",
    "value": "54%"
  },
  "containerweight": 100,
  "contentalignment": 4,
  "id": "lblIns4",
  "info": null,
  "ipad": {
    "psp": {
      "wrapping": 2
    }
  },
  "iphone": {
    "psp": {
      "wrapping": 2
    }
  },
  "isvisible": true,
  "kuid": "f500705351da4fc99d05539e71ac4934",
  "name": "kony.ui.Label",
  "parent": "flxFour",
  "pf": "userwidgetmodel",
  "texti18n": "i18n.WireTransfer.WTGuideline4",
  "tooltip": "",
  "wType": "Label",
  "zindex": 1
}