{
  "@class": "com.kony.gen.viz.model.component.KVizLabel",
  "DNDConfig": null,
  "__parentReadjusting__": false,
  "_height_": {
    "type": "ref",
    "value": "preferred"
  },
  "_left_": {
    "type": "string",
    "value": "20dp"
  },
  "_margin_": [
    1,
    1,
    1,
    1
  ],
  "_padding_": [
    0,
    0,
    0,
    0
  ],
  "_skin_": "s163439541784ce7b861453e75298b7e",
  "_text_": "Please Activate P2P payment service to send / reveive money.",
  "_width_": {
    "type": "string",
    "value": "70%"
  },
  "_wrapping_": 2,
  "android": {
    "textStyle": {
      "letterSpacing": 0,
      "strikeThrough": false
    }
  },
  "canUpdateUI": true,
  "centery": {
    "type": "string",
    "value": "50%"
  },
  "containerweight": 100,
  "contentalignment": 4,
  "id": "lblWarning",
  "info": null,
  "ipad": {
    "psp": {
      "wrapping": 2
    }
  },
  "iphone": {
    "psp": {
      "wrapping": 2
    }
  },
  "isvisible": true,
  "kuid": "b04b6bdce78e43a69e21f13553b70a8a",
  "name": "kony.ui.Label",
  "parent": "flxWarning",
  "pf": "userwidgetmodel",
  "texti18n": "i18n.WireTransfer.PleaseActivateWireTransferToSendMoney",
  "tooltip": "",
  "wType": "Label",
  "zindex": 1
}