{
  "@class": "com.kony.gen.viz.model.component.KVizLabel",
  "DNDConfig": null,
  "__parentReadjusting__": false,
  "_height_": {
    "type": "ref",
    "value": "preferred"
  },
  "_left_": {
    "type": "string",
    "value": "0dp"
  },
  "_margin_": [
    1,
    1,
    1,
    1
  ],
  "_padding_": [
    0,
    0,
    0,
    0
  ],
  "_skin_": "sffbc44a10fa4aa8bf25ca668c19c580",
  "_text_": "Head southwest on S El Camino Real toward W 4th Ave Lorem Ipsum",
  "_top_": {
    "type": "string",
    "value": "36dp"
  },
  "_width_": {
    "type": "string",
    "value": "71.64%"
  },
  "_wrapping_": 2,
  "android": {
    "textStyle": {
      "letterSpacing": 0,
      "strikeThrough": false
    }
  },
  "canUpdateUI": true,
  "containerId": true,
  "containerweight": 100,
  "contentalignment": 4,
  "id": "lblDirection",
  "info": null,
  "ipad": {
    "psp": {
      "wrapping": 2
    }
  },
  "iphone": {
    "psp": {
      "wrapping": 2
    }
  },
  "isvisible": true,
  "kuid": "a4cd075a042f45bf83fc5c95f0ede642",
  "name": "kony.ui.Label",
  "parent": "flxDirectionDetails",
  "pf": "segLocateUsDirections",
  "tooltip": "",
  "wType": "Label",
  "zindex": 1
}