{
  "@class": "com.kony.gen.viz.model.container.KVizSegment2",
  "DNDConfig": null,
  "__parentReadjusting__": false,
  "_data_": [
    {},
    {},
    {}
  ],
  "_height_": {
    "type": "ref",
    "value": "preferred"
  },
  "_indicator_": "none",
  "_left_": {
    "type": "string",
    "value": "0dp"
  },
  "_margin_": [
    0,
    0,
    0,
    0
  ],
  "_orientation_": 2,
  "_padding_": [
    0,
    0,
    0,
    0
  ],
  "_top_": {
    "type": "string",
    "value": "0dp"
  },
  "_width_": {
    "type": "string",
    "value": "100%"
  },
  "autogrowmode": 1,
  "canUpdateUI": true,
  "containerweight": 100,
  "counter": "10",
  "desktop": {
    "_data_": [],
    "rowTemplateId": "bd62770ffa4749bf9c7620f441c78f39",
    "rowtemplate": "flxAccountListItem",
    "sectionheadertemplate": "flxHelpHeader0ad6e38c0e9894f",
    "widgetdatamap": {
      "flxAccountListItem": "flxAccountListItem",
      "flxAccountListItemWrapper": "flxAccountListItemWrapper",
      "flxAccountName": "flxAccountName",
      "flxAvailableBalance": "flxAvailableBalance",
      "flxContent": "flxContent",
      "flxFavourite": "flxFavourite",
      "flxHelpHeader0ad6e38c0e9894f": "flxHelpHeader0ad6e38c0e9894f",
      "flxMenu": "flxMenu",
      "imgFavourite": "imgFavourite",
      "imgIdentifier": "imgIdentifier",
      "imgMenu": "imgMenu",
      "lblAccountName": "lblAccountName",
      "lblAccountNumber": "lblAccountNumber",
      "lblAvailableBalanceTitle": "lblAvailableBalanceTitle",
      "lblAvailableBalanceValue": "lblAvailableBalanceValue",
      "lblHeader": "lblHeader",
      "btn": "btn",
      "flxAccountNameWrapper": "flxAccountNameWrapper",
      "flxAvailableBalanceWrapper": "flxAvailableBalanceWrapper",
      "flxBankName": "flxBankName",
      "flxIdentifier": "flxIdentifier",
      "imgBankName": "imgBankName",
      "imgInfo": "imgInfo",
      "imgStarIcon": "imgStarIcon",
      "imgThreeDotIcon": "imgThreeDotIcon",
      "imgWarning": "imgWarning"
    },
    "sectionHeaderTemplateId": "gb3e652016854fbebc7015ef33a203b3"
  },
  "focusedindex": null,
  "focuseditem": null,
  "groupcells": false,
  "hasSections": true,
  "id": "segAccounts",
  "info": null,
  "ipad": {
    "psp": {
      "indicator": "rowselect"
    }
  },
  "iphone": {
    "psp": {
      "indicator": "rowselect"
    }
  },
  "isvisible": true,
  "kuid": "h0da993b03e742cfa91e8b61778aad19",
  "masterdata": {},
  "name": "kony.ui.SegmentedUI2",
  "needpageindicator": true,
  "pageoffdotimage": "pageoffdot.png",
  "pageondotimage": "pageondot.png",
  "paginationconfig": {
    "position": "bottom"
  },
  "parent": "flxAccountsSegments",
  "pf": "userwidgetmodel",
  "retainselection": false,
  "rowcounter": 0,
  "rowfocusskin": "s9f69e977910472eb44c62ae28c41fe1",
  "rowskin": "s81e45ca9be04bba9f11cf557d9d0c1e",
  "rowtemplate": "flxAccountListItem",
  "screenlevelwidget": false,
  "seccounter": 1,
  "sectionheaderskin": "sdc4ff4ed1584272be2ae69045dfb29d",
  "selectedRows": null,
  "selectedState": false,
  "selectedindex": null,
  "selectedindices": null,
  "selecteditems": null,
  "selectedsectionindex": null,
  "selectionbehavior": "default",
  "separatorrequired": false,
  "separatorthickness": 0,
  "showscrollbars": false,
  "viewtype": "tableview",
  "wType": "Segment",
  "widgetalignment": 5,
  "widgetdatamap": {
    "flxAccountListItem": "flxAccountListItem",
    "flxAccountListItemWrapper": "flxAccountListItemWrapper",
    "flxAccountName": "flxAccountName",
    "flxAvailableBalance": "flxAvailableBalance",
    "flxContent": "flxContent",
    "flxFavourite": "flxFavourite",
    "flxHelpHeader0ad6e38c0e9894f": "flxHelpHeader0ad6e38c0e9894f",
    "flxMenu": "flxMenu",
    "imgFavourite": "imgFavourite",
    "imgIdentifier": "imgIdentifier",
    "imgMenu": "imgMenu",
    "lblAccountName": "lblAccountName",
    "lblAccountNumber": "lblAccountNumber",
    "lblAvailableBalanceTitle": "lblAvailableBalanceTitle",
    "lblAvailableBalanceValue": "lblAvailableBalanceValue",
    "lblHeader": "lblHeader",
    "btn": "btn",
    "flxAccountNameWrapper": "flxAccountNameWrapper",
    "flxAvailableBalanceWrapper": "flxAvailableBalanceWrapper",
    "flxBankName": "flxBankName",
    "flxIdentifier": "flxIdentifier",
    "imgBankName": "imgBankName",
    "imgInfo": "imgInfo",
    "imgStarIcon": "imgStarIcon",
    "imgThreeDotIcon": "imgThreeDotIcon",
    "imgWarning": "imgWarning"
  },
  "zindex": 1
}