{
  "@class": "com.kony.gen.viz.model.component.KVizLabel",
  "DNDConfig": null,
  "__parentReadjusting__": false,
  "_height_": {
    "type": "string",
    "value": "86%"
  },
  "_margin_": [
    1,
    1,
    1,
    1
  ],
  "_padding_": [
    0,
    0,
    0,
    0
  ],
  "_right_": {
    "type": "string",
    "value": "33dp"
  },
  "_skin_": "s4deae8935464146a9b76d1a83663c88",
  "_text_": "Label",
  "_width_": {
    "type": "string",
    "value": "1dp"
  },
  "_wrapping_": 2,
  "android": {
    "textStyle": {
      "letterSpacing": 0,
      "strikeThrough": false
    }
  },
  "canUpdateUI": true,
  "centery": {
    "type": "string",
    "value": "50%"
  },
  "containerId": true,
  "containerweight": 100,
  "contentalignment": 4,
  "id": "lblLineTwo",
  "info": null,
  "ipad": {
    "psp": {
      "wrapping": 2
    }
  },
  "iphone": {
    "psp": {
      "wrapping": 2
    }
  },
  "isvisible": true,
  "kuid": "fd254c23a3214415a186938c2c5c5dee",
  "name": "kony.ui.Label",
  "parent": "flxCategoryList",
  "pf": "segBillPayAllPayeesSelected",
  "tooltip": "",
  "wType": "Label",
  "zindex": 1
}