{
  "@class": "com.kony.gen.viz.model.component.KVizListBox",
  "DNDConfig": null,
  "__parentReadjusting__": false,
  "_height_": {
    "type": "string",
    "value": "100%"
  },
  "_left_": {
    "type": "string",
    "value": "8%"
  },
  "_margin_": [
    0,
    0,
    0,
    0
  ],
  "_padding_": [
    2,
    0,
    0,
    0
  ],
  "_placeholder_": "Please Select",
  "_right_": {
    "type": "string",
    "value": "445dp"
  },
  "_skin_": "scace07a541f4803a7105435f0f944a9",
  "_top_": {
    "type": "string",
    "value": "0dp"
  },
  "canUpdateUI": true,
  "containerId": true,
  "containerweight": 100,
  "contentalignment": 4,
  "focusskin": "s792a550061049af82638181b3532e01",
  "groupcells": false,
  "id": "lstPayFrom",
  "info": null,
  "iscustomlayout": false,
  "isvisible": true,
  "kuid": "ec940a80056a4ac2875b74702e7922bf",
  "masterdata": [],
  "name": "kony.ui.ListBox",
  "paddinginpixel": false,
  "parent": "flxDetailRowTwoWrapper",
  "pf": "segBillPayAllPayeesSelected",
  "retaincontentalignment": false,
  "retainflexpositionproperties": false,
  "selectedkeys": null,
  "selectedkeyvalue": null,
  "selectedkeyvalues": null,
  "size": 18,
  "viewconfig": {
    "toggleViewConfig": {
      "viewStyle": 0
    }
  },
  "viewtype": 0,
  "wType": "ListBox",
  "zindex": 1
}