{
  "@class": "com.kony.gen.viz.model.component.KVizTextBox2",
  "DNDConfig": null,
  "__parentReadjusting__": false,
  "_height_": {
    "type": "string",
    "value": "100%"
  },
  "_left_": {
    "type": "string",
    "value": "0dp"
  },
  "_margin_": [
    0,
    0,
    0,
    0
  ],
  "_padding_": [
    4,
    0,
    0,
    0
  ],
  "_placeholder_": "Optional",
  "_skin_": "see5cceb37bc48a1a30aced8b8753dd0",
  "_text_": "",
  "_top_": {
    "type": "string",
    "value": "0dp"
  },
  "_width_": {
    "type": "string",
    "value": "100%"
  },
  "autocapitalize": "none",
  "autocomplete": false,
  "autocorrect": false,
  "autofilter": false,
  "canUpdateUI": true,
  "containerId": true,
  "containerheight": "",
  "containerheightmode": 1,
  "containerweight": 100,
  "contentalignment": 4,
  "id": "txtNotes",
  "info": null,
  "isvisible": true,
  "keyboardtype": "A",
  "kiosk": {
    "render": false
  },
  "kuid": "eccba021a6364be1b45a6f91c76665d4",
  "mode": "A",
  "name": "kony.ui.TextBox2",
  "parent": "flxNotesValue",
  "pf": "segBillPayAllPayeesSelected",
  "securetextentry": false,
  "textinputmode": "A",
  "viewtype": "default",
  "wType": "TextField",
  "watchos": {
    "render": false
  },
  "windows10": {
    "render": false
  },
  "winphone10": {
    "render": false
  },
  "zindex": 1
}