{
  "@class": "com.kony.gen.viz.model.component.KVizUserWidget",
  "DNDConfig": null,
  "__parentReadjusting__": false,
  "_children_": [],
  "_height_": {
    "type": "string",
    "value": "150dp"
  },
  "_left_": {
    "type": "string",
    "value": "0dp"
  },
  "_margin_": [
    0,
    0,
    0,
    0
  ],
  "_orientation_": 1,
  "_padding_": [
    0,
    0,
    0,
    0
  ],
  "_percent_": true,
  "_render_": true,
  "_skin_": "s5e4481a3c944709a3f40dd22558173a",
  "_top_": {
    "type": "string",
    "value": "0dp"
  },
  "_width_": {
    "type": "string",
    "value": "1366dp"
  },
  "areflexpropsreferenced": false,
  "autogrowmode": 0,
  "canUpdateUI": true,
  "centerx": {
    "type": "string",
    "value": "50%"
  },
  "clipbounds": true,
  "containerweight": 0,
  "dataDiffs": {
    "btnContactUs": {
      "__events__": {},
      "__info__": {
        "kuid": "he029ab47132440baed0c3847c35d37d",
        "srcKUID": "c47b0c9af1b84e63aa01af59eb52124a",
        "wType": "Button"
      }
    },
    "btnFaqs": {
      "__events__": {},
      "__info__": {
        "kuid": "i0f7b7cecbff42239f6f190b79257132",
        "srcKUID": "ced702d00bc5426892e4632faec9df5d",
        "wType": "Button"
      }
    },
    "btnLocateUs": {
      "__events__": {},
      "__info__": {
        "kuid": "gcb76c70eda847debfeec9cd0a6ce6c7",
        "srcKUID": "i52587cdcb68471f9e389671ddc5f138",
        "wType": "Button"
      }
    },
    "btnNMLS": {
      "__events__": {},
      "__info__": {
        "kuid": "d867e1dd204c4650a6b3c798c6024ede",
        "srcKUID": "dd794b8c9b8948de910093e93695d9da",
        "wType": "Button"
      }
    },
    "btnPrivacy": {
      "__events__": {},
      "__info__": {
        "kuid": "dc163e0244944d4aaae87e638fd178b4",
        "srcKUID": "c3810888a2304c409e04db4cd519b8ee",
        "wType": "Button"
      }
    },
    "btnPrivacyNote": {
      "__events__": {},
      "__info__": {
        "kuid": "aa8772813c6d4e95947fbfd27477c177",
        "srcKUID": "ffe6d34ddebe42abb2fa3fa994d8578f",
        "wType": "Button"
      }
    },
    "btnRouting": {
      "__events__": {},
      "__info__": {
        "kuid": "ad314856195c464dbf65e906025bb330",
        "srcKUID": "c0ef76fac81742ff9d56ebd42f636563",
        "wType": "Button"
      }
    },
    "btnTermsAndConditions": {
      "__events__": {},
      "__info__": {
        "kuid": "e6cda36add064b80959466b9d4e588a1",
        "srcKUID": "baf7c8f817b34b618b7e1f148f49770a",
        "wType": "Button"
      }
    },
    "customfooter": {
      "__events__": {},
      "__info__": {
        "isRoot": true,
        "kuid": "a2d53abc0b774e3a9301ce2cffb72367",
        "srcKUID": "a142e816812a4b5b80f84484dcef7232",
        "wType": "FlexContainer"
      },
      "centerX": {
        "Default": {
          "type": "string",
          "value": "50%"
        }
      },
      "isVisible": true,
      "width": {
        "Default": {
          "type": "string",
          "value": "1366dp"
        }
      },
      "zIndex": {
        "Default": 2
      }
    },
    "flxFooterMenu": {
      "__events__": {},
      "__info__": {
        "kuid": "cab651efc27d4b1880c86dae47b37695",
        "srcKUID": "e6b5bc6faf00428680c4dedfe25a0b9a",
        "wType": "FlexContainer"
      },
      "centerX": {
        "Default": {
          "type": "string",
          "value": "50%"
        }
      },
      "left": {
        "Default": {
          "type": "string",
          "value": ""
        }
      },
      "width": {
        "Default": {
          "type": "string",
          "value": "1200dp"
        }
      }
    },
    "flxVBar1": {
      "__events__": {},
      "__info__": {
        "kuid": "a7a9bde389ba41609c73100177732465",
        "srcKUID": "f31fd58a22cc496a93899a924cf2927d",
        "wType": "FlexContainer"
      }
    },
    "flxVBar2": {
      "__events__": {},
      "__info__": {
        "kuid": "b25dd7088a0b4e698321d73baabf96d7",
        "srcKUID": "j39a662286e64bbc9be78a96bb491e27",
        "wType": "FlexContainer"
      }
    },
    "flxVBar3": {
      "__events__": {},
      "__info__": {
        "kuid": "je3b2ab017a7463283749b94884e6995",
        "srcKUID": "a6990ffd77914b8e8757540cb40cad1a",
        "wType": "FlexContainer"
      }
    },
    "flxVBar4": {
      "__events__": {},
      "__info__": {
        "kuid": "ea12b7fd280d4b47a7d94ce6bd7f24b2",
        "srcKUID": "e75f96d248634147afa5b6848252df6e",
        "wType": "FlexContainer"
      }
    },
    "imgFooterIconOne": {
      "__events__": {},
      "__info__": {
        "kuid": "d6d3d416740748878cf400b1ba253aa3",
        "srcKUID": "f2305e3d65bb448e9d68f5608421f28a",
        "wType": "Image"
      }
    },
    "imgFooterIconThree": {
      "__events__": {},
      "__info__": {
        "kuid": "a33b3263edef4916a2a56d3581060d2c",
        "srcKUID": "hc27193bc4d14f24b60f03ac3c2bddb7",
        "wType": "Image"
      }
    },
    "imgFooterIconTwo": {
      "__events__": {},
      "__info__": {
        "kuid": "e172eabcd7524ca498c37f884026d7fe",
        "srcKUID": "cf67ed169e364ace9f62b5aa10dcf1d8",
        "wType": "Image"
      }
    },
    "lblCopyright": {
      "__events__": {},
      "__info__": {
        "kuid": "deb4b3deaf9b4ee5a8630dc2471b7a7f",
        "srcKUID": "a696ff4e198a4124810242908deae798",
        "wType": "Label"
      },
      "centerX": {
        "Default": {
          "type": "string",
          "value": "50%"
        }
      },
      "left": {
        "Default": {
          "type": "string",
          "value": ""
        }
      },
      "width": {
        "Default": {
          "type": "string",
          "value": "1200dp"
        }
      }
    },
    "lblImgText": {
      "__events__": {},
      "__info__": {
        "kuid": "g82cc52b335c46098fcb2559147747d2",
        "srcKUID": "c7ccba35746440ed997e9d567978ec4d",
        "wType": "Label"
      }
    }
  },
  "id": "customfooter",
  "info": null,
  "isdatareferenced": false,
  "isvisible": true,
  "kuid": "dc5ca27b531d4517a39621e4a5c46827",
  "layouttype": 2,
  "masterType": 0,
  "name": "kony.ui.UserWidgetInstance",
  "parent": "flxfootercontainer",
  "pf": "frmAddExternalAccount",
  "snaptogrid": true,
  "sourceUserWidget": "a142e816812a4b5b80f84484dcef7232",
  "wType": "UserWidgetInstance",
  "zindex": 2
}