{
  "DNDConfig": null,
  "__parentReadjusting__": false,
  "_height_": {
    "type": "ref",
    "value": "preferred"
  },
  "_left_": {
    "type": "string",
    "value": "10dp"
  },
  "_margin_": [
    0,
    0,
    0,
    0
  ],
  "_orientation_": 6,
  "_padding_": [
    0,
    0,
    0,
    0
  ],
  "_percent_": true,
  "_skin_": "sd3a991a352b4393a7ba7f7ee976b318",
  "_top_": {
    "type": "string",
    "value": "120dp"
  },
  "_width_": {
    "type": "string",
    "value": "100%"
  },
  "allboxes": [],
  "autogrowmode": 1,
  "canUpdateUI": true,
  "children": [
    "breadcrumb",
    "flxContent",
    "flxfootercontainer"
  ],
  "clipbounds": false,
  "containerweight": 100,
  "enablescrolling": true,
  "id": "flxMainContainer",
  "ide_onClick": "AS_FlexContainer_f910953ee2b540948040785353e93bfb",
  "info": null,
  "isvisible": true,
  "kuid": "hc13f97ebe22432d930b80121c01cc63",
  "layouttype": 4,
  "name": "kony.ui.FlexContainer",
  "parent": "frmAddExternalAccount",
  "pf": "frmAddExternalAccount",
  "snapgridsize": 10,
  "snaptogrid": true,
  "wType": "FlexContainer",
  "widgetalignment": 1,
  "zindex": 1
}