{
  "@class": "com.kony.gen.viz.model.component.KVizUserWidget",
  "DNDConfig": null,
  "__parentReadjusting__": false,
  "_children_": [],
  "_height_": {
    "type": "ref",
    "value": "preferred"
  },
  "_left_": {
    "type": "string",
    "value": "0dp"
  },
  "_margin_": [
    0,
    0,
    0,
    0
  ],
  "_orientation_": 1,
  "_padding_": [
    0,
    0,
    0,
    0
  ],
  "_percent_": true,
  "_render_": true,
  "_skin_": "s24c92fc23b14f5484b693ee9b8a9b35",
  "_top_": {
    "type": "string",
    "value": "0dp"
  },
  "_width_": {
    "type": "string",
    "value": "100%"
  },
  "areflexpropsreferenced": false,
  "autogrowmode": 1,
  "canUpdateUI": true,
  "clipbounds": true,
  "containerweight": 0,
  "dataDiffs": {
    "PreviouslyAddedListMod": {
      "__events__": {},
      "__info__": {
        "isRoot": true,
        "kuid": "eec522f80ae64d5a84b93516e9eb058d",
        "srcKUID": "b4885dc6795849cc8a2ee669b7955987",
        "wType": "FlexContainer"
      }
    },
    "flxaddkonyaccnt": {
      "__events__": {},
      "__info__": {
        "kuid": "gb46b0d23c6042d29202f0970f948346",
        "srcKUID": "c6916e48bfa74d4c84204f613452cb1e",
        "wType": "FlexContainer"
      },
      "top": {
        "Default": {
          "type": "string",
          "value": "20px"
        }
      }
    },
    "flxheader": {
      "__events__": {},
      "__info__": {
        "kuid": "ge6ce372412c4206ab8bcd5808b1504e",
        "srcKUID": "ff7dae9290d14c3fb3087672d9d8782b",
        "wType": "FlexContainer"
      },
      "isVisible": true
    },
    "flxinfo": {
      "__events__": {},
      "__info__": {
        "kuid": "e4b9236168a94942b8b6f7a15179e157",
        "srcKUID": "c1fdb7d084c449aea7408c8130a61f53",
        "wType": "FlexContainer"
      }
    },
    "flxmain": {
      "__events__": {},
      "__info__": {
        "kuid": "jc1014fdccac4fbdaa68850df6923007",
        "srcKUID": "hd673ba955c8473b9a5b467505a63470",
        "wType": "FlexContainer"
      }
    },
    "flxseperator": {
      "__events__": {},
      "__info__": {
        "kuid": "c65eabbf1ba84a8c97de6198ad0fbb47",
        "srcKUID": "i447511060064e3181caf419dbfe8227",
        "wType": "FlexContainer"
      },
      "isVisible": true
    },
    "imginfo": {
      "__events__": {},
      "__info__": {
        "kuid": "a782d22d40e449aea071f56cab090368",
        "srcKUID": "g5c51cc1785c4bbe8c6939b4fba0356f",
        "wType": "Image"
      }
    },
    "lbladdkonyaccnt": {
      "__events__": {},
      "__info__": {
        "kuid": "fde2e51ed07049f5804304516a900a57",
        "srcKUID": "s2a87b57d4c74bbd9330ca093b513b70",
        "wType": "Label"
      },
      "i18n_text": "i18n.transfers.addNonKonyBankAccountOCCU",
      "text": ""
    },
    "lblnonkonyaccounts": {
      "__events__": {},
      "__info__": {
        "kuid": "h20ec55ae9ea4fef95ef85dc30f2c606",
        "srcKUID": "ia4090b121f640cea3d5a997ee12bf82",
        "wType": "Label"
      },
      "i18n_text": "i18n.PayAPerson.AddRecipient",
      "text": ""
    },
    "segkonyaccounts": {
      "__events__": {},
      "__info__": {
        "kuid": "f7cbc99268084325af00563bae585cfe",
        "srcKUID": "b2e4e5faab4a44f99e3f2f2f2f6a6e25",
        "wType": "Segment"
      },
      "isVisible": true
    }
  },
  "id": "previouslyAddedList",
  "info": null,
  "isdatareferenced": false,
  "isvisible": true,
  "kuid": "eec522f80ae64d5a84b93516e9eb058d",
  "layouttype": 2,
  "masterType": 0,
  "name": "kony.ui.UserWidgetInstance",
  "parent": "flxPreviouslyAddedAcc",
  "pf": "frmAddExternalAccount",
  "snaptogrid": true,
  "sourceUserWidget": "b4885dc6795849cc8a2ee669b7955987",
  "wType": "UserWidgetInstance"
}