{
  "DNDConfig": null,
  "__parentReadjusting__": false,
  "_height_": {
    "type": "string",
    "value": "20dp"
  },
  "_left_": {
    "type": "string",
    "value": "2.50%"
  },
  "_margin_": [
    0,
    0,
    0,
    0
  ],
  "_orientation_": 6,
  "_padding_": [
    0,
    0,
    0,
    0
  ],
  "_percent_": true,
  "_skin_": "sec33ce747114bec824bad2508e6968f",
  "_top_": {
    "type": "string",
    "value": "21dp"
  },
  "_width_": {
    "type": "string",
    "value": "20dp"
  },
  "allboxes": [],
  "autogrowmode": 0,
  "canUpdateUI": true,
  "children": [
    "imgChecbox"
  ],
  "clipbounds": true,
  "containerweight": 100,
  "enablescrolling": true,
  "id": "flxCheckbox",
  "ide_onClick": "AS_FlexContainer_cd9f4ccf75924bec81c2e3af0d0437cf",
  "info": null,
  "isvisible": true,
  "kuid": "e4de0e0ef3954abd9c439fa640ad87c4",
  "layouttype": 3,
  "name": "kony.ui.FlexContainer",
  "parent": "flxIAgree",
  "pf": "userwidgetmodel",
  "snapgridsize": 10,
  "snaptogrid": true,
  "wType": "FlexContainer",
  "widgetalignment": 1,
  "zindex": 2
}