{
  "@class": "com.kony.gen.viz.model.component.KVizImage2",
  "DNDConfig": null,
  "__parentReadjusting__": false,
  "_base64_": null,
  "_height_": {
    "type": "string",
    "value": "20px"
  },
  "_left_": {
    "type": "string",
    "value": "0%"
  },
  "_margin_": [
    0,
    0,
    0,
    0
  ],
  "_padding_": [
    0,
    0,
    0,
    0
  ],
  "_skin_": "sba137d16d224ec9b4ab68cef4d9bf78",
  "_src_": "unchecked_box.png",
  "_top_": {
    "type": "string",
    "value": "0dp"
  },
  "_width_": {
    "type": "string",
    "value": "20dp"
  },
  "canUpdateUI": true,
  "containerweight": 100,
  "context": {
    "channel": "desktop",
    "formID": "uwu3c2c946748847149418dfaa68c7cce0",
    "platform": "desktopweb",
    "templateType": "userwidgets",
    "topLevelBox": null
  },
  "id": "imgChecbox",
  "imagescalemode": 0,
  "imagewhiledownloading": "img_transparent.png",
  "info": null,
  "invokedProperty": "src",
  "isvisible": true,
  "kuid": "f8ab9defefa549fe9ff558d37b65fec1",
  "name": "kony.ui.Image2",
  "parent": "flxCheckbox",
  "pf": "userwidgetmodel",
  "srcType": 1,
  "wType": "Image",
  "widgetalignment": 5,
  "zindex": 1,
  "tooltip": "Select Terms And Conditions"
}