{
  "@class": "com.kony.gen.viz.model.component.KVizButton",
  "DNDConfig": null,
  "__parentReadjusting__": false,
  "_height_": {
    "type": "ref",
    "value": "preferred"
  },
  "_left_": {
    "type": "string",
    "value": "3.21%"
  },
  "_margin_": [
    6,
    6,
    6,
    6
  ],
  "_padding_": [
    0,
    0,
    0,
    0
  ],
  "_skin_": "sf39eee4e12d40f0b985a48d93595310",
  "_text_": "Contact Us",
  "_width_": {
    "type": "ref",
    "value": "preferred"
  },
  "canUpdateUI": true,
  "centery": {
    "type": "string",
    "value": "50%"
  },
  "containerweight": 100,
  "contentalignment": 5,
  "desktopweb": {
    "psp": {
      "hoverSkin": "s0d853c8b5284c03a08be1232819c24b"
    }
  },
  "displaytext": true,
  "focusskin": "s264339940904f6b9d3e47b6fdc9e327",
  "id": "btnContactUs",
  "info": null,
  "isvisible": true,
  "kuid": "5b8994609f43411988e22f2fd0776a8f",
  "name": "kony.ui.Button",
  "parent": "flxFooterMenu",
  "pf": "userwidgetmodel",
  "texti18n": "i18n.footer.contactUs",
  "wType": "Button",
  "zindex": 1
}