{
  "@class": "com.kony.gen.viz.model.container.KVizForm",
  "DNDConfig": null,
  "_margin_": [
    0,
    0,
    0,
    0
  ],
  "_orientation_": 1,
  "_padding_": [
    0,
    0,
    0,
    0
  ],
  "_percent_": true,
  "_skin_": "s7204077b0944689be58354a2c5a162f",
  "_title_": null,
  "addWidgetsdone": false,
  "allboxes": [],
  "canUpdateUI": true,
  "canvasWidth": 1400,
  "children": [
    "customfooterP"
  ],
  "containerweight": 100,
  "currentLocale": "default",
  "device": "iPhone5",
  "displayorientation": 3,
  "enabledforidletimeout": false,
  "id": "userwidgetmodel",
  "info": null,
  "initdone": false,
  "inputaccessoryviewtype": 4,
  "intransitionconfig": {
    "formTransition": "None"
  },
  "isvisible": true,
  "kuid": "ddedf3c1b43e4f549962904e3bd3e449",
  "layouttype": 2,
  "masterType": 0,
  "name": "kony.ui.Form2",
  "needappmenu": true,
  "outtransitionconfig": {
    "formTransition": "None"
  },
  "paddinginpixel": false,
  "platform": "spaip",
  "prevDevice": "iPhone6",
  "prevPlatform": "desktopweb",
  "retainscrollposition": false,
  "shellCSS": "iOS_iPhone5",
  "titleBarSkin": "s2e24ee0a8ca46b089d8a5bea8a1a32e",
  "titlebar": true,
  "type": 3,
  "wType": "Form"
}