{
  "@class": "com.kony.gen.viz.model.component.KVizLabel",
  "DNDConfig": null,
  "__markedForDelete__": true,
  "__parentReadjusting__": false,
  "_height_": {
    "type": "ref",
    "value": "preferred"
  },
  "_left_": {
    "type": "string",
    "value": "25dp"
  },
  "_margin_": [
    1,
    1,
    1,
    1
  ],
  "_padding_": [
    0,
    0,
    0,
    0
  ],
  "_skin_": "s415be662ebd4bc8b09a3193c2067ba6",
  "_text_": "Another primary number exists and by selecting this one it will replace the previously added number.",
  "_width_": {
    "type": "string",
    "value": "80%"
  },
  "_wrapping_": 2,
  "android": {
    "textStyle": {
      "letterSpacing": 0,
      "strikeThrough": false
    }
  },
  "canUpdateUI": true,
  "centery": {
    "type": "string",
    "value": "50%"
  },
  "containerweight": 100,
  "contentalignment": 4,
  "id": "lblWarning",
  "info": null,
  "ipad": {
    "psp": {
      "wrapping": 2
    }
  },
  "iphone": {
    "psp": {
      "wrapping": 2
    }
  },
  "isvisible": true,
  "kuid": "j29ace68945f45c4a78069a9079d2916",
  "name": "kony.ui.Label",
  "parent": "flxWarning",
  "pf": "userwidgetmodel",
  "texti18n": "i18n.PFM.AssigningCategoryWillBe",
  "tooltip": "",
  "wType": "Label",
  "zindex": 1
}