{
  "@class": "com.kony.gen.viz.model.component.KVizButton",
  "DNDConfig": null,
  "__parentReadjusting__": false,
  "_height_": {
    "type": "string",
    "value": "40dp"
  },
  "_margin_": [
    6,
    6,
    6,
    6
  ],
  "_padding_": [
    0,
    0,
    0,
    0
  ],
  "_right_": {
    "type": "string",
    "value": "45px"
  },
  "_skin_": "sfbbba35ede4457b94eb681b72349b98",
  "_text_": "Go",
  "_top_": {
    "type": "string",
    "value": "30dp"
  },
  "_width_": {
    "type": "string",
    "value": "100dp"
  },
  "canUpdateUI": true,
  "containerweight": 100,
  "contentalignment": 5,
  "disabledSkins": {
    "focusSkin": "sf44d06ca8224832827ea7fdff757013"
  },
  "displaytext": true,
  "focusskin": null,
  "id": "btnSearchGo",
  "info": null,
  "isvisible": true,
  "kuid": "j0bb20a2d73a46ae9f11f1926c0baa72",
  "name": "kony.ui.Button",
  "parent": "flxSearch",
  "pf": "userwidgetmodel",
  "wType": "Button",
  "zindex": 1,
  "texti18n": "i18n.billPay.SearchGo",
  "tooltip": "Go"
}