{
  "DNDConfig": null,
  "__parentReadjusting__": false,
  "_height_": {
    "type": "string",
    "value": "25px"
  },
  "_margin_": [
    0,
    0,
    0,
    0
  ],
  "_orientation_": 6,
  "_padding_": [
    0,
    0,
    0,
    0
  ],
  "_percent_": true,
  "_right_": {
    "type": "string",
    "value": "5px"
  },
  "_skin_": "s24c92fc23b14f5484b693ee9b8a9b35",
  "_top_": {
    "type": "string",
    "value": "14dp"
  },
  "_width_": {
    "type": "string",
    "value": "25px"
  },
  "allboxes": [],
  "autogrowmode": 0,
  "canUpdateUI": true,
  "centery": {
    "type": "string",
    "value": "50%"
  },
  "children": [
    "imgClearSearch"
  ],
  "clipbounds": true,
  "containerweight": 100,
  "enablescrolling": true,
  "id": "flxClearSearch",
  "info": null,
  "isvisible": false,
  "kuid": "c0e140dd9c9248b385671aafb4aa2d52",
  "layouttype": 2,
  "name": "kony.ui.FlexContainer",
  "parent": "flxSearchTextBox",
  "pf": "userwidgetmodel",
  "snapgridsize": 10,
  "snaptogrid": true,
  "wType": "FlexContainer",
  "widgetalignment": 1,
  "zindex": 1
}