{
  "DNDConfig": null,
  "__markedForDelete__": true,
  "__parentReadjusting__": false,
  "_height_": {
    "type": "string",
    "value": "100%"
  },
  "_margin_": [
    0,
    0,
    0,
    0
  ],
  "_orientation_": 6,
  "_padding_": [
    0,
    0,
    0,
    0
  ],
  "_percent_": true,
  "_right_": {
    "type": "string",
    "value": "0%"
  },
  "_skin_": "sec33ce747114bec824bad2508e6968f",
  "_top_": {
    "type": "string",
    "value": "0dp"
  },
  "_width_": {
    "type": "string",
    "value": "8.36%"
  },
  "allboxes": [],
  "autogrowmode": 0,
  "canUpdateUI": true,
  "children": [
    "imgSecuritySettingsCollapse"
  ],
  "clipbounds": true,
  "containerweight": 100,
  "enablescrolling": true,
  "id": "flxMenu2Collapse",
  "info": null,
  "isvisible": true,
  "kuid": "c0500e9f6d754a69baebea50477fcf76",
  "layouttype": 2,
  "name": "kony.ui.FlexContainer",
  "parent": "flxMenu2",
  "pf": "userwidgetmodel",
  "snapgridsize": 10,
  "snaptogrid": true,
  "wType": "FlexContainer",
  "widgetalignment": 1,
  "zindex": 1
}