{
  "DNDConfig": null,
  "__parentReadjusting__": false,
  "_height_": {
    "type": "string",
    "value": "40dp"
  },
  "_left_": {
    "type": "string",
    "value": "30dp"
  },
  "_margin_": [
    0,
    0,
    0,
    0
  ],
  "_orientation_": 6,
  "_padding_": [
    0,
    0,
    0,
    0
  ],
  "_percent_": true,
  "_right_": {
    "type": "string",
    "value": "175px"
  },
  "_skin_": "s9bdf03b6bd44eae8b6fa0cd52bb1713",
  "_top_": {
    "type": "string",
    "value": "30dp"
  },
  "allboxes": [],
  "autogrowmode": 0,
  "canUpdateUI": true,
  "children": [
    "tbxHelpSearch",
    "flxClearSearch"
  ],
  "clipbounds": true,
  "containerweight": 100,
  "enablescrolling": true,
  "id": "flxSearchTextBox",
  "info": null,
  "isvisible": true,
  "kuid": "efd4341f643a4c9c8b926612190c7e32",
  "layouttype": 2,
  "name": "kony.ui.FlexContainer",
  "parent": "flxSearch",
  "pf": "userwidgetmodel",
  "snapgridsize": 10,
  "snaptogrid": true,
  "wType": "FlexContainer",
  "widgetalignment": 1,
  "zindex": 1
}