{
  "@class": "com.kony.gen.viz.model.component.KVizButton",
  "DNDConfig": null,
  "__parentReadjusting__": false,
  "_height_": {
    "type": "ref",
    "value": "preferred"
  },
  "_left_": {
    "type": "string",
    "value": "20dp"
  },
  "_margin_": [
    6,
    6,
    6,
    6
  ],
  "_padding_": [
    0,
    0,
    0,
    0
  ],
  "_skin_": "sdb9d18f726a491390c0de98860b057a",
  "_text_": "CHANGE PIN",
  "_top_": {
    "type": "string",
    "value": "23dp"
  },
  "_width_": {
    "type": "string",
    "value": "110px"
  },
  "canUpdateUI": true,
  "containerId": true,
  "containerweight": 100,
  "contentalignment": 4,
  "disabledSkins": {
    "focusSkin": "sf44d06ca8224832827ea7fdff757013"
  },
  "displaytext": true,
  "id": "btnAction1",
  "info": null,
  "isvisible": true,
  "kuid": "e3e7d4f309a94cf3b529187d33a9ac7f",
  "name": "kony.ui.Button",
  "paddinginpixel": false,
  "parent": "flxActions",
  "pf": "segMyCardsExpanded",
  "wType": "Button",
  "zindex": 1
}