{
  "DNDConfig": null,
  "__parentReadjusting__": false,
  "_height_": {
    "type": "string",
    "value": "146px"
  },
  "_left_": {
    "type": "string",
    "value": "20px"
  },
  "_margin_": [
    0,
    0,
    0,
    0
  ],
  "_orientation_": 6,
  "_padding_": [
    0,
    0,
    0,
    0
  ],
  "_percent_": true,
  "_skin_": "s24c92fc23b14f5484b693ee9b8a9b35",
  "_top_": {
    "type": "string",
    "value": "43dp"
  },
  "_width_": {
    "type": "string",
    "value": "27.19%"
  },
  "allboxes": [],
  "autogrowmode": 0,
  "canUpdateUI": true,
  "children": [
    "imgCard",
    "lblTravelNotificationEnabled",
    "flxCollapse"
  ],
  "clipbounds": true,
  "containerId": true,
  "containerweight": 100,
  "enablescrolling": true,
  "id": "flxCardImageAndCollapse",
  "info": null,
  "isvisible": true,
  "kuid": "a58722ef5134484083d8cd346b986958",
  "layouttype": 2,
  "name": "kony.ui.FlexContainer",
  "parent": "flxMyCards",
  "pf": "segMyCardsExpanded",
  "snapgridsize": 10,
  "snaptogrid": true,
  "wType": "FlexContainer",
  "widgetalignment": 1,
  "zindex": 1
}