{
  "@class": "com.kony.gen.viz.model.component.KVizButton",
  "DNDConfig": null,
  "__parentReadjusting__": false,
  "_height_": {
    "type": "string",
    "value": "50dp"
  },
  "_left_": {
    "type": "string",
    "value": "37.07%"
  },
  "_margin_": [
    6,
    6,
    6,
    6
  ],
  "_padding_": [
    0,
    0,
    0,
    0
  ],
  "_skin_": "s83729feaa224e359d660d5af05c4bac",
  "_text_": "RESET",
  "_top_": {
    "type": "string",
    "value": "20dp"
  },
  "_width_": {
    "type": "string",
    "value": "28.96%"
  },
  "canUpdateUI": true,
  "containerweight": 100,
  "contentalignment": 5,
  "disabledSkins": {
    "focusSkin": "sf44d06ca8224832827ea7fdff757013"
  },
  "displaytext": true,
  "id": "btnReset",
  "info": null,
  "isvisible": true,
  "kuid": "ibce4e202f1c4ea4b7da5988b1563efb",
  "name": "kony.ui.Button",
  "parent": "flxSelectBankOrVendorButtons",
  "pf": "userwidgetmodel",
  "texti18n": "i18n.transfers.reset",
  "tooltip": "CANCEL",
  "wType": "Button",
  "zindex": 1
}