{
  "@class": "com.kony.gen.viz.model.component.KVizImage2",
  "DNDConfig": null,
  "__parentReadjusting__": false,
  "_base64_": null,
  "_height_": {
    "type": "string",
    "value": "63dp"
  },
  "_margin_": [
    0,
    0,
    0,
    0
  ],
  "_padding_": [
    0,
    0,
    0,
    0
  ],
  "_right_": {
    "type": "string",
    "value": "20dp"
  },
  "_skin_": "s78a5f26c9f14cec9ebed1bb46098f80",
  "_src_": "bank_icon_wf.png",
  "_width_": {
    "type": "string",
    "value": "85dp"
  },
  "canUpdateUI": true,
  "centery": {
    "type": "string",
    "value": "50%"
  },
  "containerweight": 100,
  "context": {
    "channel": "desktop",
    "formID": "uwuce1eb0a018047bfb1cc3babea8242a6",
    "platform": "desktopweb",
    "templateType": "userwidgets",
    "topLevelBox": null
  },
  "id": "imgBank2",
  "imagescalemode": 1,
  "imagewhiledownloading": "img_transparent.png",
  "info": null,
  "invokedProperty": "src",
  "isvisible": true,
  "kuid": "ea91218476f24f58a29bb472df3d6c33",
  "name": "kony.ui.Image2",
  "parent": "flxBank2",
  "pf": "userwidgetmodel",
  "srcType": 1,
  "wType": "Image",
  "widgetalignment": 5,
  "zindex": 1
}