{
  "@class": "com.kony.gen.viz.model.container.KVizSegment2",
  "DNDConfig": null,
  "__parentReadjusting__": false,
  "_data_": [
    {
      "lblNewPayees": {
        "@class": "com.viz.ide.model.segment.SimpleTextSegmentData",
        "text": "Label"
      }
    },
    {
      "lblNewPayees": {
        "@class": "com.viz.ide.model.segment.SimpleTextSegmentData",
        "text": "Label"
      }
    }
  ],
  "_height_": {
    "type": "ref",
    "value": "preferred"
  },
  "_indicator_": "none",
  "_left_": {
    "type": "string",
    "value": "0dp"
  },
  "_margin_": [
    0,
    0,
    0,
    0
  ],
  "_orientation_": 2,
  "_padding_": [
    0,
    0,
    0,
    0
  ],
  "_top_": {
    "type": "string",
    "value": "0dp"
  },
  "_width_": {
    "type": "string",
    "value": "100%"
  },
  "autogrowmode": 1,
  "canUpdateUI": true,
  "containerweight": 100,
  "counter": "04",
  "desktop": {
    "_data_": [
      {
        "imgBank": {
          "@class": "com.viz.ide.model.segment.ImageSegmentData",
          "src": "bank_icon_boa.png"
        },
        "lblSeparator": {
          "@class": "com.viz.ide.model.segment.SimpleTextSegmentData",
          "text": "-"
        },
        "lblUsers": {
          "@class": "com.viz.ide.model.segment.SimpleTextSegmentData",
          "text": "Bank of America"
        }
      },
      {
        "imgBank": {
          "@class": "com.viz.ide.model.segment.ImageSegmentData",
          "src": "bank_icon_citi.png"
        },
        "lblSeparator": {
          "@class": "com.viz.ide.model.segment.SimpleTextSegmentData",
          "text": "-"
        },
        "lblUsers": {
          "@class": "com.viz.ide.model.segment.SimpleTextSegmentData",
          "text": "CITI Bank"
        }
      },
      {
        "imgBank": {
          "@class": "com.viz.ide.model.segment.ImageSegmentData",
          "src": "bank_icon_chase.png"
        },
        "lblSeparator": {
          "@class": "com.viz.ide.model.segment.SimpleTextSegmentData",
          "text": "-"
        },
        "lblUsers": {
          "@class": "com.viz.ide.model.segment.SimpleTextSegmentData",
          "text": "Chase Bank"
        }
      },
      {
        "imgBank": {
          "@class": "com.viz.ide.model.segment.ImageSegmentData",
          "src": "bank_icon_hdfc.png"
        },
        "lblSeparator": {
          "@class": "com.viz.ide.model.segment.SimpleTextSegmentData",
          "text": "-"
        },
        "lblUsers": {
          "@class": "com.viz.ide.model.segment.SimpleTextSegmentData",
          "text": "HDFC bank"
        }
      },
      {
        "imgBank": {
          "@class": "com.viz.ide.model.segment.ImageSegmentData",
          "src": "bank_icon_wf.png"
        },
        "lblSeparator": {
          "@class": "com.viz.ide.model.segment.SimpleTextSegmentData",
          "text": "-"
        },
        "lblUsers": {
          "@class": "com.viz.ide.model.segment.SimpleTextSegmentData",
          "text": "Wells Fargo"
        }
      }
    ],
    "rowTemplateId": "ab918ad6bb6d47e0a600f424efa853ce",
    "rowtemplate": "flxBankNames",
    "widgetdatamap": {
      "flxBankNames": "flxBankNames",
      "imgBank": "imgBank",
      "lblSeparator": "lblSeparator",
      "lblUsers": "lblUsers"
    }
  },
  "focusedindex": null,
  "focuseditem": null,
  "groupcells": false,
  "hasSections": false,
  "id": "segBanksList",
  "ide_onRowClick": "AS_Segment_d43ef915b9634f1b84dfaf1d839333d1",
  "info": null,
  "ipad": {
    "psp": {
      "indicator": "rowselect"
    }
  },
  "iphone": {
    "psp": {
      "indicator": "rowselect"
    }
  },
  "isvisible": true,
  "kuid": "fe92b04cb79c410f900a24edb8ffb8bf",
  "masterdata": {},
  "maxheight": {
    "type": "string",
    "value": "250dp"
  },
  "name": "kony.ui.SegmentedUI2",
  "needpageindicator": true,
  "pageoffdotimage": "pageoffdot.png",
  "pageondotimage": "pageondot.png",
  "paginationconfig": {
    "position": "bottom"
  },
  "parent": "flxBankList",
  "pf": "userwidgetmodel",
  "retainselection": false,
  "rowTemplateId": "ba6b852d949b4c0bbf43b00143b2e83e",
  "rowcounter": 4,
  "rowfocusskin": "s9f69e977910472eb44c62ae28c41fe1",
  "rowskin": "scf5f90f6ac04976ab88b2a4f7153285",
  "rowtemplate": "flxNewPayees",
  "screenlevelwidget": false,
  "seccounter": 0,
  "sectionHeaderTemplateId": null,
  "sectionheaderskin": "sdc4ff4ed1584272be2ae69045dfb29d",
  "selectedRows": null,
  "selectedState": false,
  "selectedindex": null,
  "selectedindices": null,
  "selecteditems": null,
  "selectedsectionindex": 0,
  "selectionbehavior": "default",
  "separatorrequired": false,
  "showscrollbars": false,
  "viewtype": "tableview",
  "wType": "Segment",
  "widgetalignment": 5,
  "widgetdatamap": {
    "flxBankNames": "flxBankNames",
    "imgBank": "imgBank",
    "lblSeparator": "lblSeparator",
    "lblUsers": "lblUsers"
  },
  "zindex": 1
}