{
  "DNDConfig": null,
  "_height_": {
    "type": "ref",
    "value": "preferred"
  },
  "_margin_": [
    0,
    0,
    0,
    0
  ],
  "_orientation_": 6,
  "_padding_": [
    0,
    0,
    0,
    0
  ],
  "_percent_": true,
  "_skin_": "s4b5ad27f86e4f7c8aaa9a78bf7cc838",
  "allboxes": [],
  "autogrowmode": 1,
  "canUpdateUI": true,
  "children": [
    "flxBottom",
    "flxIdentifier",
    "flxMain"
  ],
  "clipbounds": false,
  "containerId": true,
  "containerweight": 100,
  "controllerInfo": {
    "default": {
      "channel": "desktop",
      "name": "flxContainerController"
    }
  },
  "enablescrolling": true,
  "id": "flxContainer",
  "info": null,
  "isvisible": true,
  "kuid": "cf871ca9515b47dc8ba6702ed4d0da3c",
  "layouttype": 2,
  "name": "kony.ui.FlexContainer",
  "parent": "segBillPayHistoryDetails",
  "pf": "segBillPayHistoryDetails",
  "snapgridsize": 10,
  "snaptogrid": true,
  "wType": "FlexContainer",
  "widgetalignment": 1
}