{
  "@class": "com.kony.gen.viz.model.component.KVizLabel",
  "DNDConfig": null,
  "__markedForDelete__": true,
  "__parentReadjusting__": false,
  "_height_": {
    "type": "ref",
    "value": "preferred"
  },
  "_left_": {
    "type": "string",
    "value": "0dp"
  },
  "_margin_": [
    1,
    1,
    1,
    1
  ],
  "_padding_": [
    0,
    0,
    5,
    0
  ],
  "_skin_": "sd5458b630124839ac94c56d4eb567ec",
  "_text_": "05/30/2017",
  "_top_": {
    "type": "string",
    "value": "22dp"
  },
  "_width_": {
    "type": "ref",
    "value": "preferred"
  },
  "_wrapping_": 2,
  "android": {
    "textStyle": {
      "letterSpacing": 0,
      "strikeThrough": false
    }
  },
  "canUpdateUI": true,
  "containerId": true,
  "containerweight": 100,
  "contentalignment": 4,
  "id": "lblRefrenceNumber",
  "info": null,
  "ipad": {
    "psp": {
      "wrapping": 2
    }
  },
  "iphone": {
    "psp": {
      "wrapping": 2
    }
  },
  "isvisible": true,
  "kuid": "ac00726b5498436c80da4ec87a7d6a2b",
  "name": "kony.ui.Label",
  "paddinginpixel": false,
  "parent": "flxRefrenceNumber",
  "pf": "segBillPayHistoryDetails",
  "texti18n": "i18n.transfers.RefrenceNumber",
  "tooltip": "",
  "wType": "Label",
  "zindex": 1
}