{
  "@class": "com.kony.gen.viz.model.component.KVizLabel",
  "DNDConfig": null,
  "__markedForDelete__": true,
  "__parentReadjusting__": false,
  "_height_": {
    "type": "ref",
    "value": "preferred"
  },
  "_left_": {
    "type": "string",
    "value": "0dp"
  },
  "_margin_": [
    1,
    1,
    1,
    1
  ],
  "_padding_": [
    0,
    0,
    5,
    0
  ],
  "_skin_": "saba7a95163a455f8f2f131435e16122",
  "_text_": "Checking Account...1233",
  "_top_": {
    "type": "string",
    "value": "5dp"
  },
  "_width_": {
    "type": "ref",
    "value": "preferred"
  },
  "_wrapping_": 2,
  "android": {
    "textStyle": {
      "letterSpacing": 0,
      "strikeThrough": false
    }
  },
  "canUpdateUI": true,
  "containerId": true,
  "containerweight": 100,
  "contentalignment": 4,
  "id": "lblSentFromValue",
  "info": null,
  "ipad": {
    "psp": {
      "wrapping": 2
    }
  },
  "iphone": {
    "psp": {
      "wrapping": 2
    }
  },
  "isvisible": true,
  "kuid": "ae21de3f4eba422eae55e24fa1daab28",
  "name": "kony.ui.Label",
  "paddinginpixel": false,
  "parent": "flxSentFrom",
  "pf": "segBillPayHistoryDetails",
  "tooltip": "",
  "wType": "Label",
  "zindex": 1
}