{
    "@class": "com.kony.gen.viz.model.component.KVizUserWidget",
    "DNDConfig": null,
    "__parentReadjusting__": false,
    "_children_": [],
    "_height_": {
        "type": "ref",
        "value": "preferred"
    },
    "_left_": {
        "type": "string",
        "value": "1dp"
    },
    "_margin_": [
        0,
        0,
        0,
        0
    ],
    "_orientation_": 1,
    "_padding_": [
        0,
        0,
        0,
        0
    ],
    "_percent_": true,
    "_render_": true,
    "_skin_": "s6c801425113440f9292523a3df3e5c2",
    "_top_": "0dp",
    "_width_": {
        "type": "string",
        "value": "100%"
    },
    "areflexpropsreferenced": false,
    "autogrowmode": 1,
    "canUpdateUI": true,
    "clipbounds": true,
    "containerweight": 0,
    "dataDiffs": {
        "LetsAuthenticate": {
            "__events__": {},
            "__info__": {
                "isRoot": true,
                "kuid": "a3e40b4d16214c19bd32c6b09459a73f",
                "srcKUID": "c110f31ce6a342ed93e196fc53ae6d8f",
                "wType": "FlexContainer"
            }
        },
        "btnCancel": {
            "__events__": {},
            "__info__": {
                "kuid": "fb7854d0287144ba9e20ece8653cb1cf",
                "srcKUID": "d6c5e9ebe58d454ca1a0ed9f994b9e9d",
                "wType": "Button"
            },
            "i18n_text": "i18n.transfers.Cancel"
        },
        "btnProceed": {
            "__events__": {},
            "__info__": {
                "kuid": "g9c699c2aeeb4f97bf6aae812cc9ba22",
                "srcKUID": "a390d49d5d9e4a25a793214eebc32426",
                "wType": "Button"
            },
            "i18n_text": "i18n.common.proceed",
            "left": {
                "Default": {
                    "type": "string",
                    "value": "76.8%"
                }
            }
        },
        "btnProfileSetting": {
            "__events__": {},
            "__info__": {
                "kuid": "h85119ae0cd142fd9583ecab44bbc972",
                "srcKUID": "a0a8589a83fc4c93acb891384e93e398",
                "wType": "Button"
            }
        },
        "flxActions": {
            "__events__": {},
            "__info__": {
                "kuid": "gb2a27aa4b4e46068597f4e749f1d36f",
                "srcKUID": "c18056c1885a469b8b7167178d91ae17",
                "wType": "FlexContainer"
            }
        },
        "flxCheckBoxPhoneNo": {
            "__events__": {},
            "__info__": {
                "kuid": "c6dcee7bde754a05bfb9991fa6d4c2e8",
                "srcKUID": "bb65a12df78b4ea1b5745013a3812f2e",
                "wType": "FlexContainer"
            }
        },
        "flxCheckboxEmailId": {
            "__events__": {},
            "__info__": {
                "kuid": "jacca5658b1f49f996344bd7dc16dad5",
                "srcKUID": "a1a9feb097fc4de79085c30cae06b133",
                "wType": "FlexContainer"
            }
        },
        "flxDetails": {
            "__events__": {},
            "__info__": {
                "kuid": "c63e9553ab2a4468873e5b785c4d80b1",
                "srcKUID": "aefbe13b53194acfb9d0aae6baa63d7f",
                "wType": "FlexContainer"
            }
        },
        "flxHeader": {
            "__events__": {},
            "__info__": {
                "kuid": "d690ec8f54794b478aeaf1d4eccc1f30",
                "srcKUID": "ib9d03e44e744af88f062a94dcd1efde",
                "wType": "FlexContainer"
            }
        },
        "flxProfileSetting": {
            "__events__": {},
            "__info__": {
                "kuid": "e054d6d652d54887b970ae35e6721af7",
                "srcKUID": "d24d179578c54533b1b15ed5025a24dd",
                "wType": "FlexContainer"
            }
        },
        "flxRegisteredEmailId": {
            "__events__": {},
            "__info__": {
                "kuid": "f435de45d38546d4b8a341f9a07159f2",
                "srcKUID": "b9acf9ab55c6446093ba55f15a723f9d",
                "wType": "FlexContainer"
            }
        },
        "flxRegisteredPhoneNo": {
            "__events__": {},
            "__info__": {
                "kuid": "da4dcffeed4f44ae84fe3fd96915e78d",
                "srcKUID": "ad4018780fa34e558f6648ac96379d39",
                "wType": "FlexContainer"
            }
        },
        "flxSeparator": {
            "__events__": {},
            "__info__": {
                "kuid": "f97739dcdcd84a2d925c318220147bc2",
                "srcKUID": "g45a48792a344617a66466029c804983",
                "wType": "FlexContainer"
            }
        },
        "flxSeparator2": {
            "__events__": {},
            "__info__": {
                "kuid": "d6b2f67656b04bcb853f3920abcf862c",
                "srcKUID": "c132a9d87a2d4399a0ec03d9b31cd00a",
                "wType": "FlexContainer"
            }
        },
        "imgCheckBoxPhoneNo": {
            "__events__": {},
            "__info__": {
                "kuid": "c59d1cd7a1c5498d83481c57652e85be",
                "srcKUID": "d153b419fbfe4e619b377a9bc6a65eae",
                "wType": "Image"
            }
        },
        "imgCheckboxEmailId": {
            "__events__": {},
            "__info__": {
                "kuid": "j75af161fbb940ca92d6b94d0fabf900",
                "srcKUID": "e04d639c4030433898502072ba5575d3",
                "wType": "Image"
            }
        },
        "lblChangeReceivingMedium": {
            "__events__": {},
            "__info__": {
                "kuid": "c218f82d52754a229905a1180cf55c7b",
                "srcKUID": "b8756d17655a462ebc648f0cd830b40f",
                "wType": "Label"
            }
        },
        "lblCloseBrace": {
            "__events__": {},
            "__info__": {
                "kuid": "eacdff027fa5480a96afad5b1da80f3c",
                "srcKUID": "hdc925593da046d7b18f9480343a5af3",
                "wType": "Label"
            }
        },
        "lblCloseBracePhoneNo": {
            "__events__": {},
            "__info__": {
                "kuid": "d61c4e9f42014a9fa15ef85950c70a99",
                "srcKUID": "e73c83d0369c41708b15ac589c34927a",
                "wType": "Label"
            }
        },
        "lblHeader": {
            "__events__": {},
            "__info__": {
                "kuid": "ea61b04f8e0a42afaf8fc18c393ad605",
                "srcKUID": "b29f289e898d4085bd3776fc03f87654",
                "wType": "Label"
            }
        },
        "lblHeading1": {
            "__events__": {},
            "__info__": {
                "kuid": "i31e51a10bf4401f9797589e1a364151",
                "srcKUID": "de4c99c07c0b4ac2a18238bbd4fff9bf",
                "wType": "Label"
            }
        },
        "lblHeading2": {
            "__events__": {},
            "__info__": {
                "kuid": "e29d7e2577b04be29d3c326b3a51aa07",
                "srcKUID": "e71fac16f420444e9550a8e9d3d2b169",
                "wType": "Label"
            }
        },
        "lblNoteSecureAccessCode": {
            "__events__": {},
            "__info__": {
                "kuid": "ha3a062a34b24c98901b9382a7c141ab",
                "srcKUID": "j87f2012feeb4bfaaa1be3e332445685",
                "wType": "Label"
            }
        },
        "lblOpenBrace": {
            "__events__": {},
            "__info__": {
                "kuid": "d8393539979542a19551ecfd05134632",
                "srcKUID": "dafcf44392f44a55b683bd77a6b46cd5",
                "wType": "Label"
            }
        },
        "lblOpenBracePhoneNo": {
            "__events__": {},
            "__info__": {
                "kuid": "f3e091c369144b16a2aa4800226e7d69",
                "srcKUID": "g69c29a21d844a408b9e506a2e213b64",
                "wType": "Label"
            }
        },
        "lblPhoneNo": {
            "__events__": {},
            "__info__": {
                "kuid": "d271c2a1b61a45fa8c2d3117ff0785b2",
                "srcKUID": "a46e4ab7fa004db0a34f8b56c15eb18c",
                "wType": "Label"
            }
        },
        "lblRegisteredEmailIDs": {
            "__events__": {},
            "__info__": {
                "kuid": "e9dcdc514a824119a430b0a954ad452c",
                "srcKUID": "e40ace0b297843e399f4d43ed49b6fae",
                "wType": "Label"
            }
        },
        "lblRegisteredEmailId": {
            "__events__": {},
            "__info__": {
                "kuid": "d09933d06aaa4f69b173dec0582cbdc7",
                "srcKUID": "j8cf773e75c4411ea2c2e0c1aed82392",
                "wType": "Label"
            }
        },
        "lblRegisteredPhoneNo": {
            "__events__": {},
            "__info__": {
                "kuid": "ia8e6bbf68554b1a935c9ce9e8b3e047",
                "srcKUID": "f6a1c34450644c2cad46e2bc9793d078",
                "wType": "Label"
            }
        }
    },
    "id": "LetsAuthenticateSecureAccessCode",
    "info": null,
    "isdatareferenced": false,
    "isvisible": true,
    "kuid": "e117a6b4e922451f8c28a8966d2622ec",
    "layouttype": 4,
    "masterType": 0,
    "name": "kony.ui.UserWidgetInstance",
    "parent": "flxOptionToRecieveAccessCode",
    "pf": "frmTransfers",
    "snaptogrid": true,
    "sourceUserWidget": "c110f31ce6a342ed93e196fc53ae6d8f",
    "wType": "UserWidgetInstance"
}