{
    "@class": "com.kony.gen.viz.model.component.KVizUserWidget",
    "DNDConfig": null,
    "__parentReadjusting__": false,
    "_children_": [],
    "_height_": {
        "type": "ref",
        "value": "preferred"
    },
    "_left_": {
        "type": "string",
        "value": "0dp"
    },
    "_margin_": [
        0,
        0,
        0,
        0
    ],
    "_orientation_": 1,
    "_padding_": [
        0,
        0,
        0,
        0
    ],
    "_percent_": true,
    "_render_": true,
    "_skin_": "s00130c5534141abad20086b7e15e45f",
    "_top_": {
        "type": "string",
        "value": "0dp"
    },
    "_width_": {
        "type": "string",
        "value": "100%"
    },
    "areflexpropsreferenced": false,
    "autogrowmode": 1,
    "canUpdateUI": true,
    "clipbounds": false,
    "containerweight": 0,
    "dataDiffs": {
        "flxHeader": {
            "__events__": {},
            "__info__": {
                "kuid": "c07c497f5e794e20b7db4d6bd9827fec",
                "srcKUID": "a38171102e684156a1c642904f7a6f46",
                "wType": "FlexContainer"
            }
        },
        "flxSeparator2": {
            "__events__": {},
            "__info__": {
                "kuid": "b8904b46a5dd4ea98784b4c330e7cc45",
                "srcKUID": "jaf82c5d0d2d45a586e0a79fae93bd3f",
                "wType": "FlexContainer"
            }
        },
        "flxSeparator3": {
            "__events__": {},
            "__info__": {
                "kuid": "e738c713997c4bb1b23a54a756e5cbe4",
                "srcKUID": "aacdf00f78be413cb7e68f910d3439f9",
                "wType": "FlexContainer"
            }
        },
        "flxSeperator": {
            "__events__": {},
            "__info__": {
                "kuid": "g39f3e31c9464be79ab00a59af4565c2",
                "srcKUID": "b6c057a70c2e4d6ea9d8b1ff75406e50",
                "wType": "FlexContainer"
            }
        },
        "lblAccounts": {
            "__events__": {},
            "__info__": {
                "kuid": "f07ad675dd7447099d93175219234769",
                "srcKUID": "ad1cf9e6371e4f6c99c2d3f39a363dc4",
                "wType": "Label"
            }
        },
        "lblCreditBank": {
            "__events__": {},
            "__info__": {
                "kuid": "ib4f4e1c0de244b5a25f1e91d1c24227",
                "srcKUID": "c4b64dc3166e45428a68f60398b5b059",
                "wType": "Label"
            }
        },
        "lblHeading": {
            "__events__": {},
            "__info__": {
                "kuid": "cde982348f2249259c57da323ddbd436",
                "srcKUID": "j34f51dc200c45c78c870cf4eacf84b3",
                "wType": "Label"
            }
        },
        "lblOCCU": {
            "__events__": {},
            "__info__": {
                "kuid": "db6ba637b5f340049eaec73bcf565c58",
                "srcKUID": "ff489072127d4522af5318e402c4b3d7",
                "wType": "Label"
            }
        },
        "mypaymentAccounts": {
            "__events__": {},
            "__info__": {
                "isRoot": true,
                "kuid": "ac318ab507514bcdb410790773a20121",
                "srcKUID": "f590376847d24d9f974f37ec805520ec",
                "wType": "FlexContainer"
            }
        },
        "segMypaymentAccounts": {
            "__events__": {},
            "__info__": {
                "kuid": "c7669ab350e340eb88d2289f22757b7c",
                "srcKUID": "d4d179c63565434e86e99d1446b5c0e6",
                "wType": "Segment"
            }
        }
    },
    "id": "mypaymentAccounts",
    "info": null,
    "iscustomlayout": false,
    "isdatareferenced": false,
    "isvisible": true,
    "kuid": "ac318ab507514bcdb410790773a20121",
    "layouttype": 4,
    "masterType": 0,
    "name": "kony.ui.UserWidgetInstance",
    "parent": "flxMyPaymentsAccount",
    "pf": "frmTransfers",
    "retaincontentalignment": false,
    "retainflexpositionproperties": false,
    "sourceUserWidget": "f590376847d24d9f974f37ec805520ec",
    "wType": "UserWidgetInstance"
}