{
    "@class": "com.kony.gen.viz.model.component.KVizUserWidget",
    "DNDConfig": null,
    "__parentReadjusting__": false,
    "_children_": [],
    "_height_": {
        "type": "ref",
        "value": "preferred"
    },
    "_left_": {
        "type": "string",
        "value": "0dp"
    },
    "_margin_": [
        0,
        0,
        0,
        0
    ],
    "_orientation_": 1,
    "_padding_": [
        0,
        0,
        0,
        0
    ],
    "_percent_": true,
    "_render_": true,
    "_skin_": "s9a1dc0ac9264301bf992c3c356d2f12",
    "_top_": {
        "type": "string",
        "value": "0dp"
    },
    "_width_": {
        "type": "string",
        "value": "100%"
    },
    "areflexpropsreferenced": false,
    "autogrowmode": 1,
    "canUpdateUI": true,
    "clipbounds": true,
    "containerweight": 0,
    "dataDiffs": {
        "NoAccounts": {
            "__events__": {},
            "__info__": {
                "isRoot": true,
                "kuid": "ecd54d7d324d4b479d256e0519c2e1ed",
                "srcKUID": "8a7a8233378947c5a9026f74323684ce",
                "wType": "FlexContainer"
            },
            "autogrowMode": 1,
            "height": {
                "Default": {
                    "type": "ref",
                    "value": "preferred"
                }
            }
        },
        "btnAddAccount": {
            "__events__": {},
            "__info__": {
                "kuid": "j960a4e90e2f48d0a337b735caeb47f1",
                "srcKUID": "834c4e884eb1414ea9b0232b77919cd1",
                "wType": "Button"
            },
            "i18n_text": "i18n.Transfers.ADDINTERNALACCOUNT"
        },
        "btnBack": {
            "__events__": {},
            "__info__": {
                "kuid": "c9da26087d604e2db4e08bb72ca76c22",
                "srcKUID": "814615fefbf6400799c7ce03cea6d7a9",
                "wType": "Button"
            },
            "i18n_text": "i18n.ProfileManagement.BACK"
        },
        "flxButtons": {
            "__events__": {},
            "__info__": {
                "kuid": "ffd8d2b88b1e48058cb1862b6dd134f7",
                "srcKUID": "f26b163987544e2eabeb7a67770bf7e5",
                "wType": "FlexContainer"
            }
        },
        "flxDetails": {
            "__events__": {},
            "__info__": {
                "kuid": "fa634ad148df46da9c858707cda819f1",
                "srcKUID": "6d0ba13fd0d147c1ae01d80818a8aea0",
                "wType": "FlexContainer"
            }
        },
        "flxHeader": {
            "__events__": {},
            "__info__": {
                "kuid": "g3d4df431b234ff19e2cf5b7ff2e04d3",
                "srcKUID": "4fee7492c12b4c1eae1ba879235f57bf",
                "wType": "FlexContainer"
            }
        },
        "flxMain": {
            "__events__": {},
            "__info__": {
                "kuid": "ic0bb0c6473d43d5bd0089e5ccd652e7",
                "srcKUID": "f2ca9a299804488cb1c22d150e101c47",
                "wType": "FlexContainer"
            }
        },
        "flxMessage": {
            "__events__": {},
            "__info__": {
                "kuid": "h1d5f7d511c649c18c8da7b6caa80e86",
                "srcKUID": "9019fec8571547f4905e9182e7410f7b",
                "wType": "FlexContainer"
            }
        },
        "flxSeperator": {
            "__events__": {},
            "__info__": {
                "kuid": "j61eff021fa84675a536305bfd928227",
                "srcKUID": "59da3a4c23c44db0bff4aad10f3864a2",
                "wType": "FlexContainer"
            }
        },
        "flxSeperator2": {
            "__events__": {},
            "__info__": {
                "kuid": "e76316b16e8a4ac09ce7e2122f203331",
                "srcKUID": "3ec2453f98d6468f8ab8279e6b21b833",
                "wType": "FlexContainer"
            }
        },
        "imgError": {
            "__events__": {},
            "__info__": {
                "kuid": "i48a28065c7d4645a84ae216b5743417",
                "srcKUID": "fce995ba185e4da382f3617005e04a81",
                "wType": "Image"
            }
        },
        "lblHeader": {
            "__events__": {},
            "__info__": {
                "kuid": "f8ffc99e4d0a454dadf62a8d8b24b005",
                "srcKUID": "887fb627204445f4a4270e9154a01c60",
                "wType": "Label"
            }
        },
        "txtMessage": {
            "__events__": {},
            "__info__": {
                "kuid": "he8a3455af41417f817199047bb217c8",
                "srcKUID": "74d8c7ae30064ee4b01def71d4ebf1bd",
                "wType": "TextArea"
            },
            "i18n_text": "i18n.Transfers.Youdonothaveanyaccountsaddedinthiscategory"
        }
    },
    "id": "NoAccounts",
    "info": null,
    "isdatareferenced": false,
    "isvisible": true,
    "kuid": "ecd54d7d324d4b479d256e0519c2e1ed",
    "layouttype": 2,
    "masterType": 0,
    "name": "kony.ui.UserWidgetInstance",
    "parent": "flxNoAccounts",
    "pf": "frmTransfers",
    "snaptogrid": true,
    "sourceUserWidget": "8a7a8233378947c5a9026f74323684ce",
    "wType": "UserWidgetInstance"
}