{
  "@class": "com.kony.gen.viz.model.component.KVizButton",
  "DNDConfig": null,
  "__parentReadjusting__": false,
  "_height_": {
    "type": "string",
    "value": "50dp"
  },
  "_left_": {
    "type": "string",
    "value": "29.50%"
  },
  "_margin_": [
    6,
    6,
    6,
    6
  ],
  "_padding_": [
    0,
    0,
    0,
    0
  ],
  "_skin_": "s6dd66d624c2424b8a4d5b93efef2f3d",
  "_text_": "CANCEL",
  "_top_": {
    "type": "string",
    "value": "0dp"
  },
  "_width_": {
    "type": "string",
    "value": "32.40%"
  },
  "canUpdateUI": true,
  "containerweight": 100,
  "contentalignment": 5,
  "desktopweb": {
    "psp": {
      "hoverSkin": "sba91fb5e9774521856508ab3e21943d"
    }
  },
  "displaytext": true,
  "focusskin": "sb23593b913b4005add4a246020aa1cc",
  "id": "btnCancel",
  "info": null,
  "isvisible": true,
  "kuid": "17191a6741f648f085ec2d51f7ec94f0",
  "name": "kony.ui.Button",
  "parent": "flxAddOrCancelKA",
  "pf": "userwidgetmodel",
  "texti18n": "i18n.transfers.Cancel",
  "wType": "Button",
  "zindex": 1,
  "tooltip": "Cancel"
}