{
  "@class": "com.kony.gen.viz.model.component.KVizTextBox2",
  "DNDConfig": null,
  "__markedForDelete__": true,
  "__parentReadjusting__": false,
  "_height_": {
    "type": "string",
    "value": "40dp"
  },
  "_left_": {
    "type": "string",
    "value": "3.77%"
  },
  "_margin_": [
    0,
    0,
    0,
    0
  ],
  "_padding_": [
    2,
    0,
    0,
    0
  ],
  "_placeholder_": "",
  "_skin_": "s5f5a9f8c3a548e281fa49915b760e95",
  "_text_": "",
  "_top_": {
    "type": "string",
    "value": "80%"
  },
  "_width_": {
    "type": "string",
    "value": "45.30%"
  },
  "autocapitalize": "none",
  "autocomplete": false,
  "autocorrect": false,
  "autofilter": false,
  "canUpdateUI": true,
  "containerheight": "",
  "containerheightmode": 1,
  "containerweight": 100,
  "contentalignment": 4,
  "desktopweb": {
    "psp": {
      "hoverSkin": "s80a8c5539a441ee9b9b49917cc45cc2"
    }
  },
  "focusskin": "s80a8c5539a441ee9b9b49917cc45cc2",
  "id": "txtNotes",
  "info": null,
  "isvisible": true,
  "keyboardtype": "A",
  "kiosk": {
    "psp": {
      "toolTip": "Notes"
    }
  },
  "kuid": "d1ff99a636e7472bb526905768a02d1d",
  "mode": "A",
  "name": "kony.ui.TextBox2",
  "paddinginpixel": false,
  "parent": "flxDetails",
  "pf": "userwidgetmodel",
  "placeholderi18n": "i18n.transfers.optional",
  "securetextentry": false,
  "textinputmode": "A",
  "viewtype": "default",
  "wType": "TextField",
  "zindex": 1
}