{
  "@class": "com.kony.gen.viz.model.container.KVizForm",
  "DNDConfig": null,
  "_margin_": [
    0,
    0,
    0,
    0
  ],
  "_orientation_": 1,
  "_padding_": [
    0,
    0,
    0,
    0
  ],
  "_percent_": true,
  "_skin_": "s8c38bd5a8274957918a4a6be85dd270",
  "_title_": null,
  "addWidgetsdone": false,
  "allboxes": [],
  "canUpdateUI": true,
  "canvasWidth": 794,
  "children": [
    "oneTimePay"
  ],
  "containerweight": 100,
  "currentLocale": "default",
  "device": "desktopweb",
  "displayorientation": 3,
  "enabledforidletimeout": false,
  "globalUserWidgetRefs": [],
  "id": "userwidgetmodel",
  "info": null,
  "initdone": false,
  "inputaccessoryviewtype": 4,
  "intransitionconfig": {
    "formTransition": "None"
  },
  "isvisible": true,
  "kuid": "c392cab45f364225809790b44deb8fe0",
  "layouttype": 2,
  "masterType": 0,
  "name": "kony.ui.Form2",
  "needappmenu": true,
  "outtransitionconfig": {
    "formTransition": "None"
  },
  "paddinginpixel": false,
  "platform": "desktopweb",
  "prevDevice": "iPhone6",
  "prevPlatform": "iphone",
  "retainscrollposition": false,
  "shellCSS": "desktop",
  "titleBarSkin": "sdf03a80aec745d8b081496d1f29306d",
  "titlebar": true,
  "type": 3,
  "wType": "Form"
}