{
  "@class": "com.kony.gen.viz.model.component.KVizImage2",
  "DNDConfig": null,
  "__markedForDelete__": true,
  "__parentReadjusting__": false,
  "_base64_": null,
  "_height_": {
    "type": "string",
    "value": "15dp"
  },
  "_left_": {
    "type": "string",
    "value": "5dp"
  },
  "_margin_": [
    0,
    0,
    0,
    0
  ],
  "_padding_": [
    0,
    0,
    0,
    0
  ],
  "_skin_": "s8ee487de5774c1eb668e74bf92f5cdd",
  "_src_": "sorting.png",
  "_width_": {
    "type": "string",
    "value": "12dp"
  },
  "canUpdateUI": true,
  "centery": {
    "type": "string",
    "value": "50%"
  },
  "containerweight": 100,
  "context": {
    "channel": "desktop",
    "formID": "uw188d39742fa641e3aea24186146b4b85",
    "platform": "desktopweb",
    "templateType": "userwidgets",
    "topLevelBox": null
  },
  "id": "imgSortType",
  "imagescalemode": 1,
  "imagewhiledownloading": "img_transparent.png",
  "info": null,
  "invokedProperty": "src",
  "isvisible": true,
  "kuid": "c91affac1ce34589899dc63ada19cd21",
  "name": "kony.ui.Image2",
  "parent": "flxType",
  "pf": "userwidgetmodel",
  "srcType": 1,
  "tooltip": "Sort By Description",
  "wType": "Image",
  "widgetalignment": 5,
  "zindex": 1
}