{
  "DNDConfig": null,
  "__parentReadjusting__": false,
  "_height_": {
    "type": "string",
    "value": "121px"
  },
  "_left_": {
    "type": "string",
    "value": "0dp"
  },
  "_margin_": [
    0,
    0,
    0,
    0
  ],
  "_orientation_": 6,
  "_padding_": [
    0,
    0,
    0,
    0
  ],
  "_percent_": true,
  "_skin_": "s08469efda4a4826a2c833ec32b9f5e5",
  "_top_": {
    "type": "string",
    "value": "0dp"
  },
  "_width_": {
    "type": "string",
    "value": "100%"
  },
  "allboxes": [],
  "autogrowmode": 0,
  "canUpdateUI": true,
  "children": [
    "FlexContainer0e2898aa93bca45",
    "flxHamburgerBack",
    "flxHamburger",
    "flxUserActions",
    "flxSeperatorhor",
    "flxSeperatorHor2",
    "rightcontainer",
    "leftcontainer",
    "flxBottomContainer"
  ],
  "clipbounds": false,
  "containerweight": 100,
  "enablescrolling": true,
  "id": "customheader",
  "ide_postShow": "AS_FlexContainer_i3a1eb781d8d4d8b95b97fdb9016ea6c",
  "ide_preShow": "AS_FlexContainer_fec7c5dc9d644874851f1959371cfd93",
  "info": null,
  "isvisible": true,
  "kuid": "c04bbf50611342ca895c5e0a329aeb52",
  "layouttype": 2,
  "name": "kony.ui.FlexContainer",
  "parent": "userwidgetmodel",
  "pf": "userwidgetmodel",
  "snapgridsize": 10,
  "snaptogrid": true,
  "vizProps": {
    "hidewidgethierarchy": false
  },
  "wType": "FlexContainer",
  "widgetalignment": 1,
  "zindex": 1000
}