{
  "DNDConfig": null,
  "__parentReadjusting__": false,
  "_height_": {
    "type": "string",
    "value": "51dp"
  },
  "_left_": {
    "type": "string",
    "value": "0dp"
  },
  "_margin_": [
    0,
    0,
    0,
    0
  ],
  "_orientation_": 6,
  "_padding_": [
    0,
    0,
    0,
    0
  ],
  "_percent_": true,
  "_skin_": "s2a2cb62a3414e4da31efec365ffb4e6",
  "_top_": {
    "type": "string",
    "value": "70dp"
  },
  "_width_": {
    "type": "string",
    "value": "1366dp"
  },
  "allboxes": [],
  "autogrowmode": 0,
  "canUpdateUI": true,
  "centerx": {
    "type": "string",
    "value": "50%"
  },
  "children": [
    "topmenu"
  ],
  "clipbounds": false,
  "containerweight": 100,
  "enablescrolling": true,
  "id": "flxTopmenu",
  "info": null,
  "isvisible": true,
  "kuid": "ed60ec01cd4843d8acaf4c0c4767b493",
  "layouttype": 4,
  "name": "kony.ui.FlexContainer",
  "parent": "FlexContainer0e2898aa93bca45",
  "pf": "userwidgetmodel",
  "snapgridsize": 10,
  "snaptogrid": true,
  "vizProps": {
    "hide": false
  },
  "wType": "FlexContainer",
  "widgetalignment": 1,
  "zindex": 1
}