{
  "@class": "com.kony.gen.viz.model.component.KVizLabel",
  "DNDConfig": null,
  "__parentReadjusting__": false,
  "_height_": {
    "type": "ref",
    "value": "preferred"
  },
  "_margin_": [
    1,
    1,
    1,
    1
  ],
  "_padding_": [
    1,
    0,
    1,
    0
  ],
  "_skin_": "s1af4004be374a1cbf307cfbb14c6278",
  "_text_": "You have set your  security questions successfully",
  "_top_": {
    "type": "string",
    "value": "20px"
  },
  "_width_": {
    "type": "string",
    "value": "85%"
  },
  "_wrapping_": 2,
  "android": {
    "textStyle": {
      "letterSpacing": 0,
      "strikeThrough": false
    }
  },
  "canUpdateUI": true,
  "centerx": {
    "type": "string",
    "value": "50%"
  },
  "containerweight": 100,
  "contentalignment": 5,
  "id": "lblNotYetEnrolledOrError",
  "info": null,
  "ipad": {
    "psp": {
      "wrapping": 2
    }
  },
  "iphone": {
    "psp": {
      "wrapping": 2
    }
  },
  "isvisible": true,
  "kuid": "3277de67aba1479d8654d0d54447d10b",
  "name": "kony.ui.Label",
  "paddinginpixel": false,
  "parent": "securityAck",
  "pf": "userwidgetmodel",
  "tooltip": "",
  "wType": "Label",
  "zindex": 1
}