{
  "DNDConfig": null,
  "__parentReadjusting__": false,
  "_height_": {
    "type": "string",
    "value": "13dp"
  },
  "_margin_": [
    0,
    0,
    0,
    0
  ],
  "_orientation_": 6,
  "_padding_": [
    0,
    0,
    0,
    0
  ],
  "_percent_": true,
  "_right_": {
    "type": "string",
    "value": "5.55%"
  },
  "_skin_": "s24c92fc23b14f5484b693ee9b8a9b35",
  "_top_": {
    "type": "string",
    "value": "5dp"
  },
  "_width_": {
    "type": "string",
    "value": "13dp"
  },
  "allboxes": [],
  "autogrowmode": 0,
  "canUpdateUI": true,
  "centery": {
    "type": "string",
    "value": "50%"
  },
  "children": [
    "imgCross"
  ],
  "clipbounds": true,
  "containerweight": 100,
  "desktopweb": {
    "psp": {
      "hoverSkin": "sec33ce747114bec824bad2508e6968f"
    }
  },
  "enablescrolling": true,
  "id": "flxCross",
  "info": null,
  "isvisible": true,
  "kuid": "d452c358ed1445a58e5fdff55685498f",
  "layouttype": 2,
  "name": "kony.ui.FlexContainer",
  "parent": "flxInformation",
  "pf": "userwidgetmodel",
  "snapgridsize": 10,
  "snaptogrid": true,
  "wType": "FlexContainer",
  "widgetalignment": 1,
  "zindex": 5
}