{
  "DNDConfig": null,
  "__parentReadjusting__": false,
  "_height_": {
    "type": "string",
    "value": "30dp"
  },
  "_left_": {
    "type": "string",
    "value": "479dp"
  },
  "_margin_": [
    0,
    0,
    0,
    0
  ],
  "_orientation_": 6,
  "_padding_": [
    0,
    0,
    0,
    0
  ],
  "_percent_": true,
  "_skin_": "s680c9bafb594fe4bfa388d84acc43b2",
  "_top_": {
    "type": "string",
    "value": "4dp"
  },
  "_width_": {
    "type": "string",
    "value": "40%"
  },
  "allboxes": [],
  "autogrowmode": 0,
  "canUpdateUI": true,
  "children": [
    "imgCheckimage",
    "lblType"
  ],
  "clipbounds": true,
  "containerweight": 100,
  "enablescrolling": true,
  "id": "flxCheckImage",
  "ide_onClick": "AS_FlexContainer_c0cbd8ed2a4d4b398d768173d1e3686a",
  "info": null,
  "isvisible": true,
  "kuid": "h8bee3c60f9d486aa59237f738371b08",
  "layouttype": 3,
  "name": "kony.ui.FlexContainer",
  "parent": "flxLeft",
  "pf": "segDepositChecks",
  "snapgridsize": 10,
  "snaptogrid": true,
  "wType": "FlexContainer",
  "widgetalignment": 1,
  "zindex": 1
}