{
  "DNDConfig": null,
  "_height_": {
    "type": "string",
    "value": "220dp"
  },
  "_left_": {
    "type": "string",
    "value": "0dp"
  },
  "_margin_": [
    0,
    0,
    0,
    0
  ],
  "_orientation_": 6,
  "_padding_": [
    0,
    0,
    0,
    0
  ],
  "_percent_": true,
  "_skin_": "sf94624be61d43e299a4790d019276ba",
  "_top_": {
    "type": "string",
    "value": "0dp"
  },
  "_width_": {
    "type": "string",
    "value": "100%"
  },
  "allboxes": [],
  "autogrowmode": 0,
  "canUpdateUI": true,
  "children": [
    "flxIdentifier",
    "flxSelectedRowWrapper"
  ],
  "clipbounds": true,
  "containerId": true,
  "containerweight": 100,
  "controllerInfo": {
    "default": {
      "channel": "desktop",
      "name": "flxDepositChecksController"
    }
  },
  "enablescrolling": true,
  "id": "flxDepositChecks",
  "info": null,
  "iscustomlayout": false,
  "isvisible": true,
  "kuid": "jfe93b8f069e42e59976e88c372869fe",
  "layouttype": 3,
  "name": "kony.ui.FlexContainer",
  "parent": "segDepositChecks",
  "pf": "segDepositChecks",
  "retaincontentalignment": false,
  "retainflexpositionproperties": false,
  "snapgridsize": 10,
  "snaptogrid": true,
  "wType": "FlexContainer",
  "widgetalignment": 1
}