{
  "@class": "com.kony.gen.viz.model.component.KVizLabel",
  "DNDConfig": null,
  "__parentReadjusting__": false,
  "_height_": {
    "type": "string",
    "value": "28dp"
  },
  "_left_": {
    "type": "string",
    "value": "0dp"
  },
  "_margin_": [
    0,
    0,
    0,
    0
  ],
  "_padding_": [
    0,
    0,
    0,
    0
  ],
  "_skin_": "s5e187d89a3f4c56a5cd0ef35714c94d",
  "_text_": "V",
  "_top_": {
    "type": "string",
    "value": "0dp"
  },
  "_width_": {
    "type": "string",
    "value": "28dp"
  },
  "_wrapping_": 2,
  "android": {
    "textStyle": {
      "letterSpacing": 0,
      "strikeThrough": false
    }
  },
  "canUpdateUI": true,
  "centerx": {
    "type": "string",
    "value": "54%"
  },
  "containerweight": 100,
  "contentalignment": 4,
  "id": "imgCheckImage1Icon",
  "info": null,
  "ipad": {
    "psp": {
      "wrapping": 2
    }
  },
  "iphone": {
    "psp": {
      "wrapping": 2
    }
  },
  "isvisible": true,
  "kuid": "d6f7a8bc040c4012a0a5cc2e1fd06b96",
  "name": "kony.ui.Label",
  "parent": "flxCheckImageIcon",
  "pf": "segDepositChecks",
  "tooltip": "",
  "wType": "Label",
  "zindex": 1
}