{
  "@class": "com.kony.gen.viz.model.component.KVizImage2",
  "DNDConfig": null,
  "__parentReadjusting__": false,
  "_base64_": null,
  "_height_": {
    "type": "string",
    "value": "20dp"
  },
  "_left_": {
    "type": "string",
    "value": "0dp"
  },
  "_margin_": [
    0,
    0,
    0,
    0
  ],
  "_padding_": [
    0,
    0,
    0,
    0
  ],
  "_skin_": "s8ee487de5774c1eb668e74bf92f5cdd",
  "_src_": "unchecked_box.png",
  "_top_": {
    "type": "string",
    "value": "0dp"
  },
  "_width_": {
    "type": "string",
    "value": "20dp"
  },
  "canUpdateUI": true,
  "centery": {
    "type": "string",
    "value": "50%"
  },
  "containerweight": 100,
  "context": {
    "channel": "desktop",
    "platform": "desktopweb",
    "templateType": "segments",
    "topLevelBox": null
  },
  "id": "imgRememberCategory",
  "imagescalemode": 1,
  "imagewhiledownloading": "img_transparent.png",
  "info": null,
  "invokedProperty": "src",
  "isvisible": true,
  "kuid": "f1a6e3b802ab4b1ca266abbb1a2e86ae",
  "name": "kony.ui.Image2",
  "parent": "flxRememberCategoryCheckBox",
  "pf": "segDepositChecks",
  "srcType": 1,
  "tooltip": "Remember Category",
  "wType": "Image",
  "widgetalignment": 5,
  "zindex": 1
}