{
  "DNDConfig": null,
  "__parentReadjusting__": false,
  "_height_": {
    "type": "string",
    "value": "140dp"
  },
  "_left_": {
    "type": "string",
    "value": "0%"
  },
  "_margin_": [
    0,
    0,
    0,
    0
  ],
  "_orientation_": 6,
  "_padding_": [
    0,
    0,
    0,
    0
  ],
  "_percent_": true,
  "_skin_": "sca2ff992680422f9c6bfe17d466edf5",
  "_top_": {
    "type": "string",
    "value": "10dp"
  },
  "_width_": {
    "type": "string",
    "value": "100%"
  },
  "allboxes": [],
  "autogrowmode": 0,
  "canUpdateUI": true,
  "children": [
    "lblIdentifier",
    "flxContent",
    "lblSeperator3"
  ],
  "clipbounds": false,
  "containerId": true,
  "containerweight": 100,
  "desktopweb": {
    "psp": {}
  },
  "enablescrolling": true,
  "id": "flPFMAccountListItemWrapper",
  "info": null,
  "isvisible": true,
  "kuid": "d74a7827b8484c188e5bba2f8400b759",
  "layouttype": 3,
  "name": "kony.ui.FlexContainer",
  "parent": "flxPFMAccounts",
  "pf": "segPFMAccounts",
  "snapgridsize": 10,
  "snaptogrid": true,
  "wType": "FlexContainer",
  "widgetalignment": 1,
  "zindex": 1,
  "disabledSkins": {
    "hoverSkin": "s447077a87964089b4558c6cf328c0df"
  }
}