{
  "DNDConfig": null,
  "__markedForDelete__": true,
  "__parentReadjusting__": false,
  "_height_": {
    "type": "string",
    "value": "100%"
  },
  "_margin_": [
    0,
    0,
    0,
    0
  ],
  "_orientation_": 6,
  "_padding_": [
    0,
    0,
    0,
    0
  ],
  "_percent_": true,
  "_right_": {
    "type": "string",
    "value": "5.97%"
  },
  "_skin_": "s24c92fc23b14f5484b693ee9b8a9b35",
  "_width_": {
    "type": "string",
    "value": "37%"
  },
  "allboxes": [],
  "autogrowmode": 0,
  "canUpdateUI": true,
  "centery": {
    "type": "string",
    "value": "50%"
  },
  "children": [
    "lblAvailableBalanceValue",
    "lblAvailableBalanceTitle",
    "flxCredit"
  ],
  "clipbounds": true,
  "containerId": true,
  "containerweight": 100,
  "enablescrolling": true,
  "id": "flxAvailableBalance",
  "ide_onClick": "AS_FlexContainer_b7bec3d8841c46e1811716fc79c58382",
  "info": null,
  "isvisible": true,
  "kuid": "h93919fc13d1476884f3aaebe2b0594d",
  "layouttype": 4,
  "name": "kony.ui.FlexContainer",
  "parent": "flxContent",
  "pf": "segPFMAccounts",
  "snapgridsize": 10,
  "snaptogrid": true,
  "wType": "FlexContainer",
  "widgetalignment": 1,
  "zindex": 1
}