{
  "DNDConfig": null,
  "__parentReadjusting__": false,
  "_height_": {
    "type": "string",
    "value": "100%"
  },
  "_left_": {
    "type": "string",
    "value": "0dp"
  },
  "_margin_": [
    0,
    0,
    0,
    0
  ],
  "_orientation_": 6,
  "_padding_": [
    0,
    0,
    0,
    0
  ],
  "_percent_": true,
  "_skin_": "s7f8e7fe1ed94635a33e64a329cd3e2f",
  "_top_": {
    "type": "string",
    "value": "0dp"
  },
  "_width_": {
    "type": "string",
    "value": "95.20%"
  },
  "allboxes": [],
  "autogrowmode": 0,
  "canUpdateUI": true,
  "children": [
    "flxAccountName",
    "flxAvailableBalance",
    "lblSeparator"
  ],
  "clipbounds": true,
  "containerId": true,
  "containerweight": 100,
  "desktopweb": {
    "psp": {}
  },
  "enablescrolling": true,
  "id": "flxContent",
  "ide_onClick": "AS_FlexContainer_e93d4103c459400fa4cd4322aa7705b0",
  "info": null,
  "isvisible": true,
  "kuid": "if877cc9a4894ad3a23165f2912d7b7a",
  "layouttype": 2,
  "name": "kony.ui.FlexContainer",
  "parent": "flPFMAccountListItemWrapper",
  "pf": "segPFMAccounts",
  "snapgridsize": 10,
  "snaptogrid": true,
  "wType": "FlexContainer",
  "widgetalignment": 1,
  "zindex": 2,
  "disabledSkins": {
    "focusSkin": "s33beaea65744dc8aecdacfe3caf89af",
    "hoverSkin": "s33beaea65744dc8aecdacfe3caf89af"
  }
}