{
  "@class": "com.kony.gen.viz.model.component.KVizLabel",
  "DNDConfig": null,
  "__parentReadjusting__": false,
  "_height_": {
    "type": "ref",
    "value": "preferred"
  },
  "_left_": {
    "type": "string",
    "value": "0dp"
  },
  "_margin_": [
    1,
    1,
    1,
    1
  ],
  "_padding_": [
    0,
    0,
    2,
    0
  ],
  "_skin_": "s6df826d8e13454eb88e425f4d650b0b",
  "_text_": "Account Number  XXXXXXXXXXXXXXXXX",
  "_top_": {
    "type": "string",
    "value": "2dp"
  },
  "_width_": {
    "type": "string",
    "value": "100%"
  },
  "_wrapping_": 2,
  "android": {
    "textStyle": {
      "letterSpacing": 0,
      "strikeThrough": false
    }
  },
  "canUpdateUI": true,
  "containerId": true,
  "containerweight": 100,
  "contentalignment": 4,
  "id": "lblAccountNumber",
  "info": null,
  "ipad": {
    "psp": {
      "wrapping": 2
    }
  },
  "iphone": {
    "psp": {
      "wrapping": 2
    }
  },
  "isvisible": true,
  "kuid": "i06b5c494d9a4bfb85bfdc20895fe0ff",
  "name": "kony.ui.Label",
  "paddinginpixel": false,
  "parent": "flxAccountName",
  "pf": "segPFMAccounts",
  "tooltip": "",
  "wType": "Label",
  "zindex": 1
}