{
  "@class": "com.kony.gen.viz.model.component.KVizLabel",
  "DNDConfig": null,
  "__parentReadjusting__": false,
  "_height_": {
    "type": "ref",
    "value": "preferred"
  },
  "_margin_": [
    1,
    1,
    1,
    1
  ],
  "_padding_": [
    0,
    0,
    2,
    0
  ],
  "_right_": {
    "type": "string",
    "value": "-3dp"
  },
  "_skin_": "s046595515fd41f78f12d1ad5c0bdde4",
  "_text_": "+$3200.00",
  "_top_": {
    "type": "string",
    "value": "40dp"
  },
  "_width_": {
    "type": "ref",
    "value": "preferred"
  },
  "_wrapping_": 2,
  "android": {
    "textStyle": {
      "letterSpacing": 0,
      "strikeThrough": false
    }
  },
  "canUpdateUI": true,
  "containerId": true,
  "containerweight": 100,
  "contentalignment": 4,
  "desktopweb": {
    "contentAlignment": 4
  },
  "id": "lblCreditValue",
  "info": null,
  "ipad": {
    "psp": {
      "wrapping": 2
    }
  },
  "iphone": {
    "psp": {
      "wrapping": 2
    }
  },
  "isvisible": true,
  "kuid": "e5dd3c85faec424fa0410ec93b27773c",
  "name": "kony.ui.Label",
  "paddinginpixel": false,
  "parent": "flxCredit",
  "pf": "segPFMAccounts",
  "tooltip": "",
  "wType": "Label",
  "zindex": 1
}