{
  "@class": "com.kony.gen.viz.model.component.KVizBrowser",
  "DNDConfig": null,
  "__parentReadjusting__": false,
  "_height_": {
    "type": "string",
    "value": "1200dp"
  },
  "_left_": {
    "type": "string",
    "value": "0dp"
  },
  "_margin_": [
    0,
    0,
    0,
    0
  ],
  "_padding_": [
    0,
    0,
    0,
    0
  ],
  "_top_": {
    "type": "string",
    "value": "0dp"
  },
  "_type_": 3,
  "_width_": {
    "type": "string",
    "value": "800dp"
  },
  "canUpdateUI": true,
  "containerweight": 69,
  "detecttelnumber": true,
  "enablenativecommunication": false,
  "htmlstring": "Browser",
  "id": "bwrstatement",
  "info": null,
  "iscustomlayout": false,
  "isvisible": true,
  "kuid": "ga2e48eb451c4964877c2e7010a98612",
  "margininpixel": false,
  "method": "get",
  "name": "kony.ui.Browser",
  "paddinginpixel": false,
  "parent": "flxMain",
  "pf": "userwidgetmodel",
  "requesturlconfig": {
    "URL": "",
    "requestMethod": "get"
  },
  "retaincontentalignment": false,
  "retainflexpositionproperties": false,
  "screenlevelwidget": false,
  "url": "",
  "wType": "Browser",
  "zindex": 5
}