{
  "DNDConfig": null,
  "__parentReadjusting__": false,
  "_height_": {
    "type": "string",
    "value": "90dp"
  },
  "_left_": {
    "type": "string",
    "value": "50%"
  },
  "_margin_": [
    0,
    0,
    0,
    0
  ],
  "_orientation_": 6,
  "_padding_": [
    0,
    0,
    0,
    0
  ],
  "_percent_": true,
  "_skin_": "s24c92fc23b14f5484b693ee9b8a9b35",
  "_top_": {
    "type": "string",
    "value": "202dp"
  },
  "_width_": {
    "type": "string",
    "value": "50%"
  },
  "allboxes": [],
  "autogrowmode": 0,
  "canUpdateUI": true,
  "children": [
    "lblSendVia",
    "tbxSendVia"
  ],
  "clipbounds": true,
  "containerweight": 100,
  "enablescrolling": true,
  "id": "flxSentVia",
  "info": null,
  "isvisible": true,
  "kuid": "f2b9d78e6bdc462b8d98511f64061b86",
  "layouttype": 2,
  "name": "kony.ui.FlexContainer",
  "parent": "PayToUnregisteredRecipientSendMoney",
  "pf": "userwidgetmodel",
  "snapgridsize": 10,
  "snaptogrid": true,
  "wType": "FlexContainer",
  "widgetalignment": 1,
  "zindex": 1
}