{
  "DNDConfig": null,
  "__parentReadjusting__": false,
  "_height_": {
    "type": "ref",
    "value": "preferred"
  },
  "_left_": {
    "type": "string",
    "value": "0dp"
  },
  "_margin_": [
    0,
    0,
    0,
    0
  ],
  "_orientation_": 6,
  "_padding_": [
    0,
    0,
    0,
    0
  ],
  "_percent_": true,
  "_skin_": "sefe4ebb8f4145df8b137c766f7810ab",
  "_top_": {
    "type": "string",
    "value": "0dp"
  },
  "_width_": {
    "type": "string",
    "value": "100%"
  },
  "allboxes": [],
  "autogrowmode": 1,
  "canUpdateUI": true,
  "children": [
    "flxSeparator",
    "flxSeparator3",
    "flxFrom",
    "flxSentTo",
    "flxSentVia",
    "flxFrequency",
    "flxSendOn",
    "flxHowLong",
    "flxNoOfRecurrences",
    "flxAmount",
    "flxHeader",
    "flxPaymentDetails",
    "flxNote",
    "flxSeparator2",
    "flxButtons",
    "lblBalanceLimit"
  ],
  "clipbounds": true,
  "containerweight": 100,
  "enablescrolling": true,
  "id": "PayToUnregisteredRecipientSendMoney",
  "info": null,
  "isvisible": true,
  "kuid": "fe407faff2894eef81e7ee3804ec1066",
  "layouttype": 2,
  "name": "kony.ui.FlexContainer",
  "parent": "userwidgetmodel",
  "pf": "userwidgetmodel",
  "snapgridsize": 10,
  "snaptogrid": true,
  "vizProps": {
    "hidewidgethierarchy": false
  },
  "wType": "FlexContainer",
  "widgetalignment": 1
}