{
  "@class": "com.kony.gen.viz.model.component.KVizUserWidget",
  "DNDConfig": null,
  "__parentReadjusting__": false,
  "_children_": [],
  "_height_": {
    "type": "ref",
    "value": "preferred"
  },
  "_left_": {
    "type": "string",
    "value": "0dp"
  },
  "_margin_": [
    0,
    0,
    0,
    0
  ],
  "_orientation_": 1,
  "_padding_": [
    0,
    0,
    0,
    0
  ],
  "_percent_": true,
  "_render_": true,
  "_skin_": "s24c92fc23b14f5484b693ee9b8a9b35",
  "_top_": {
    "type": "string",
    "value": "30dp"
  },
  "_width_": {
    "type": "string",
    "value": "100%"
  },
  "areflexpropsreferenced": false,
  "autogrowmode": 1,
  "canUpdateUI": true,
  "clipbounds": true,
  "containerweight": 0,
  "dataDiffs": {
    "flxContainer": {
      "__events__": {},
      "__info__": {
        "kuid": "b57ff218de0c49e28c01a058cf9f41fd",
        "srcKUID": "f13dc08cac9b42cf84a6cd0eb46e5de8",
        "wType": "FlexContainer"
      }
    },
    "flxInfo": {
      "__events__": {},
      "__info__": {
        "kuid": "ca095a2e772649b9bc6d5802103c779f",
        "srcKUID": "e95f6b8ffb5f415db6652af917c31c62",
        "wType": "FlexContainer"
      }
    },
    "flxKey": {
      "__events__": {},
      "__info__": {
        "kuid": "c2d7a1409ab845b1a159a085aaa5359c",
        "srcKUID": "d4492c719df94445a861e97f34dc4949",
        "wType": "FlexContainer"
      }
    },
    "flxValue": {
      "__events__": {},
      "__info__": {
        "kuid": "a0aed0ea6c6b4b70a2ec62dc18cff91a",
        "srcKUID": "b141325e5e9048519b71af002cfee26a",
        "wType": "FlexContainer"
      }
    },
    "imgWhatIsSSN": {
      "__events__": {},
      "__info__": {
        "kuid": "j68c007781a14df4a048390e5c3bbf7b",
        "srcKUID": "f54ec2da1e9d451d9345687646b48cc3",
        "wType": "Image"
      }
    },
    "keyValue": {
      "__events__": {},
      "__info__": {
        "isRoot": true,
        "kuid": "d5a33ae851794702a0bdd638bb2bd5fe",
        "srcKUID": "cc43b83fad51498eaee44e391076b1e1",
        "wType": "FlexContainer"
      },
      "autogrowMode": 1,
      "height": {
        "Default": {
          "type": "ref",
          "value": "preferred"
        }
      },
      "left": {
        "Default": {
          "type": "string",
          "value": "0dp"
        }
      },
      "top": {
        "Default": {
          "type": "string",
          "value": "30dp"
        }
      },
      "zIndex": {
        "Default": 5
      }
    },
    "lblColon": {
      "__events__": {},
      "__info__": {
        "kuid": "fc4f292923644fc582548436eb94d5c6",
        "srcKUID": "c1b15d6a704e4365be1c4ff0a75c3f55",
        "wType": "Label"
      }
    },
    "lblKey": {
      "__events__": {},
      "__info__": {
        "kuid": "j333ca37bf0f4a4585cb5f0c56a88045",
        "srcKUID": "daa1384a75084c57b8a708d751b05837",
        "wType": "Label"
      },
      "i18n_text": "i18n.common.accountNumber"
    },
    "lblValue": {
      "__events__": {},
      "__info__": {
        "kuid": "bcfa3b10118e429cbd19b19e419df514",
        "srcKUID": "had7006a19c947e7ae413b191f0cc841",
        "wType": "Label"
      },
      "text": "2345 3456 5678 6789"
    }
  },
  "id": "keyValueServiceProvider",
  "info": null,
  "isdatareferenced": false,
  "isvisible": true,
  "kuid": "ge41e3353b5c47a9844ba6e6e58ea41b",
  "layouttype": 2,
  "masterType": 0,
  "name": "kony.ui.UserWidgetInstance",
  "parent": "flxscrollBody",
  "pf": "userwidgetmodel",
  "snaptogrid": true,
  "sourceUserWidget": "cc43b83fad51498eaee44e391076b1e1",
  "wType": "UserWidgetInstance",
  "zindex": 5
}