{
  "@class": "com.kony.gen.viz.model.component.KVizButton",
  "DNDConfig": null,
  "__parentReadjusting__": false,
  "_height_": {
    "type": "string",
    "value": "50dp"
  },
  "_margin_": [
    6,
    6,
    6,
    6
  ],
  "_padding_": [
    0,
    0,
    0,
    0
  ],
  "_right_": {
    "type": "string",
    "value": "30dp"
  },
  "_skin_": "s5dbba5b9dac4f33998dc76f09b4e9d4",
  "_text_": "DOWNLOAD",
  "_width_": {
    "type": "string",
    "value": "257dp"
  },
  "canUpdateUI": true,
  "centery": {
    "type": "string",
    "value": "50%"
  },
  "containerweight": 100,
  "contentalignment": 5,
  "disabledSkins": {
    "focusSkin": "s9bab51a80b3480ebfb0d224c086873e"
  },
  "displaytext": true,
  "id": "btnDownload",
  "info": null,
  "isvisible": true,
  "kuid": "d6a076476fd84f449da20266c19d7925",
  "name": "kony.ui.Button",
  "parent": "flxButtons",
  "pf": "userwidgetmodel",
  "wType": "Button",
  "zindex": 1,
  "texti18n": "i18n.common.Download",
  "tooltip": "Download"
}