{
  "@class": "com.kony.gen.viz.model.component.KVizButton",
  "DNDConfig": null,
  "__markedForDelete__": true,
  "__parentReadjusting__": false,
  "_height_": {
    "type": "string",
    "value": "24dp"
  },
  "_left_": {
    "type": "string",
    "value": "29dp"
  },
  "_margin_": [
    6,
    6,
    6,
    6
  ],
  "_padding_": [
    2,
    0,
    2,
    0
  ],
  "_skin_": "s55b84dca2454feda7c7ebea7678efa9",
  "_text_": "MODIFY SEARCH",
  "_top_": {
    "type": "string",
    "value": "10dp"
  },
  "_width_": {
    "type": "ref",
    "value": "preferred"
  },
  "canUpdateUI": true,
  "containerweight": 100,
  "contentalignment": 5,
  "disabledSkins": {
    "focusSkin": "sf44d06ca8224832827ea7fdff757013"
  },
  "displaytext": true,
  "id": "btnModifySearch",
  "info": null,
  "isvisible": true,
  "kuid": "cf5108994e9d4382bc5df8500095eb5d",
  "name": "kony.ui.Button",
  "paddinginpixel": false,
  "parent": "flxSearchResultActions",
  "pf": "userwidgetmodel",
  "wType": "Button",
  "zindex": 1
}