{
  "@class": "com.kony.gen.viz.model.component.KVizButton",
  "DNDConfig": null,
  "__parentReadjusting__": false,
  "_height_": {
    "type": "string",
    "value": "25dp"
  },
  "_left_": {
    "type": "string",
    "value": "0px"
  },
  "_margin_": [
    6,
    6,
    6,
    6
  ],
  "_padding_": [
    0,
    0,
    0,
    0
  ],
  "_skin_": "s41199c8c0df41048cbf47d26a9026d5",
  "_text_": "DELETE",
  "_top_": {
    "type": "string",
    "value": "13dp"
  },
  "_width_": {
    "type": "ref",
    "value": "preferred"
  },
  "canUpdateUI": true,
  "containerId": true,
  "containerweight": 100,
  "contentalignment": 5,
  "disabledSkins": {
    "focusSkin": "sf44d06ca8224832827ea7fdff757013"
  },
  "displaytext": true,
  "id": "btnDelete",
  "ide_onClick": "AS_Button_d3152d288d2d4401866482334bb801d6",
  "info": null,
  "isvisible": true,
  "kuid": "j1f0d1d4dc8842e59299e5af1150cba2",
  "name": "kony.ui.Button",
  "parent": "flxDeleteAction",
  "pf": "segManageRecipient",
  "wType": "Button",
  "zindex": 1,
  "desktopweb": {
    "psp": {
      "hoverSkin": "s4285319e4d34ae1b45e5ef82d61be6b"
    }
  },
  "texti18n": "i18n.PayAPerson.Delete",
  "tooltip": "Delete"
}