{
  "DNDConfig": null,
  "__parentReadjusting__": false,
  "_height_": {
    "type": "string",
    "value": "100%"
  },
  "_left_": {
    "type": "string",
    "value": "0"
  },
  "_margin_": [
    0,
    0,
    0,
    0
  ],
  "_orientation_": 6,
  "_padding_": [
    0,
    0,
    0,
    0
  ],
  "_percent_": true,
  "_skin_": "s4b5ad27f86e4f7c8aaa9a78bf7cc838",
  "_top_": {
    "type": "string",
    "value": "0dp"
  },
  "_width_": {
    "type": "string",
    "value": "100%"
  },
  "allboxes": [],
  "autogrowmode": 0,
  "canUpdateUI": true,
  "children": [
    "flxRecentTransfers",
    "lblSeparator",
    "flxDetail"
  ],
  "clipbounds": true,
  "containerId": true,
  "containerweight": 100,
  "enablescrolling": true,
  "id": "flxSelectedRowWrapper",
  "info": null,
  "isvisible": true,
  "kuid": "a43fa53b92b24070a1cefda6ea3d8e59",
  "layouttype": 4,
  "name": "kony.ui.FlexContainer",
  "parent": "flxScheduledTransfersSelected",
  "pf": "segScheduledTransfersSelected",
  "snapgridsize": 10,
  "snaptogrid": true,
  "wType": "FlexContainer",
  "widgetalignment": 1,
  "zindex": 1
}