{
  "@class": "com.kony.gen.viz.model.component.KVizImage2",
  "DNDConfig": null,
  "__parentReadjusting__": false,
  "_base64_": null,
  "_height_": {
    "type": "string",
    "value": "16dp"
  },
  "_left_": {
    "type": "string",
    "value": "5dp"
  },
  "_margin_": [
    0,
    0,
    0,
    0
  ],
  "_padding_": [
    0,
    0,
    0,
    0
  ],
  "_skin_": "s78a5f26c9f14cec9ebed1bb46098f80",
  "_src_": "arrow_down.png",
  "_width_": {
    "type": "string",
    "value": "16dp"
  },
  "canUpdateUI": true,
  "centerx": {
    "type": "string",
    "value": "50%"
  },
  "centery": {
    "type": "string",
    "value": "50%"
  },
  "containerId": true,
  "containerweight": 100,
  "context": {
    "channel": "desktop",
    "platform": "desktopweb",
    "templateType": "segments",
    "topLevelBox": null
  },
  "id": "imgDropdown",
  "imagescalemode": 1,
  "imagewhiledownloading": "img_transparent.png",
  "info": null,
  "isvisible": true,
  "kuid": "iaf3d7d54e3a4cde82ec999eac542403",
  "name": "kony.ui.Image2",
  "parent": "flxDropdown",
  "pf": "segScheduledTransfersSelected",
  "srcType": 1,
  "tooltip": "Hide Transaction Details",
  "wType": "Image",
  "widgetalignment": 5,
  "zindex": 1
}