{
  "@class": "com.kony.gen.viz.model.component.KVizUserWidget",
  "DNDConfig": null,
  "__parentReadjusting__": false,
  "_children_": [],
  "_height_": {
    "type": "ref",
    "value": "preferred"
  },
  "_left_": {
    "type": "string",
    "value": "0dp"
  },
  "_margin_": [
    0,
    0,
    0,
    0
  ],
  "_orientation_": 1,
  "_padding_": [
    0,
    0,
    0,
    0
  ],
  "_percent_": true,
  "_render_": true,
  "_skin_": "s96c1ab807354105a41f9db9f44c1d73",
  "_top_": {
    "type": "string",
    "value": "30dp"
  },
  "_width_": {
    "type": "string",
    "value": "88%"
  },
  "areflexpropsreferenced": false,
  "autogrowmode": 1,
  "canUpdateUI": true,
  "centerx": {
    "type": "string",
    "value": "50%"
  },
  "clipbounds": true,
  "containerweight": 0,
  "dataDiffs": {
    "ConfirmDetailsSingleMultiple": {
      "__events__": {},
      "__info__": {
        "isRoot": true,
        "kuid": "jdaa7761a384464fafb1b8faa7681ade",
        "srcKUID": "g9bf856ebe344b548fb8b63ccf9eabad",
        "wType": "FlexContainer"
      },
      "centerX": {
        "Default": {
          "type": "string",
          "value": "50%"
        }
      },
      "top": {
        "Default": {
          "type": "string",
          "value": "30dp"
        }
      },
      "width": {
        "Default": {
          "type": "string",
          "value": "88%"
        }
      }
    },
    "btnBackToAccoutnDetails": {
      "__events__": {},
      "__info__": {
        "kuid": "b7ee0ad22dd84f04aff47a31fe2797ef",
        "srcKUID": "b75e078af9564aa186366890825d26ab",
        "wType": "Button"
      }
    },
    "btnCancel": {
      "__events__": {},
      "__info__": {
        "kuid": "ea9425d9bfd648cc92e0a27fbadce6b9",
        "srcKUID": "e209929e7402413ea6f9e0a5a20b1484",
        "wType": "Button"
      }
    },
    "btnConfirm": {
      "__events__": {},
      "__info__": {
        "kuid": "a90ca5b1cc344feeb9f64f69e5e7734e",
        "srcKUID": "cfa3be3f09004664993efdf98e3b3937",
        "wType": "Button"
      }
    },
    "btnModify": {
      "__events__": {},
      "__info__": {
        "kuid": "ed28660d50584997a1d793567a0ab5cb",
        "srcKUID": "a8e346ccd92048df9147f221d04606ae",
        "wType": "Button"
      }
    },
    "btnViewRequests": {
      "__events__": {},
      "__info__": {
        "kuid": "aea228cd1c4b45299c154ab328a8d3d0",
        "srcKUID": "f58f63a986124ad1af1b0deb38b6b96b",
        "wType": "Button"
      }
    },
    "flxAckButtons": {
      "__events__": {},
      "__info__": {
        "kuid": "de7ff050a8da4c9fa39a651f0f236af1",
        "srcKUID": "j9f68fb8f1d4474eb3df670938c72a07",
        "wType": "FlexContainer"
      }
    },
    "flxConfirmHeader": {
      "__events__": {},
      "__info__": {
        "kuid": "j2626e0231a7496284f9dc66697bf816",
        "srcKUID": "c383a3856f2042cf93d80b50bf53c65c",
        "wType": "FlexContainer"
      }
    },
    "flxHeaderSeperator": {
      "__events__": {},
      "__info__": {
        "kuid": "c656719a2f67458e837e9d612fa0e3d3",
        "srcKUID": "if87faf7ec8140bfbba215088495c14d",
        "wType": "FlexContainer"
      }
    },
    "flxSepeartor2": {
      "__events__": {},
      "__info__": {
        "kuid": "b9128686ce5a41dbac9bbaae2ac4acf2",
        "srcKUID": "cd9337c0f69a406f99441cb53826953f",
        "wType": "FlexContainer"
      }
    },
    "flxStep2ButtonSeperator": {
      "__events__": {},
      "__info__": {
        "kuid": "cf056d4aff824a46b7533e7efb46b8ce",
        "srcKUID": "a3c20c34ce41458abc34e1aacf572e09",
        "wType": "FlexContainer"
      }
    },
    "flxStep2Buttons": {
      "__events__": {},
      "__info__": {
        "kuid": "a5b13e956c944cd0992bd6ee3889a934",
        "srcKUID": "d3dc9d5946ad4611836605761cba9650",
        "wType": "FlexContainer"
      },
      "isVisible": false
    },
    "flxTransactionDetails": {
      "__events__": {},
      "__info__": {
        "kuid": "f345561009cf4bd999d2d7a4178690ce",
        "srcKUID": "ac7f30cb2cec4b32a798548837bf784f",
        "wType": "FlexContainer"
      }
    },
    "flxTransactionDetailsRow1": {
      "__events__": {},
      "__info__": {
        "kuid": "dfb70bdd93d641efb9e97bfd808f7e74",
        "srcKUID": "a526b849f13e4c7eabab32e89f3f4180",
        "wType": "FlexContainer"
      }
    },
    "flxTransactionDetailsRow2": {
      "__events__": {},
      "__info__": {
        "kuid": "jceedaa21e544375a968433953e2a636",
        "srcKUID": "i5dce0251af440dfbd41e856f0490730",
        "wType": "FlexContainer"
      }
    },
    "flxTransactionDetailsRow3": {
      "__events__": {},
      "__info__": {
        "kuid": "ff38ea989ba740a8af77342be4a2e321",
        "srcKUID": "h8a1912c59334d709e4d3cd5d5bb19ba",
        "wType": "FlexContainer"
      }
    },
    "lblAmount": {
      "__events__": {},
      "__info__": {
        "kuid": "c66f474dcce1431a8cc5d9e4c09edffd",
        "srcKUID": "ab382ec154894865bda94f660f9657d5",
        "wType": "Label"
      }
    },
    "lblConfirmHeader": {
      "__events__": {},
      "__info__": {
        "kuid": "f089afd874d84b21be717188d84dc473",
        "srcKUID": "fbd8c1d2fd144420bed5a17dfa769fd9",
        "wType": "Label"
      }
    },
    "lblDescription": {
      "__events__": {},
      "__info__": {
        "kuid": "df18d018a4b0421a9d7ed214ec0e9c6a",
        "srcKUID": "ba7a6ea6e764447bb3c11581e6ffad8c",
        "wType": "Label"
      }
    },
    "lblReason": {
      "__events__": {},
      "__info__": {
        "kuid": "ee3fb73af3ca4defa10d256abc1ceb0f",
        "srcKUID": "ad5d1102e9344a2b87bf15c46ab81377",
        "wType": "Label"
      }
    },
    "rtxAmount": {
      "__events__": {},
      "__info__": {
        "kuid": "a0e12a26414a43c9bf96fbcafce0fb3c",
        "srcKUID": "e24b2dfa3af34f2cb90b58a94bea81f4",
        "wType": "RichText"
      }
    },
    "rtxDescription": {
      "__events__": {},
      "__info__": {
        "kuid": "a34661dafa8549c49a800676d271d688",
        "srcKUID": "e118f8956d2b4003863fe2be2ea8ffd2",
        "wType": "RichText"
      }
    },
    "rtxReason": {
      "__events__": {},
      "__info__": {
        "kuid": "ed8205ee12a742a092093da941ee6571",
        "srcKUID": "c3bd54bb58b04bc99111ce606bd0756d",
        "wType": "RichText"
      }
    },
    "segConfirmDetails": {
      "__events__": {},
      "__info__": {
        "kuid": "e0f700a5e7424fc892b2b590291a80f6",
        "srcKUID": "g7977bca4b704a458d88f8b7256ebfcc",
        "wType": "Segment"
      }
    }
  },
  "id": "ConfirmDetailsSingleMultiple",
  "info": null,
  "isdatareferenced": false,
  "isvisible": true,
  "kuid": "jdaa7761a384464fafb1b8faa7681ade",
  "layouttype": 4,
  "masterType": 0,
  "name": "kony.ui.UserWidgetInstance",
  "parent": "flxSinglePayStopCheckPayments",
  "pf": "frmAcknowledgement",
  "snaptogrid": true,
  "sourceUserWidget": "g9bf856ebe344b548fb8b63ccf9eabad",
  "wType": "UserWidgetInstance"
}