{
  "DNDConfig": null,
  "__parentReadjusting__": false,
  "_height_": {
    "type": "string",
    "value": "25dp"
  },
  "_margin_": [
    0,
    0,
    0,
    0
  ],
  "_orientation_": 6,
  "_padding_": [
    0,
    0,
    0,
    0
  ],
  "_percent_": true,
  "_right_": {
    "type": "string",
    "value": "0%"
  },
  "_skin_": "s24c92fc23b14f5484b693ee9b8a9b35",
  "_top_": {
    "type": "string",
    "value": "21dp"
  },
  "_width_": {
    "type": "string",
    "value": "25dp"
  },
  "allboxes": [],
  "autogrowmode": 0,
  "canUpdateUI": true,
  "children": [
    "imgDownloadACK"
  ],
  "clipbounds": true,
  "containerweight": 100,
  "desktopweb": {
    "psp": {
      "hoverSkin": "s33beaea65744dc8aecdacfe3caf89af"
    }
  },
  "enablescrolling": true,
  "id": "flxDownloadACK",
  "info": null,
  "isvisible": true,
  "kuid": "h76a722cedfb4a8dbd28c4aa89c5924b",
  "layouttype": 2,
  "name": "kony.ui.FlexContainer",
  "parent": "flxTopHeader",
  "pf": "frmAcknowledgement",
  "snapgridsize": 10,
  "snaptogrid": true,
  "wType": "FlexContainer",
  "widgetalignment": 1,
  "zindex": 1
}