{
  "DNDConfig": null,
  "__parentReadjusting__": false,
  "_height_": {
    "type": "string",
    "value": "25dp"
  },
  "_margin_": [
    0,
    0,
    0,
    0
  ],
  "_orientation_": 6,
  "_padding_": [
    0,
    0,
    0,
    0
  ],
  "_percent_": true,
  "_right_": {
    "type": "string",
    "value": "0%"
  },
  "_skin_": "s24c92fc23b14f5484b693ee9b8a9b35",
  "_top_": {
    "type": "string",
    "value": "21dp"
  },
  "_width_": {
    "type": "string",
    "value": "25dp"
  },
  "allboxes": [],
  "autogrowmode": 0,
  "canUpdateUI": true,
  "children": [
    "imgDownloadBulk"
  ],
  "clipbounds": true,
  "containerweight": 100,
  "desktopweb": {
    "psp": {
      "hoverSkin": "s33beaea65744dc8aecdacfe3caf89af"
    }
  },
  "enablescrolling": true,
  "id": "flxDownloadBukPay",
  "info": null,
  "isvisible": false,
  "kuid": "bed0602940034cafb7f46ebdfc4df6e9",
  "layouttype": 2,
  "name": "kony.ui.FlexContainer",
  "parent": "flxTop",
  "pf": "frmAcknowledgement",
  "snapgridsize": 10,
  "snaptogrid": true,
  "wType": "FlexContainer",
  "widgetalignment": 1,
  "zindex": 1
}