{
  "DNDConfig": null,
  "__parentReadjusting__": false,
  "_height_": {
    "type": "string",
    "value": "67px"
  },
  "_left_": {
    "type": "string",
    "value": "0dp"
  },
  "_margin_": [
    0,
    0,
    0,
    0
  ],
  "_orientation_": 6,
  "_padding_": [
    0,
    0,
    0,
    0
  ],
  "_percent_": true,
  "_skin_": "s24c92fc23b14f5484b693ee9b8a9b35",
  "_top_": {
    "type": "string",
    "value": "0dp"
  },
  "_width_": {
    "type": "string",
    "value": "88%"
  },
  "allboxes": [],
  "autogrowmode": 0,
  "canUpdateUI": true,
  "centerx": {
    "type": "string",
    "value": "50%"
  },
  "children": [
    "lblBulkBillPayAcknowledgement",
    "flxPrintBulkPay",
    "flxDownloadBukPay"
  ],
  "clipbounds": true,
  "containerweight": 100,
  "enablescrolling": true,
  "id": "flxTop",
  "info": null,
  "isvisible": true,
  "kuid": "c17c090076fd48a4bdf35540fbbd69e4",
  "layouttype": 2,
  "name": "kony.ui.FlexContainer",
  "parent": "flxMainBulkPay",
  "pf": "frmAcknowledgement",
  "snapgridsize": 10,
  "snaptogrid": true,
  "wType": "FlexContainer",
  "widgetalignment": 1,
  "zindex": 1
}