{
  "@class": "com.kony.gen.viz.model.component.KVizLabel",
  "DNDConfig": null,
  "__parentReadjusting__": false,
  "_height_": {
    "type": "ref",
    "value": "preferred"
  },
  "_left_": {
    "type": "string",
    "value": "60.30%"
  },
  "_margin_": [
    1,
    1,
    1,
    1
  ],
  "_padding_": [
    0,
    0,
    2,
    0
  ],
  "_skin_": "s835d20fd78247ff97f8620ed0ff4805",
  "_text_": "Label",
  "_width_": {
    "type": "ref",
    "value": "preferred"
  },
  "_wrapping_": 2,
  "android": {
    "textStyle": {
      "letterSpacing": 0,
      "strikeThrough": false
    }
  },
  "canUpdateUI": true,
  "centery": {
    "type": "string",
    "value": "50%"
  },
  "containerweight": 100,
  "contentalignment": 4,
  "id": "lblSendOnConfirm",
  "info": null,
  "ipad": {
    "psp": {
      "wrapping": 2
    }
  },
  "iphone": {
    "psp": {
      "wrapping": 2
    }
  },
  "isvisible": true,
  "kuid": "e5b38a263c374a648ae045ee1ea2dc5c",
  "name": "kony.ui.Label",
  "paddinginpixel": false,
  "parent": "flxSubHeaderConfirm",
  "pf": "frmAcknowledgement",
  "texti18n": "i18n.transfers.send_on",
  "tooltip": "",
  "wType": "Label",
  "zindex": 1
}