{
  "DNDConfig": null,
  "__parentReadjusting__": false,
  "_height_": {
    "type": "string",
    "value": "33.33%"
  },
  "_left_": {
    "type": "string",
    "value": "0dp"
  },
  "_margin_": [
    0,
    0,
    0,
    0
  ],
  "_orientation_": 6,
  "_padding_": [
    0,
    0,
    0,
    0
  ],
  "_percent_": true,
  "_skin_": "s3e1bf7db16846408532b475f55e759f",
  "_top_": {
    "type": "string",
    "value": "0dp"
  },
  "_width_": {
    "type": "string",
    "value": "100%"
  },
  "allboxes": [],
  "autogrowmode": 0,
  "canUpdateUI": true,
  "children": [],
  "clipbounds": true,
  "containerweight": 100,
  "desktopweb": {
    "psp": {
      "hoverSkin": "s05689ae9a6b4ff687b6f91b4ee326f2"
    }
  },
  "enablescrolling": true,
  "id": "flxPrint",
  "info": null,
  "isvisible": true,
  "kuid": "j165a86293894f42acc3e5cffc76c071",
  "layouttype": 2,
  "name": "kony.ui.FlexContainer",
  "parent": "flxImageHolder",
  "pf": "userwidgetmodel",
  "snapgridsize": 10,
  "snaptogrid": true,
  "wType": "FlexContainer",
  "widgetalignment": 1,
  "zindex": 1
}