{
  "DNDConfig": null,
  "__parentReadjusting__": false,
  "_height_": {
    "type": "string",
    "value": "768dp"
  },
  "_margin_": [
    0,
    0,
    0,
    0
  ],
  "_orientation_": 6,
  "_padding_": [
    0,
    0,
    0,
    0
  ],
  "_percent_": true,
  "_skin_": "sd297e91963348b7b1a1247ee7b01487",
  "_top_": {
    "type": "string",
    "value": "185dp"
  },
  "_width_": {
    "type": "string",
    "value": "997dp"
  },
  "allboxes": [],
  "autogrowmode": 0,
  "canUpdateUI": true,
  "centerx": {
    "type": "string",
    "value": "50%"
  },
  "centery": {
    "type": "string",
    "value": "50%"
  },
  "children": [
    "flxHeader",
    "flxSeparator",
    "flxImageContainer",
    "flxNote"
  ],
  "clipbounds": true,
  "containerweight": 100,
  "enablescrolling": true,
  "id": "flxViewReportWrapper",
  "info": null,
  "isvisible": true,
  "kuid": "aeb1ea8778414be3815a8d97056db1de",
  "layouttype": 4,
  "name": "kony.ui.FlexContainer",
  "parent": "ViewReport",
  "pf": "userwidgetmodel",
  "snapgridsize": 10,
  "snaptogrid": true,
  "wType": "FlexContainer",
  "widgetalignment": 1,
  "zindex": 1
}