{
  "@class": "com.kony.gen.viz.model.component.KVizButton",
  "DNDConfig": null,
  "__parentReadjusting__": false,
  "_height_": {
    "type": "string",
    "value": "50dp"
  },
  "_left_": {
    "type": "string",
    "value": "39.07%"
  },
  "_margin_": [
    6,
    6,
    6,
    6
  ],
  "_padding_": [
    0,
    0,
    0,
    0
  ],
  "_skin_": "s83729feaa224e359d660d5af05c4bac",
  "_text_": "",
  "_top_": {
    "type": "string",
    "value": "20dp"
  },
  "_width_": {
    "type": "string",
    "value": "27.70%"
  },
  "canUpdateUI": true,
  "containerweight": 100,
  "contentalignment": 5,
  "disabledSkins": {
    "focusSkin": "sf44d06ca8224832827ea7fdff757013"
  },
  "displaytext": true,
  "id": "btnAckGoToAccounts",
  "info": null,
  "isvisible": true,
  "kuid": "d3a6790b8781400a9a746755cd9a69cb",
  "name": "kony.ui.Button",
  "parent": "flxAcknowledgementButtons",
  "pf": "userwidgetmodel",
  "texti18n": "i18n.NAO.GoToAccounts",
  "tooltip": "CANCEL",
  "wType": "Button",
  "zindex": 1
}