{
  "@class": "com.kony.gen.viz.model.container.KVizSegment2",
  "DNDConfig": null,
  "__parentReadjusting__": false,
  "_bottom_": {
    "type": "string",
    "value": "30dp"
  },
  "_data_": [
    {},
    {},
    {}
  ],
  "_height_": {
    "type": "ref",
    "value": "preferred"
  },
  "_indicator_": "none",
  "_left_": {
    "type": "string",
    "value": "0dp"
  },
  "_margin_": [
    0,
    0,
    0,
    0
  ],
  "_orientation_": 2,
  "_padding_": [
    0,
    0,
    0,
    0
  ],
  "_top_": {
    "type": "string",
    "value": "0dp"
  },
  "_width_": {
    "type": "string",
    "value": "100%"
  },
  "autogrowmode": 1,
  "canUpdateUI": true,
  "containerweight": 100,
  "counter": "00",
  "desktop": {
    "_data_": [
      {
        "imgSelectedProduct1": {
          "@class": "com.viz.ide.model.segment.ImageSegmentData",
          "src": "nuo_savings_mod.png"
        },
        "imgSelectedProduct2": {
          "@class": "com.viz.ide.model.segment.ImageSegmentData",
          "src": "nuo_savings_mod.png"
        },
        "lblSelectedDescriptionName2": {
          "@class": "com.viz.ide.model.segment.SimpleTextSegmentData",
          "text": "Your card will be dispatched"
        },
        "lblSelectedDescriptonName1": {
          "@class": "com.viz.ide.model.segment.SimpleTextSegmentData",
          "text": "Your Account is now active"
        },
        "lblSelectedProductName1": {
          "@class": "com.viz.ide.model.segment.SimpleTextSegmentData",
          "text": "Savings Account"
        },
        "lblSelectedProductName2": {
          "@class": "com.viz.ide.model.segment.SimpleTextSegmentData",
          "text": "Credit card"
        }
      }
    ],
    "rowTemplateId": "ea8dbc610e0a4757bd9a194c82546d02",
    "rowtemplate": "flxNUOProductsAck",
    "widgetdatamap": {
      "flxNAOProductsAck": "flxNAOProductsAck",
      "flxSelectedProduct1": "flxSelectedProduct1",
      "flxSelectedProduct2": "flxSelectedProduct2",
      "imgSelectedProduct1": "imgSelectedProduct1",
      "imgSelectedProduct2": "imgSelectedProduct2",
      "lblSelectedDescriptionName2": "lblSelectedDescriptionName2",
      "lblSelectedDescriptonName1": "lblSelectedDescriptonName1",
      "lblSelectedProductName1": "lblSelectedProductName1",
      "lblSelectedProductName2": "lblSelectedProductName2"
    }
  },
  "focusedindex": null,
  "focuseditem": null,
  "groupcells": false,
  "hasSections": false,
  "id": "segProducts",
  "info": null,
  "ipad": {
    "psp": {
      "indicator": "rowselect"
    }
  },
  "iphone": {
    "psp": {
      "indicator": "rowselect"
    }
  },
  "iscustomlayout": false,
  "isvisible": true,
  "kuid": "c56bfc99c0894aad914a262931c31d25",
  "masterdata": {},
  "name": "kony.ui.SegmentedUI2",
  "needpageindicator": true,
  "pageoffdotimage": "pageoffdot.png",
  "pageondotimage": "pageondot.png",
  "paginationconfig": {
    "position": "bottom"
  },
  "parent": "flxAcknowledgementMain",
  "pf": "userwidgetmodel",
  "retaincontentalignment": false,
  "retainflexpositionproperties": false,
  "retainselection": false,
  "rowcounter": 0,
  "rowfocusskin": "s9f69e977910472eb44c62ae28c41fe1",
  "rowskin": "scf5f90f6ac04976ab88b2a4f7153285",
  "rowtemplate": "flxNAOProductsAck",
  "screenlevelwidget": false,
  "seccounter": 0,
  "sectionheaderskin": "sdc4ff4ed1584272be2ae69045dfb29d",
  "selectedRows": null,
  "selectedState": false,
  "selectedindex": null,
  "selectedindices": null,
  "selecteditems": null,
  "selectedsectionindex": null,
  "selectionbehavior": "default",
  "separatorcolor": "aaaaaa00",
  "separatorrequired": true,
  "separatorthickness": 1,
  "showscrollbars": false,
  "viewtype": "tableview",
  "wType": "Segment",
  "widgetalignment": 5,
  "widgetdatamap": {
    "flxNAOProductsAck": "flxNAOProductsAck",
    "flxSelectedProduct1": "flxSelectedProduct1",
    "flxSelectedProduct2": "flxSelectedProduct2",
    "imgSelectedProduct1": "imgSelectedProduct1",
    "imgSelectedProduct2": "imgSelectedProduct2",
    "lblSelectedDescriptionName2": "lblSelectedDescriptionName2",
    "lblSelectedDescriptonName1": "lblSelectedDescriptonName1",
    "lblSelectedProductName1": "lblSelectedProductName1",
    "lblSelectedProductName2": "lblSelectedProductName2"
  },
  "zindex": 1
}