{
  "@class": "com.kony.gen.viz.model.container.KVizSegment2",
  "DNDConfig": null,
  "__parentReadjusting__": false,
  "_data_": [
    {},
    {},
    {}
  ],
  "_height_": {
    "type": "ref",
    "value": "preferred"
  },
  "_indicator_": "none",
  "_left_": {
    "type": "string",
    "value": "0dp"
  },
  "_margin_": [
    0,
    0,
    0,
    0
  ],
  "_orientation_": 2,
  "_padding_": [
    0,
    0,
    0,
    0
  ],
  "_top_": {
    "type": "string",
    "value": "0dp"
  },
  "_width_": {
    "type": "string",
    "value": "100%"
  },
  "autogrowmode": 1,
  "canUpdateUI": true,
  "containerweight": 100,
  "counter": "15",
  "desktop": {
    "_data_": [],
    "rowTemplateId": "a3faa0de5ab04f2785c7db753339afc1",
    "rowtemplate": "flxAccountTypesTransfers",
    "sectionHeaderTemplateId": "ff98973f21d24808abcdab866be5e67a",
    "sectionheadertemplate": "flxHeaderTransferAccountType",
    "widgetdatamap": {
      "flxAccountTypesTransfers": "flxAccountTypesTransfers",
      "flxHeaderTransferAccountType": "flxHeaderTransferAccountType",
      "lblBalance": "lblBalance",
      "lblHeader": "lblHeader",
      "lblSeparator": "lblSeparator",
      "lblUsers": "lblUsers"
    }
  },
  "focusedindex": null,
  "focuseditem": null,
  "groupcells": false,
  "hasSections": true,
  "id": "segAccountTypes",
  "info": null,
  "ipad": {
    "psp": {
      "indicator": "rowselect"
    }
  },
  "iphone": {
    "psp": {
      "indicator": "rowselect"
    }
  },
  "isvisible": true,
  "kuid": "ef471b94a944465f8eacd93a7ea27500",
  "masterdata": {},
  "name": "kony.ui.SegmentedUI2",
  "needpageindicator": true,
  "pageoffdotimage": "pageoffdot.png",
  "pageondotimage": "pageondot.png",
  "paginationconfig": {
    "position": "bottom"
  },
  "parent": "flxAccountTypesSegment",
  "pf": "userwidgetmodel",
  "retainselection": false,
  "rowcounter": 5,
  "rowfocusskin": "s9f69e977910472eb44c62ae28c41fe1",
  "rowskin": "s9af6c24730f47f58bba296f13990645",
  "screenlevelwidget": false,
  "seccounter": 1,
  "sectionheaderskin": "sdc4ff4ed1584272be2ae69045dfb29d",
  "selectedRows": null,
  "selectedState": false,
  "selectedindex": null,
  "selectedindices": null,
  "selecteditems": null,
  "selectedsectionindex": null,
  "selectionbehavior": "default",
  "separatorcolor": "dedede32",
  "separatorrequired": true,
  "showscrollbars": false,
  "viewtype": "tableview",
  "wType": "Segment",
  "widgetalignment": 5,
  "widgetdatamap": {
    "flxAccountTypesTransfers": "flxAccountTypesTransfers",
    "flxHeaderTransferAccountType": "flxHeaderTransferAccountType",
    "lblBalance": "lblBalance",
    "lblHeader": "lblHeader",
    "lblSeparator": "lblSeparator",
    "lblUsers": "lblUsers"
  },
  "widgetskin": "sc5aa1b15ab641cbb9aaf50f0e44d2d3",
  "zindex": 1
}