{
  "DNDConfig": null,
  "__parentReadjusting__": false,
  "_height_": {
    "type": "string",
    "value": "260px"
  },
  "_left_": {
    "type": "string",
    "value": "3.60%"
  },
  "_margin_": [
    0,
    0,
    0,
    0
  ],
  "_orientation_": 6,
  "_padding_": [
    0,
    0,
    0,
    0
  ],
  "_percent_": true,
  "_skin_": "scbd4cac3526468089bf3013adff0549",
  "_top_": {
    "type": "string",
    "value": "0dp"
  },
  "_width_": {
    "type": "string",
    "value": "58%"
  },
  "allboxes": [],
  "autogrowmode": 0,
  "canUpdateUI": true,
  "children": [
    "flxBankNameKA",
    "flxAccountTypeKA",
    "flxAccountNumberKA",
    "flxAccountNickNameKA",
    "flxAccountNumberAgainKA",
    "flxBeneficiaryNameKA"
  ],
  "clipbounds": true,
  "containerweight": 100,
  "enablescrolling": true,
  "id": "flxcustomerDetailsKA",
  "info": null,
  "isvisible": true,
  "kuid": "37e78937269848d0b1e0c35b6ec43766",
  "layouttype": 4,
  "name": "kony.ui.FlexContainer",
  "parent": "flxDomesticDetailsKA",
  "pf": "userwidgetmodel",
  "snapgridsize": 10,
  "snaptogrid": true,
  "wType": "FlexContainer",
  "widgetalignment": 1,
  "zindex": 1
}