{
  "DNDConfig": null,
  "__parentReadjusting__": false,
  "_height_": {
    "type": "ref",
    "value": "preferred"
  },
  "_left_": {
    "type": "string",
    "value": "0dp"
  },
  "_margin_": [
    0,
    0,
    0,
    0
  ],
  "_orientation_": 6,
  "_padding_": [
    0,
    0,
    0,
    0
  ],
  "_percent_": true,
  "_skin_": "sa524b613cfb4a9784d5415175a7fd34",
  "_top_": {
    "type": "string",
    "value": "0dp"
  },
  "_width_": {
    "type": "string",
    "value": "100%"
  },
  "allboxes": [],
  "autogrowmode": 1,
  "canUpdateUI": true,
  "children": [
    "lblWarningInt",
    "flxInternationalCustomerDetailsKA",
    "flxIntHorizantalLineKA",
    "flxIntAddOrCancelKA"
  ],
  "clipbounds": true,
  "containerweight": 100,
  "enablescrolling": true,
  "id": "flxInternationalDetailsKA",
  "info": null,
  "isvisible": false,
  "kuid": "6ec9a8e9cd7a4c7c9d7b9328a61602d8",
  "layouttype": 4,
  "name": "kony.ui.FlexContainer",
  "parent": "flxMainDesktopKA",
  "pf": "userwidgetmodel",
  "snapgridsize": 10,
  "snaptogrid": true,
  "wType": "FlexContainer",
  "widgetalignment": 1,
  "zindex": 1
}