{
  "@class": "com.kony.gen.viz.model.component.KVizListBox",
  "DNDConfig": null,
  "__parentReadjusting__": false,
  "_height_": {
    "type": "string",
    "value": "40dp"
  },
  "_left_": {
    "type": "string",
    "value": "0dp"
  },
  "_margin_": [
    0,
    0,
    0,
    0
  ],
  "_padding_": [
    0,
    0,
    0,
    0
  ],
  "_skin_": "sfae4459590b4f39af6863186b5f2646",
  "_top_": {
    "type": "string",
    "value": "6dp"
  },
  "_width_": {
    "type": "string",
    "value": "100%"
  },
  "canUpdateUI": true,
  "containerweight": 100,
  "contentalignment": 4,
  "context": {
    "channel": "desktop",
    "formID": "uwdb37d283e54e4b668fa5214113c9b5c5",
    "platform": "desktopweb",
    "templateType": "userwidgets",
    "topLevelBox": null
  },
  "groupcells": false,
  "id": "lbxIntAccountTypeKA",
  "info": null,
  "isvisible": true,
  "kuid": "a4d072a1b00c4f6ebe07296906e1d1f3",
  "masterdata": [],
  "name": "kony.ui.ListBox",
  "parent": "flxIntAccountTypeKA",
  "pf": "userwidgetmodel",
  "selectedkey": "lb1",
  "selectedkeys": null,
  "selectedkeyvalue": [
    "lb1",
    "Savings"
  ],
  "selectedkeyvalues": null,
  "size": 18,
  "viewconfig": {
    "toggleViewConfig": {
      "viewStyle": 0
    }
  },
  "viewtype": 0,
  "wType": "ListBox",
  "zindex": 1
}