{
  "@class": "com.kony.gen.viz.model.component.KVizTextBox2",
  "DNDConfig": null,
  "__parentReadjusting__": false,
  "_height_": {
    "type": "string",
    "value": "40dp"
  },
  "_left_": {
    "type": "string",
    "value": "0dp"
  },
  "_margin_": [
    0,
    0,
    0,
    0
  ],
  "_padding_": [
    3,
    0,
    0,
    0
  ],
  "_placeholder_": "Enter Beneficiary Name",
  "_skin_": "s26c65e1ba054da39dd45c5a46abc5f0",
  "_text_": "",
  "_top_": {
    "type": "string",
    "value": "6px"
  },
  "_width_": {
    "type": "string",
    "value": "100%"
  },
  "autocapitalize": "none",
  "autocomplete": false,
  "autocorrect": false,
  "autofilter": false,
  "canUpdateUI": true,
  "containerheight": "",
  "containerheightmode": 1,
  "containerweight": 100,
  "contentalignment": 4,
  "desktopweb": {
    "psp": {
      "hoverSkin": "s80a8c5539a441ee9b9b49917cc45cc2"
    }
  },
  "focusskin": "s80a8c5539a441ee9b9b49917cc45cc2",
  "id": "tbxIntBeneficiaryNameKA",
  "info": null,
  "isvisible": true,
  "keyboardtype": "A",
  "kiosk": {
    "psp": {
      "toolTip": "Beneficiary Name"
    }
  },
  "kuid": "d8d020fadfbc44248b3a7ebe0472f21f",
  "mode": "A",
  "name": "kony.ui.TextBox2",
  "parent": "flxIntBeneficiaryNameKA",
  "pf": "userwidgetmodel",
  "securetextentry": false,
  "textinputmode": "A",
  "viewtype": "default",
  "wType": "TextField",
  "zindex": 1
}