{
  "@class": "com.kony.gen.viz.model.component.KVizImage2",
  "DNDConfig": null,
  "__parentReadjusting__": false,
  "_base64_": null,
  "_height_": {
    "type": "string",
    "value": "20dp"
  },
  "_left_": {
    "type": "string",
    "value": "0dp"
  },
  "_margin_": [
    0,
    0,
    0,
    0
  ],
  "_padding_": [
    0,
    0,
    0,
    0
  ],
  "_skin_": "s78a5f26c9f14cec9ebed1bb46098f80",
  "_src_": "unchecked_box.png",
  "_top_": {
    "type": "string",
    "value": "0px"
  },
  "_width_": {
    "type": "string",
    "value": "20dp"
  },
  "canUpdateUI": true,
  "containerweight": 100,
  "context": {
    "channel": "desktop",
    "formID": "frmNAO",
    "platform": "desktopweb",
    "templateType": "forms",
    "topLevelBox": null
  },
  "id": "CopyimgTCContentsCheckbox0h9889054d45745",
  "imagescalemode": 1,
  "info": null,
  "invokedProperty": "src",
  "isvisible": true,
  "kuid": "e1c7dfea7fd74a169557b4fe4db21638",
  "name": "kony.ui.Image2",
  "parent": "CopyflxTCContentsCheckbox0i5f73c9b411548",
  "pf": "frmNAO",
  "srcType": 1,
  "tooltip": "Select Terms \u0026 Conditions",
  "wType": "Image",
  "widgetalignment": 5,
  "zindex": 1
}