{
  "@class": "com.kony.gen.viz.model.component.KVizUserWidget",
  "DNDConfig": null,
  "__parentReadjusting__": false,
  "_children_": [],
  "_height_": {
    "type": "ref",
    "value": "preferred"
  },
  "_left_": {
    "type": "string",
    "value": "0dp"
  },
  "_margin_": [
    0,
    0,
    0,
    0
  ],
  "_orientation_": 1,
  "_padding_": [
    0,
    0,
    0,
    0
  ],
  "_percent_": true,
  "_render_": true,
  "_skin_": "sf94624be61d43e299a4790d019276ba",
  "_top_": {
    "type": "string",
    "value": "0dp"
  },
  "_width_": {
    "type": "string",
    "value": "100%"
  },
  "areflexpropsreferenced": false,
  "autogrowmode": 1,
  "canUpdateUI": true,
  "clipbounds": true,
  "containerweight": 0,
  "dataDiffs": {
    "CreditCheckNAO": {
      "__events__": {},
      "__info__": {
        "isRoot": true,
        "kuid": "c36bb95451cf420fb3d61c290f40b1f5",
        "srcKUID": "b19568942d4c4e7fb5bd3934089ae56d",
        "wType": "FlexContainer"
      }
    },
    "btnCreditCheckClose": {
      "__events__": {},
      "__info__": {
        "kuid": "c6fc8909ba3c49ca80b1b2cea6599a32",
        "srcKUID": "df5a153b379d4644bc178f75f0e5fc81",
        "wType": "Button"
      }
    },
    "btnCreditCheckSeperator2": {
      "__events__": {},
      "__info__": {
        "kuid": "eb5029760b2c4cdaa2ad66fc6ac0772f",
        "srcKUID": "b414316e128840b391e6ac16d7864456",
        "wType": "FlexContainer"
      }
    },
    "flxColorLine": {
      "__events__": {},
      "__info__": {
        "kuid": "fbf4f96bf4f747c887531bdcc783e954",
        "srcKUID": "adb4806d02db41c0ae215bd6fa76569c",
        "wType": "FlexContainer"
      }
    },
    "flxCreditCheck": {
      "__events__": {},
      "__info__": {
        "kuid": "gab9b21b09ff4f1ab2e45394af368571",
        "srcKUID": "fd4643df4f444bf3ab36b46d8585ea3a",
        "wType": "FlexContainer"
      }
    },
    "flxCreditCheckButtons": {
      "__events__": {},
      "__info__": {
        "kuid": "d11fc0b1b65b4211b0a4379a42a34354",
        "srcKUID": "dc815daa99ed46c1b7abb09e7c605ecb",
        "wType": "FlexContainer"
      }
    },
    "flxCreditCheckContainer": {
      "__events__": {},
      "__info__": {
        "kuid": "cef71eb561cb4993aa0ce9be6a130d4f",
        "srcKUID": "c5ec528d06a048699a90ed562166a3ff",
        "wType": "FlexContainer"
      }
    },
    "flxCreditCheckMessageBox": {
      "__events__": {},
      "__info__": {
        "kuid": "a7323d7d7d154325b88fde71c543b06c",
        "srcKUID": "b4191140f9564d19ad4c7cafe56782e3",
        "wType": "FlexContainer"
      }
    },
    "flxCreditCheckimage": {
      "__events__": {},
      "__info__": {
        "kuid": "ebc32c9e2415401a83bbb6a7a1cb83fb",
        "srcKUID": "jb64e322cf0947bfa93a06c772ae3d98",
        "wType": "FlexContainer"
      }
    },
    "flxHeaderCreditCheck": {
      "__events__": {},
      "__info__": {
        "kuid": "hbf8e24f10d641dc8603f761815fc514",
        "srcKUID": "c3a8af25940545a4b36c9aa29f0a19b2",
        "wType": "FlexContainer"
      }
    },
    "flxSeparator": {
      "__events__": {},
      "__info__": {
        "kuid": "f416918be97747928b626e70a150722b",
        "srcKUID": "a0c66e51e58145a6a7fe3df80f4a9f28",
        "wType": "FlexContainer"
      }
    },
    "imgflxCreditCheck": {
      "__events__": {},
      "__info__": {
        "kuid": "fd5b0aa367a9467d954f8aee522fc7ad",
        "srcKUID": "fe6ec918942c418fae56ed251f8bb8ba",
        "wType": "Image"
      }
    },
    "lblCreditCheck": {
      "__events__": {},
      "__info__": {
        "kuid": "aad43367fe18438fa4022a3031a468d4",
        "srcKUID": "d38e565acefa4a9facf001419a68bf03",
        "wType": "Label"
      }
    },
    "lblMessage": {
      "__events__": {},
      "__info__": {
        "kuid": "b1c0ec4ca6b34c87b395d02ff08e7fed",
        "srcKUID": "g9304118ec7a49ddaff838e36c11b878",
        "wType": "Label"
      }
    },
    "lblMessageHeading": {
      "__events__": {},
      "__info__": {
        "kuid": "dbc8b73de74c4ead963af6a16bdd4c65",
        "srcKUID": "c5f8526e6ca14e3e915cd8a3c3ba34bf",
        "wType": "Label"
      }
    }
  },
  "id": "CreditCheckNAO",
  "info": null,
  "iscustomlayout": false,
  "isdatareferenced": false,
  "isvisible": true,
  "kuid": "c36bb95451cf420fb3d61c290f40b1f5",
  "layouttype": 4,
  "masterType": 0,
  "name": "kony.ui.UserWidgetInstance",
  "parent": "flxCreditCheck",
  "pf": "frmNAO",
  "retaincontentalignment": false,
  "retainflexpositionproperties": false,
  "sourceUserWidget": "b19568942d4c4e7fb5bd3934089ae56d",
  "wType": "UserWidgetInstance"
}