{
  "@class": "com.kony.gen.viz.model.component.KVizUserWidget",
  "DNDConfig": null,
  "__parentReadjusting__": false,
  "_children_": [],
  "_height_": {
    "type": "string",
    "value": "268px"
  },
  "_left_": {
    "type": "string",
    "value": "0dp"
  },
  "_margin_": [
    0,
    0,
    0,
    0
  ],
  "_orientation_": 1,
  "_padding_": [
    0,
    0,
    0,
    0
  ],
  "_percent_": true,
  "_render_": true,
  "_skin_": "s4b3bfcb27c14526bcdce6dec3972d8d",
  "_top_": {
    "type": "string",
    "value": "300dp"
  },
  "_width_": {
    "type": "string",
    "value": "44.30%"
  },
  "areflexpropsreferenced": false,
  "canUpdateUI": true,
  "centerx": {
    "type": "string",
    "value": "50.00%"
  },
  "centery": {
    "type": "string",
    "value": ""
  },
  "clipbounds": false,
  "containerweight": 0,
  "dataDiffs": {
    "CustomPopup": {
      "__events__": {},
      "__info__": {
        "isRoot": true,
        "kuid": "d7e5e39ed06a44e58f9d8c743a801eb6",
        "srcKUID": "eb2d311dcb4744a7b05aa4f5428a6c53",
        "wType": "FlexContainer"
      },
      "centerX": {
        "Default": {
          "type": "string",
          "value": "50.00%"
        }
      },
      "centerY": {
        "Default": {
          "type": "string",
          "value": ""
        }
      },
      "top": {
        "Default": {
          "type": "string",
          "value": "300dp"
        }
      },
      "width": {
        "Default": {
          "type": "string",
          "value": "44.30%"
        }
      },
      "zIndex": {
        "Default": 1100
      }
    },
    "btnNo": {
      "__events__": {},
      "__info__": {
        "kuid": "a9d270bc03da4bbda4acf14b9ded1c3a",
        "srcKUID": "h61577b4448c4e22a2636221e8fe0d6d",
        "wType": "Button"
      }
    },
    "btnYes": {
      "__events__": {},
      "__info__": {
        "kuid": "f2eeda5f1eb9499e829be63bf39b90fc",
        "srcKUID": "e1c11d09edb846848d4aaf921cb1e5a0",
        "wType": "Button"
      }
    },
    "flxCross": {
      "__events__": {},
      "__info__": {
        "kuid": "aad0315ba2eb4bf1b0349a397300a67b",
        "srcKUID": "e896a8d6e1244397be41e1011101c6ec",
        "wType": "FlexContainer"
      }
    },
    "flxHeader": {
      "__events__": {},
      "__info__": {
        "kuid": "e0bd6ad1c0ff4614a14a1431baa6d5a9",
        "srcKUID": "b6d465d7232a428eba11c466c6843856",
        "wType": "FlexContainer"
      }
    },
    "flxSeperator": {
      "__events__": {},
      "__info__": {
        "kuid": "c9a8dc7d38cc4896a35d956b06321b57",
        "srcKUID": "b469cc45156e429d8fa47b9786168d10",
        "wType": "FlexContainer"
      }
    },
    "flxSeperator2": {
      "__events__": {},
      "__info__": {
        "kuid": "f14121b11dc94bb8aa68068a55d2c4cd",
        "srcKUID": "e909e4e4b4a145b1aa92b22ece7050d3",
        "wType": "FlexContainer"
      }
    },
    "imgCross": {
      "__events__": {},
      "__info__": {
        "kuid": "b9a45e7d105047ff9eed04a745528499",
        "srcKUID": "ja13bba308404016b1cd223dbcdf01ae",
        "wType": "Image"
      },
      "height": {
        "Default": {
          "type": "string",
          "value": "15dp"
        }
      }
    },
    "lblHeading": {
      "__events__": {},
      "__info__": {
        "kuid": "ba4016d066924d7fb39bfc28cb6e2ca6",
        "srcKUID": "f97c1408984847af9f3cd9984a260c74",
        "wType": "Label"
      },
      "i18n_text": "i18n.common.logout",
      "text": "LOGOUT"
    },
    "lblPopupMessage": {
      "__events__": {},
      "__info__": {
        "kuid": "c6f74a528e274c28888415425ed764b4",
        "srcKUID": "f7c7509dccf24b88aeb13dc3d34fcc6b",
        "wType": "Label"
      },
      "height": {
        "Default": {
          "type": "string",
          "value": "30dp"
        }
      },
      "i18n_text": "i18n.common.LogoutMsg"
    }
  },
  "id": "CustomPopupLogout",
  "info": null,
  "isdatareferenced": false,
  "isvisible": true,
  "kuid": "e00ce5d9c18645fa8f0753e20767b129",
  "layouttype": 2,
  "masterType": 0,
  "name": "kony.ui.UserWidgetInstance",
  "parent": "flxLogout",
  "pf": "frmNAO",
  "snaptogrid": true,
  "sourceUserWidget": "eb2d311dcb4744a7b05aa4f5428a6c53",
  "wType": "UserWidgetInstance",
  "zindex": 1100
}