{
  "@class": "com.kony.gen.viz.model.component.KVizUserWidget",
  "DNDConfig": null,
  "__parentReadjusting__": false,
  "_children_": [],
  "_height_": {
    "type": "string",
    "value": "121px"
  },
  "_left_": {
    "type": "string",
    "value": "0dp"
  },
  "_margin_": [
    0,
    0,
    0,
    0
  ],
  "_orientation_": 1,
  "_padding_": [
    0,
    0,
    0,
    0
  ],
  "_percent_": true,
  "_render_": true,
  "_skin_": "s08469efda4a4826a2c833ec32b9f5e5",
  "_top_": {
    "type": "string",
    "value": "0dp"
  },
  "_width_": {
    "type": "string",
    "value": "100%"
  },
  "areflexpropsreferenced": false,
  "autogrowmode": 0,
  "canUpdateUI": true,
  "clipbounds": false,
  "containerweight": 0,
  "dataDiffs": {
    "CopyflxHamburgerBack0f9d52b864a8c4e": {
      "__events__": {},
      "__info__": {
        "kuid": "c8d39939f5174f62aaa39b47f52842ca",
        "srcKUID": "e54748b344d245529c0ccb38cd8d1fcb",
        "wType": "FlexContainer"
      }
    },
    "CopyflxUserDetails0b35eb5be884043": {
      "__events__": {},
      "__info__": {
        "kuid": "f6217a4d014949679722b437f14d43be",
        "srcKUID": "b692716bd51e422ead7f111a1bfbe5cb",
        "wType": "FlexContainer"
      }
    },
    "CopyflxVerticalSeperator0b961fc23108f4b": {
      "__events__": {},
      "__info__": {
        "kuid": "h9ed21dfba5e4b48bc003350dadd28c8",
        "srcKUID": "b6e0434c2f904010bfff7590777daf67",
        "wType": "FlexContainer"
      }
    },
    "CopyflxVerticalSeperator0dbd20466efa64b": {
      "__events__": {},
      "__info__": {
        "kuid": "i2d3f2f510c447beae1b51813d561d53",
        "srcKUID": "d06f368d0065481d81dc512212fd2b95",
        "wType": "FlexContainer"
      }
    },
    "FlexContainer0e2898aa93bca45": {
      "__events__": {},
      "__info__": {
        "kuid": "jd7d6143e8ed48e2ae1bee7a47ec7df3",
        "srcKUID": "f85d68fc07dd44c2938e507df0fe87fc",
        "wType": "FlexContainer"
      }
    },
    "Label0e243933e8fa34e": {
      "__events__": {},
      "__info__": {
        "kuid": "i141527be3cb4d8bad3bde2dc72570d4",
        "srcKUID": "e4ac7c6df45f47999b2250e0bcb58bcb",
        "wType": "Label"
      }
    },
    "customhamburger": {
      "__events__": {},
      "__info__": {
        "kuid": "e890e30f018b4b4582b5eafa8026c807",
        "srcKUID": "dea66199c9fd433fab636de553a6116f",
        "wType": "UserWidgetInstance"
      }
    },
    "customhamburger.CopyflxSeperator0a7fd02d026804c": {
      "__events__": {},
      "__info__": {
        "kuid": "e3533b642cd142e79ee5ab6de0a7283e",
        "srcKUID": "e6c67e99b0b64a4e83a34c312dc501a5",
        "wType": "FlexContainer"
      }
    },
    "customhamburger.CopyflxSeperator0ab6ff437e8524e": {
      "__events__": {},
      "__info__": {
        "kuid": "c80842e39adb48fc9656de63a2ded6fb",
        "srcKUID": "ca4dec9fb13344e8a9eaab7c89b68088",
        "wType": "FlexContainer"
      }
    },
    "customhamburger.CopyflxSeperator0acb2897e84374f": {
      "__events__": {},
      "__info__": {
        "kuid": "e875854b6bf44b1da59fd30a3ab93c2d",
        "srcKUID": "h931230261a14f28817596d7d2bbfee2",
        "wType": "FlexContainer"
      }
    },
    "customhamburger.CopyflxSeperator0bd0b5a0f50074d": {
      "__events__": {},
      "__info__": {
        "kuid": "a717501e78694356b1bbd0c2070ff3ab",
        "srcKUID": "b8213949527b424f92c6600b3e792ecc",
        "wType": "FlexContainer"
      }
    },
    "customhamburger.CopyflxSeperator0c1fe53523f5e44": {
      "__events__": {},
      "__info__": {
        "kuid": "d26abf522d7844b5b8b871907c2d4e70",
        "srcKUID": "ffdae6459d5d450c9b5a5df56704081e",
        "wType": "FlexContainer"
      }
    },
    "customhamburger.CopyflxSeperator0dd0dea943f174f": {
      "__events__": {},
      "__info__": {
        "kuid": "e232ee6301a5403a9cd9bce4c0588932",
        "srcKUID": "j5306d2984814d9d93c24f84d7db8ba7",
        "wType": "FlexContainer"
      }
    },
    "customhamburger.CopyflxSeperator0dfcbfe80de1946": {
      "__events__": {},
      "__info__": {
        "kuid": "ifda2265ae1447fdb9f371242ce1daac",
        "srcKUID": "ec5e9cdda1b4473aa156d59730730f65",
        "wType": "FlexContainer"
      }
    },
    "customhamburger.CopyflxSeperator0dfe0994effc642": {
      "__events__": {},
      "__info__": {
        "kuid": "acf8036b319846f7b0fd12d93a7a0644",
        "srcKUID": "c7eb127bdde140e382ab0f3726c08d48",
        "wType": "FlexContainer"
      }
    },
    "customhamburger.CopyflxSeperator0e0b844b2206d42": {
      "__events__": {},
      "__info__": {
        "kuid": "ace01ea28daf4319875c506d6f871be2",
        "srcKUID": "d407d1c0e2b74a5c8858107d1963ab91",
        "wType": "FlexContainer"
      }
    },
    "customhamburger.CopyflxSeperator0e9219bd0514c46": {
      "__events__": {},
      "__info__": {
        "kuid": "a8e859186a594712875f96ab733a36d0",
        "srcKUID": "g39fe81fa7b0498b87ae946e0e5daf27",
        "wType": "FlexContainer"
      }
    },
    "customhamburger.CopyflxSeperator0ef41d1ef612f4a": {
      "__events__": {},
      "__info__": {
        "kuid": "aacd696a515e477582c684f74c5e67bc",
        "srcKUID": "adeb509fbec84150b31a2aa4a215fb19",
        "wType": "FlexContainer"
      }
    },
    "customhamburger.CopyflxSeperator0ef56548331074b": {
      "__events__": {},
      "__info__": {
        "kuid": "ic4e5756bff048be9e49f31870b74659",
        "srcKUID": "j62d0667a0e5431d94bbeb7127ae6e11",
        "wType": "FlexContainer"
      }
    },
    "customhamburger.CopyflxSeperator0f0efd703f4a84e": {
      "__events__": {},
      "__info__": {
        "kuid": "h24eb68345a5486ca6475223a5934a51",
        "srcKUID": "jc0b907adf1f4e1ea39d354fc2e41d23",
        "wType": "FlexContainer"
      }
    },
    "customhamburger.CopyflxSeperator0f697b8a8bbcf46": {
      "__events__": {},
      "__info__": {
        "kuid": "eae214933b3e4012a562689da863f26b",
        "srcKUID": "d7122805ba3b40f493b7d79f749c5c1f",
        "wType": "FlexContainer"
      }
    },
    "customhamburger.CopyflxSeperator0f7229c978c5c47": {
      "__events__": {},
      "__info__": {
        "kuid": "eaac79b6f8784fc2a6c1e55fdec43a35",
        "srcKUID": "a87745dcb66b4f4c83b0725af5c1251b",
        "wType": "FlexContainer"
      }
    },
    "customhamburger.CopyflxSeperator0f85cfae3ca0048": {
      "__events__": {},
      "__info__": {
        "kuid": "j7501d5c9b0742c0bbb7eb8d7bf3b2c7",
        "srcKUID": "dc99871787d24ab28840acb5727529ca",
        "wType": "FlexContainer"
      }
    },
    "customhamburger.CopyflxSeperator0fcac07927fef43": {
      "__events__": {},
      "__info__": {
        "kuid": "i011d8ad32414b00b7bdd4209737408d",
        "srcKUID": "e1a67da7232b497db891680f5147e005",
        "wType": "FlexContainer"
      }
    },
    "customhamburger.CopyflxSeperator0i4d31af56d2d40": {
      "__events__": {},
      "__info__": {
        "kuid": "he6c21d8fb4b4d8191799ef7287f4a3a",
        "srcKUID": "f3f4b62efb0a4dd8bf89e2d38860cfd7",
        "wType": "FlexContainer"
      }
    },
    "customhamburger.CopyflxSeperator0j3213d9f303b41": {
      "__events__": {},
      "__info__": {
        "kuid": "e0295a689d7740438cedbdb530da7af2",
        "srcKUID": "fe9c8dd71102415db76f64c461560080",
        "wType": "FlexContainer"
      }
    },
    "customhamburger.CopyflxSeperator0jc2b704f97fa4d": {
      "__events__": {},
      "__info__": {
        "kuid": "f324eff9da4c43ec9fa76aef599c851a",
        "srcKUID": "d0c5fd0e52bf405ab3a5b62910c15dfc",
        "wType": "FlexContainer"
      }
    },
    "customhamburger.CopylblAddPayee0b508c1c7ac1342": {
      "__events__": {},
      "__info__": {
        "kuid": "c909b0ef0fef46b09325efe921674852",
        "srcKUID": "gecce85ab70e458f8184668a61d2a72a",
        "wType": "Label"
      }
    },
    "customhamburger.CopylblAddPayee0bee2cf73d22b4d": {
      "__events__": {},
      "__info__": {
        "kuid": "ea07b434bbf8467481abb02ec72dc4f8",
        "srcKUID": "e21a4f39e45c4ea4b684e82952e0da1f",
        "wType": "Label"
      }
    },
    "customhamburger.CopylblAddPayee0g70cc090ed6245": {
      "__events__": {},
      "__info__": {
        "kuid": "g2f17431f7244b7fabcf32790c73e302",
        "srcKUID": "f6dfffbbcd7d48ac80ff2d95331aeef0",
        "wType": "Label"
      }
    },
    "customhamburger.CopylblBillPay0a6bc0b0a48dd4b": {
      "__events__": {},
      "__info__": {
        "kuid": "ddf92f275a3646d986604607fd2af9df",
        "srcKUID": "iece97379dcf4992bd7afc5f0ac6ed8a",
        "wType": "Label"
      }
    },
    "customhamburger.CopylblBillPay0e8e9903a20a440": {
      "__events__": {},
      "__info__": {
        "kuid": "id7d4e39e7f24b21b407d11789c04580",
        "srcKUID": "i5c72f4c617e4a9fa18d6460cc8c41cb",
        "wType": "Label"
      }
    },
    "customhamburger.CopylblBillPay0eda6178b407a4e": {
      "__events__": {},
      "__info__": {
        "kuid": "e621c04f1a644734900013c0836d7896",
        "srcKUID": "b5f49ce65f43422e8ba064d0383c8b60",
        "wType": "Label"
      }
    },
    "customhamburger.CopylblBillPayHistory0b38a2ee4fe0d47": {
      "__events__": {},
      "__info__": {
        "kuid": "de1151cc19e4493bb8800cdb864c03a6",
        "srcKUID": "hbc213bb8f7a4233b1396cd4bdabbaa3",
        "wType": "Label"
      }
    },
    "customhamburger.CopylblBillPayHistory0gc07c297701741": {
      "__events__": {},
      "__info__": {
        "kuid": "bed69e9fd9af4622a0bb0f589d657085",
        "srcKUID": "cb22b1482ffc4bfb95ecec9f6a141fab",
        "wType": "Label"
      }
    },
    "customhamburger.CopylblMyPayee0dcb9e690692a4f": {
      "__events__": {},
      "__info__": {
        "kuid": "d9c7052db17d444595a0c278e643965c",
        "srcKUID": "bed01243f6a547179d4bf810e22191f0",
        "wType": "Label"
      }
    },
    "customhamburger.CopylblMyPayee0e33403d7890441": {
      "__events__": {},
      "__info__": {
        "kuid": "g3d509f4d09441908bc27fdd87083f64",
        "srcKUID": "bce63faed54a4d5f8189fb31de9e3ee7",
        "wType": "Label"
      }
    },
    "customhamburger.CopylblMyPayee0i8f11a9bf3734f": {
      "__events__": {},
      "__info__": {
        "kuid": "b955f091e1534133bd1fc91f1ad62009",
        "srcKUID": "b43285cfc5b14a5ba8ac5b1edff46d10",
        "wType": "Label"
      }
    },
    "customhamburger.CopylblPayABill0d56ffee2b48f4c": {
      "__events__": {},
      "__info__": {
        "kuid": "dc7e08c8ae8b4819be96213c7f7860a5",
        "srcKUID": "a37d5172e5d04c99a7b381dbdb0c1f0e",
        "wType": "Label"
      }
    },
    "customhamburger.CopylblPayABill0g84c7aa6fce048": {
      "__events__": {},
      "__info__": {
        "kuid": "e92f9eec72324128831363ab38445fcf",
        "srcKUID": "e68c07ae9fae4911aa7ec55b76ac1d9e",
        "wType": "Label"
      }
    },
    "customhamburger.CopylblPayABill0h56a2d285cea46": {
      "__events__": {},
      "__info__": {
        "kuid": "bc9b9e4fba7b40d3befa72b1c6d65959",
        "srcKUID": "ade9130b3841494c9f59781a7587c3e1",
        "wType": "Label"
      }
    },
    "customhamburger.FlexContainer0a82014659b0e48": {
      "__events__": {},
      "__info__": {
        "kuid": "b02da483a46e4b6a925d4613430640c9",
        "srcKUID": "h7ad82c8fb9b437486ad6c4d49320ce2",
        "wType": "FlexContainer"
      }
    },
    "customhamburger.flxAboutUs": {
      "__events__": {},
      "__info__": {
        "kuid": "j2e78e6ffde0477da795a516b684f465",
        "srcKUID": "cca79f5d16b045408f311a815ae6b289",
        "wType": "FlexContainer"
      }
    },
    "customhamburger.flxAboutUsCollapse": {
      "__events__": {},
      "__info__": {
        "kuid": "e71b86630fbd4617852803361a2711af",
        "srcKUID": "e41d16cfc04e458693670ae7e87e34aa",
        "wType": "FlexContainer"
      }
    },
    "customhamburger.flxAboutUsSubMenu": {
      "__events__": {},
      "__info__": {
        "kuid": "f4ce2da5e2dc43f38124e9be5ee0cd08",
        "srcKUID": "ad066a23a8cd41e983c434b90da35923",
        "wType": "FlexContainer"
      }
    },
    "customhamburger.flxAccountSettings": {
      "__events__": {},
      "__info__": {
        "kuid": "ff843b0b7e7643a1bffdac8ae86e62c8",
        "srcKUID": "g69da15184e04d089b0f58da40a7157e",
        "wType": "FlexContainer"
      }
    },
    "customhamburger.flxAccountsCollapse": {
      "__events__": {},
      "__info__": {
        "kuid": "db17c4e85981447fa63b238e5e05c70a",
        "srcKUID": "e0af0f6ab9614020b7fc5e89406a63dc",
        "wType": "FlexContainer"
      }
    },
    "customhamburger.flxAccountsMenu": {
      "__events__": {},
      "__info__": {
        "kuid": "aad736fd106242ad9a028473128074bd",
        "srcKUID": "cf43ccc491384cce8e692bf0c7b73f90",
        "wType": "FlexContainer"
      }
    },
    "customhamburger.flxAccountsSubMenu": {
      "__events__": {},
      "__info__": {
        "kuid": "befd0366ccd44cee8cde6029eb87b53e",
        "srcKUID": "dc00eecfa1d34328ba4230f17db49066",
        "wType": "FlexContainer"
      }
    },
    "customhamburger.flxAddExternalBankAccounts": {
      "__events__": {},
      "__info__": {
        "kuid": "e5461540aa3c49498ed0669602835d29",
        "srcKUID": "d829e28813f643ab8cc7b53a38a11877",
        "wType": "FlexContainer"
      }
    },
    "customhamburger.flxAddKonyAccounts": {
      "__events__": {},
      "__info__": {
        "kuid": "b3364186b805477a8665bd5afe649964",
        "srcKUID": "i7907247783340e6bd2e6d28ef1b46ee",
        "wType": "FlexContainer"
      }
    },
    "customhamburger.flxAddNonKonyAccounts": {
      "__events__": {},
      "__info__": {
        "kuid": "ce47cc3b326746558da916b279bed1ec",
        "srcKUID": "ic3031f46db3438a903562f1278ef9cc",
        "wType": "FlexContainer"
      }
    },
    "customhamburger.flxAddPayee": {
      "__events__": {},
      "__info__": {
        "kuid": "a8b93e5ab4074edf8ad80148939240b1",
        "srcKUID": "aefd502a752f424387ac0e1a7d6cee42",
        "wType": "FlexContainer"
      }
    },
    "customhamburger.flxAddRecipients": {
      "__events__": {},
      "__info__": {
        "kuid": "c73f170aa8e740d69238ac85322ef10e",
        "srcKUID": "f96d8995e54f407cb41a20dbef08e36f",
        "wType": "FlexContainer"
      }
    },
    "customhamburger.flxAlerts": {
      "__events__": {},
      "__info__": {
        "kuid": "ee48e1c8d90e4120b06377c913f4f45c",
        "srcKUID": "habdea8c510a4db183a6c1d319dc26cf",
        "wType": "FlexContainer"
      }
    },
    "customhamburger.flxAlertsAndMessages": {
      "__events__": {},
      "__info__": {
        "kuid": "i050a715cc3f4e8387f740ce8195e555",
        "srcKUID": "a6047045dc8a45488e4434ae31a9d04e",
        "wType": "FlexContainer"
      }
    },
    "customhamburger.flxAlertsAndMessagesCollapse": {
      "__events__": {},
      "__info__": {
        "kuid": "f047c497136a4facb45345dc9cf4c10c",
        "srcKUID": "b5b47f89075c4e738fdfbe5afa6a27a2",
        "wType": "FlexContainer"
      }
    },
    "customhamburger.flxAlertsAndMessagesSeperator": {
      "__events__": {},
      "__info__": {
        "kuid": "i06651ccb5204246b7c2763f723f9f08",
        "srcKUID": "g5f28c8fa61149299a48ec5562c1c35b",
        "wType": "FlexContainer"
      }
    },
    "customhamburger.flxAlertsAndMessagesSubMenu": {
      "__events__": {},
      "__info__": {
        "kuid": "c496a28ace604d3a996cf4bede3af036",
        "srcKUID": "ec498bbee2a54caf825c1cc57f8c0f46",
        "wType": "FlexContainer"
      }
    },
    "customhamburger.flxBillPay": {
      "__events__": {},
      "__info__": {
        "kuid": "j415a1e4f5c4499b9bf1674f5c2bed6e",
        "srcKUID": "bafa4dff778347ac84a9f492a0e5dff1",
        "wType": "FlexContainer"
      }
    },
    "customhamburger.flxBillPayCollapse": {
      "__events__": {},
      "__info__": {
        "kuid": "cf075ea90bf4424fa5974d7df4cdd753",
        "srcKUID": "a0dcaee0ed354e579861b6fe542d4093",
        "wType": "FlexContainer"
      }
    },
    "customhamburger.flxBillPayHistory": {
      "__events__": {},
      "__info__": {
        "kuid": "fe79e7012b964110b42c752cac9e33f8",
        "srcKUID": "f62b8e2cab074c0c9fa00cc1d81c39d0",
        "wType": "FlexContainer"
      }
    },
    "customhamburger.flxBillPaySubMenu": {
      "__events__": {},
      "__info__": {
        "kuid": "gf765a1585cb424ab7fde957f74dbdae",
        "srcKUID": "ea568784be934341979a1fd5e490e2cb",
        "wType": "FlexContainer"
      }
    },
    "customhamburger.flxCardManagement": {
      "__events__": {},
      "__info__": {
        "kuid": "j4465a13fdeb4d09937f777de3fc7b44",
        "srcKUID": "fca38cea39334c569e00cf833a296ff0",
        "wType": "FlexContainer"
      }
    },
    "customhamburger.flxClose": {
      "__events__": {},
      "__info__": {
        "kuid": "iff37580c7ae4c838271f3b9a50efd0d",
        "srcKUID": "c66fd7f3bd2c4e6e8f7bd01e6287550e",
        "wType": "FlexContainer"
      }
    },
    "customhamburger.flxCollapseTransfers": {
      "__events__": {},
      "__info__": {
        "kuid": "jde6b7624c7f45b98e2775a2a56b8d77",
        "srcKUID": "h384e8dc0bd24e29af85efafe7e025fc",
        "wType": "FlexContainer"
      }
    },
    "customhamburger.flxContactUs": {
      "__events__": {},
      "__info__": {
        "kuid": "jbf81d0c6c2044e59dcc4ec7bd9d4760",
        "srcKUID": "abf11674e0d94d85a1fe50e46f4c51bc",
        "wType": "FlexContainer"
      }
    },
    "customhamburger.flxExternalAccounts": {
      "__events__": {},
      "__info__": {
        "kuid": "i6943d68605b49e3b58424943043d4b8",
        "srcKUID": "abc9ac58f56e4fb493c8d1f1bff47b24",
        "wType": "FlexContainer"
      }
    },
    "customhamburger.flxFaq": {
      "__events__": {},
      "__info__": {
        "kuid": "ebd6b03795684378a69c27240fa9b06a",
        "srcKUID": "h28703eed887497abf8a3f907abdbc2e",
        "wType": "FlexContainer"
      }
    },
    "customhamburger.flxHamburgerHeader": {
      "__events__": {},
      "__info__": {
        "kuid": "dab004ecdf7a42b2abcb6116461a8eaa",
        "srcKUID": "h465700017fe4781975045dab9ed41c5",
        "wType": "FlexContainer"
      }
    },
    "customhamburger.flxHistory": {
      "__events__": {},
      "__info__": {
        "kuid": "g1055995de474aa7886758d00ac1c5aa",
        "srcKUID": "af822cb01fd549e09ae70f7a5caf134d",
        "wType": "FlexContainer"
      }
    },
    "customhamburger.flxLocateUs": {
      "__events__": {},
      "__info__": {
        "kuid": "dc04fdfe8c754f3e8dba48f71a178884",
        "srcKUID": "g85f2c9a423e42a58e10e8686c1fba74",
        "wType": "FlexContainer"
      }
    },
    "customhamburger.flxLogout": {
      "__events__": {},
      "__info__": {
        "kuid": "gb5188eb303142318ca8516b2893f7dd",
        "srcKUID": "c9904c20e8a5464285e846a22514783d",
        "wType": "FlexContainer"
      }
    },
    "customhamburger.flxMenu": {
      "__events__": {},
      "__info__": {
        "kuid": "i74e1f180d8246b0bedb8ac6e5ab0213",
        "srcKUID": "i1c684442e854218bc2c08f78c55f971",
        "wType": "FlexContainer"
      }
    },
    "customhamburger.flxMenuWrapper": {
      "__events__": {},
      "__info__": {
        "kuid": "c8b98d1161d64c8bb1e998ab5f014137",
        "srcKUID": "ad010d1f868d49eea330fb84586cbd46",
        "wType": "FlexScrollContainer"
      }
    },
    "customhamburger.flxMessages": {
      "__events__": {},
      "__info__": {
        "kuid": "j0cd7cef42a140069e4ae70018307f15",
        "srcKUID": "a8c136feada044d8aae02c45642a3aef",
        "wType": "FlexContainer"
      }
    },
    "customhamburger.flxMyAccounts": {
      "__events__": {},
      "__info__": {
        "kuid": "c40fe669cc324c7a93874c32310f6431",
        "srcKUID": "f7379b95da4148de8bad2885b68ce3c6",
        "wType": "FlexContainer"
      }
    },
    "customhamburger.flxMyPayeeList": {
      "__events__": {},
      "__info__": {
        "kuid": "da2a2ded3ca94c7c8b65274c98d7cd83",
        "srcKUID": "j0ff9253248645ff8612f1090fabea1b",
        "wType": "FlexContainer"
      }
    },
    "customhamburger.flxMyRecipients": {
      "__events__": {},
      "__info__": {
        "kuid": "j3b817e59eef44598b67c7e4f8e8a6a5",
        "srcKUID": "gc5138a3b6ed40e5a8d376d8900322ac",
        "wType": "FlexContainer"
      }
    },
    "customhamburger.flxNewMessages": {
      "__events__": {},
      "__info__": {
        "kuid": "daed335eddd543edb8e733208f10bcc4",
        "srcKUID": "bfad3abb96b54f6687ec8d8ae08b8a89",
        "wType": "FlexContainer"
      }
    },
    "customhamburger.flxPFM": {
      "__events__": {},
      "__info__": {
        "kuid": "b7f381b01cce465a82f8b5787cf2b85a",
        "srcKUID": "bfc8636c05da4c4e9131d447fb520a97",
        "wType": "FlexContainer"
      }
    },
    "customhamburger.flxPayABill": {
      "__events__": {},
      "__info__": {
        "kuid": "d20fb905bff44424a02d563038aa0e9e",
        "srcKUID": "cabc5ae19734442ca472692f76360a26",
        "wType": "FlexContainer"
      }
    },
    "customhamburger.flxPayAPerson": {
      "__events__": {},
      "__info__": {
        "kuid": "d5962c9982f4470484dc7c38846021fb",
        "srcKUID": "c3c34d9fdac2420fb3cf01ada4338616",
        "wType": "FlexContainer"
      }
    },
    "customhamburger.flxPayAPersonCollapse": {
      "__events__": {},
      "__info__": {
        "kuid": "b16a08be25e14e77b3cc5614a8e77179",
        "srcKUID": "f0eb0c0751d7408db1c234c07637bb8f",
        "wType": "FlexContainer"
      }
    },
    "customhamburger.flxPayAPersonSubMenu": {
      "__events__": {},
      "__info__": {
        "kuid": "cafec4deb5a04d8088d6faef6626d66f",
        "srcKUID": "aeb2426f276a4cdc8c73046302e57323",
        "wType": "FlexContainer"
      }
    },
    "customhamburger.flxPrivacyPolicy": {
      "__events__": {},
      "__info__": {
        "kuid": "e49f0ab8c9004e459373bc5e42cd09bc",
        "srcKUID": "e53f0d53bf524807b19900124ae5e5cc",
        "wType": "FlexContainer"
      }
    },
    "customhamburger.flxProfileManagement": {
      "__events__": {},
      "__info__": {
        "kuid": "e8ad8302156846f8a673b00637886e5b",
        "srcKUID": "c4c99abbdc854639a275f0d1966f9d2a",
        "wType": "FlexContainer"
      }
    },
    "customhamburger.flxProfileManagementCollapse": {
      "__events__": {},
      "__info__": {
        "kuid": "c095eaed5f114002835d17f608687533",
        "srcKUID": "e3074e95c1584c26b3c00839871a8ec1",
        "wType": "FlexContainer"
      }
    },
    "customhamburger.flxProfileManagementSubMenu": {
      "__events__": {},
      "__info__": {
        "kuid": "e6a5e1dbe6d643fdbeaf4b35eca4bbc7",
        "srcKUID": "dedf5323b4f04d9bb0857acaba413ed2",
        "wType": "FlexContainer"
      }
    },
    "customhamburger.flxProfileSettings": {
      "__events__": {},
      "__info__": {
        "kuid": "d303f3e124844789bd02cc1b23ca43bb",
        "srcKUID": "c9e266a61e794666abaa382a1974bd50",
        "wType": "FlexContainer"
      }
    },
    "customhamburger.flxSecuritySettings": {
      "__events__": {},
      "__info__": {
        "kuid": "f0b34230eda3425f8adac55ee2ce962e",
        "srcKUID": "h35c8ab7f8114eb883dbe77eb239d5bc",
        "wType": "FlexContainer"
      }
    },
    "customhamburger.flxSendRequest": {
      "__events__": {},
      "__info__": {
        "kuid": "e512ca254f2846088c04d8d436893f4e",
        "srcKUID": "d977218b05dc49ada933fde699153602",
        "wType": "FlexContainer"
      }
    },
    "customhamburger.flxSeperator10": {
      "__events__": {},
      "__info__": {
        "kuid": "df3aa4fb1e39452c939a86533881c0c7",
        "srcKUID": "f9bfa4fca0dd4125be7663cbecdaaee0",
        "wType": "FlexContainer"
      }
    },
    "customhamburger.flxSeperator11": {
      "__events__": {},
      "__info__": {
        "kuid": "fed2fba6280649fa803dc281d20274d6",
        "srcKUID": "f0e6a5bf00e24b55a131b00e736ad0f1",
        "wType": "FlexContainer"
      }
    },
    "customhamburger.flxSeperator12": {
      "__events__": {},
      "__info__": {
        "kuid": "ba5e2e2e5eed4e4299f2d0aceca933ce",
        "srcKUID": "c0ad725976704507a8aa1b268bc97087",
        "wType": "FlexContainer"
      }
    },
    "customhamburger.flxSeperator13": {
      "__events__": {},
      "__info__": {
        "kuid": "c374d2fd709c4d66b06619de8195f568",
        "srcKUID": "j636db10e4604851913f33aee409ae48",
        "wType": "FlexContainer"
      }
    },
    "customhamburger.flxSeperator14": {
      "__events__": {},
      "__info__": {
        "kuid": "i0945250eeb94dfc9993b69031818459",
        "srcKUID": "f671f1951bbd44bcbaea3b445e3c6c3b",
        "wType": "FlexContainer"
      }
    },
    "customhamburger.flxSeperator15": {
      "__events__": {},
      "__info__": {
        "kuid": "fc474afd7a9245bcb31827356ee3437a",
        "srcKUID": "j11be2166fc34b419da967d077f32299",
        "wType": "FlexContainer"
      }
    },
    "customhamburger.flxSeperator16": {
      "__events__": {},
      "__info__": {
        "kuid": "gea1e32e1ffe401b8a01859f803973dc",
        "srcKUID": "if0c694e156a4703b7545e789492c020",
        "wType": "FlexContainer"
      }
    },
    "customhamburger.flxSeperator17": {
      "__events__": {},
      "__info__": {
        "kuid": "f2d84c1b6a2e47fe94fb2ee52bbf0499",
        "srcKUID": "b50f7b34350e4dec8af632653ab083c5",
        "wType": "FlexContainer"
      }
    },
    "customhamburger.flxSeperator18": {
      "__events__": {},
      "__info__": {
        "kuid": "ea1c6945edbb46d08fbb39c8450406a7",
        "srcKUID": "dccbe42cfb7b4494b0ef8aa3c4f6be41",
        "wType": "FlexContainer"
      }
    },
    "customhamburger.flxSeperator2": {
      "__events__": {},
      "__info__": {
        "kuid": "j141f8dbee2c4efd836a70609531e788",
        "srcKUID": "c80156f4b587452bb66f7eeceecaf50a",
        "wType": "FlexContainer"
      }
    },
    "customhamburger.flxSeperator3": {
      "__events__": {},
      "__info__": {
        "kuid": "ff0ad0901b684ed5ac2e3fa61d495250",
        "srcKUID": "b6518efe46a64f52901e8c3d65c11ce9",
        "wType": "FlexContainer"
      }
    },
    "customhamburger.flxSeperator4": {
      "__events__": {},
      "__info__": {
        "kuid": "cce8c556259e4a7e984aac9c749189cc",
        "srcKUID": "cc2eee43aa8a45d08bf13a5e5718afcd",
        "wType": "FlexContainer"
      }
    },
    "customhamburger.flxSeperator5": {
      "__events__": {},
      "__info__": {
        "kuid": "b14a82702a584e13b07163a1d091f164",
        "srcKUID": "c8c3ef97147f40f2865efb0cb670d50b",
        "wType": "FlexContainer"
      }
    },
    "customhamburger.flxSeperator6": {
      "__events__": {},
      "__info__": {
        "kuid": "hd9a035943644fa89d9cd269c7807285",
        "srcKUID": "jdcc06ffd6c140b09d7a452d4412adef",
        "wType": "FlexContainer"
      }
    },
    "customhamburger.flxSeperator7": {
      "__events__": {},
      "__info__": {
        "kuid": "c26ae43cadc1419b97b4a8446c22c2bd",
        "srcKUID": "ga22cbc58a634b6fb13935ed90d0aced",
        "wType": "FlexContainer"
      }
    },
    "customhamburger.flxSeperator8": {
      "__events__": {},
      "__info__": {
        "kuid": "ie382ffc62e64caaa266e4c97a6f41a1",
        "srcKUID": "c7558fdf51bf47fe824b91a07cf6b714",
        "wType": "FlexContainer"
      }
    },
    "customhamburger.flxSeperator9": {
      "__events__": {},
      "__info__": {
        "kuid": "idb7c3811cdb429c88e1fa7e79d4e183",
        "srcKUID": "b122e6579708465082812c6e7068d7f6",
        "wType": "FlexContainer"
      }
    },
    "customhamburger.flxSeperatorAlerts": {
      "__events__": {},
      "__info__": {
        "kuid": "a23d6b963c1046e9b0bf222999952cbd",
        "srcKUID": "b2fe1d61dbc64712ad4e576fb2bd332f",
        "wType": "FlexContainer"
      }
    },
    "customhamburger.flxSeperatorMessages": {
      "__events__": {},
      "__info__": {
        "kuid": "c636bd79af7947a3b273340144a770db",
        "srcKUID": "c5a23363d5df48049106898aa405a723",
        "wType": "FlexContainer"
      }
    },
    "customhamburger.flxSeperatorNewMessage": {
      "__events__": {},
      "__info__": {
        "kuid": "cdf739887d0f4b98b299b653246f6176",
        "srcKUID": "c929fa4f76ed416185ce33e12111609d",
        "wType": "FlexContainer"
      }
    },
    "customhamburger.flxStopPaymentRequests": {
      "__events__": {},
      "__info__": {
        "kuid": "f555b13e45844b5abe21481a676654c7",
        "srcKUID": "c6e0f2b6aa1948688094395a053fa1d8",
        "wType": "FlexContainer"
      }
    },
    "customhamburger.flxTerms": {
      "__events__": {},
      "__info__": {
        "kuid": "c7ce1d87492e4de189654e53b6872d8c",
        "srcKUID": "a3d4d9ba1e264ec2a3de4b87bc4d7aa3",
        "wType": "FlexContainer"
      }
    },
    "customhamburger.flxTransferHistory": {
      "__events__": {},
      "__info__": {
        "kuid": "d9fc0c95c0c0469bb551dda0d7599b85",
        "srcKUID": "ib9de73a2bf246eeb639fa215853db61",
        "wType": "FlexContainer"
      }
    },
    "customhamburger.flxTransfers": {
      "__events__": {},
      "__info__": {
        "kuid": "gc7007dfa0d740988550a090ad190532",
        "srcKUID": "jc0266e969b0495d868043c84bcc2ab8",
        "wType": "FlexContainer"
      }
    },
    "customhamburger.flxTransfersMoney": {
      "__events__": {},
      "__info__": {
        "kuid": "a66daa24dda54b36965900828fca303b",
        "srcKUID": "jf6d2609ea48459e90552691ca5777fe",
        "wType": "FlexContainer"
      }
    },
    "customhamburger.flxTransfersSubMenu": {
      "__events__": {},
      "__info__": {
        "kuid": "b15017b9e0c84f14af411545fe33920b",
        "srcKUID": "fbf8ca4f00d34558966f6061a5087f14",
        "wType": "FlexContainer"
      }
    },
    "customhamburger.flxWireTransfer": {
      "__events__": {},
      "__info__": {
        "kuid": "ac66719d75f6461dad5321a63652f0d3",
        "srcKUID": "aae2b1dec0f44ac0ae2c1e3063ff7ba4",
        "wType": "FlexContainer"
      }
    },
    "customhamburger.flxWireTransferCollapse": {
      "__events__": {},
      "__info__": {
        "kuid": "e7ae43baae934970b5fefa4fd17ce14c",
        "srcKUID": "bfc055b1e7c542d1bfa1c23419d834be",
        "wType": "FlexContainer"
      }
    },
    "customhamburger.flxWireTransferHistory": {
      "__events__": {},
      "__info__": {
        "kuid": "ccd740fb07204380b5c690a146c2c911",
        "srcKUID": "dffd4d61c8a144d4be8f8449855f4c6a",
        "wType": "FlexContainer"
      }
    },
    "customhamburger.flxWireTransferMakeTransfer": {
      "__events__": {},
      "__info__": {
        "kuid": "ea2c87813b9f4feea73545f3d6efa1b9",
        "srcKUID": "f7a63b1bb18644bdbb1f0a7d1c1fc108",
        "wType": "FlexContainer"
      }
    },
    "customhamburger.flxWireTransferMyRecipients": {
      "__events__": {},
      "__info__": {
        "kuid": "ge591e9e45ac42ad890bc5118c61c730",
        "srcKUID": "ic7afce86593464b830c20b7eaaa7000",
        "wType": "FlexContainer"
      }
    },
    "customhamburger.flxWireTransferSubMenu": {
      "__events__": {},
      "__info__": {
        "kuid": "ac775b01414e41b89658166a1b135027",
        "srcKUID": "c1b6035a15254cd380f2d7f0bccc1a35",
        "wType": "FlexContainer"
      }
    },
    "customhamburger.flxWireTransfersAddRecipient": {
      "__events__": {},
      "__info__": {
        "kuid": "j06880363d7c41889281af64985e1dd2",
        "srcKUID": "d8d7ecb1da3b431b8a8f09ecfd49dfb4",
        "wType": "FlexContainer"
      }
    },
    "customhamburger.imgAboutUs": {
      "__events__": {},
      "__info__": {
        "kuid": "ec95349b0e9f41099c15510e22219358",
        "srcKUID": "aedf72df6b6646e4b0541f118b852737",
        "wType": "Image"
      }
    },
    "customhamburger.imgAboutUsCollapse": {
      "__events__": {},
      "__info__": {
        "kuid": "j0e00129c0274d3ca6504acb8406c89e",
        "srcKUID": "j47f6cdfaec144f1bc183fc1ee131f6f",
        "wType": "Image"
      }
    },
    "customhamburger.imgAccounts": {
      "__events__": {},
      "__info__": {
        "kuid": "j978f4d19f1d4b53ae88ee6e5ae3557f",
        "srcKUID": "b12cdc793bce49a48965b40e1599be38",
        "wType": "Image"
      }
    },
    "customhamburger.imgAlertsAndMessages": {
      "__events__": {},
      "__info__": {
        "kuid": "cadfd6c297ab459bb9d7e1e7b8575c2a",
        "srcKUID": "j15a94b7920346d4bc2ad8031f893737",
        "wType": "Image"
      }
    },
    "customhamburger.imgAlertsAndMessagesCollapse": {
      "__events__": {},
      "__info__": {
        "kuid": "ad6723917d6a419e8a80efa8c88da473",
        "srcKUID": "aca93ef7e22940b2934c21108b51accd",
        "wType": "Image"
      }
    },
    "customhamburger.imgBillBay": {
      "__events__": {},
      "__info__": {
        "kuid": "f3009c7203784ffb847aa2b378cfe857",
        "srcKUID": "d9d417ef42e34752838998db97365d9f",
        "wType": "Image"
      }
    },
    "customhamburger.imgBillPayCollapse": {
      "__events__": {},
      "__info__": {
        "kuid": "e7139564bdef445fa4846d39453c097b",
        "srcKUID": "e2c091a5a06b4bd99605cb431850b92a",
        "wType": "Image"
      }
    },
    "customhamburger.imgClose": {
      "__events__": {},
      "__info__": {
        "kuid": "bd765e3e439144ddb36ffaf7e9f775cf",
        "srcKUID": "b16e44ed01844172894d7476bf054a4e",
        "wType": "Image"
      }
    },
    "customhamburger.imgCollapseAccounts": {
      "__events__": {},
      "__info__": {
        "kuid": "i961d9910a5f4f55a4dee2889f46ad81",
        "srcKUID": "cc9717fdf0ce469aa167f4b79dc1f439",
        "wType": "Image"
      }
    },
    "customhamburger.imgCollapseTransfers": {
      "__events__": {},
      "__info__": {
        "kuid": "dc50c53dab9d45dcbb149c287b92f397",
        "srcKUID": "g8ac7330ba6a4fcc94c6de0c85163b0a",
        "wType": "Image"
      }
    },
    "customhamburger.imgKony": {
      "__events__": {},
      "__info__": {
        "kuid": "i8d8bcf767de4fd9be7a803d79ebad85",
        "srcKUID": "e51c8a8198184739b48a18c3fbc65273",
        "wType": "Image"
      }
    },
    "customhamburger.imgLogout": {
      "__events__": {},
      "__info__": {
        "kuid": "dd91f023827b45c88d3610d627eb3d81",
        "srcKUID": "g8c77dbeed3b43038e912f34fbe614fd",
        "wType": "Image"
      }
    },
    "customhamburger.imgPayAPerson": {
      "__events__": {},
      "__info__": {
        "kuid": "a87e85aa0a0146a69683725f1e1cf7be",
        "srcKUID": "c40e76c18b114f96a40918df9e984c72",
        "wType": "Image"
      }
    },
    "customhamburger.imgPayAPersonCollapse": {
      "__events__": {},
      "__info__": {
        "kuid": "d372067812eb42249155a26dce8f166d",
        "srcKUID": "d4487e371bca4c0ab4fed6a829640f23",
        "wType": "Image"
      }
    },
    "customhamburger.imgProfileManagement": {
      "__events__": {},
      "__info__": {
        "kuid": "d09fa83bf0fa40a7ba572c074c2500a8",
        "srcKUID": "c256c4de888b46eda952c16c301a26e6",
        "wType": "Image"
      }
    },
    "customhamburger.imgProfileManagementCollapse": {
      "__events__": {},
      "__info__": {
        "kuid": "c9403a137bb447838fa02a9c72a85225",
        "srcKUID": "cc11b10b955f4de8ac2e1f5349683cdc",
        "wType": "Image"
      }
    },
    "customhamburger.imgTransfers": {
      "__events__": {},
      "__info__": {
        "kuid": "b82a661f92f245c3aa4891c868e6eda2",
        "srcKUID": "f226bd307bf34f2a8645072816db1907",
        "wType": "Image"
      }
    },
    "customhamburger.imgWireTransfer": {
      "__events__": {},
      "__info__": {
        "kuid": "b4d6534296a84c9faa48df5e7351524e",
        "srcKUID": "d1eaae0c6e784ef3b1eace4495b3f8f7",
        "wType": "Image"
      }
    },
    "customhamburger.imgWireTransferCollapse": {
      "__events__": {},
      "__info__": {
        "kuid": "gf653b4c890c46f4940aa53bc686d7c0",
        "srcKUID": "j64b6a202cfa4080a0cb2b9e0c591e00",
        "wType": "Image"
      }
    },
    "customhamburger.lblAboutUs": {
      "__events__": {},
      "__info__": {
        "kuid": "accf6ecc1f874f708850e70e1fea6787",
        "srcKUID": "i493eec7d326462f92313816d7ae5961",
        "wType": "Label"
      }
    },
    "customhamburger.lblAccounts": {
      "__events__": {},
      "__info__": {
        "kuid": "abed9c1a8943460a923305523800cebc",
        "srcKUID": "aed697189cee47098907b5f830c7134b",
        "wType": "Label"
      }
    },
    "customhamburger.lblAddExternalBankAccounts": {
      "__events__": {},
      "__info__": {
        "kuid": "abd8c215710d4b38a967e6bcd3106264",
        "srcKUID": "edabb77d8ed2442ab7ed61fb91558f23",
        "wType": "Label"
      }
    },
    "customhamburger.lblAddKonyAccounts": {
      "__events__": {},
      "__info__": {
        "kuid": "e5394a0274ef4447b6ab226ff6b13910",
        "srcKUID": "ff5d216a556e426ea0485d1305d1cdfc",
        "wType": "Label"
      }
    },
    "customhamburger.lblAddNonKonyAccounts": {
      "__events__": {},
      "__info__": {
        "kuid": "d8183d55cfb34bb1964b965c533d862c",
        "srcKUID": "c0b0a03608614e5f893ef37dabfa17a8",
        "wType": "Label"
      }
    },
    "customhamburger.lblAddPayee": {
      "__events__": {},
      "__info__": {
        "kuid": "h75f9f799186437db0d71304cd72fa33",
        "srcKUID": "b1ed43109a994044957b192e976111d5",
        "wType": "Label"
      }
    },
    "customhamburger.lblAlerts": {
      "__events__": {},
      "__info__": {
        "kuid": "iab1186f796a4d74ab75f7b724c9ac1f",
        "srcKUID": "jdf83704ef2b4947a774852f4c514bb6",
        "wType": "Label"
      }
    },
    "customhamburger.lblAlertsAndMessages": {
      "__events__": {},
      "__info__": {
        "kuid": "ha25da348fc042ff95fc7f3b105b3544",
        "srcKUID": "c8bfe7de3cb1469aaef6d3ffee8c215e",
        "wType": "Label"
      }
    },
    "customhamburger.lblBillPay": {
      "__events__": {},
      "__info__": {
        "kuid": "b6455d9a7d67463b98e9e912f264934b",
        "srcKUID": "e219504191c84becaee171477e34698a",
        "wType": "Label"
      }
    },
    "customhamburger.lblBillPayHistory": {
      "__events__": {},
      "__info__": {
        "kuid": "hc436a0dcd3546928a963a56f1059514",
        "srcKUID": "ce6923a7ee8b477bab3d1bfa0979246d",
        "wType": "Label"
      }
    },
    "customhamburger.lblCardManagement": {
      "__events__": {},
      "__info__": {
        "kuid": "i3bdea9e19da4709a4f03e1d34f8dd8f",
        "srcKUID": "b0c732201f424826b31b883b5eec6956",
        "wType": "Label"
      }
    },
    "customhamburger.lblContactUs": {
      "__events__": {},
      "__info__": {
        "kuid": "eb0d6f8620d940bca99675aaee9d01b0",
        "srcKUID": "efd35344776642a49ef6e3aae807a692",
        "wType": "Label"
      }
    },
    "customhamburger.lblExternalAccounts": {
      "__events__": {},
      "__info__": {
        "kuid": "id8aaefa40244c75b0a571d1ba337761",
        "srcKUID": "abc7e43bdfb142efb0d94a00a797f211",
        "wType": "Label"
      }
    },
    "customhamburger.lblFaq": {
      "__events__": {},
      "__info__": {
        "kuid": "j52cabb50a314a4bb0f90e28e79b7073",
        "srcKUID": "d8ba96ef5a2e4bf8be5c973713049dc0",
        "wType": "Label"
      }
    },
    "customhamburger.lblLocateUs": {
      "__events__": {},
      "__info__": {
        "kuid": "fd10f2d8932a428c880c58688deb246e",
        "srcKUID": "g3b7ff8590d0445197ae60ef7a93a17d",
        "wType": "Label"
      }
    },
    "customhamburger.lblLogout": {
      "__events__": {},
      "__info__": {
        "kuid": "d2de1406ced444a08f484df08f7230f0",
        "srcKUID": "h4feb1ebd1d844adbbb270e5f22582cd",
        "wType": "Label"
      }
    },
    "customhamburger.lblMessages": {
      "__events__": {},
      "__info__": {
        "kuid": "c2bbc6b975244ff287b4dd0be758f743",
        "srcKUID": "bc3a860393a642769c9453d52202a501",
        "wType": "Label"
      }
    },
    "customhamburger.lblMyAccounts": {
      "__events__": {},
      "__info__": {
        "kuid": "e9be5e9d9054424b8f01fd3ddab16ea3",
        "srcKUID": "a202b406f5f04a1698b17c9f0f9e1694",
        "wType": "Label"
      }
    },
    "customhamburger.lblMyPayee": {
      "__events__": {},
      "__info__": {
        "kuid": "i013ecb83b2249e3a4ac9920a36ecc58",
        "srcKUID": "gac82f09141642e3bc00bf3a4c27e7a0",
        "wType": "Label"
      }
    },
    "customhamburger.lblNewMessage": {
      "__events__": {},
      "__info__": {
        "kuid": "ae768d8c63bb43c48c02594e96ee70b9",
        "srcKUID": "d62536e6a959458a97d070c4fbc8bbcb",
        "wType": "Label"
      }
    },
    "customhamburger.lblPFM": {
      "__events__": {},
      "__info__": {
        "kuid": "g6555bc5635b431d9892217cdcfaf6f4",
        "srcKUID": "e09127ede361436abb545b5527fba0e0",
        "wType": "Label"
      }
    },
    "customhamburger.lblPayABill": {
      "__events__": {},
      "__info__": {
        "kuid": "jb29ba9af4874c3ca39381483d590dec",
        "srcKUID": "dc6b9bef9ddf45c0864525e01b4b08d8",
        "wType": "Label"
      }
    },
    "customhamburger.lblPrivacyPolicy": {
      "__events__": {},
      "__info__": {
        "kuid": "a10ed0dbfe5945d48a1bbceab334697a",
        "srcKUID": "ba595802100f49ed8ebfbfc56c559f36",
        "wType": "Label"
      }
    },
    "customhamburger.lblStopPaymentRequests": {
      "__events__": {},
      "__info__": {
        "kuid": "af5c2f056a3648798487bd36d2ee4532",
        "srcKUID": "a87770408c7e42698c673972b990dd6d",
        "wType": "Label"
      }
    },
    "customhamburger.lblTermsAndCondition": {
      "__events__": {},
      "__info__": {
        "kuid": "e5d70029a3284739a537edc43ffa1c50",
        "srcKUID": "dc7b8618b5ed4cf3ba5a013618d07063",
        "wType": "Label"
      }
    },
    "customhamburger.lblTransferHistory": {
      "__events__": {},
      "__info__": {
        "kuid": "f36d3dcf6440423d8a13050e1d1d1e38",
        "srcKUID": "d62b43e095964b29b436135534a7afec",
        "wType": "Label"
      }
    },
    "customhamburger.lblTransferMoney": {
      "__events__": {},
      "__info__": {
        "kuid": "b03b0e9cac1f487799828135b0c94b43",
        "srcKUID": "b61740e755f3405791224a340675e733",
        "wType": "Label"
      }
    },
    "customhamburger.lblTransfers": {
      "__events__": {},
      "__info__": {
        "kuid": "e88fcabf048a4b2a8c55237c47e371fd",
        "srcKUID": "d4c40832e9a140ab8fafbb30d4d1df1d",
        "wType": "Label"
      }
    },
    "customheader": {
      "__events__": {},
      "__info__": {
        "isRoot": true,
        "kuid": "e6209256a6924afc821b406cbc383f30",
        "srcKUID": "c04bbf50611342ca895c5e0a329aeb52",
        "wType": "FlexContainer"
      }
    },
    "flxAccountTypesSegment": {
      "__events__": {},
      "__info__": {
        "kuid": "c6b0eb00d8e6497e9a0556d52330a5b4",
        "srcKUID": "d431114047984f3ba84cf9829500caf5",
        "wType": "FlexContainer"
      }
    },
    "flxBottomContainer": {
      "__events__": {},
      "__info__": {
        "kuid": "c9c80722bbe642a6881a37b12fa1542a",
        "srcKUID": "h9bdf039c3f54878b18ff66171c8c6c6",
        "wType": "FlexContainer"
      }
    },
    "flxHamburger": {
      "__events__": {},
      "__info__": {
        "kuid": "g9ec7f1f0d234110868a377593eaa4d7",
        "srcKUID": "f04c6e11e7da43b49dd181b8b47d93c4",
        "wType": "FlexContainer"
      },
      "width": {
        "Default": {
          "type": "string",
          "value": "450dp"
        }
      }
    },
    "flxHamburgerBack": {
      "__events__": {},
      "__info__": {
        "kuid": "e05cbff75e024e84b5c53a3a1940dd50",
        "srcKUID": "d74ea43244984beda96f3fdfd7e1de6b",
        "wType": "FlexContainer"
      }
    },
    "flxSeperatorHor2": {
      "__events__": {},
      "__info__": {
        "kuid": "b42049145e0246b5a77f7fd33c61bd53",
        "srcKUID": "hadeefb9ccf84d75b58e19e7a860af8f",
        "wType": "FlexContainer"
      }
    },
    "flxSeperatorhor": {
      "__events__": {},
      "__info__": {
        "kuid": "b0dd15b7309545129ce6b9bbd4ab5a3f",
        "srcKUID": "d0d14e359d9b4f2bae40325782d5d3d0",
        "wType": "FlexContainer"
      }
    },
    "flxTopmenu": {
      "__events__": {},
      "__info__": {
        "kuid": "id017132a1a64551af53283dfab3f3b6",
        "srcKUID": "ed60ec01cd4843d8acaf4c0c4767b493",
        "wType": "FlexContainer"
      }
    },
    "flxUserActions": {
      "__events__": {},
      "__info__": {
        "kuid": "ff416c49ff80404c8a07e1ba16076d26",
        "srcKUID": "j914824243a446a18dc539def72a7642",
        "wType": "FlexContainer"
      }
    },
    "headermenu": {
      "__events__": {},
      "__info__": {
        "kuid": "b6e74388e2764b40a0d824e4d886f499",
        "srcKUID": "haabafcdc12f4455b3af44d1e0d8f80b",
        "wType": "UserWidgetInstance"
      }
    },
    "headermenu.btnLogout": {
      "__events__": {},
      "__info__": {
        "kuid": "b2afd2cf79a143aab9bddb277e7602d9",
        "srcKUID": "a766f3cd9f714697b54e4cdcbe1c544b",
        "wType": "Button"
      },
      "i18n_text": "i18n.common.logout"
    },
    "headermenu.flxMessages": {
      "__events__": {},
      "__info__": {
        "kuid": "d7784fcecb5047c58e2cbbe968253a64",
        "srcKUID": "ac3447a671db4ff79c563e385d237583",
        "wType": "FlexContainer"
      }
    },
    "headermenu.flxResetUserImg": {
      "__events__": {},
      "__info__": {
        "kuid": "f6faeca81f6949dda401ea904fa0a7f1",
        "srcKUID": "adcf593a077c4c0cb56c90ee73238583",
        "wType": "FlexContainer"
      }
    },
    "headermenu.flxUserId": {
      "__events__": {},
      "__info__": {
        "kuid": "c50d3a4b02ff4703b0cb42fae73fc3e5",
        "srcKUID": "c135ea56ffd24834a20c4f3af08e75ed",
        "wType": "FlexContainer"
      }
    },
    "headermenu.flxVerticalSeperator1": {
      "__events__": {},
      "__info__": {
        "kuid": "dd677b20e96041f78dfd52012db059ff",
        "srcKUID": "g1cf2c5ea04748138b67069bf6443784",
        "wType": "FlexContainer"
      }
    },
    "headermenu.flxVerticalSeperator2": {
      "__events__": {},
      "__info__": {
        "kuid": "bfb797c042544735bf5524942fc735a7",
        "srcKUID": "i869d64f25f744c7a219ce87160f4fa9",
        "wType": "FlexContainer"
      }
    },
    "headermenu.flxWarning": {
      "__events__": {},
      "__info__": {
        "kuid": "fd544ea057c14672b2a118828e6fcc77",
        "srcKUID": "a3f637c9fa154e6ca5621edf7af7f744",
        "wType": "FlexContainer"
      }
    },
    "headermenu.flximgUserResetWrapper": {
      "__events__": {},
      "__info__": {
        "kuid": "b6920a9cb4f048ebb70dd2e60bdd3990",
        "srcKUID": "e3916b40967c456aa3942940472ad47e",
        "wType": "FlexContainer"
      }
    },
    "headermenu.imgDropdown": {
      "__events__": {},
      "__info__": {
        "kuid": "e8b547ae63844dcc822868c893e22d19",
        "srcKUID": "h3d2b4b7f954464d931e34492064ab17",
        "wType": "Image"
      }
    },
    "headermenu.imgNotifications": {
      "__events__": {},
      "__info__": {
        "kuid": "ec9e771a3c9a4c39a0df928c7baf6a91",
        "srcKUID": "j053dc709b2c497681932e7129f70ddb",
        "wType": "Image"
      }
    },
    "headermenu.imgUserBoundary": {
      "__events__": {},
      "__info__": {
        "kuid": "aed4deb701294499b32318ad422203b1",
        "srcKUID": "g6047dd874ff440fab7ed86f7b808fdd",
        "wType": "Image"
      }
    },
    "headermenu.imgUserReset": {
      "__events__": {},
      "__info__": {
        "kuid": "hc881ed753af4dc79345a9b544dbe16a",
        "srcKUID": "i9a593cdf8934086b62dd5b4b4d93eda",
        "wType": "Image"
      }
    },
    "headermenu.imgWarning": {
      "__events__": {},
      "__info__": {
        "kuid": "d0cbefd5ccd24e8e9f0bbfa32f4cad56",
        "srcKUID": "j00ce4f7525e4f2aa69884ac2cc7b8a0",
        "wType": "Image"
      }
    },
    "headermenu.imgheaderdefault": {
      "__events__": {},
      "__info__": {
        "kuid": "c52a2aeab7a04a39a4c651b966a34efd",
        "srcKUID": "i589d54c00ef4b33bc0e54ccd9b1e9b9",
        "wType": "Image"
      }
    },
    "headermenu.lblNewMessages": {
      "__events__": {},
      "__info__": {
        "kuid": "aa66441e500f4793a2ee7ba99b61aacc",
        "srcKUID": "bc2f4a9f76164bc18e8e1663bbba3a61",
        "wType": "Label"
      }
    },
    "headermenu.rtxWarning": {
      "__events__": {},
      "__info__": {
        "kuid": "i9f9990fbb2f4f37af157fca43a7e7e2",
        "srcKUID": "i05c5f9533194937886bb0d238f640e3",
        "wType": "RichText"
      }
    },
    "imgKony": {
      "__events__": {},
      "__info__": {
        "kuid": "aef06a85a7014c5b8fd9c6f32369a892",
        "srcKUID": "i89a4c93ab68416c8f6a24b3e85d037c",
        "wType": "Image"
      }
    },
    "imgToolTip": {
      "__events__": {},
      "__info__": {
        "kuid": "a38ba995816f46d08041eac6fdc732da",
        "srcKUID": "b05c4200ee7747f2b596bc0eafc18760",
        "wType": "Image"
      }
    },
    "lblUserEmail": {
      "__events__": {},
      "__info__": {
        "kuid": "d73a06266ece4098b66356e97210494d",
        "srcKUID": "j0ea4a96f1104289ad3d0312ed141d3b",
        "wType": "Label"
      }
    },
    "leftcontainer": {
      "__events__": {},
      "__info__": {
        "kuid": "gef0d73558434c449b95989f4bc3ceff",
        "srcKUID": "bd51d17a858b470f86d30f1fdb49d6d3",
        "wType": "FlexContainer"
      }
    },
    "rightcontainer": {
      "__events__": {},
      "__info__": {
        "kuid": "ee2bbe46ebb84eac8fd68a28f2082ac1",
        "srcKUID": "j9e2ac398ee647f8b33a80640560a977",
        "wType": "FlexContainer"
      }
    },
    "segUserActions": {
      "__events__": {},
      "__info__": {
        "kuid": "d58040e7bc1e4dd399cc34347a82e833",
        "srcKUID": "h6bf423223694ef0be1f75d0abee1c0a",
        "wType": "Segment"
      }
    },
    "topmenu": {
      "__events__": {},
      "__info__": {
        "kuid": "jf4b969c918946b3bd1047cf0e7b1c04",
        "srcKUID": "f3bc1d211a8342419317a1f649e456a0",
        "wType": "UserWidgetInstance"
      }
    },
    "topmenu.CopyLabel0a8b12f7002084d": {
      "__events__": {},
      "__info__": {
        "kuid": "f2927f1c4def4410a845d909effb3ad7",
        "srcKUID": "a051506ea3864885b198b844795df50e",
        "wType": "Label"
      }
    },
    "topmenu.CopyLabel0b07dfb57de2445": {
      "__events__": {},
      "__info__": {
        "kuid": "a10c110611d847c3bf5f8f0ee78c2198",
        "srcKUID": "f0f9e56b281d4eceb0749c61522f4a90",
        "wType": "Label"
      }
    },
    "topmenu.CopyLabel0b53cc10abb0342": {
      "__events__": {},
      "__info__": {
        "kuid": "fc9fe28a1f4c4c47a6f337f02f413fe6",
        "srcKUID": "a28491ec994f45f18c08fe5d1f9b23c5",
        "wType": "Label"
      }
    },
    "topmenu.CopyLabel0bb648d916e554d": {
      "__events__": {},
      "__info__": {
        "kuid": "a9044bc4d4e349b5aac0e55bd89e5f74",
        "srcKUID": "bc077f5775344d05abc4b26b93f547e2",
        "wType": "Label"
      }
    },
    "topmenu.CopyLabel0h9e71b8a76ad44": {
      "__events__": {},
      "__info__": {
        "kuid": "d728e6a3105941d5892e433d8f2a48e1",
        "srcKUID": "j8cfefac3629406384cc9ab091131d25",
        "wType": "Label"
      }
    },
    "topmenu.CopyLabel0ifdc84d9814842": {
      "__events__": {},
      "__info__": {
        "kuid": "h0e565e3f5fc4c1894ef165b3f77b363",
        "srcKUID": "ja80f2c849514793bc2b7ef76880027c",
        "wType": "Label"
      }
    },
    "topmenu.Label0b60331706e5e45": {
      "__events__": {},
      "__info__": {
        "kuid": "a1516c137641413f83c1d8d6e92b0ebc",
        "srcKUID": "f5dfdacb3a9c44f0a62033ada65c55ec",
        "wType": "Label"
      }
    },
    "topmenu.Label0dcf00103bdba46": {
      "__events__": {},
      "__info__": {
        "kuid": "j7676c0d1a4b4d529ff8637c7a7bdcee",
        "srcKUID": "c696e7354c7341469fe1c6fac1869c9b",
        "wType": "Label"
      }
    },
    "topmenu.flxContextualMenu": {
      "__events__": {},
      "__info__": {
        "kuid": "db5094254f6a43a58656a29b67870670",
        "srcKUID": "d93e029b84b847fc81a03de1b30f353f",
        "wType": "FlexContainer"
      }
    },
    "topmenu.flxFeedback": {
      "__events__": {},
      "__info__": {
        "kuid": "d7bb887411be4549ab16fc96d26b200f",
        "srcKUID": "cd10d4b4f565433fb35f2d2d0a97fe1e",
        "wType": "FlexContainer"
      }
    },
    "topmenu.flxFeedbackimg": {
      "__events__": {},
      "__info__": {
        "kuid": "e98ae6d23f0440d0907b52a1215203cb",
        "srcKUID": "g11b5488a8d343ae866e1de13660acda",
        "wType": "FlexContainer"
      }
    },
    "topmenu.flxHelp": {
      "__events__": {},
      "__info__": {
        "kuid": "hb982c9d51b244dab1acef771011ec55",
        "srcKUID": "i2d06c634cdc4172ba80e744bcdcfebb",
        "wType": "FlexContainer"
      }
    },
    "topmenu.flxMenu": {
      "__events__": {},
      "__info__": {
        "kuid": "c270ad9ba8a3424aabd9aa01d8231299",
        "srcKUID": "e3be9a8fdce047e6bfc57c6134e9a975",
        "wType": "FlexContainer"
      }
    },
    "topmenu.flxMenusMain": {
      "__events__": {},
      "__info__": {
        "kuid": "db11ef4dac6f42c29c157ecea57dd80b",
        "srcKUID": "da5555fd4c164726bf9860ec53363048",
        "wType": "FlexContainer"
      }
    },
    "topmenu.flxPayBills": {
      "__events__": {},
      "__info__": {
        "kuid": "c0ad318830bd4f97b8770ae73687ecd5",
        "srcKUID": "b0405a53deab419f93cadece0ff2e29e",
        "wType": "FlexContainer"
      }
    },
    "topmenu.flxSendMoney": {
      "__events__": {},
      "__info__": {
        "kuid": "c29cd61630184005821af3d8771ff388",
        "srcKUID": "aa94ebd29fcb48ee8d1006f949210f98",
        "wType": "FlexContainer"
      }
    },
    "topmenu.flxSeperator": {
      "__events__": {},
      "__info__": {
        "kuid": "dba0ba4e73754abcab45048920224915",
        "srcKUID": "d7f042bfaaf046d5942ed568eec44b23",
        "wType": "FlexContainer"
      }
    },
    "topmenu.flxSeperator1": {
      "__events__": {},
      "__info__": {
        "kuid": "a777a33aaf434d7698356eee7f1f7714",
        "srcKUID": "i09ec806e136452589e84e2f83e53e68",
        "wType": "FlexContainer"
      }
    },
    "topmenu.flxSeperator3": {
      "__events__": {},
      "__info__": {
        "kuid": "aef37136b44a4c20a13e2abec6680204",
        "srcKUID": "fdec41bc6ca1484b93bfd7237a49be51",
        "wType": "FlexContainer"
      }
    },
    "topmenu.flxTransferMoney": {
      "__events__": {},
      "__info__": {
        "kuid": "e32ea9b3514849f9998f59a5f11dbce5",
        "srcKUID": "ceecbd5ac73749c0b95918674f9ffb17",
        "wType": "FlexContainer"
      }
    },
    "topmenu.flxTransfersAndPay": {
      "__events__": {},
      "__info__": {
        "kuid": "c9c147dccf2c4f848913f4de8cc9972d",
        "srcKUID": "j83fe7fb58c04ec394a0d8313351f539",
        "wType": "FlexContainer"
      }
    },
    "topmenu.flxWireMoney": {
      "__events__": {},
      "__info__": {
        "kuid": "d7330920be884f89b206b5f0aa592a5e",
        "srcKUID": "bed5646364634571b664cc577ca65144",
        "wType": "FlexContainer"
      }
    },
    "topmenu.flxaccounts": {
      "__events__": {},
      "__info__": {
        "kuid": "d569667adb964129b2c09266457e1cee",
        "srcKUID": "b6366fc9b5854ca5aecefb68e89386e7",
        "wType": "FlexContainer"
      }
    },
    "topmenu.flxverseperator1": {
      "__events__": {},
      "__info__": {
        "kuid": "b0a2c49d9bd14b6cbaeae3e041c941de",
        "srcKUID": "cd2f891c8cc94e9b87555c8c6066f221",
        "wType": "FlexContainer"
      }
    },
    "topmenu.flxverseperator2": {
      "__events__": {},
      "__info__": {
        "kuid": "f3b251a16f6a4452a33fb3f80d0868a2",
        "srcKUID": "f9719a0b9d3f42b690d0b92a4477ec5d",
        "wType": "FlexContainer"
      }
    },
    "topmenu.imgAccounts": {
      "__events__": {},
      "__info__": {
        "kuid": "j62f3a46353d406297912ef8a85c6c9b",
        "srcKUID": "h41efc3bbd044c57a91bf7a47617cb38",
        "wType": "Image"
      }
    },
    "topmenu.imgFeedback": {
      "__events__": {},
      "__info__": {
        "kuid": "cda659602e3a430793c7264c0b221f84",
        "srcKUID": "f4a6ae818e504daab62eabcb47b9a961",
        "wType": "Image"
      }
    },
    "topmenu.imgHelp": {
      "__events__": {},
      "__info__": {
        "kuid": "b95892d5c68e4fa6b7cdb71dcce8b910",
        "srcKUID": "h95d6926104248c4abfea8af0ad0bb2d",
        "wType": "Image"
      }
    },
    "topmenu.imgMenu": {
      "__events__": {},
      "__info__": {
        "kuid": "cfb6baa6553340a3b885af245cab21d9",
        "srcKUID": "be1e045b3a3347d88509b7efc7d8015b",
        "wType": "Image"
      }
    },
    "topmenu.imgTransfers": {
      "__events__": {},
      "__info__": {
        "kuid": "f1a5522b96e44af3bb62e562fa2a6666",
        "srcKUID": "aa4f2882266a4cdda63980b155b9df71",
        "wType": "Image"
      }
    },
    "topmenu.lblAccounts": {
      "__events__": {},
      "__info__": {
        "kuid": "e927237ba5724fe3a4b0f26ef1261348",
        "srcKUID": "bcf724a120b24fdbb2278444060c639c",
        "wType": "Label"
      }
    },
    "topmenu.lblFeedback": {
      "__events__": {},
      "__info__": {
        "kuid": "i433fa3f9ee147d3bf54c0b764450d5f",
        "srcKUID": "i45ffb2e674e425ba9e5542807008a2e",
        "wType": "Label"
      }
    },
    "topmenu.lblHelp": {
      "__events__": {},
      "__info__": {
        "kuid": "ca5e5cc5b32b4201abacbdd5a1f64e3c",
        "srcKUID": "b910c72e31ac4950b9d4fcca565a1df4",
        "wType": "Label"
      }
    },
    "topmenu.lblMenu": {
      "__events__": {},
      "__info__": {
        "kuid": "h32ecd0bfdb14355956ad108c2a23e9c",
        "srcKUID": "h7239719ed104114b04620b3da15cd02",
        "wType": "Label"
      }
    },
    "topmenu.lblTransferAndPay": {
      "__events__": {},
      "__info__": {
        "kuid": "ad149450ced34df2a924ee7cbb5d8ff3",
        "srcKUID": "gf970d4c8185498db726665e80e4fff7",
        "wType": "Label"
      }
    }
  },
  "id": "customheader",
  "info": null,
  "isdatareferenced": false,
  "isvisible": true,
  "kuid": "hff948650fa94bacb2be7a15cc90ac5c",
  "layouttype": 2,
  "masterType": 0,
  "name": "kony.ui.UserWidgetInstance",
  "parent": "flxHeader",
  "pf": "frmNAO",
  "sourceUserWidget": "c04bbf50611342ca895c5e0a329aeb52",
  "wType": "UserWidgetInstance",
  "zindex": 1000
}