{
  "DNDConfig": null,
  "__parentReadjusting__": false,
  "_height_": {
    "type": "string",
    "value": "60dp"
  },
  "_left_": {
    "type": "string",
    "value": "0%"
  },
  "_margin_": [
    0,
    0,
    0,
    0
  ],
  "_orientation_": 6,
  "_padding_": [
    0,
    0,
    0,
    0
  ],
  "_percent_": true,
  "_skin_": "sf9ba955520546428b97010b94b30890",
  "_top_": {
    "type": "string",
    "value": "0px"
  },
  "_width_": {
    "type": "string",
    "value": "100%"
  },
  "allboxes": [],
  "autogrowmode": 0,
  "canUpdateUI": true,
  "children": [
    "lblHeader",
    "flxSeperator"
  ],
  "clipbounds": true,
  "containerweight": 100,
  "enablescrolling": true,
  "id": "flxHaveQuestions",
  "info": null,
  "isvisible": true,
  "kuid": "jc561a7e279c4334a45e2c9dbde25f55",
  "layouttype": 2,
  "name": "kony.ui.FlexContainer",
  "parent": "flxRightBarContactDetails",
  "pf": "frmNAO",
  "snapgridsize": 10,
  "snaptogrid": true,
  "wType": "FlexContainer",
  "widgetalignment": 1,
  "zindex": 1
}