{
  "@class": "com.kony.gen.viz.model.container.KVizSegment2",
  "DNDConfig": null,
  "__parentReadjusting__": false,
  "_data_": [
    {
      "btnKnowMore": {
        "@class": "com.viz.ide.model.segment.SimpleTextSegmentData",
        "text": "KNOW MORE..."
      },
      "imgRule1": {
        "@class": "com.viz.ide.model.segment.ImageSegmentData",
        "src": "pageoffdot.png"
      },
      "imgRule2": {
        "@class": "com.viz.ide.model.segment.ImageSegmentData",
        "src": "pageoffdot.png"
      },
      "imgRule3": {
        "@class": "com.viz.ide.model.segment.ImageSegmentData",
        "src": "pageoffdot.png"
      },
      "imgflxAccounts": {
        "@class": "com.viz.ide.model.segment.ImageSegmentData",
        "src": "nuo_savings.png"
      },
      "lblAccounts": {
        "@class": "com.viz.ide.model.segment.SimpleTextSegmentData",
        "i18nkey": "i18n.NUO.SlectProduct",
        "text": ""
      },
      "lblAccountsName": {
        "@class": "com.viz.ide.model.segment.SimpleTextSegmentData",
        "i18nkey": "i18n.NUO.SavingsAccountCapsOff",
        "text": ""
      },
      "lblCheckBox": {
        "@class": "com.viz.ide.model.segment.SimpleTextSegmentData",
        "text": "C"
      },
      "lblFeature": {
        "@class": "com.viz.ide.model.segment.SimpleTextSegmentData",
        "i18nkey": "i18n.NUO.Features",
        "text": "Features"
      },
      "lblMonthlyServiceFee": {
        "@class": "com.viz.ide.model.segment.SimpleTextSegmentData",
        "text": "Set up monthly automatic transfers of $25 or more to  reach your savings goals"
      },
      "lblRule1": {
        "@class": "com.viz.ide.model.segment.SimpleTextSegmentData",
        "text": "RichText"
      },
      "lblRule2": {
        "@class": "com.viz.ide.model.segment.SimpleTextSegmentData",
        "text": "Set up monthly automatic transfers of $25 or more to  reach your savings goals"
      },
      "lblRule3": {
        "@class": "com.viz.ide.model.segment.SimpleTextSegmentData",
        "text": "Set up monthly automatic transfers of $25 or more to  reach your savings goals"
      }
    },
    {
      "btnKnowMore": {
        "@class": "com.viz.ide.model.segment.SimpleTextSegmentData",
        "text": "KNOW MORE..."
      },
      "imgRule1": {
        "@class": "com.viz.ide.model.segment.ImageSegmentData",
        "src": "pageoffdot.png"
      },
      "imgRule2": {
        "@class": "com.viz.ide.model.segment.ImageSegmentData",
        "src": "pageoffdot.png"
      },
      "imgRule3": {
        "@class": "com.viz.ide.model.segment.ImageSegmentData",
        "src": "pageoffdot.png"
      },
      "imgflxAccounts": {
        "@class": "com.viz.ide.model.segment.ImageSegmentData",
        "src": "nuo_savings.png"
      },
      "lblAccounts": {
        "@class": "com.viz.ide.model.segment.SimpleTextSegmentData",
        "i18nkey": "i18n.NUO.SlectProduct",
        "text": ""
      },
      "lblAccountsName": {
        "@class": "com.viz.ide.model.segment.SimpleTextSegmentData",
        "i18nkey": "i18n.NUO.SavingsAccountCapsOff",
        "text": ""
      },
      "lblCheckBox": {
        "@class": "com.viz.ide.model.segment.SimpleTextSegmentData",
        "text": "C"
      },
      "lblFeature": {
        "@class": "com.viz.ide.model.segment.SimpleTextSegmentData",
        "i18nkey": "i18n.NUO.Features",
        "text": "Features"
      },
      "lblMonthlyServiceFee": {
        "@class": "com.viz.ide.model.segment.SimpleTextSegmentData",
        "text": "Set up monthly automatic transfers of $25 or more to  reach your savings goals"
      },
      "lblRule1": {
        "@class": "com.viz.ide.model.segment.SimpleTextSegmentData",
        "text": "RichText"
      },
      "lblRule2": {
        "@class": "com.viz.ide.model.segment.SimpleTextSegmentData",
        "text": "Set up monthly automatic transfers of $25 or more to  reach your savings goals"
      },
      "lblRule3": {
        "@class": "com.viz.ide.model.segment.SimpleTextSegmentData",
        "text": "Set up monthly automatic transfers of $25 or more to  reach your savings goals"
      }
    },
    {
      "btnKnowMore": {
        "@class": "com.viz.ide.model.segment.SimpleTextSegmentData",
        "text": "KNOW MORE..."
      },
      "imgRule1": {
        "@class": "com.viz.ide.model.segment.ImageSegmentData",
        "src": "pageoffdot.png"
      },
      "imgRule2": {
        "@class": "com.viz.ide.model.segment.ImageSegmentData",
        "src": "pageoffdot.png"
      },
      "imgRule3": {
        "@class": "com.viz.ide.model.segment.ImageSegmentData",
        "src": "pageoffdot.png"
      },
      "imgflxAccounts": {
        "@class": "com.viz.ide.model.segment.ImageSegmentData",
        "src": "nuo_savings.png"
      },
      "lblAccounts": {
        "@class": "com.viz.ide.model.segment.SimpleTextSegmentData",
        "i18nkey": "i18n.NUO.SlectProduct",
        "text": ""
      },
      "lblAccountsName": {
        "@class": "com.viz.ide.model.segment.SimpleTextSegmentData",
        "i18nkey": "i18n.NUO.SavingsAccountCapsOff",
        "text": ""
      },
      "lblCheckBox": {
        "@class": "com.viz.ide.model.segment.SimpleTextSegmentData",
        "text": "C"
      },
      "lblFeature": {
        "@class": "com.viz.ide.model.segment.SimpleTextSegmentData",
        "i18nkey": "i18n.NUO.Features",
        "text": "Features"
      },
      "lblMonthlyServiceFee": {
        "@class": "com.viz.ide.model.segment.SimpleTextSegmentData",
        "text": "Set up monthly automatic transfers of $25 or more to  reach your savings goals"
      },
      "lblRule1": {
        "@class": "com.viz.ide.model.segment.SimpleTextSegmentData",
        "text": "RichText"
      },
      "lblRule2": {
        "@class": "com.viz.ide.model.segment.SimpleTextSegmentData",
        "text": "Set up monthly automatic transfers of $25 or more to  reach your savings goals"
      },
      "lblRule3": {
        "@class": "com.viz.ide.model.segment.SimpleTextSegmentData",
        "text": "Set up monthly automatic transfers of $25 or more to  reach your savings goals"
      }
    }
  ],
  "_height_": {
    "type": "ref",
    "value": "preferred"
  },
  "_indicator_": "none",
  "_left_": {
    "type": "string",
    "value": "0dp"
  },
  "_margin_": [
    0,
    0,
    0,
    0
  ],
  "_orientation_": 2,
  "_padding_": [
    0,
    0,
    0,
    0
  ],
  "_top_": {
    "type": "string",
    "value": "0dp"
  },
  "_width_": {
    "type": "string",
    "value": "100%"
  },
  "autogrowmode": 1,
  "canUpdateUI": true,
  "containerweight": 100,
  "counter": "02",
  "focusedindex": null,
  "focuseditem": null,
  "groupcells": false,
  "hasSections": false,
  "id": "segProductsNAO",
  "info": null,
  "ipad": {
    "psp": {
      "indicator": "rowselect"
    }
  },
  "iphone": {
    "psp": {
      "indicator": "rowselect"
    }
  },
  "iscustomlayout": false,
  "isvisible": true,
  "kuid": "f375fb516a6f4ef681def948c755b076",
  "masterdata": {},
  "maxheight": {
    "type": "string",
    "value": "815dp"
  },
  "name": "kony.ui.SegmentedUI2",
  "needpageindicator": true,
  "pageoffdotimage": "pageoffdot.png",
  "pageondotimage": "pageondot.png",
  "paginationconfig": {
    "position": "bottom"
  },
  "parent": "flxSelectProducts",
  "pf": "frmNAO",
  "retaincontentalignment": false,
  "retainflexpositionproperties": false,
  "retainselection": false,
  "rowTemplateId": "b0827d8d209e4e768342d77ba1cbed79",
  "rowcounter": 2,
  "rowfocusskin": "s9f69e977910472eb44c62ae28c41fe1",
  "rowskin": "scf5f90f6ac04976ab88b2a4f7153285",
  "rowtemplate": "flxSelectProducts",
  "screenlevelwidget": false,
  "seccounter": 0,
  "sectionheaderskin": "sdc4ff4ed1584272be2ae69045dfb29d",
  "selectedRows": null,
  "selectedState": false,
  "selectedindex": null,
  "selectedindices": null,
  "selecteditems": null,
  "selectedsectionindex": 0,
  "selectionbehavior": "default",
  "separatorcolor": "aaaaaa00",
  "separatorrequired": true,
  "separatorthickness": 1,
  "showscrollbars": false,
  "viewtype": "tableview",
  "wType": "Segment",
  "widgetalignment": 5,
  "widgetdatamap": {
    "btnKnowMore": "btnKnowMore",
    "flxCheckBox": "flxCheckBox",
    "flxLeft": "flxLeft",
    "flxRight": "flxRight",
    "flxRule1": "flxRule1",
    "flxRule2": "flxRule2",
    "flxRule3": "flxRule3",
    "flxSelectProducts": "flxSelectProducts",
    "flxSelectProductsAccounts": "flxSelectProductsAccounts",
    "flxSelectProductsAccountsContainer": "flxSelectProductsAccountsContainer",
    "flxSelectProductsAccountsMain": "flxSelectProductsAccountsMain",
    "imgRule1": "imgRule1",
    "imgRule2": "imgRule2",
    "imgRule3": "imgRule3",
    "imgflxAccounts": "imgflxAccounts",
    "lblAccounts": "lblAccounts",
    "lblAccountsName": "lblAccountsName",
    "lblCheckBox": "lblCheckBox",
    "lblFeature": "lblFeature",
    "lblMonthlyServiceFee": "lblMonthlyServiceFee",
    "lblRule1": "lblRule1",
    "lblRule2": "lblRule2",
    "lblRule3": "lblRule3"
  },
  "zindex": 1
}