{
    "@class": "com.kony.gen.viz.model.component.KVizUserWidget",
    "DNDConfig": null,
    "__parentReadjusting__": false,
    "_children_": [],
    "_height_": {
        "type": "ref",
        "value": "preferred"
    },
    "_left_": {
        "type": "string",
        "value": "0dp"
    },
    "_margin_": [
        0,
        0,
        0,
        0
    ],
    "_orientation_": 1,
    "_padding_": [
        0,
        0,
        0,
        0
    ],
    "_percent_": true,
    "_render_": true,
    "_skin_": "s24c92fc23b14f5484b693ee9b8a9b35",
    "_top_": {
        "type": "string",
        "value": "30dp"
    },
    "_width_": {
        "type": "string",
        "value": "100%"
    },
    "areflexpropsreferenced": false,
    "autogrowmode": 1,
    "canUpdateUI": true,
    "clipbounds": true,
    "containerweight": 0,
    "dataDiffs": {
        "BannerNUO": {
            "__events__": {},
            "__info__": {
                "isRoot": true,
                "kuid": "b1265de44b4846c6af3afbe5e584ebbc",
                "srcKUID": "b782e27d8289411e86273ee54ffeadb0",
                "wType": "FlexContainer"
            },
            "top": {
                "Default": {
                    "type": "string",
                    "value": "30dp"
                }
            }
        },
        "btnAccountsDescriptionCancel": {
            "__events__": {},
            "__info__": {
                "kuid": "h40fc75c21504c40b4f9cf0e9153fb16",
                "srcKUID": "d611fa72861b444eb082409416d4ff96",
                "wType": "Button"
            },
            "isVisible": true
        },
        "flxBannerImage": {
            "__events__": {},
            "__info__": {
                "kuid": "b63777e619a14dc899efcc8e899b6ad3",
                "srcKUID": "b1c87dfb1233466583d371d6a0d36d59",
                "wType": "FlexContainer"
            },
            "autogrowMode": {
                "Default": 0
            },
            "height": {
                "Default": {
                    "type": "string",
                    "value": "250dp"
                }
            },
            "width": {
                "Default": {
                    "type": "string",
                    "value": "370dp"
                }
            }
        },
        "flxBannerWrapper": {
            "__events__": {},
            "__info__": {
                "kuid": "gaec641ea78143e9a45478386ed1981b",
                "srcKUID": "a67ade5a02ed45cf9ee70e954b0145dd",
                "wType": "FlexContainer"
            }
        },
        "imgBanner": {
            "__events__": {},
            "__info__": {
                "kuid": "d8e01aa609f04c8fb52ff9d8cd04fe55",
                "srcKUID": "fc41b424b56d4ba48f53450e29fc4442",
                "wType": "Image"
            },
            "height": {
                "Default": {
                    "type": "string",
                    "value": "100%"
                }
            },
            "src": "nuo_banner_1.png",
            "top": {
                "Default": {
                    "type": "string",
                    "value": "0dp"
                }
            },
            "width": {
                "Default": {
                    "type": "string",
                    "value": "369dp"
                }
            }
        },
        "lblChooseEligibilityCriteriaError": {
            "__events__": {},
            "__info__": {
                "kuid": "h3b62df4abb6492eb36c174864dcfbf8",
                "srcKUID": "be923c7f06bb468b8717b9462c6ed5b7",
                "wType": "Label"
            },
            "isVisible": true
        },
        "lblMessage2": {
            "__events__": {},
            "__info__": {
                "kuid": "af8dafa81a354bdfbad78f01fd0c2f26",
                "srcKUID": "b70a0c03566f43fc994b4b1f667b81f0",
                "wType": "Label"
            },
            "isVisible": true
        },
        "lblReadyForWhatComesNext": {
            "__events__": {},
            "__info__": {
                "kuid": "dbf6bff8b02f4525a30232df504052e8",
                "srcKUID": "ee163a87ecb74b4e9d7f163a1986f421",
                "wType": "Label"
            },
            "isVisible": false
        },
        "lblSavingsAccountsMakesItEasy": {
            "__events__": {},
            "__info__": {
                "kuid": "h44344768255480097d6bd068f5b13bb",
                "srcKUID": "d0e489d7fa1a40129ff56033a420ca09",
                "wType": "Label"
            },
            "isVisible": false
        }
    },
    "id": "BannerNUO",
    "info": null,
    "iscustomlayout": false,
    "isdatareferenced": false,
    "isvisible": true,
    "kuid": "b1265de44b4846c6af3afbe5e584ebbc",
    "layouttype": 2,
    "masterType": 0,
    "name": "kony.ui.UserWidgetInstance",
    "parent": "flxRightContainer",
    "pf": "frmNewUserOnboarding",
    "retaincontentalignment": false,
    "retainflexpositionproperties": false,
    "snaptogrid": true,
    "sourceUserWidget": "b782e27d8289411e86273ee54ffeadb0",
    "wType": "UserWidgetInstance"
}