{
    "@class": "com.kony.gen.viz.model.component.KVizButton",
    "DNDConfig": null,
    "__parentReadjusting__": false,
    "_height_": {
        "type": "string",
        "value": "50dp"
    },
    "_left_": {
        "type": "string",
        "value": "68.12%"
    },
    "_margin_": [
        6,
        6,
        6,
        6
    ],
    "_padding_": [
        0,
        0,
        0,
        0
    ],
    "_skin_": "s5dbba5b9dac4f33998dc76f09b4e9d4",
    "_text_": "",
    "_top_": {
        "type": "string",
        "value": "20dp"
    },
    "_width_": {
        "type": "string",
        "value": "29.47%"
    },
    "canUpdateUI": true,
    "containerweight": 100,
    "contentalignment": 5,
    "desktopweb": {
        "psp": {
            "hoverSkin": "s1adc431d69b4514a216da86d642889f"
        }
    },
    "disabledSkins": {
        "focusSkin": "sf44d06ca8224832827ea7fdff757013"
    },
    "displaytext": true,
    "id": "btnContinueProceed",
    "info": null,
    "isvisible": true,
    "kuid": "b78399b227264edc95c415602a2f16b0",
    "name": "kony.ui.Button",
    "parent": "flxContinueButton",
    "pf": "frmNewUserOnboarding",
    "texti18n": "i18n.common.continue",
    "tooltip": "Continue",
    "wType": "Button",
    "zindex": 1
}