{
    "@class": "com.kony.gen.viz.model.component.KVizUserWidget",
    "DNDConfig": null,
    "__parentReadjusting__": false,
    "_children_": [],
    "_height_": {
        "type": "ref",
        "value": "preferred"
    },
    "_left_": {
        "type": "string",
        "value": "0dp"
    },
    "_margin_": [
        0,
        0,
        0,
        0
    ],
    "_orientation_": 1,
    "_padding_": [
        0,
        0,
        0,
        0
    ],
    "_percent_": true,
    "_render_": true,
    "_skin_": "s24c92fc23b14f5484b693ee9b8a9b35",
    "_top_": {
        "type": "string",
        "value": "0dp"
    },
    "_width_": {
        "type": "string",
        "value": "100%"
    },
    "areflexpropsreferenced": false,
    "autogrowmode": 1,
    "canUpdateUI": true,
    "clipbounds": true,
    "containerweight": 0,
    "dataDiffs": {
        "ChooseEligibilityCriteria": {
            "__events__": {},
            "__info__": {
                "isRoot": true,
                "kuid": "jabb20beb6674cdd920f4f709a7255dc",
                "srcKUID": "ceb594754fe4442ea27504350694520b",
                "wType": "FlexContainer"
            }
        },
        "btnProceed": {
            "__events__": {},
            "__info__": {
                "kuid": "f5ba6c9a054d4fba8d1c3011ee0903b0",
                "srcKUID": "c839e0521fff4d93b53fb9617d58b4d8",
                "wType": "Button"
            },
            "left": {
                "Default": {
                    "type": "string",
                    "value": "68.12%"
                }
            }
        },
        "btnSendOTPCancel": {
            "__events__": {},
            "__info__": {
                "kuid": "ecd1012899f4427c95fa250ac7957875",
                "srcKUID": "d6244d0cfb904480b073d3107f6fd82c",
                "wType": "Button"
            }
        },
        "flxChooseEligibilityCriteria": {
            "__events__": {},
            "__info__": {
                "kuid": "f334888ca67b43c18e3aa281ccc967d2",
                "srcKUID": "gab17b21387143b79b9258366d0341e9",
                "wType": "FlexContainer"
            }
        },
        "flxChooseEligibilityCriteria1": {
            "__events__": {},
            "__info__": {
                "kuid": "bf1d058e563e4204a6c4ed62cbbc8774",
                "srcKUID": "ade0a3873d1e4e099c03f40548667e4e",
                "wType": "FlexContainer"
            }
        },
        "flxChooseEligibilityCriteria2": {
            "__events__": {},
            "__info__": {
                "kuid": "c3068fe544ad44d8be3964d3923b97c0",
                "srcKUID": "f100d90c3f3a4c6e8646c465b60c7e63",
                "wType": "FlexContainer"
            }
        },
        "flxChooseEligibilityCriteria3": {
            "__events__": {},
            "__info__": {
                "kuid": "a8d37f64af4248d3b2657fd50e88f6e9",
                "srcKUID": "afc66cb9ec6448de82305d826e6d2b0c",
                "wType": "FlexContainer"
            }
        },
        "flxChooseEligibilityCriteria4": {
            "__events__": {},
            "__info__": {
                "kuid": "e9407faad8754b45aead216ffc244495",
                "srcKUID": "e124444b973d43f38e2c7dd28da7dfd4",
                "wType": "FlexContainer"
            }
        },
        "flxChooseEligibilityCriteria4Main": {
            "__events__": {},
            "__info__": {
                "kuid": "h1e39473571342b1b5c95bd63e06f47a",
                "srcKUID": "e3b219bfa75e43c69a67e8be5102f4e1",
                "wType": "FlexContainer"
            }
        },
        "flxChooseEligibilityCriteria4Main1": {
            "__events__": {},
            "__info__": {
                "kuid": "f134a3276b7247e689a39ae5168a68d6",
                "srcKUID": "ee5249752765419cb5dad088a9cf8448",
                "wType": "FlexContainer"
            }
        },
        "flxChooseEligibilityCriteria4Main2": {
            "__events__": {},
            "__info__": {
                "kuid": "dd9851a44e2f4c559ae7643e086ade21",
                "srcKUID": "fe5e5dcc7bb649aa8e532f14f337c9ef",
                "wType": "FlexContainer"
            }
        },
        "flxChooseEligibilityCriteria4Main3": {
            "__events__": {},
            "__info__": {
                "kuid": "a2fc34fcc98c488dbae3e231b547935e",
                "srcKUID": "baa4cdcf62b64f43806bb397edf005f9",
                "wType": "FlexContainer"
            }
        },
        "flxChooseEligibilityCriteriaEmployer": {
            "__events__": {},
            "__info__": {
                "kuid": "c6d0dc2de1124057b5caee098c2ca9f6",
                "srcKUID": "d154fe85042140c19b7fb9a0b9cd5c60",
                "wType": "FlexContainer"
            }
        },
        "flxChooseEligibilityCriteriaError": {
            "__events__": {},
            "__info__": {
                "kuid": "h33c1c4ad40e4c9aa477e25c95276fbd",
                "srcKUID": "c0fed594bc7d424b92b8f6abeb7b054e",
                "wType": "FlexContainer"
            }
        },
        "flxChooseEligibilityCriteriaHeader": {
            "__events__": {},
            "__info__": {
                "kuid": "a36638b3bb554743a04384d2839b1a7e",
                "srcKUID": "a161f455c046406a9e78257979844f3b",
                "wType": "FlexContainer"
            }
        },
        "flxChooseEligibilityCriteriaHeading": {
            "__events__": {},
            "__info__": {
                "kuid": "iae0c9bceca44edfb37c57f39901495b",
                "srcKUID": "d5e4e0d3ea7f413cb327a5cba6552fc5",
                "wType": "Label"
            }
        },
        "flxChooseEligibilityCriteriaImage1": {
            "__events__": {},
            "__info__": {
                "kuid": "be839eb7520e4548a37bccffdcdc1ce2",
                "srcKUID": "a494f6d7f9f34c03b90111a6fc129140",
                "wType": "FlexContainer"
            }
        },
        "flxChooseEligibilityCriteriaImage2": {
            "__events__": {},
            "__info__": {
                "kuid": "g7da8ff9ec4e4760ac70054389eb4970",
                "srcKUID": "ae8daf0171e74bb9a3061bdf49ec5183",
                "wType": "FlexContainer"
            }
        },
        "flxChooseEligibilityCriteriaImage3": {
            "__events__": {},
            "__info__": {
                "kuid": "adb8023e0fe148ab8bf7b67183d467b8",
                "srcKUID": "gc6d46283a9c4fdf8daada332486f72c",
                "wType": "FlexContainer"
            }
        },
        "flxChooseEligibilityCriteriaImage4": {
            "__events__": {},
            "__info__": {
                "kuid": "d5ab4968d3f94edf929f14959da1b1db",
                "srcKUID": "c9850191c44a49a3a5dea60e137eff47",
                "wType": "FlexContainer"
            }
        },
        "flxChooseEligibilityCriteriaMessageBox1": {
            "__events__": {},
            "__info__": {
                "kuid": "c146c5729db74705920201086089f38f",
                "srcKUID": "f6dd5730cbf145f9ba5b8de1808c8ca3",
                "wType": "FlexContainer"
            }
        },
        "flxChooseEligibilityCriteriaMessageBox2": {
            "__events__": {},
            "__info__": {
                "kuid": "bf28a93772744af883d0ba3968708ad7",
                "srcKUID": "c4f77d2d7c02412a8c212689db8be76a",
                "wType": "FlexContainer"
            }
        },
        "flxChooseEligibilityCriteriaMessageBox3": {
            "__events__": {},
            "__info__": {
                "kuid": "e94ec1df47bb4264b34a7612f4efb171",
                "srcKUID": "c575de072c60437784c0703a74e36a87",
                "wType": "FlexContainer"
            }
        },
        "flxChooseEligibilityCriteriaMessageBox4": {
            "__events__": {},
            "__info__": {
                "kuid": "bac0490fe78743f0a661ebba04c3081d",
                "srcKUID": "f33b3031fec04486b5f9f6e526964b0d",
                "wType": "FlexContainer"
            }
        },
        "flxChooseEligibilityCriteriaSeperator": {
            "__events__": {},
            "__info__": {
                "kuid": "j69b79ee7b4c47508e3b5ee29f889452",
                "srcKUID": "dd39af7013374e238c49480a0ea79b13",
                "wType": "FlexContainer"
            }
        },
        "flxEnterTheCompany": {
            "__events__": {},
            "__info__": {
                "kuid": "e2adf4c1c5f1439e8a6740771a5d10b8",
                "srcKUID": "f5415fd0edcc4cf596e979213ed672e7",
                "wType": "FlexContainer"
            }
        },
        "flxUploadSignatureButtons": {
            "__events__": {},
            "__info__": {
                "kuid": "f5a0c6fcec9f4e83afd6c8ae2abf628b",
                "srcKUID": "ce2f3e76430d4ef68ca245fa2deed4c8",
                "wType": "FlexContainer"
            }
        },
        "flxUploadSignatureSeperator3": {
            "__events__": {},
            "__info__": {
                "kuid": "b3ce1d3846db471c8d2858d321c76aad",
                "srcKUID": "b5e27af2a965474b80a10ddf7b1c020a",
                "wType": "FlexContainer"
            }
        },
        "imgChooseEligibilityCriteriaError": {
            "__events__": {},
            "__info__": {
                "kuid": "j611dbb6a29b46a19c8a95bbbfa6009e",
                "srcKUID": "ib41fbb1eeb84a4d8e643de953908d3c",
                "wType": "Image"
            }
        },
        "lblChooseEligibilityCriteria": {
            "__events__": {},
            "__info__": {
                "kuid": "da04c1e514cb413c9f21c95fb66a7a33",
                "srcKUID": "cb03cd9b1602409c88e4d55189d805cc",
                "wType": "Label"
            }
        },
        "lblChooseEligibilityCriteriaError": {
            "__events__": {},
            "__info__": {
                "kuid": "i1fa413e4bb04cc5b68fa7746fcee2cd",
                "srcKUID": "i2a582a9259d479e8fd408eeebfa0bb3",
                "wType": "Label"
            }
        },
        "lblChooseEligibilityCriteriaMessage1": {
            "__events__": {},
            "__info__": {
                "kuid": "afa6f80cc993433e9acf90739ac40cf9",
                "srcKUID": "if3f1edbb7884020a98779a7e40cc90c",
                "wType": "Label"
            }
        },
        "lblChooseEligibilityCriteriaMessage3": {
            "__events__": {},
            "__info__": {
                "kuid": "e18e3a1700a34010b3cb5c32973fb614",
                "srcKUID": "b4515374dde94d68b9eb1c4ad0a7afd9",
                "wType": "Label"
            }
        },
        "lblChooseEligibilityCriteriaMessage4": {
            "__events__": {},
            "__info__": {
                "kuid": "d3967887e7fd46c2bd3629c7a17eb13b",
                "srcKUID": "bbc7eda166c04dc1b00a446cf4524dc7",
                "wType": "Label"
            }
        },
        "lblChooseEligibilityCriteriaMessageBox1": {
            "__events__": {},
            "__info__": {
                "kuid": "b556781d6c4745e5be6231a4d71ff314",
                "srcKUID": "c7ee9f68ba4e4d689e53c5585b8e647b",
                "wType": "Label"
            }
        },
        "lblChooseEligibilityCriteriaMessageBox2": {
            "__events__": {},
            "__info__": {
                "kuid": "bbfc911e918948b89001b7d2f48137b7",
                "srcKUID": "dd3bafe1f68d41ca8f7a01350c95e817",
                "wType": "Label"
            }
        },
        "lblChooseEligibilityCriteriaMessageBox3": {
            "__events__": {},
            "__info__": {
                "kuid": "j44ec3e4e30b45bca77867f6f81912e7",
                "srcKUID": "jca0188c62634740a8e3edf57d12a9f4",
                "wType": "Label"
            },
            "bottom": {
                "Default": {
                    "type": "string",
                    "value": "40px"
                }
            }
        },
        "lblChooseEligibilityCriteriaMessageBox4": {
            "__events__": {},
            "__info__": {
                "kuid": "cbb9ee57cb6747b7ba91700caebc4e63",
                "srcKUID": "b3c3902deb97469f8e69e40a906b8cd6",
                "wType": "Label"
            },
            "bottom": {
                "Default": {
                    "type": "string",
                    "value": "40px"
                }
            }
        },
        "lblChooseEligibilityCriteriaSepeartor2": {
            "__events__": {},
            "__info__": {
                "kuid": "a8de38a5269743b69bdebe5e15574870",
                "srcKUID": "d4d017926ba347a3bdefe16b49169462",
                "wType": "Label"
            }
        },
        "lblChooseEligibilityCriteriaSeperator": {
            "__events__": {},
            "__info__": {
                "kuid": "h5df82931de445f58313e5a4bd834ee5",
                "srcKUID": "d5f97daa8af443a3a66097196973edcb",
                "wType": "Label"
            }
        },
        "lblChooseEligibilityCriteriaSeperator2": {
            "__events__": {},
            "__info__": {
                "kuid": "bdc91a4d622a4dd3b97fefd0fe504636",
                "srcKUID": "d772353579aa4969acaba842fb488ebd",
                "wType": "Label"
            }
        },
        "lblRadioBtn1": {
            "__events__": {},
            "__info__": {
                "kuid": "b8e21445e57c419590c44ba8fc979610",
                "srcKUID": "b6aac5ad03444bceb5e635667b9c1f62",
                "wType": "Label"
            }
        },
        "lblRadioBtn2": {
            "__events__": {},
            "__info__": {
                "kuid": "e2046ca367804490ae3993a9499d0a54",
                "srcKUID": "c48346dd76ca460da6b5fefb6278f418",
                "wType": "Label"
            }
        },
        "lblRadioBtn3": {
            "__events__": {},
            "__info__": {
                "kuid": "d13e93c1878b442191e545c3de24ec9b",
                "srcKUID": "e557fa4552d64902b00f5098ef117136",
                "wType": "Label"
            }
        },
        "lblRadioBtn4": {
            "__events__": {},
            "__info__": {
                "kuid": "e5839a71bebd492da5059fc47cd952dd",
                "srcKUID": "c61ccfe484d14b2f8fbf893867426368",
                "wType": "Label"
            }
        },
        "lblUploadSignatureSeperator3": {
            "__events__": {},
            "__info__": {
                "kuid": "fde977c124984d37815aea346db93938",
                "srcKUID": "d906ff498f9f4ad8ad84118017467a89",
                "wType": "Label"
            }
        },
        "tbxEnterTheCompany": {
            "__events__": {},
            "__info__": {
                "kuid": "cbdb8d71da974f9980186477792dc296",
                "srcKUID": "g34c18f1d9264848aad9ab337c25b080",
                "wType": "TextField"
            }
        }
    },
    "id": "ChooseEligibilityCriteria",
    "info": null,
    "iscustomlayout": false,
    "isdatareferenced": false,
    "isvisible": true,
    "kuid": "jabb20beb6674cdd920f4f709a7255dc",
    "layouttype": 2,
    "masterType": 0,
    "name": "kony.ui.UserWidgetInstance",
    "parent": "flxChooseEligibilityCriteria",
    "pf": "frmNewUserOnboarding",
    "retaincontentalignment": false,
    "retainflexpositionproperties": false,
    "sourceUserWidget": "ceb594754fe4442ea27504350694520b",
    "wType": "UserWidgetInstance"
}