{
    "@class": "com.kony.gen.viz.model.component.KVizUserWidget",
    "DNDConfig": null,
    "__parentReadjusting__": false,
    "_children_": [],
    "_height_": {
        "type": "ref",
        "value": "preferred"
    },
    "_left_": {
        "type": "string",
        "value": "0dp"
    },
    "_margin_": [
        0,
        0,
        0,
        0
    ],
    "_orientation_": 1,
    "_padding_": [
        0,
        0,
        0,
        0
    ],
    "_percent_": true,
    "_render_": true,
    "_skin_": "s24c92fc23b14f5484b693ee9b8a9b35",
    "_top_": {
        "type": "string",
        "value": "0dp"
    },
    "_width_": {
        "type": "string",
        "value": "100%"
    },
    "areflexpropsreferenced": false,
    "autogrowmode": 1,
    "canUpdateUI": true,
    "clipbounds": true,
    "containerweight": 0,
    "dataDiffs": {
        "CreateAccountUponAccountFound": {
            "__events__": {},
            "__info__": {
                "isRoot": true,
                "kuid": "f6b3be191a5243b4b7b52ebb35336173",
                "srcKUID": "b535168b7ede4e5c90ed05e23a89e45d",
                "wType": "FlexContainer"
            }
        },
        "btnCreateAccountEditPhoneNumber": {
            "__events__": {},
            "__info__": {
                "kuid": "f414646721094e259c1dc2fa3a4ae71c",
                "srcKUID": "ddd4c63bfbb74824a20da1a8b9680eb9",
                "wType": "Button"
            }
        },
        "btnCreateAccountLogin": {
            "__events__": {},
            "__info__": {
                "kuid": "c90ae5e879c84b368db46f630f3ca83c",
                "srcKUID": "a8683e81e7cc423f8d0814db07851eb7",
                "wType": "Button"
            },
            "left": {
                "Default": {
                    "type": "string",
                    "value": "68.12%"
                }
            }
        },
        "flxCreateAccount": {
            "__events__": {},
            "__info__": {
                "kuid": "b5837309b5c14288befaabde2e2e1f23",
                "srcKUID": "h6199ddc3af34100a7e0beb4e6dbd5bc",
                "wType": "FlexContainer"
            }
        },
        "flxCreateAccountButtons": {
            "__events__": {},
            "__info__": {
                "kuid": "d80338d5f07847cd92ce22059e119499",
                "srcKUID": "bf4c0aafdf3f498ebb891bb337af8b46",
                "wType": "FlexContainer"
            }
        },
        "flxCreateAccountError": {
            "__events__": {},
            "__info__": {
                "kuid": "b40435db95324c6987610a857682b363",
                "srcKUID": "d2bb48adbd8142ef85e5cf1c4451600f",
                "wType": "FlexContainer"
            }
        },
        "flxCreateAccountHeader": {
            "__events__": {},
            "__info__": {
                "kuid": "g0bab41b72ef46e280a18adce2d09f44",
                "srcKUID": "bd9d5c48aa0143f5ac47ffb858551232",
                "wType": "FlexContainer"
            }
        },
        "flxCreateAccountHeading": {
            "__events__": {},
            "__info__": {
                "kuid": "a5380302310748b9887ac944315f7d72",
                "srcKUID": "d1d9188eec044ff689994c6526668092",
                "wType": "Label"
            }
        },
        "flxCreateAccountMessageBox": {
            "__events__": {},
            "__info__": {
                "kuid": "a27cd7193c634a1c866f3b13364e30db",
                "srcKUID": "i18878dcde6a42c1b804d0675b9d05ce",
                "wType": "FlexContainer"
            }
        },
        "flxCreateAccountSeperator": {
            "__events__": {},
            "__info__": {
                "kuid": "jb940fcc0fb9461faf96bcbf816be880",
                "srcKUID": "f6fbfb46afe348229306f7eeb8af82d0",
                "wType": "FlexContainer"
            }
        },
        "flxCreateAccountSeperator3": {
            "__events__": {},
            "__info__": {
                "kuid": "be97ae335c0b4e629165a580324e397e",
                "srcKUID": "c5f24888f0eb4d3aa33a485663a50efc",
                "wType": "FlexContainer"
            }
        },
        "flxflxCreateAccountContainer": {
            "__events__": {},
            "__info__": {
                "kuid": "aec2ec92ebe34d0ca7e66a6559adbcaa",
                "srcKUID": "b6779162834d499c9738561c15e5d5e7",
                "wType": "FlexContainer"
            }
        },
        "flxflxCreateAccountMain": {
            "__events__": {},
            "__info__": {
                "kuid": "a81be3c2129849e2bece379bf62767c5",
                "srcKUID": "d58b86755e69407db91a1631b0b4eca2",
                "wType": "FlexContainer"
            },
            "autogrowMode": {
                "Default": 0
            },
            "height": {
                "Default": {
                    "type": "string",
                    "value": "505dp"
                }
            }
        },
        "flxflxCreateAccountimage": {
            "__events__": {},
            "__info__": {
                "kuid": "d74b1a2f1287483fbdf0907c3192f5a6",
                "srcKUID": "d99c1d740cde4510999c56124c0b8e6d",
                "wType": "FlexContainer"
            }
        },
        "imgCreateAccountError": {
            "__events__": {},
            "__info__": {
                "kuid": "i25afd05858145f6b867596e40a885da",
                "srcKUID": "f58161eeca824243b57f8318a76cd300",
                "wType": "Image"
            }
        },
        "imgflxCreateAccount": {
            "__events__": {},
            "__info__": {
                "kuid": "d2a188e8b2fa452886e493c349eb25d8",
                "srcKUID": "adf72ca0cc96448a9015e438fdb0fc0c",
                "wType": "Image"
            }
        },
        "lblCreateAccountError": {
            "__events__": {},
            "__info__": {
                "kuid": "f9d476e64b6c4e92ae569f5c66a7b4dd",
                "srcKUID": "j339bd74a7894df0908f0de055efbbe9",
                "wType": "Label"
            }
        },
        "lblCreateAccountMessage": {
            "__events__": {},
            "__info__": {
                "kuid": "b25e823041154994849f8f45cf3089b0",
                "srcKUID": "eeed366eb2934e508ebbb89793eff82d",
                "wType": "Label"
            }
        },
        "lblCreateAccountMessageQuestion": {
            "__events__": {},
            "__info__": {
                "kuid": "a334eb083afc4446816697c97209fa2f",
                "srcKUID": "e84146507909475aab01e5340d82c9f0",
                "wType": "Label"
            }
        }
    },
    "id": "CreateAccountUponAccountFound",
    "info": null,
    "iscustomlayout": false,
    "isdatareferenced": false,
    "isvisible": true,
    "kuid": "f6b3be191a5243b4b7b52ebb35336173",
    "layouttype": 2,
    "masterType": 0,
    "name": "kony.ui.UserWidgetInstance",
    "parent": "flxCreateAccountUponAccountFound",
    "pf": "frmNewUserOnboarding",
    "retaincontentalignment": false,
    "retainflexpositionproperties": false,
    "snaptogrid": true,
    "sourceUserWidget": "b535168b7ede4e5c90ed05e23a89e45d",
    "wType": "UserWidgetInstance"
}