{
    "@class": "com.kony.gen.viz.model.component.KVizUserWidget",
    "DNDConfig": null,
    "__parentReadjusting__": false,
    "_children_": [],
    "_height_": {
        "type": "ref",
        "value": "preferred"
    },
    "_left_": {
        "type": "string",
        "value": "0dp"
    },
    "_margin_": [
        0,
        0,
        0,
        0
    ],
    "_orientation_": 1,
    "_padding_": [
        0,
        0,
        0,
        0
    ],
    "_percent_": true,
    "_render_": true,
    "_skin_": "s24c92fc23b14f5484b693ee9b8a9b35",
    "_top_": {
        "type": "string",
        "value": "0dp"
    },
    "_width_": {
        "type": "string",
        "value": "100%"
    },
    "areflexpropsreferenced": false,
    "autogrowmode": 1,
    "canUpdateUI": true,
    "clipbounds": true,
    "containerweight": 0,
    "dataDiffs": {
        "EnterSecureAccessCode": {
            "__events__": {},
            "__info__": {
                "isRoot": true,
                "kuid": "ff0d8ecb272442c19287eda7958b330f",
                "srcKUID": "ef027748f5524c7d84bf9655a7daff65",
                "wType": "FlexContainer"
            }
        },
        "btnResend": {
            "__events__": {},
            "__info__": {
                "kuid": "i0bf5e709f8045ff8dfce927e937ca5e",
                "srcKUID": "f7299378dace48b683b099adcc3e380c",
                "wType": "Button"
            }
        },
        "btnSendOTPCancel": {
            "__events__": {},
            "__info__": {
                "kuid": "b0c287e290874e4da47df80cdc21cbd5",
                "srcKUID": "d59217f023b24593af5ec48ada3121a5",
                "wType": "Button"
            }
        },
        "btnSendOTPProceed": {
            "__events__": {},
            "__info__": {
                "kuid": "fd42ff92e4e24336bcf2827108934d71",
                "srcKUID": "de29de34004149aba4a906bca3d243a3",
                "wType": "Button"
            },
            "left": {
                "Default": {
                    "type": "string",
                    "value": "68.12%"
                }
            }
        },
        "flxEnterSecureAccessCode": {
            "__events__": {},
            "__info__": {
                "kuid": "i9a59fe74d07456e96ae1f7cbc3f967a",
                "srcKUID": "ge0c081283a14fe28d9913c3c2e9d729",
                "wType": "FlexContainer"
            }
        },
        "flxEnterSecureAccessCodeBox": {
            "__events__": {},
            "__info__": {
                "kuid": "c27412b91fe84bb690e4e96c3723f7a8",
                "srcKUID": "f8c7443fb6ba4c17934b3af3d901cef5",
                "wType": "FlexContainer"
            }
        },
        "flxEnterSecureAccessCodeContainer": {
            "__events__": {},
            "__info__": {
                "kuid": "e86cf30458224ff990f47fb0b67e966a",
                "srcKUID": "a506fc4d64324eaa90ffe0b8c1487641",
                "wType": "FlexContainer"
            }
        },
        "flxEnterSecureAccessCodeDigit1": {
            "__events__": {},
            "__info__": {
                "kuid": "eaea0f1d335b404c82125856786034f9",
                "srcKUID": "f1f38a2721b14a1496854890e3a5e83e",
                "wType": "FlexContainer"
            }
        },
        "flxEnterSecureAccessCodeDigit2": {
            "__events__": {},
            "__info__": {
                "kuid": "b901108fd16544d09dfebfb41bf8d02c",
                "srcKUID": "d7d9418de53641ab8acbd7b9fa035989",
                "wType": "FlexContainer"
            }
        },
        "flxEnterSecureAccessCodeDigit3": {
            "__events__": {},
            "__info__": {
                "kuid": "aecb598beada49f8b58d133d8da715c7",
                "srcKUID": "ab13e12697e646208eef2801be660151",
                "wType": "FlexContainer"
            }
        },
        "flxEnterSecureAccessCodeDigit4": {
            "__events__": {},
            "__info__": {
                "kuid": "e3223aa2b0634268aeff56bc18461067",
                "srcKUID": "h37f3e0905744bb282fe2ec3ef1a7357",
                "wType": "FlexContainer"
            }
        },
        "flxEnterSecureAccessCodeDigit5": {
            "__events__": {},
            "__info__": {
                "kuid": "gafb75580973406789696bf8fa6ea175",
                "srcKUID": "d183a9027782472d9b500731341c9219",
                "wType": "FlexContainer"
            }
        },
        "flxEnterSecureAccessCodeDigit6": {
            "__events__": {},
            "__info__": {
                "kuid": "f8ea57a6301a426c88ef33be9ea936bc",
                "srcKUID": "be49647fcf9e4545991335d658b80167",
                "wType": "FlexContainer"
            }
        },
        "flxEnterSecureAccessCodeHeader": {
            "__events__": {},
            "__info__": {
                "kuid": "c3b1362443454a54bb703e16750ef5b0",
                "srcKUID": "dcbde60e0a0543c2aee46e20e89e80e8",
                "wType": "FlexContainer"
            }
        },
        "flxEnterSecureAccessCodeHeading": {
            "__events__": {},
            "__info__": {
                "kuid": "efb45804ce934ee8af54dc7748b0acd8",
                "srcKUID": "g846b501a8764149bedd36d1b9422be6",
                "wType": "Label"
            }
        },
        "flxEnterSecureAccessCodeMain": {
            "__events__": {},
            "__info__": {
                "kuid": "bb33ba9360e745dea5d127c69ce0dc2c",
                "srcKUID": "i047c83ec7f44faa8cb136e57859b5b2",
                "wType": "FlexContainer"
            },
            "autogrowMode": {
                "Default": 0
            },
            "height": {
                "Default": {
                    "type": "string",
                    "value": "505dp"
                }
            }
        },
        "flxEnterSecureAccessCodeMessage": {
            "__events__": {},
            "__info__": {
                "kuid": "ae1b7719ed06456e8769cd0c6bfa3ebc",
                "srcKUID": "aae0e3cba24e4832a8ceb289c474c03b",
                "wType": "Label"
            }
        },
        "flxEnterSecureAccessCodeMessageBox": {
            "__events__": {},
            "__info__": {
                "kuid": "i3609e1f10ad4d7aaef1c8a71be66b5c",
                "srcKUID": "e6b03bc4b0d6449ebe79eb2f1d36b2b6",
                "wType": "FlexContainer"
            }
        },
        "flxEnterSecureAccessCodeSeperator": {
            "__events__": {},
            "__info__": {
                "kuid": "a5b4720441ac425cbf7e73eb42677aa3",
                "srcKUID": "f4e44329b1f24789ba01f236ab2814d3",
                "wType": "FlexContainer"
            }
        },
        "flxEnterSecureAccessCodeimage": {
            "__events__": {},
            "__info__": {
                "kuid": "b7a3d3f36a5544578d47c6015e52689e",
                "srcKUID": "h52d2d56990d4d3aa23d0b6b5ad448f8",
                "wType": "FlexContainer"
            }
        },
        "flxError": {
            "__events__": {},
            "__info__": {
                "kuid": "a5fdb9d9c6c542589c5b3b5a764f3c85",
                "srcKUID": "hac92cf8c3904b6eab671c571e0fbcf2",
                "wType": "FlexContainer"
            }
        },
        "flxSendOTPButtons": {
            "__events__": {},
            "__info__": {
                "kuid": "f30349cf1c1a4e0aad2a35436f2428ed",
                "srcKUID": "cb8186d58a99466aafefdf24910ce6ef",
                "wType": "FlexContainer"
            }
        },
        "flxSendOTPSeperator2": {
            "__events__": {},
            "__info__": {
                "kuid": "e7dcaca4b4cf4a6382fac7db5603bca7",
                "srcKUID": "b18312a3b2b54229bdf215aaf4bb6409",
                "wType": "FlexContainer"
            }
        },
        "imgflxEnterSecureAccessCode": {
            "__events__": {},
            "__info__": {
                "kuid": "g869560a60d54f1f9c807c4e6b6e5317",
                "srcKUID": "g12ac19b186846178d8f8f7c92a2c971",
                "wType": "Image"
            }
        },
        "lblEnterSecureAccessCodeDigit1": {
            "__events__": {},
            "__info__": {
                "kuid": "idc4e69d4cd74c559ac6e858cc7da7f5",
                "srcKUID": "b29c3c33b9994ba4a7a9873e0bbef95e",
                "wType": "Label"
            }
        },
        "lblEnterSecureAccessCodeDigit2": {
            "__events__": {},
            "__info__": {
                "kuid": "c50bd562d86f467c9160b43960d2866c",
                "srcKUID": "e7cfccbb03d34a71aa0292ea75c46fdf",
                "wType": "Label"
            }
        },
        "lblEnterSecureAccessCodeDigit3": {
            "__events__": {},
            "__info__": {
                "kuid": "eb5c36803f2746b5be43830b18d2b39b",
                "srcKUID": "bafe993596f345e5a00c7d8c2040b0b6",
                "wType": "Label"
            }
        },
        "lblEnterSecureAccessCodeDigit4": {
            "__events__": {},
            "__info__": {
                "kuid": "e09486933d6a44efabeb8d352804267c",
                "srcKUID": "a07e6925b77246168790a524720c101f",
                "wType": "Label"
            }
        },
        "lblEnterSecureAccessCodeDigit5": {
            "__events__": {},
            "__info__": {
                "kuid": "b16338f3a5b846b2b32384d82ea075ff",
                "srcKUID": "dfe30913bbd34f6591b133b93637c246",
                "wType": "Label"
            }
        },
        "lblEnterSecureAccessCodeDigit6": {
            "__events__": {},
            "__info__": {
                "kuid": "f5a8ee84f91c40438224eda011738ae4",
                "srcKUID": "ia3714a2a33a4c3fab219a3820252c48",
                "wType": "Label"
            }
        },
        "lblEnterSecureAccessCodeError": {
            "__events__": {},
            "__info__": {
                "kuid": "a062fb661fee47cab9230f6fce1a5c3d",
                "srcKUID": "e65e996f7f76484085e6a538846320a9",
                "wType": "Label"
            }
        },
        "tbxEnterSecureAccessCodeDigit1": {
            "__events__": {},
            "__info__": {
                "kuid": "a103d73338c44662adc497c99d2c7d76",
                "srcKUID": "a6e871499a9e4574ab9e2adbc62a0802",
                "wType": "TextField"
            }
        },
        "tbxEnterSecureAccessCodeDigit2": {
            "__events__": {},
            "__info__": {
                "kuid": "i613233bb8474fef859c01eebbda7689",
                "srcKUID": "b48066f754234fb090d9d74d1ff86cde",
                "wType": "TextField"
            }
        },
        "tbxEnterSecureAccessCodeDigit3": {
            "__events__": {},
            "__info__": {
                "kuid": "f00136e6ce6e463dabb2d7d6d0f1f9ae",
                "srcKUID": "a6c51dede6264feb91074d128f6d1829",
                "wType": "TextField"
            }
        },
        "tbxEnterSecureAccessCodeDigit4": {
            "__events__": {},
            "__info__": {
                "kuid": "ef273848832c4d6186adb23eb017210a",
                "srcKUID": "d757b48fd24b406791ae6cd7d635349e",
                "wType": "TextField"
            }
        },
        "tbxEnterSecureAccessCodeDigit5": {
            "__events__": {},
            "__info__": {
                "kuid": "ca0e01a723fe4c5ab4b0af331516cb5f",
                "srcKUID": "dd1de853c215458b871ff9f47d066cdf",
                "wType": "TextField"
            }
        },
        "tbxEnterSecureAccessCodeDigit6": {
            "__events__": {},
            "__info__": {
                "kuid": "g611a10cad01481cbbdb351f2a82ad67",
                "srcKUID": "afe75c18a8ed4ddfbf37809e3507a32f",
                "wType": "TextField"
            }
        }
    },
    "id": "EnterSecureAccessCode",
    "info": null,
    "iscustomlayout": false,
    "isdatareferenced": false,
    "isvisible": true,
    "kuid": "ff0d8ecb272442c19287eda7958b330f",
    "layouttype": 2,
    "masterType": 0,
    "name": "kony.ui.UserWidgetInstance",
    "parent": "flxEnterSecureAccessCode",
    "pf": "frmNewUserOnboarding",
    "retaincontentalignment": false,
    "retainflexpositionproperties": false,
    "snaptogrid": true,
    "sourceUserWidget": "ef027748f5524c7d84bf9655a7daff65",
    "wType": "UserWidgetInstance"
}