{
  "BusinessControllerConfig": {
    "BusinessControllerClass": "CardManagementModule/BusinessControllers/BusinessController",
    "CommandHandler": [
      {
        "CommandHandler": "CardManagementModule/BusinessControllers/getCards_CommandHandler",
        "CommandId": "com.kony.cardmanagement.getCards"
      },
      {
        "CommandHandler": "CardManagementModule/BusinessControllers/verifySecureAccessCode_CommandHandler",
        "CommandId": "com.kony.cardmanagement.verifySecureAccessCode"
      },
      {
        "CommandHandler": "CardManagementModule/BusinessControllers/lockCard_CommandHandler",
        "CommandId": "com.kony.cardmanagement.lockCard"
      },
      {
        "CommandHandler": "CardManagementModule/BusinessControllers/unlockCard_CommandHandler",
        "CommandId": "com.kony.cardmanagement.unlockCard"
      },
      {
        "CommandHandler": "CardManagementModule/BusinessControllers/sendSecureAccessCode_CommandHandler",
        "CommandId": "com.kony.cardmanagement.sendSecureAccessCode"
      },
      {
        "CommandHandler": "CardManagementModule/BusinessControllers/getSecurityQuestions_CommandHandler",
        "CommandId": "com.kony.cardmanagement.getSecurityQuestions"
      },
      {
        "CommandHandler": "CardManagementModule/BusinessControllers/verifySecurityQuestions_CommandHandler",
        "CommandId": "com.kony.cardmanagement.verifySecurityQuestions"
      },
      {
        "CommandHandler": "CardManagementModule/BusinessControllers/changePin_CommandHandler",
        "CommandId": "com.kony.cardmanagement.changePin"
      },
      {
        "CommandHandler": "CardManagementModule/BusinessControllers/reportLost_CommandHandler",
        "CommandId": "com.kony.cardmanagement.reportLost"
      },
      {
        "CommandHandler": "CardManagementModule/BusinessControllers/replaceCard_CommandHandler",
        "CommandId": "com.kony.cardmanagement.replaceCard"
      },
      {
        "CommandHandler": "CardManagementModule/BusinessControllers/GetTravelNotifications_CommandHandler",
        "CommandId": "com.kony.cardmanagement.getTravelNotifications"
      },
      {
        "CommandHandler": "CardManagementModule/BusinessControllers/CreateTravelNotifications_CommandHandler",
        "CommandId": "com.kony.cardmanagement.createTravelNotifications"
      },
      {
        "CommandHandler": "CardManagementModule/BusinessControllers/UpdateTravelNotifications_CommandHandler",
        "CommandId": "com.kony.cardmanagement.updateTravelNotifications"
      },
      {
        "CommandHandler": "CardManagementModule/BusinessControllers/DeleteTravelNotifications_CommandHandler",
        "CommandId": "com.kony.cardmanagement.deleteTravelNotifications"
      },
      {
        "CommandHandler": "CardManagementModule/BusinessControllers/GetTravelStatusforCard_CommandHandler",
        "CommandId": "com.kony.cardmanagement.getTravelStatusforCard"
      },
      {
        "CommandHandler": "CardManagementModule/BusinessControllers/GetActiveCards_CommandHandler",
        "CommandId": "com.kony.cardmanagement.getActiveCards"
      },
      {
        "CommandHandler": "CardManagementModule/BusinessControllers/GetCountryList_CommandHandler",
        "CommandId": "com.kony.cardmanagement.getCountryList"
      },
      {
        "CommandHandler": "CardManagementModule/BusinessControllers/GetStatesList_CommandHandler",
        "CommandId": "com.kony.cardmanagement.getStatesList"
      },
      {
        "CommandHandler": "CardManagementModule/BusinessControllers/GetCityList_CommandHandler",
        "CommandId": "com.kony.cardmanagement.getCityList"
      },
      {
        "CommandHandler": "CardManagementModule/BusinessControllers/CreateCardRequest_CommandHandler",
        "CommandId": "com.kony.cardmanagement.createCardRequest"
      }
    ]
  },
  "Forms": {
    "desktop": {
      "frmCardManagement": {
        "Controller": "CardManagementModule/frmCardManagementController",
        "ControllerExtensions": [],
        "FormController": "kony.mvc.MDAFormController",
        "FormName": "CardManagementModule/frmCardManagement",
        "friendlyName": "frmCardManagement"
      }
    }
  },
  "ModuleName": "CardManagementModule",
  "PresentationControllerConfig": {
    "Default": {
      "PresentationControllerClass": "CardManagementModule/PresentationControllers/PresentationController",
      "PresentationExtensions": [
        "TopBarModule/PresentationControllers/PresentationController",
        "SideMenuModule/PresentationControllers/PresentationController"
      ]
    }
  }
}