{
  "@class": "com.kony.gen.viz.model.component.KVizRichText",
  "DNDConfig": null,
  "__parentReadjusting__": false,
  "_height_": {
    "type": "ref",
    "value": "preferred"
  },
  "_left_": {
    "type": "string",
    "value": "20dp"
  },
  "_margin_": [
    0,
    0,
    0,
    0
  ],
  "_padding_": [
    0,
    0,
    0,
    0
  ],
  "_right_": {
    "type": "string",
    "value": "20px"
  },
  "_skin_": "s19145f8ece84f148d16ab75541eb1ea",
  "_text_": "RichText",
  "_top_": {
    "type": "string",
    "value": "0dp"
  },
  "_wrapping_": 2,
  "canUpdateUI": true,
  "containerweight": 100,
  "contentalignment": 4,
  "id": "rtxWarningText4",
  "info": null,
  "isvisible": true,
  "kuid": "g328e1d4914d4d9ebe6c0b216b91fcd4",
  "name": "kony.ui.RichText",
  "parent": "flxWarningText4",
  "pf": "userwidgetmodel",
  "wType": "RichText",
  "widgetalignment": 5,
  "zindex": 1
}