{
  "BusinessControllerConfig": {
    "BusinessControllerClass": "SurveyModule/BusinessControllers/BusinessController",
    "CommandHandler": [
      {
        "CommandHandler": "SurveyModule/BusinessControllers/createSurvey_CommandHandler",
        "CommandId": "com.kony.survey.createSurvey"
      },
      {
        "CommandHandler": "SurveyModule/BusinessControllers/getSurveyQuestions_CommandHandler",
        "CommandId": "com.kony.survey.getSurveyQuestions"
      }
    ]
  },
  "Forms": {
    "desktop": {
      "frmCustomerFeedbackSurvey": {
        "Controller": "SurveyModule/frmCustomerFeedbackSurveyController",
        "ControllerExtensions": [],
        "FormController": "kony.mvc.MDAFormController",
        "FormName": "SurveyModule/frmCustomerFeedbackSurvey",
        "friendlyName": "frmCustomerFeedbackSurvey"
      }
    }
  },
  "ModuleName": "SurveyModule",
  "PresentationControllerConfig": {
    "Default": {
      "PresentationControllerClass": "SurveyModule/PresentationControllers/PresentationController",
      "PresentationExtensions": [
        "TopBarModule/PresentationControllers/PresentationController",
        "SideMenuModule/PresentationControllers/PresentationController"
      ]
    }
  }
}