{
  "DNDConfig": null,
  "_height_": {
    "type": "string",
    "value": "54dp"
  },
  "_margin_": [
    0,
    0,
    0,
    0
  ],
  "_orientation_": 6,
  "_padding_": [
    0,
    0,
    0,
    0
  ],
  "_percent_": true,
  "_skin_": "se2c51e2a5574dcc8bc00a48bc7649ca",
  "allboxes": [],
  "autogrowmode": 0,
  "canUpdateUI": true,
  "children": [
    "flxCheckImagesUnselected",
    "lblSeparator2"
  ],
  "clipbounds": true,
  "containerId": true,
  "containerweight": 100,
  "controllerInfo": {
    "default": {
      "channel": "desktop",
      "name": "flxCheckImageUnSelectedController"
    }
  },
  "desktopweb": {
    "psp": {
      "hoverSkin": "sa0075a081e3494d945d094ab33599a9"
    }
  },
  "enablescrolling": true,
  "id": "flxCheckImageUnSelected",
  "info": null,
  "isTemplate": true,
  "isvisible": true,
  "kuid": "i136a3d622bb4f8f9ba1de43be3576eb",
  "layouttype": 2,
  "name": "kony.ui.FlexContainer",
  "parent": "segCheckImageUnSelected",
  "pf": "segCheckImageUnSelected",
  "snapgridsize": 10,
  "snaptogrid": true,
  "wType": "FlexContainer",
  "widgetalignment": 1
}