{
  "@class": "com.kony.gen.viz.model.component.KVizButton",
  "DNDConfig": null,
  "__parentReadjusting__": false,
  "_height_": {
    "type": "string",
    "value": "50dp"
  },
  "_margin_": [
    6,
    6,
    6,
    6
  ],
  "_padding_": [
    0,
    0,
    0,
    0
  ],
  "_right_": {
    "type": "string",
    "value": "2.20%"
  },
  "_skin_": "sfbbba35ede4457b94eb681b72349b98",
  "_text_": "",
  "_width_": {
    "type": "string",
    "value": "18.80%"
  },
  "canUpdateUI": true,
  "centery": {
    "type": "string",
    "value": "50%"
  },
  "containerweight": 100,
  "contentalignment": 5,
  "desktopweb": {
    "psp": {}
  },
  "disabledSkins": {
    "focusSkin": "s5a4f67acd3e47b9be6d6910a7a6686f",
    "hoverSkin": "s81054b5e2b74f17a5261991df565427"
  },
  "displaytext": true,
  "focusskin": null,
  "id": "btnConfirm",
  "info": null,
  "isvisible": true,
  "kuid": "fce03529e50d441ea6385939a861c275",
  "name": "kony.ui.Button",
  "parent": "confirmButtons",
  "pf": "userwidgetmodel",
  "texti18n": "i18n.transfers.Confirm",
  "tooltip": "Confirm",
  "wType": "Button",
  "zindex": 1
}