{
  "@class": "com.kony.gen.viz.model.component.KVizButton",
  "DNDConfig": null,
  "__parentReadjusting__": false,
  "_height_": {
    "type": "ref",
    "value": "preferred"
  },
  "_left_": {
    "type": "string",
    "value": "0dp"
  },
  "_margin_": [
    6,
    6,
    6,
    6
  ],
  "_padding_": [
    0,
    0,
    0,
    0
  ],
  "_skin_": "s35ecc1e53d149cea4dc25a2c4a8f4ea",
  "_text_": "Contact Us",
  "_width_": {
    "type": "ref",
    "value": "preferred"
  },
  "canUpdateUI": true,
  "centery": {
    "type": "string",
    "value": "50%"
  },
  "containerweight": 100,
  "contentalignment": 5,
  "desktopweb": {
    "psp": {
      "hoverSkin": "s0d853c8b5284c03a08be1232819c24b"
    }
  },
  "displaytext": true,
  "focusskin": "s264339940904f6b9d3e47b6fdc9e327",
  "id": "btnLocateUs",
  "ide_onClick": "AS_Button_e8cb8d9f33b14a0d9835988b144e3bdf",
  "info": null,
  "isvisible": false,
  "kuid": "i52587cdcb68471f9e389671ddc5f138",
  "name": "kony.ui.Button",
  "parent": "flxFooterMenu",
  "pf": "userwidgetmodel",
  "texti18n": "i18n.footer.locateUs",
  "tooltip": "Locate Us",
  "wType": "Button",
  "zindex": 1
}