{
  "@class": "com.kony.gen.viz.model.component.KVizButton",
  "DNDConfig": null,
  "__parentReadjusting__": false,
  "_height_": {
    "type": "ref",
    "value": "preferred"
  },
  "_left_": {
    "type": "string",
    "value": "0dp"
  },
  "_margin_": [
    6,
    6,
    6,
    6
  ],
  "_padding_": [
    0,
    0,
    0,
    0
  ],
  "_skin_": "s35ecc1e53d149cea4dc25a2c4a8f4ea",
  "_text_": "Privacy Notice",
  "_width_": {
    "type": "ref",
    "value": "preferred"
  },
  "canUpdateUI": true,
  "centery": {
    "type": "string",
    "value": "50%"
  },
  "containerweight": 100,
  "contentalignment": 5,
  "displaytext": true,
  "focusskin": "s35ecc1e53d149cea4dc25a2c4a8f4ea",
  "id": "btnPrivacyNote",
  "ide_onClick": "AS_Button_bce8b6d134e84691a5dbbc00df13e637",
  "info": null,
  "iscustomlayout": false,
  "isvisible": true,
  "kuid": "ffe6d34ddebe42abb2fa3fa994d8578f",
  "name": "kony.ui.Button",
  "parent": "flxFooterMenu",
  "pf": "userwidgetmodel",
  "retaincontentalignment": false,
  "retainflexpositionproperties": false,
  "texti18n": "i18n.footer.PrivacyNotice",
  "wType": "Button",
  "zindex": 1
}