{
  "DNDConfig": null,
  "__parentReadjusting__": false,
  "_height_": {
    "type": "string",
    "value": "23dp"
  },
  "_left_": {
    "type": "string",
    "value": "30dp"
  },
  "_margin_": [
    0,
    0,
    0,
    0
  ],
  "_orientation_": 6,
  "_padding_": [
    0,
    0,
    0,
    0
  ],
  "_percent_": true,
  "_skin_": "s68cde8c1c40436989962f3559a757ac",
  "_top_": {
    "type": "string",
    "value": "1dp"
  },
  "_width_": {
    "type": "string",
    "value": "21dp"
  },
  "allboxes": [],
  "autogrowmode": 0,
  "canUpdateUI": true,
  "children": [
    "lblRadioBtn1"
  ],
  "clipbounds": true,
  "containerId": true,
  "containerweight": 100,
  "desktopweb": {
    "psp": {
      "hoverSkin": "s3e0ac30f9774278a868cb7c73908a76"
    }
  },
  "enablescrolling": true,
  "id": "flxNUORadioBtn1",
  "info": null,
  "isvisible": true,
  "kuid": "a31b8a9cdd1b4be4be8ea7792fce1d6e",
  "layouttype": 2,
  "name": "kony.ui.FlexContainer",
  "parent": "flxOption1",
  "pf": "segNUOQuestion",
  "snapgridsize": 10,
  "snaptogrid": true,
  "wType": "FlexContainer",
  "widgetalignment": 1,
  "zindex": 1
}