{
  "@class": "com.kony.gen.viz.model.component.KVizLabel",
  "DNDConfig": null,
  "__parentReadjusting__": false,
  "_height_": {
    "type": "string",
    "value": "21dp"
  },
  "_left_": {
    "type": "string",
    "value": "1dp"
  },
  "_margin_": [
    0,
    0,
    0,
    0
  ],
  "_padding_": [
    0,
    0,
    0,
    0
  ],
  "_skin_": "s8a255c4509d40d0999597cc8cb7e103",
  "_text_": "L",
  "_top_": {
    "type": "string",
    "value": "0dp"
  },
  "_width_": {
    "type": "string",
    "value": "20dp"
  },
  "_wrapping_": 2,
  "android": {
    "textStyle": {
      "letterSpacing": 0,
      "strikeThrough": false
    }
  },
  "canUpdateUI": true,
  "containerId": true,
  "containerweight": 100,
  "contentalignment": 4,
  "id": "lblRadioBtn3",
  "info": null,
  "ipad": {
    "psp": {
      "wrapping": 2
    }
  },
  "iphone": {
    "psp": {
      "wrapping": 2
    }
  },
  "isvisible": true,
  "kuid": "ccf966891dea42cd81394197d74d420d",
  "name": "kony.ui.Label",
  "parent": "flxNUORadioBtn3",
  "pf": "segNUOQuestion",
  "tooltip": "",
  "wType": "Label",
  "zindex": 1
}