{
  "DNDConfig": null,
  "__parentReadjusting__": false,
  "_height_": {
    "type": "ref",
    "value": "preferred"
  },
  "_left_": {
    "type": "string",
    "value": "0dp"
  },
  "_margin_": [
    0,
    0,
    0,
    0
  ],
  "_orientation_": 6,
  "_padding_": [
    0,
    0,
    0,
    0
  ],
  "_percent_": true,
  "_skin_": "s24c92fc23b14f5484b693ee9b8a9b35",
  "_top_": {
    "type": "string",
    "value": "0dp"
  },
  "_width_": {
    "type": "string",
    "value": "5%"
  },
  "allboxes": [],
  "autogrowmode": 1,
  "canUpdateUI": true,
  "children": [
    "imgDropDown"
  ],
  "clipbounds": true,
  "containerId": true,
  "containerweight": 100,
  "desktopweb": {
    "psp": {
      "hoverSkin": "sab5a81a675240c791d2c0dbce368d6b"
    }
  },
  "enablescrolling": true,
  "id": "flxDropdown",
  "ide_onClick": "AS_FlexContainer_be5c1e4670354b6db0ce974fd81e2912",
  "info": null,
  "isvisible": true,
  "kuid": "c3d7e03418344ffaa669995102d2f506",
  "layouttype": 3,
  "name": "kony.ui.FlexContainer",
  "parent": "flxSegDisputedTransactionRowWrapper",
  "pf": "segDisputedChecksSelectedWrapper",
  "snapgridsize": 10,
  "snaptogrid": true,
  "wType": "FlexContainer",
  "widgetalignment": 1,
  "zindex": 1
}