{
  "@class": "com.kony.gen.viz.model.component.KVizLabel",
  "DNDConfig": null,
  "__parentReadjusting__": false,
  "_bottom_": {
    "type": "string",
    "value": "30dp"
  },
  "_height_": {
    "type": "ref",
    "value": "preferred"
  },
  "_left_": {
    "type": "string",
    "value": "0%"
  },
  "_margin_": [
    1,
    1,
    1,
    1
  ],
  "_padding_": [
    0,
    0,
    0,
    0
  ],
  "_skin_": "seb042f60a6445619a292de4c7cc1b30",
  "_text_": "",
  "_top_": {
    "type": "string",
    "value": "6dp"
  },
  "_width_": {
    "type": "string",
    "value": "90%"
  },
  "_wrapping_": 2,
  "android": {
    "textStyle": {
      "letterSpacing": 0,
      "strikeThrough": false
    }
  },
  "canUpdateUI": true,
  "containerweight": 100,
  "contentalignment": 4,
  "id": "lblChooseEligibilityCriteriaMessage4",
  "info": null,
  "ipad": {
    "psp": {
      "wrapping": 2
    }
  },
  "iphone": {
    "psp": {
      "wrapping": 2
    }
  },
  "isvisible": true,
  "kuid": "bbc7eda166c04dc1b00a446cf4524dc7",
  "name": "kony.ui.Label",
  "parent": "flxChooseEligibilityCriteriaMessageBox4",
  "pf": "userwidgetmodel",
  "texti18n": "i18n.NUO.ViewListofCommunitiesWeServe",
  "tooltip": "",
  "wType": "Label",
  "zindex": 1
}