{
  "DNDConfig": null,
  "__parentReadjusting__": false,
  "_height_": {
    "type": "ref",
    "value": "preferred"
  },
  "_left_": {
    "type": "string",
    "value": "2.29%"
  },
  "_margin_": [
    0,
    0,
    0,
    0
  ],
  "_orientation_": 6,
  "_padding_": [
    0,
    0,
    0,
    0
  ],
  "_percent_": true,
  "_skin_": "scbd4cac3526468089bf3013adff0549",
  "_width_": {
    "type": "string",
    "value": "80%"
  },
  "allboxes": [],
  "autogrowmode": 1,
  "canUpdateUI": true,
  "centery": {
    "type": "string",
    "value": "50%"
  },
  "children": [
    "lblFundAccountsMessageBoxScan"
  ],
  "clipbounds": true,
  "containerweight": 100,
  "enablescrolling": true,
  "id": "flxFundAccountsMessageScan",
  "info": null,
  "isvisible": true,
  "kuid": "dbadc31ac2d84f07b096ceb0d0e9a809",
  "layouttype": 4,
  "name": "kony.ui.FlexContainer",
  "parent": "flxlblRadioBtn2ScanDeposit",
  "pf": "userwidgetmodel",
  "snapgridsize": 10,
  "snaptogrid": true,
  "wType": "FlexContainer",
  "widgetalignment": 1,
  "zindex": 1
}