{
  "DNDConfig": null,
  "__parentReadjusting__": false,
  "_height_": {
    "type": "string",
    "value": "150dp"
  },
  "_left_": {
    "type": "string",
    "value": "0dp"
  },
  "_margin_": [
    0,
    0,
    0,
    0
  ],
  "_orientation_": 6,
  "_padding_": [
    0,
    0,
    0,
    0
  ],
  "_percent_": true,
  "_skin_": "sba5a7627a5d4fa3befc93e669f0f2b0",
  "_top_": {
    "type": "string",
    "value": "5.28%"
  },
  "_width_": {
    "type": "string",
    "value": "100%"
  },
  "allboxes": [],
  "canUpdateUI": true,
  "children": [
    "flxPasswordRules",
    "rtxRulesPassword"
  ],
  "clipbounds": true,
  "containerweight": 100,
  "enablescrolling": true,
  "id": "flxRules",
  "info": null,
  "isvisible": true,
  "kuid": "caa77885104b4124a407e2b66cc214ca",
  "layouttype": 4,
  "name": "kony.ui.FlexScrollContainer",
  "parent": "newpasswordsetting",
  "pf": "userwidgetmodel",
  "snapgridsize": 10,
  "snaptogrid": true,
  "wType": "FlexScrollContainer",
  "widgetalignment": 1,
  "zindex": 1,
  "allowhorizontalbounce": false,
  "allowverticalbounce": true,
  "bounces": true,
  "decelerat": false,
  "dragg": false,
  "horizontalscrollindicator": true,
  "iscustomlayout": false,
  "pagingenabled": false,
  "retaincontentalignment": false,
  "retainflexpositionproperties": false,
  "scrolldirection": 2,
  "track": false,
  "verticalscrollindicator": true
}