{
  "@class": "com.kony.gen.viz.model.component.KVizLabel",
  "DNDConfig": null,
  "__parentReadjusting__": false,
  "_height_": {
    "type": "ref",
    "value": "preferred"
  },
  "_left_": {
    "type": "string",
    "value": "3.70%"
  },
  "_margin_": [
    1,
    1,
    1,
    1
  ],
  "_padding_": [
    0,
    0,
    0,
    0
  ],
  "_skin_": "s8e46f2a16b74bc4bc77363f8ccf9f01",
  "_text_": "Previously Requested Date",
  "_top_": {
    "type": "string",
    "value": "16dp"
  },
  "_width_": {
    "type": "ref",
    "value": "preferred"
  },
  "_wrapping_": 2,
  "android": {
    "textStyle": {
      "letterSpacing": 0,
      "strikeThrough": false
    }
  },
  "canUpdateUI": true,
  "containerweight": 100,
  "contentalignment": 4,
  "id": "lblPreviouslyReqDate",
  "info": null,
  "ipad": {
    "psp": {
      "wrapping": 2
    }
  },
  "iphone": {
    "psp": {
      "wrapping": 2
    }
  },
  "isvisible": true,
  "kuid": "3dfe0962135d4f0683e273b519d0f9ef",
  "name": "kony.ui.Label",
  "parent": "flxPreviouslyReqDate",
  "pf": "userwidgetmodel",
  "tooltip": "",
  "wType": "Label",
  "zindex": 1
}