{
  "DNDConfig": null,
  "__markedForDelete__": true,
  "__parentReadjusting__": false,
  "_height_": {
    "type": "string",
    "value": "100%"
  },
  "_left_": {
    "type": "string",
    "value": "0dp"
  },
  "_margin_": [
    0,
    0,
    0,
    0
  ],
  "_orientation_": 6,
  "_padding_": [
    0,
    0,
    0,
    0
  ],
  "_percent_": true,
  "_skin_": "s680c9bafb594fe4bfa388d84acc43b2",
  "_top_": {
    "type": "string",
    "value": "0dp"
  },
  "_width_": {
    "type": "string",
    "value": "5%"
  },
  "allboxes": [],
  "autogrowmode": 0,
  "canUpdateUI": true,
  "children": [
    "imgDropdown"
  ],
  "clipbounds": true,
  "containerId": true,
  "containerweight": 100,
  "desktopweb": {
    "psp": {
      "hoverSkin": "sb2b83ddbf3440c2b95f728ddaec17b1"
    }
  },
  "enablescrolling": true,
  "id": "flxDropdown",
  "ide_onClick": "AS_FlexContainer_b26d11e3ae7446d5a15c524df952055f",
  "info": null,
  "isvisible": true,
  "kuid": "a832210736434916906a3c44c59f9614",
  "layouttype": 3,
  "name": "kony.ui.FlexContainer",
  "parent": "flxSegTransactionRowWrapper",
  "pf": "segScheduledTransactions",
  "snapgridsize": 10,
  "snaptogrid": true,
  "wType": "FlexContainer",
  "widgetalignment": 1,
  "zindex": 1
}