{
  "@class": "com.kony.gen.viz.model.component.KVizUserWidget",
  "DNDConfig": null,
  "__parentReadjusting__": false,
  "_children_": [],
  "_height_": {
    "type": "string",
    "value": "80dp"
  },
  "_left_": {
    "type": "string",
    "value": ""
  },
  "_margin_": [
    0,
    0,
    0,
    0
  ],
  "_orientation_": 1,
  "_padding_": [
    0,
    0,
    0,
    0
  ],
  "_percent_": true,
  "_render_": true,
  "_skin_": "s24c92fc23b14f5484b693ee9b8a9b35",
  "_top_": "0dp",
  "_width_": {
    "type": "string",
    "value": "94%"
  },
  "areflexpropsreferenced": false,
  "autogrowmode": 0,
  "canUpdateUI": true,
  "centerx": {
    "type": "string",
    "value": "50%"
  },
  "clipbounds": true,
  "containerweight": 0,
  "dataDiffs": {
    "flxSeparator": {
      "__events__": {},
      "__info__": {
        "kuid": "ge93e64ef9284789b72828ab7fd76109",
        "srcKUID": "a78c39c4d81b4f5caa914a67d924cf8f",
        "wType": "FlexContainer"
      }
    },
    "flxWelcome": {
      "__events__": {},
      "__info__": {
        "kuid": "a7f856580bc04eaf921b86bbdd40ea37",
        "srcKUID": "a211e9ebbb8f44f287be4214ca57a283",
        "wType": "FlexContainer"
      }
    },
    "flxWelcomeWrapper": {
      "__events__": {},
      "__info__": {
        "kuid": "d4ad5dd3d85344409ebe1b48f5a4929e",
        "srcKUID": "de9ba888697a4d959a0ca56515dd9fef",
        "wType": "FlexContainer"
      }
    },
    "imgProfile": {
      "__events__": {},
      "__info__": {
        "kuid": "a8b51b89f6f94177868fe59bcffda778",
        "srcKUID": "f01c6e00b7c04a5cb897306dc2204d69",
        "wType": "Image"
      }
    },
    "lblLastLoggedIn": {
      "__events__": {},
      "__info__": {
        "kuid": "a841c9c9f3d94d8a9458e986cfd56082",
        "srcKUID": "cbddd9a480ef4420bef6e6429491f921",
        "wType": "Label"
      }
    },
    "lblWelcome": {
      "__events__": {},
      "__info__": {
        "kuid": "cd462acce1974bbf934f6c61adbe2b42",
        "srcKUID": "j8f072cb93db4bd58beb0671152e4bd6",
        "wType": "Label"
      }
    },
    "welcome": {
      "__events__": {},
      "__info__": {
        "isRoot": true,
        "kuid": "abc8009e8c39488ab5d6bc4bcf94f187",
        "srcKUID": "ca8945d6d0c44de8a337a471a175d509",
        "wType": "FlexContainer"
      },
      "autogrowMode": 0,
      "centerX": {
        "Default": {
          "type": "string",
          "value": "50%"
        }
      },
      "height": {
        "Default": {
          "type": "string",
          "value": "80dp"
        }
      },
      "left": {
        "Default": {
          "type": "string",
          "value": ""
        }
      },
      "width": {
        "Default": {
          "type": "string",
          "value": "94%"
        }
      }
    }
  },
  "id": "welcome",
  "info": null,
  "isdatareferenced": false,
  "isvisible": true,
  "kuid": "c5e35e3a7da54ff386162d8a7033cdb2",
  "layouttype": 2,
  "masterType": 0,
  "name": "kony.ui.UserWidgetInstance",
  "parent": "CopyflxMain0g475c7f4232b46",
  "pf": "frmAccountsLanding",
  "snaptogrid": true,
  "sourceUserWidget": "ca8945d6d0c44de8a337a471a175d509",
  "wType": "UserWidgetInstance"
}