{
  "DNDConfig": null,
  "__parentReadjusting__": false,
  "_height_": {
    "type": "string",
    "value": "70px"
  },
  "_left_": {
    "type": "string",
    "value": "0%"
  },
  "_margin_": [
    0,
    0,
    0,
    0
  ],
  "_orientation_": 6,
  "_padding_": [
    0,
    0,
    0,
    0
  ],
  "_percent_": true,
  "_skin_": "s02a0687a6ac4a2ab5a9167ee455afff",
  "_top_": {
    "type": "string",
    "value": "0dp"
  },
  "_width_": {
    "type": "string",
    "value": "1366dp"
  },
  "allboxes": [],
  "autogrowmode": 0,
  "canUpdateUI": true,
  "centerx": {
    "type": "string",
    "value": "50%"
  },
  "children": [
    "imgKony",
    "lblKonyBank",
    "lblSeperator",
    "imgReminder",
    "btnLogin"
  ],
  "clipbounds": false,
  "containerweight": 100,
  "enablescrolling": true,
  "id": "flxMainHeader",
  "info": null,
  "isvisible": true,
  "kuid": "ie8b402d633c4fae9058ae7d3ec2cc20",
  "layouttype": 2,
  "name": "kony.ui.FlexContainer",
  "parent": "flxHeaderPreLogin",
  "pf": "frmCustomerFeedback",
  "snapgridsize": 10,
  "snaptogrid": true,
  "wType": "FlexContainer",
  "widgetalignment": 1,
  "zindex": 3
}