{
  "DNDConfig": null,
  "__parentReadjusting__": false,
  "_height_": {
    "type": "ref",
    "value": "preferred"
  },
  "_left_": {
    "type": "string",
    "value": "0dp"
  },
  "_margin_": [
    0,
    0,
    0,
    0
  ],
  "_orientation_": 6,
  "_padding_": [
    0,
    0,
    0,
    0
  ],
  "_percent_": true,
  "_skin_": "sf4c85c506de4687bf0645de2533a314",
  "_top_": {
    "type": "string",
    "value": "30dp"
  },
  "_width_": {
    "type": "string",
    "value": "100%"
  },
  "allboxes": [],
  "autogrowmode": 1,
  "canUpdateUI": true,
  "children": [
    "lblQuestion3",
    "lblAnswer3",
    "lblQuestionNo3"
  ],
  "clipbounds": true,
  "containerweight": 100,
  "enablescrolling": true,
  "id": "flxQuestion3",
  "info": null,
  "isvisible": true,
  "kuid": "h01e251f22f540f5866f48f100fb9f4a",
  "layouttype": 2,
  "name": "kony.ui.FlexContainer",
  "parent": "flxaddress",
  "pf": "frmCustomerFeedback",
  "snapgridsize": 10,
  "snaptogrid": true,
  "wType": "FlexContainer",
  "widgetalignment": 1,
  "zindex": 5
}