{
  "@class": "com.kony.gen.viz.model.container.KVizScrollFlexForm",
  "DNDConfig": null,
  "_margin_": [
    0,
    0,
    0,
    0
  ],
  "_orientation_": 1,
  "_padding_": [
    0,
    0,
    0,
    0
  ],
  "_percent_": true,
  "_skin_": "sa6b76c3a5c64558aa86f1f3835ef1e5",
  "_title_": null,
  "addWidgetsdone": false,
  "allboxes": [],
  "android": {
    "psp": {
      "windowSoftInputMode": 2
    }
  },
  "canUpdateUI": true,
  "canvasWidth": 2000,
  "children": [
    "flxHeaderPreLogin",
    "flxHeaderPostLogin",
    "flxMainContainer",
    "flxFooter",
    "flxPopup",
    "flxLogout",
    "flxLoading"
  ],
  "containerweight": 100,
  "controllerInfo": {
    "default": {
      "channel": "desktop",
      "name": "frmCustomerFeedbackController"
    }
  },
  "currentLocale": "default",
  "desktopweb": {
    "needAppMenu": false
  },
  "device": "desktopweb",
  "displayorientation": 1,
  "enabledforidletimeout": true,
  "friendlyName": "frmCustomerFeedback",
  "id": "frmCustomerFeedback",
  "ide_postShow": "AS_Form_c0671ee55270431889671eb0bea88a72",
  "ide_preShow": "AS_Form_fb3f66c1ddce478e8b2bc220d94107c3",
  "info": null,
  "initdone": false,
  "inputaccessoryviewtype": 4,
  "ipad": {
    "psp": {
      "inputAccessoryViewType": 4
    }
  },
  "iphone": {
    "psp": {
      "inputAccessoryViewType": 4
    }
  },
  "isvisible": true,
  "kuid": "f9a0e499fabf424ba4982ce72ecd3bd2",
  "layouttype": 2,
  "name": "kony.ui.Form2",
  "needappmenu": true,
  "paddinginpixel": false,
  "platform": "desktopweb",
  "prevDevice": "desktopweb",
  "prevPlatform": "desktopweb",
  "retainscrollposition": false,
  "shellCSS": "desktop",
  "snapgridsize": 10,
  "snaptogrid": true,
  "titleBarSkin": "s2e24ee0a8ca46b089d8a5bea8a1a32e",
  "titlebar": true,
  "type": 3,
  "wType": "Form"
}