{
  "@class": "com.kony.gen.viz.model.component.KVizLabel",
  "DNDConfig": null,
  "__parentReadjusting__": false,
  "_height_": {
    "type": "string",
    "value": "20dp"
  },
  "_margin_": [
    1,
    1,
    1,
    1
  ],
  "_padding_": [
    0,
    0,
    0,
    0
  ],
  "_right_": {
    "type": "string",
    "value": "12.50%"
  },
  "_skin_": "sa966f4c7d974709aa0a733eec853ef7",
  "_text_": "My Checking Account ….XXXX3254",
  "_width_": {
    "type": "ref",
    "value": "preferred"
  },
  "_wrapping_": 2,
  "android": {
    "textStyle": {
      "letterSpacing": 0,
      "strikeThrough": false
    }
  },
  "canUpdateUI": true,
  "centery": {
    "type": "string",
    "value": "52%"
  },
  "containerweight": 100,
  "contentalignment": 4,
  "id": "lblKonyBank",
  "info": null,
  "ipad": {
    "psp": {
      "wrapping": 2
    }
  },
  "iphone": {
    "psp": {
      "wrapping": 2
    }
  },
  "isvisible": true,
  "kuid": "e5118794efd845caa9d1736c99ed2c5b",
  "name": "kony.ui.Label",
  "parent": "flxMainHeader",
  "pf": "frmCustomerFeedback",
  "texti18n": "i18n.CustomerFeedback.YouHaveNotLoggedIn",
  "tooltip": "",
  "wType": "Label",
  "zindex": 3
}