{
  "@class": "com.kony.gen.viz.model.component.KVizLabel",
  "DNDConfig": null,
  "__parentReadjusting__": false,
  "_height_": {
    "type": "string",
    "value": "25dp"
  },
  "_margin_": [
    1,
    1,
    1,
    1
  ],
  "_padding_": [
    0,
    0,
    0,
    0
  ],
  "_right_": {
    "type": "string",
    "value": "10.90%"
  },
  "_skin_": "sda58c303fab471b9b3923168682901d",
  "_text_": "-",
  "_width_": {
    "type": "string",
    "value": "1dp"
  },
  "_wrapping_": 2,
  "android": {
    "textStyle": {
      "letterSpacing": 0,
      "strikeThrough": false
    }
  },
  "canUpdateUI": true,
  "centery": {
    "type": "number",
    "value": "37"
  },
  "containerweight": 100,
  "contentalignment": 4,
  "id": "lblSeperator",
  "info": null,
  "ipad": {
    "psp": {
      "wrapping": 2
    }
  },
  "iphone": {
    "psp": {
      "wrapping": 2
    }
  },
  "isvisible": true,
  "kuid": "b87e1a66e91d4fa2a3cfc9c4ed3b87b1",
  "name": "kony.ui.Label",
  "parent": "flxMainHeader",
  "pf": "frmCustomerFeedback",
  "tooltip": "",
  "wType": "Label",
  "zindex": 3
}