{
  "@class": "com.kony.gen.viz.model.component.KVizUserWidget",
  "DNDConfig": null,
  "__parentReadjusting__": false,
  "_children_": [],
  "_height_": {
    "type": "string",
    "value": "121px"
  },
  "_left_": {
    "type": "string",
    "value": "0dp"
  },
  "_margin_": [
    0,
    0,
    0,
    0
  ],
  "_orientation_": 1,
  "_padding_": [
    0,
    0,
    0,
    0
  ],
  "_percent_": true,
  "_render_": true,
  "_skin_": "s08469efda4a4826a2c833ec32b9f5e5",
  "_top_": {
    "type": "string",
    "value": "0dp"
  },
  "_width_": {
    "type": "string",
    "value": "100%"
  },
  "areflexpropsreferenced": false,
  "autogrowmode": 0,
  "canUpdateUI": true,
  "clipbounds": false,
  "containerweight": 0,
  "dataDiffs": {
    "CopyflxHamburgerBack0f9d52b864a8c4e": {
      "__events__": {},
      "__info__": {
        "kuid": "cd975528e7d84056a6c66398732a04fd",
        "srcKUID": "e54748b344d245529c0ccb38cd8d1fcb",
        "wType": "FlexContainer"
      }
    },
    "CopyflxUserDetails0b35eb5be884043": {
      "__events__": {},
      "__info__": {
        "kuid": "e6779c95a0164a34bca393ccebd22899",
        "srcKUID": "b692716bd51e422ead7f111a1bfbe5cb",
        "wType": "FlexContainer"
      }
    },
    "CopyflxVerticalSeperator0dbd20466efa64b": {
      "__events__": {},
      "__info__": {
        "kuid": "eeec8818f62a4e7b936d977a2d66309c",
        "srcKUID": "d06f368d0065481d81dc512212fd2b95",
        "wType": "FlexContainer"
      }
    },
    "FlexContainer0e2898aa93bca45": {
      "__events__": {},
      "__info__": {
        "kuid": "fdb86851d700452b87547e33c0480500",
        "srcKUID": "f85d68fc07dd44c2938e507df0fe87fc",
        "wType": "FlexContainer"
      }
    },
    "Label0e243933e8fa34e": {
      "__events__": {},
      "__info__": {
        "kuid": "ebbbb57b88114814b12c2c75b1331395",
        "srcKUID": "e4ac7c6df45f47999b2250e0bcb58bcb",
        "wType": "Label"
      }
    },
    "customhamburger": {
      "__events__": {},
      "__info__": {
        "kuid": "head022c382f4ab495e63b823ed76248",
        "srcKUID": "dea66199c9fd433fab636de553a6116f",
        "wType": "UserWidgetInstance"
      }
    },
    "customhamburger.CopyflxMyAccounts0b54df1795b674c": {
      "__events__": {},
      "__info__": {
        "kuid": "e1ca88f9764d4a7caa98f843840e0b59",
        "srcKUID": "dc4c58f3d34b49b6a828fb1092938fd9",
        "wType": "FlexContainer"
      }
    },
    "customhamburger.CopyflxMyAccounts0d2a58860676d43": {
      "__events__": {},
      "__info__": {
        "kuid": "cbf3a0f1cbdf43b5b55af1910af518b1",
        "srcKUID": "ic7b9b97e0a34ff9a3bb27ee8e7dc13f",
        "wType": "FlexContainer"
      }
    },
    "customhamburger.CopyflxMyAccounts0f8a8e9530ccc43": {
      "__events__": {},
      "__info__": {
        "kuid": "d66c47e44b794bb79e6efd783e36c7e0",
        "srcKUID": "bbe7100a7f7940d39db5b7b1de5a774e",
        "wType": "FlexContainer"
      }
    },
    "customhamburger.CopyflxMyAccounts0fb3509ebda8a4d": {
      "__events__": {},
      "__info__": {
        "kuid": "e2a2f503ee7d49958a4828365fa1fda5",
        "srcKUID": "d9cef119e5a942c9b89b4e9733af8f59",
        "wType": "FlexContainer"
      }
    },
    "customhamburger.CopyflxSeperator0ab6ff437e8524e": {
      "__events__": {},
      "__info__": {
        "kuid": "d25168ca89d347a5a155548d11e69181",
        "srcKUID": "ca4dec9fb13344e8a9eaab7c89b68088",
        "wType": "FlexContainer"
      }
    },
    "customhamburger.CopyflxSeperator0acb2897e84374f": {
      "__events__": {},
      "__info__": {
        "kuid": "e41ebff475f74158b4e628c309678851",
        "srcKUID": "h931230261a14f28817596d7d2bbfee2",
        "wType": "FlexContainer"
      }
    },
    "customhamburger.CopyflxSeperator0bd0b5a0f50074d": {
      "__events__": {},
      "__info__": {
        "kuid": "da7ac169fc0641e48fc0d8afb48e0fee",
        "srcKUID": "b8213949527b424f92c6600b3e792ecc",
        "wType": "FlexContainer"
      }
    },
    "customhamburger.CopyflxSeperator0c1fe53523f5e44": {
      "__events__": {},
      "__info__": {
        "kuid": "d617e8416d1442d0a9f2bc28c63b7d28",
        "srcKUID": "ffdae6459d5d450c9b5a5df56704081e",
        "wType": "FlexContainer"
      }
    },
    "customhamburger.CopyflxSeperator0d1cf533b0a1e41": {
      "__events__": {},
      "__info__": {
        "kuid": "b1f30b3093fe458890b974436994e821",
        "srcKUID": "fef29e5fb0c4475aaea53717a412f37c",
        "wType": "FlexContainer"
      }
    },
    "customhamburger.CopyflxSeperator0dd0dea943f174f": {
      "__events__": {},
      "__info__": {
        "kuid": "ce4975debe954ca3a497334149c1a653",
        "srcKUID": "j5306d2984814d9d93c24f84d7db8ba7",
        "wType": "FlexContainer"
      }
    },
    "customhamburger.CopyflxSeperator0dfe0994effc642": {
      "__events__": {},
      "__info__": {
        "kuid": "i30dac4ea7b04f7c91de93f139914173",
        "srcKUID": "c7eb127bdde140e382ab0f3726c08d48",
        "wType": "FlexContainer"
      }
    },
    "customhamburger.CopyflxSeperator0e0b844b2206d42": {
      "__events__": {},
      "__info__": {
        "kuid": "d8a43411aad045f1a7a9249ad8459a32",
        "srcKUID": "d407d1c0e2b74a5c8858107d1963ab91",
        "wType": "FlexContainer"
      }
    },
    "customhamburger.CopyflxSeperator0e26671ec477148": {
      "__events__": {},
      "__info__": {
        "kuid": "g1bf3c6c155f4fbf92dd4215b5ee7012",
        "srcKUID": "e67fd2e22af044b486baf8def557575c",
        "wType": "FlexContainer"
      }
    },
    "customhamburger.CopyflxSeperator0ef41d1ef612f4a": {
      "__events__": {},
      "__info__": {
        "kuid": "i8f7a60fac8d42a68342ce8141ef6823",
        "srcKUID": "adeb509fbec84150b31a2aa4a215fb19",
        "wType": "FlexContainer"
      }
    },
    "customhamburger.CopyflxSeperator0f0efd703f4a84e": {
      "__events__": {},
      "__info__": {
        "kuid": "bd8fdff363db44e59b7920e74328c405",
        "srcKUID": "jc0b907adf1f4e1ea39d354fc2e41d23",
        "wType": "FlexContainer"
      }
    },
    "customhamburger.CopyflxSeperator0f546de30843d4a": {
      "__events__": {},
      "__info__": {
        "kuid": "cad4ce4615e84163bf325451a1e5e7d0",
        "srcKUID": "b2e0303156ee4279b58a400c45658cbe",
        "wType": "FlexContainer"
      }
    },
    "customhamburger.CopyflxSeperator0f697b8a8bbcf46": {
      "__events__": {},
      "__info__": {
        "kuid": "bd102d57874f48ea811277244d0f5b1d",
        "srcKUID": "d7122805ba3b40f493b7d79f749c5c1f",
        "wType": "FlexContainer"
      }
    },
    "customhamburger.CopyflxSeperator0f7229c978c5c47": {
      "__events__": {},
      "__info__": {
        "kuid": "h0eb182f34a04579872f328049529f6c",
        "srcKUID": "a87745dcb66b4f4c83b0725af5c1251b",
        "wType": "FlexContainer"
      }
    },
    "customhamburger.CopyflxSeperator0f85cfae3ca0048": {
      "__events__": {},
      "__info__": {
        "kuid": "ae2c5dabac504786a337835099a77c23",
        "srcKUID": "dc99871787d24ab28840acb5727529ca",
        "wType": "FlexContainer"
      }
    },
    "customhamburger.CopyflxSeperator0h8ae88a56a9d41": {
      "__events__": {},
      "__info__": {
        "kuid": "fdae4f5ffff6466db59e733346382ec4",
        "srcKUID": "e98fbb42ce4f4cd892d9d78a174599bc",
        "wType": "FlexContainer"
      }
    },
    "customhamburger.CopyflxSeperator0ha67bcc4ced74d": {
      "__events__": {},
      "__info__": {
        "kuid": "e1aa1a0eab064b76a72930328461ae30",
        "srcKUID": "eb357a4d0a5444ce9fe205a0d44588f7",
        "wType": "FlexContainer"
      }
    },
    "customhamburger.CopyflxSeperator0i4d31af56d2d40": {
      "__events__": {},
      "__info__": {
        "kuid": "ecde1f25818e42dcb4ff5c22ada80ab8",
        "srcKUID": "f3f4b62efb0a4dd8bf89e2d38860cfd7",
        "wType": "FlexContainer"
      }
    },
    "customhamburger.CopyflxSeperator0i8b9bac42bb244": {
      "__events__": {},
      "__info__": {
        "kuid": "bff8893d348948e792da6e3b643fb8b7",
        "srcKUID": "b27ca988af24429ba3da202b454cc21f",
        "wType": "FlexContainer"
      }
    },
    "customhamburger.CopyflxSeperator0j3213d9f303b41": {
      "__events__": {},
      "__info__": {
        "kuid": "b7b06bfde28c4aa289821c437a826869",
        "srcKUID": "fe9c8dd71102415db76f64c461560080",
        "wType": "FlexContainer"
      }
    },
    "customhamburger.CopyflxSeperator0jc2b704f97fa4d": {
      "__events__": {},
      "__info__": {
        "kuid": "h7fc658da2d3450f8668a31ec8e1e94a",
        "srcKUID": "d0c5fd0e52bf405ab3a5b62910c15dfc",
        "wType": "FlexContainer"
      }
    },
    "customhamburger.CopylblAddPayee0b508c1c7ac1342": {
      "__events__": {},
      "__info__": {
        "kuid": "f8f844e23035451099b4bd3f6e1b39fb",
        "srcKUID": "gecce85ab70e458f8184668a61d2a72a",
        "wType": "Label"
      }
    },
    "customhamburger.CopylblAddPayee0bee2cf73d22b4d": {
      "__events__": {},
      "__info__": {
        "kuid": "i5f876cfaa69422cae187bb166148a60",
        "srcKUID": "e21a4f39e45c4ea4b684e82952e0da1f",
        "wType": "Label"
      }
    },
    "customhamburger.CopylblAddPayee0g70cc090ed6245": {
      "__events__": {},
      "__info__": {
        "kuid": "i5b494512ed04c9789b4cc05e249603d",
        "srcKUID": "f6dfffbbcd7d48ac80ff2d95331aeef0",
        "wType": "Label"
      }
    },
    "customhamburger.CopylblBillPay0a6bc0b0a48dd4b": {
      "__events__": {},
      "__info__": {
        "kuid": "dc05fad578504874892018d36e91f691",
        "srcKUID": "iece97379dcf4992bd7afc5f0ac6ed8a",
        "wType": "Label"
      }
    },
    "customhamburger.CopylblBillPay0e8e9903a20a440": {
      "__events__": {},
      "__info__": {
        "kuid": "a7425183e3de4ccd92d3d06faaaebe53",
        "srcKUID": "i5c72f4c617e4a9fa18d6460cc8c41cb",
        "wType": "Label"
      }
    },
    "customhamburger.CopylblBillPay0eda6178b407a4e": {
      "__events__": {},
      "__info__": {
        "kuid": "e242b8f66d6c46f3b5ed1375c530a623",
        "srcKUID": "b5f49ce65f43422e8ba064d0383c8b60",
        "wType": "Label"
      }
    },
    "customhamburger.CopylblBillPayHistory0b38a2ee4fe0d47": {
      "__events__": {},
      "__info__": {
        "kuid": "b82f4933284547d18c79818ccac38712",
        "srcKUID": "hbc213bb8f7a4233b1396cd4bdabbaa3",
        "wType": "Label"
      }
    },
    "customhamburger.CopylblBillPayHistory0gc07c297701741": {
      "__events__": {},
      "__info__": {
        "kuid": "c557241cadff45229fdcc3ab8ebfca32",
        "srcKUID": "cb22b1482ffc4bfb95ecec9f6a141fab",
        "wType": "Label"
      }
    },
    "customhamburger.CopylblMyAccounts0c708334cd15c43": {
      "__events__": {},
      "__info__": {
        "kuid": "ba1cdf25cd5b4c2491d271e557abb1b0",
        "srcKUID": "dc2cbfc36e79444ab78448553e873210",
        "wType": "Label"
      }
    },
    "customhamburger.CopylblMyAccounts0cbb159605a3b44": {
      "__events__": {},
      "__info__": {
        "kuid": "a9493132a160410993365c7cad4025e3",
        "srcKUID": "afec2e14a4a3441b95c42cc142db3bf2",
        "wType": "Label"
      }
    },
    "customhamburger.CopylblMyAccounts0d0f2bf7fe79545": {
      "__events__": {},
      "__info__": {
        "kuid": "b0024a755e3946149748c61d06e06890",
        "srcKUID": "c6f86a1de73246a09b5c79361693bc21",
        "wType": "Label"
      }
    },
    "customhamburger.CopylblMyAccounts0hc2685e27c2c44": {
      "__events__": {},
      "__info__": {
        "kuid": "i4e5d991534141049978066512cdbd0d",
        "srcKUID": "faab113b9bf8424580d0e0812fa98971",
        "wType": "Label"
      }
    },
    "customhamburger.CopylblMyAccounts0i08ff33ddccd42": {
      "__events__": {},
      "__info__": {
        "kuid": "f2b57334d5d84947b0c2ccf0811a664f",
        "srcKUID": "a42c5516493c41799b8383460faa4847",
        "wType": "Label"
      }
    },
    "customhamburger.CopylblMyPayee0dcb9e690692a4f": {
      "__events__": {},
      "__info__": {
        "kuid": "bfdfe48aff7543a0a4eb401bf8948631",
        "srcKUID": "bed01243f6a547179d4bf810e22191f0",
        "wType": "Label"
      }
    },
    "customhamburger.CopylblMyPayee0e33403d7890441": {
      "__events__": {},
      "__info__": {
        "kuid": "j835d77e8b54492fb00fc24d1454f658",
        "srcKUID": "bce63faed54a4d5f8189fb31de9e3ee7",
        "wType": "Label"
      }
    },
    "customhamburger.CopylblMyPayee0i8f11a9bf3734f": {
      "__events__": {},
      "__info__": {
        "kuid": "cdbd133e9ed1466eb27d276d591936ca",
        "srcKUID": "b43285cfc5b14a5ba8ac5b1edff46d10",
        "wType": "Label"
      }
    },
    "customhamburger.CopylblPayABill0d56ffee2b48f4c": {
      "__events__": {},
      "__info__": {
        "kuid": "a21d4129ba144c69aaff89b1033e8053",
        "srcKUID": "a37d5172e5d04c99a7b381dbdb0c1f0e",
        "wType": "Label"
      }
    },
    "customhamburger.CopylblPayABill0g84c7aa6fce048": {
      "__events__": {},
      "__info__": {
        "kuid": "c96b86eade4f4df5bd464aa0b34f84ed",
        "srcKUID": "e68c07ae9fae4911aa7ec55b76ac1d9e",
        "wType": "Label"
      }
    },
    "customhamburger.CopylblPayABill0h56a2d285cea46": {
      "__events__": {},
      "__info__": {
        "kuid": "gede9443d71f4b2fb9508c808018721f",
        "srcKUID": "ade9130b3841494c9f59781a7587c3e1",
        "wType": "Label"
      }
    },
    "customhamburger.FlexContainer0a82014659b0e48": {
      "__events__": {},
      "__info__": {
        "kuid": "fc4ec96538ca48949eb1bfa22168bded",
        "srcKUID": "h7ad82c8fb9b437486ad6c4d49320ce2",
        "wType": "FlexContainer"
      }
    },
    "customhamburger.flxAboutUs": {
      "__events__": {},
      "__info__": {
        "kuid": "da19748b1b17473284fba42595b1671a",
        "srcKUID": "cca79f5d16b045408f311a815ae6b289",
        "wType": "FlexContainer"
      }
    },
    "customhamburger.flxAboutUsCollapse": {
      "__events__": {},
      "__info__": {
        "kuid": "d0faf311a7dc41c68f809ab725fed6cc",
        "srcKUID": "e41d16cfc04e458693670ae7e87e34aa",
        "wType": "FlexContainer"
      }
    },
    "customhamburger.flxAboutUsSubMenu": {
      "__events__": {},
      "__info__": {
        "kuid": "d7c7ccc0a72d4d9d808b55fb7cc1ab06",
        "srcKUID": "ad066a23a8cd41e983c434b90da35923",
        "wType": "FlexContainer"
      }
    },
    "customhamburger.flxAccountSettings": {
      "__events__": {},
      "__info__": {
        "kuid": "b991473df07c44e19d6c749cefbd152a",
        "srcKUID": "g69da15184e04d089b0f58da40a7157e",
        "wType": "FlexContainer"
      }
    },
    "customhamburger.flxAccountsCollapse": {
      "__events__": {},
      "__info__": {
        "kuid": "j60775f852d64d18be9c7617d05b6c82",
        "srcKUID": "e0af0f6ab9614020b7fc5e89406a63dc",
        "wType": "FlexContainer"
      }
    },
    "customhamburger.flxAccountsMenu": {
      "__events__": {},
      "__info__": {
        "kuid": "j96b631b5c79483d8eb944b27b915f80",
        "srcKUID": "cf43ccc491384cce8e692bf0c7b73f90",
        "wType": "FlexContainer"
      }
    },
    "customhamburger.flxAccountsSubMenu": {
      "__events__": {},
      "__info__": {
        "kuid": "aca50bf455f145b69dc833dc9f58f93e",
        "srcKUID": "dc00eecfa1d34328ba4230f17db49066",
        "wType": "FlexContainer"
      }
    },
    "customhamburger.flxAddKonyAccounts": {
      "__events__": {},
      "__info__": {
        "kuid": "c33ff76f8dff47eb9462563488adea6a",
        "srcKUID": "i7907247783340e6bd2e6d28ef1b46ee",
        "wType": "FlexContainer"
      }
    },
    "customhamburger.flxAddNonKonyAccounts": {
      "__events__": {},
      "__info__": {
        "kuid": "c36b6f5385c1434eab097b997706eab7",
        "srcKUID": "ic3031f46db3438a903562f1278ef9cc",
        "wType": "FlexContainer"
      }
    },
    "customhamburger.flxAddPayee": {
      "__events__": {},
      "__info__": {
        "kuid": "f021449cc145465da348d206d94349b1",
        "srcKUID": "aefd502a752f424387ac0e1a7d6cee42",
        "wType": "FlexContainer"
      }
    },
    "customhamburger.flxAddRecipient": {
      "__events__": {},
      "__info__": {
        "kuid": "ea03ec0ee932478f9d10cfb3ba0b3730",
        "srcKUID": "cfec2a2a551a45d188b7bf6c9954c85d",
        "wType": "FlexContainer"
      }
    },
    "customhamburger.flxAddRecipients": {
      "__events__": {},
      "__info__": {
        "kuid": "a5cc20aba71649f2bf3e3018cd30edbd",
        "srcKUID": "f96d8995e54f407cb41a20dbef08e36f",
        "wType": "FlexContainer"
      }
    },
    "customhamburger.flxAlerts": {
      "__events__": {},
      "__info__": {
        "kuid": "h7d594818aac4880853fb6a8775eb1a9",
        "srcKUID": "habdea8c510a4db183a6c1d319dc26cf",
        "wType": "FlexContainer"
      }
    },
    "customhamburger.flxAlertsAndMessages": {
      "__events__": {},
      "__info__": {
        "kuid": "c23ba2480bb64993b147b669d7176db5",
        "srcKUID": "a6047045dc8a45488e4434ae31a9d04e",
        "wType": "FlexContainer"
      }
    },
    "customhamburger.flxAlertsAndMessagesCollapse": {
      "__events__": {},
      "__info__": {
        "kuid": "ff62c2a8c8d949ecb88ed0920768b150",
        "srcKUID": "b5b47f89075c4e738fdfbe5afa6a27a2",
        "wType": "FlexContainer"
      }
    },
    "customhamburger.flxAlertsAndMessagesSeperator": {
      "__events__": {},
      "__info__": {
        "kuid": "de9e665267da407ea3a2193aba78dc5a",
        "srcKUID": "g5f28c8fa61149299a48ec5562c1c35b",
        "wType": "FlexContainer"
      }
    },
    "customhamburger.flxAlertsAndMessagesSubMenu": {
      "__events__": {},
      "__info__": {
        "kuid": "c00181e84af242dc8e39c2ae62f12a51",
        "srcKUID": "ec498bbee2a54caf825c1cc57f8c0f46",
        "wType": "FlexContainer"
      }
    },
    "customhamburger.flxBillPay": {
      "__events__": {},
      "__info__": {
        "kuid": "j3da6d35bd404a298fa4a35c9da0770c",
        "srcKUID": "bafa4dff778347ac84a9f492a0e5dff1",
        "wType": "FlexContainer"
      }
    },
    "customhamburger.flxBillPayCollapse": {
      "__events__": {},
      "__info__": {
        "kuid": "b747299778a445a99a8d9700e860cd82",
        "srcKUID": "a0dcaee0ed354e579861b6fe542d4093",
        "wType": "FlexContainer"
      }
    },
    "customhamburger.flxBillPayHistory": {
      "__events__": {},
      "__info__": {
        "kuid": "d456935281dc4d9fba13ed5fd216b268",
        "srcKUID": "f62b8e2cab074c0c9fa00cc1d81c39d0",
        "wType": "FlexContainer"
      }
    },
    "customhamburger.flxBillPaySubMenu": {
      "__events__": {},
      "__info__": {
        "kuid": "h73b7c663b0a490faba10d7720da0862",
        "srcKUID": "ea568784be934341979a1fd5e490e2cb",
        "wType": "FlexContainer"
      }
    },
    "customhamburger.flxClose": {
      "__events__": {},
      "__info__": {
        "kuid": "c7af12a2fa7d49b5999158da53e08951",
        "srcKUID": "c66fd7f3bd2c4e6e8f7bd01e6287550e",
        "wType": "FlexContainer"
      }
    },
    "customhamburger.flxCollapseTransfers": {
      "__events__": {},
      "__info__": {
        "kuid": "e814455ada914bc1b7568d31e7be8ebd",
        "srcKUID": "h384e8dc0bd24e29af85efafe7e025fc",
        "wType": "FlexContainer"
      }
    },
    "customhamburger.flxContactUs": {
      "__events__": {},
      "__info__": {
        "kuid": "becc98f100014f2b9433fcb98097c993",
        "srcKUID": "abf11674e0d94d85a1fe50e46f4c51bc",
        "wType": "FlexContainer"
      }
    },
    "customhamburger.flxExternalAccounts": {
      "__events__": {},
      "__info__": {
        "kuid": "d02376b130b0468598404a1755d38997",
        "srcKUID": "abc9ac58f56e4fb493c8d1f1bff47b24",
        "wType": "FlexContainer"
      }
    },
    "customhamburger.flxFaq": {
      "__events__": {},
      "__info__": {
        "kuid": "d95a68bfa95b4c1a9606abdf198bedcf",
        "srcKUID": "h28703eed887497abf8a3f907abdbc2e",
        "wType": "FlexContainer"
      }
    },
    "customhamburger.flxHamburgerHeader": {
      "__events__": {},
      "__info__": {
        "kuid": "dde7431146e546c0b64839239b9e5045",
        "srcKUID": "h465700017fe4781975045dab9ed41c5",
        "wType": "FlexContainer"
      }
    },
    "customhamburger.flxHistory": {
      "__events__": {},
      "__info__": {
        "kuid": "b38eeb9b702b49f890b48134dce6d56c",
        "srcKUID": "af822cb01fd549e09ae70f7a5caf134d",
        "wType": "FlexContainer"
      }
    },
    "customhamburger.flxLocateUs": {
      "__events__": {},
      "__info__": {
        "kuid": "h851b40c49b14493a231f7ad0bc675b9",
        "srcKUID": "g85f2c9a423e42a58e10e8686c1fba74",
        "wType": "FlexContainer"
      }
    },
    "customhamburger.flxLogout": {
      "__events__": {},
      "__info__": {
        "kuid": "ib6def6c37b14384ac7bc974a9a301e9",
        "srcKUID": "c9904c20e8a5464285e846a22514783d",
        "wType": "FlexContainer"
      }
    },
    "customhamburger.flxMenu": {
      "__events__": {},
      "__info__": {
        "kuid": "f217e2e4016f48a28cc11aead1ca382a",
        "srcKUID": "i1c684442e854218bc2c08f78c55f971",
        "wType": "FlexContainer"
      }
    },
    "customhamburger.flxMenuWrapper": {
      "__events__": {},
      "__info__": {
        "kuid": "h6667183036e40339b1c0fb0fbdde5cc",
        "srcKUID": "ad010d1f868d49eea330fb84586cbd46",
        "wType": "FlexScrollContainer"
      }
    },
    "customhamburger.flxMessages": {
      "__events__": {},
      "__info__": {
        "kuid": "aaef9101182a44d28739e0da77e41df3",
        "srcKUID": "a8c136feada044d8aae02c45642a3aef",
        "wType": "FlexContainer"
      }
    },
    "customhamburger.flxMyAccounts": {
      "__events__": {},
      "__info__": {
        "kuid": "g1a3bd23ccce4e65a40ce1a52326ee2e",
        "srcKUID": "f7379b95da4148de8bad2885b68ce3c6",
        "wType": "FlexContainer"
      }
    },
    "customhamburger.flxMyPayeeList": {
      "__events__": {},
      "__info__": {
        "kuid": "b540247d793e48ad8472ea702a66ca2d",
        "srcKUID": "j0ff9253248645ff8612f1090fabea1b",
        "wType": "FlexContainer"
      }
    },
    "customhamburger.flxMyRecipients": {
      "__events__": {},
      "__info__": {
        "kuid": "ad914ba4a9d249618fc8c7305fdb005f",
        "srcKUID": "gc5138a3b6ed40e5a8d376d8900322ac",
        "wType": "FlexContainer"
      }
    },
    "customhamburger.flxNewMessages": {
      "__events__": {},
      "__info__": {
        "kuid": "d22c10c8633b410fbd1736b85969a599",
        "srcKUID": "bfad3abb96b54f6687ec8d8ae08b8a89",
        "wType": "FlexContainer"
      }
    },
    "customhamburger.flxPayABill": {
      "__events__": {},
      "__info__": {
        "kuid": "cb6d6bfb41284a9b97a2c8b94fa8019e",
        "srcKUID": "cabc5ae19734442ca472692f76360a26",
        "wType": "FlexContainer"
      }
    },
    "customhamburger.flxPayAPerson": {
      "__events__": {},
      "__info__": {
        "kuid": "iad920350b724eb19aae40e2cfa93b08",
        "srcKUID": "c3c34d9fdac2420fb3cf01ada4338616",
        "wType": "FlexContainer"
      }
    },
    "customhamburger.flxPayAPersonCollapse": {
      "__events__": {},
      "__info__": {
        "kuid": "fa0b9e8d4d51401daea8987d9bd6d3ac",
        "srcKUID": "f0eb0c0751d7408db1c234c07637bb8f",
        "wType": "FlexContainer"
      }
    },
    "customhamburger.flxPayAPersonSubMenu": {
      "__events__": {},
      "__info__": {
        "kuid": "eff2bb165c0a4f0f8e993d8306ed1564",
        "srcKUID": "aeb2426f276a4cdc8c73046302e57323",
        "wType": "FlexContainer"
      }
    },
    "customhamburger.flxPrivacyPolicy": {
      "__events__": {},
      "__info__": {
        "kuid": "a3b1732e63b946e7aaca2d480f29025f",
        "srcKUID": "e53f0d53bf524807b19900124ae5e5cc",
        "wType": "FlexContainer"
      }
    },
    "customhamburger.flxProfileManagement": {
      "__events__": {},
      "__info__": {
        "kuid": "jaff0cb864964afaa313bbdc9afb1a72",
        "srcKUID": "c4c99abbdc854639a275f0d1966f9d2a",
        "wType": "FlexContainer"
      }
    },
    "customhamburger.flxProfileManagementCollapse": {
      "__events__": {},
      "__info__": {
        "kuid": "eea5b26abce348c3b7c28f1e88d72017",
        "srcKUID": "e3074e95c1584c26b3c00839871a8ec1",
        "wType": "FlexContainer"
      }
    },
    "customhamburger.flxProfileManagementSubMenu": {
      "__events__": {},
      "__info__": {
        "kuid": "ec0c1cf999d84428bd1bd465cc5863df",
        "srcKUID": "dedf5323b4f04d9bb0857acaba413ed2",
        "wType": "FlexContainer"
      }
    },
    "customhamburger.flxProfileSettings": {
      "__events__": {},
      "__info__": {
        "kuid": "g3861639c1784a61818b9a9169b83953",
        "srcKUID": "c9e266a61e794666abaa382a1974bd50",
        "wType": "FlexContainer"
      }
    },
    "customhamburger.flxSecuritySettings": {
      "__events__": {},
      "__info__": {
        "kuid": "ab1df8f898374499bf85e77ed2619994",
        "srcKUID": "h35c8ab7f8114eb883dbe77eb239d5bc",
        "wType": "FlexContainer"
      }
    },
    "customhamburger.flxSendRequest": {
      "__events__": {},
      "__info__": {
        "kuid": "he00ab47eab04228b4d785cf81af276a",
        "srcKUID": "d977218b05dc49ada933fde699153602",
        "wType": "FlexContainer"
      }
    },
    "customhamburger.flxSeperator10": {
      "__events__": {},
      "__info__": {
        "kuid": "c030831fd4644afca7580b535c605103",
        "srcKUID": "f9bfa4fca0dd4125be7663cbecdaaee0",
        "wType": "FlexContainer"
      }
    },
    "customhamburger.flxSeperator11": {
      "__events__": {},
      "__info__": {
        "kuid": "h4c38bb9e88745879cbd9c2353fc6f5e",
        "srcKUID": "f0e6a5bf00e24b55a131b00e736ad0f1",
        "wType": "FlexContainer"
      }
    },
    "customhamburger.flxSeperator12": {
      "__events__": {},
      "__info__": {
        "kuid": "ab61c8fe4cea41568463e6e67ca53c45",
        "srcKUID": "c0ad725976704507a8aa1b268bc97087",
        "wType": "FlexContainer"
      }
    },
    "customhamburger.flxSeperator13": {
      "__events__": {},
      "__info__": {
        "kuid": "id8af72f918148cb8e6f605e8a17f77c",
        "srcKUID": "j636db10e4604851913f33aee409ae48",
        "wType": "FlexContainer"
      }
    },
    "customhamburger.flxSeperator14": {
      "__events__": {},
      "__info__": {
        "kuid": "e2e6e5ee4f4240c488f03915bb0ee929",
        "srcKUID": "f671f1951bbd44bcbaea3b445e3c6c3b",
        "wType": "FlexContainer"
      }
    },
    "customhamburger.flxSeperator15": {
      "__events__": {},
      "__info__": {
        "kuid": "d8ee1a0f17814799bffc5a9a0756ba1f",
        "srcKUID": "j11be2166fc34b419da967d077f32299",
        "wType": "FlexContainer"
      }
    },
    "customhamburger.flxSeperator16": {
      "__events__": {},
      "__info__": {
        "kuid": "i6b28e3766f344f8b62e833ebadd8e46",
        "srcKUID": "if0c694e156a4703b7545e789492c020",
        "wType": "FlexContainer"
      }
    },
    "customhamburger.flxSeperator17": {
      "__events__": {},
      "__info__": {
        "kuid": "f90914896a7f4428bcf1ed36715d64a1",
        "srcKUID": "b50f7b34350e4dec8af632653ab083c5",
        "wType": "FlexContainer"
      }
    },
    "customhamburger.flxSeperator18": {
      "__events__": {},
      "__info__": {
        "kuid": "b3340c256381438591a10de79055719b",
        "srcKUID": "dccbe42cfb7b4494b0ef8aa3c4f6be41",
        "wType": "FlexContainer"
      }
    },
    "customhamburger.flxSeperator2": {
      "__events__": {},
      "__info__": {
        "kuid": "bc68b8a40a3e446aab7e054216470218",
        "srcKUID": "c80156f4b587452bb66f7eeceecaf50a",
        "wType": "FlexContainer"
      }
    },
    "customhamburger.flxSeperator3": {
      "__events__": {},
      "__info__": {
        "kuid": "gb7209f19b754b379922ac6a970dc842",
        "srcKUID": "b6518efe46a64f52901e8c3d65c11ce9",
        "wType": "FlexContainer"
      }
    },
    "customhamburger.flxSeperator4": {
      "__events__": {},
      "__info__": {
        "kuid": "c5601e88bd4d4bb58ef9cffe7edb2874",
        "srcKUID": "cc2eee43aa8a45d08bf13a5e5718afcd",
        "wType": "FlexContainer"
      }
    },
    "customhamburger.flxSeperator5": {
      "__events__": {},
      "__info__": {
        "kuid": "eed0f6227c6f491bbbecdc6025310303",
        "srcKUID": "c8c3ef97147f40f2865efb0cb670d50b",
        "wType": "FlexContainer"
      }
    },
    "customhamburger.flxSeperator6": {
      "__events__": {},
      "__info__": {
        "kuid": "cb6c7ffce8a349a2903ffbae4b60e7cc",
        "srcKUID": "jdcc06ffd6c140b09d7a452d4412adef",
        "wType": "FlexContainer"
      }
    },
    "customhamburger.flxSeperator7": {
      "__events__": {},
      "__info__": {
        "kuid": "d35aa44dff1c4e99b3e44b291ba45300",
        "srcKUID": "ga22cbc58a634b6fb13935ed90d0aced",
        "wType": "FlexContainer"
      }
    },
    "customhamburger.flxSeperator8": {
      "__events__": {},
      "__info__": {
        "kuid": "c12af37fd50c4d8b9f5684294a3d48ff",
        "srcKUID": "c7558fdf51bf47fe824b91a07cf6b714",
        "wType": "FlexContainer"
      }
    },
    "customhamburger.flxSeperator9": {
      "__events__": {},
      "__info__": {
        "kuid": "fa35f2ea759240fd9cbd4cc18ff804dd",
        "srcKUID": "b122e6579708465082812c6e7068d7f6",
        "wType": "FlexContainer"
      }
    },
    "customhamburger.flxSeperatorAlerts": {
      "__events__": {},
      "__info__": {
        "kuid": "d5638b828d034431831e3f5de243dbb5",
        "srcKUID": "b2fe1d61dbc64712ad4e576fb2bd332f",
        "wType": "FlexContainer"
      }
    },
    "customhamburger.flxSeperatorMessages": {
      "__events__": {},
      "__info__": {
        "kuid": "f86501c187404f94bc7f40f39a740c78",
        "srcKUID": "c5a23363d5df48049106898aa405a723",
        "wType": "FlexContainer"
      }
    },
    "customhamburger.flxSeperatorNewMessage": {
      "__events__": {},
      "__info__": {
        "kuid": "d2ff9c9fe6f348abaa7c05d94ebf9874",
        "srcKUID": "c929fa4f76ed416185ce33e12111609d",
        "wType": "FlexContainer"
      }
    },
    "customhamburger.flxTerms": {
      "__events__": {},
      "__info__": {
        "kuid": "d59c3184837f468eb7098b7e24232305",
        "srcKUID": "a3d4d9ba1e264ec2a3de4b87bc4d7aa3",
        "wType": "FlexContainer"
      }
    },
    "customhamburger.flxTransferHistory": {
      "__events__": {},
      "__info__": {
        "kuid": "a97d609a613b4219a400b9558c359aa7",
        "srcKUID": "ib9de73a2bf246eeb639fa215853db61",
        "wType": "FlexContainer"
      }
    },
    "customhamburger.flxTransfers": {
      "__events__": {},
      "__info__": {
        "kuid": "a5c9e9c66e8543a88c28cae2ca670a56",
        "srcKUID": "jc0266e969b0495d868043c84bcc2ab8",
        "wType": "FlexContainer"
      }
    },
    "customhamburger.flxTransfersMoney": {
      "__events__": {},
      "__info__": {
        "kuid": "e2949f6435134534818defde4c41cbbc",
        "srcKUID": "jf6d2609ea48459e90552691ca5777fe",
        "wType": "FlexContainer"
      }
    },
    "customhamburger.flxTransfersSubMenu": {
      "__events__": {},
      "__info__": {
        "kuid": "a3cb7fd67b5e488d94ec58db4b1b4a2f",
        "srcKUID": "fbf8ca4f00d34558966f6061a5087f14",
        "wType": "FlexContainer"
      }
    },
    "customhamburger.flxWireTransfer": {
      "__events__": {},
      "__info__": {
        "kuid": "g5dd14f3d0d747eeaf78156056a8d0b4",
        "srcKUID": "aae2b1dec0f44ac0ae2c1e3063ff7ba4",
        "wType": "FlexContainer"
      }
    },
    "customhamburger.flxWireTransferCollapse": {
      "__events__": {},
      "__info__": {
        "kuid": "f28a24290ea0424ab715de923004355d",
        "srcKUID": "bfc055b1e7c542d1bfa1c23419d834be",
        "wType": "FlexContainer"
      }
    },
    "customhamburger.flxWireTransferHistory": {
      "__events__": {},
      "__info__": {
        "kuid": "c9ae5f85e8d9449ca827b8158daa6a3d",
        "srcKUID": "dffd4d61c8a144d4be8f8449855f4c6a",
        "wType": "FlexContainer"
      }
    },
    "customhamburger.flxWireTransferMakeTransfer": {
      "__events__": {},
      "__info__": {
        "kuid": "i6f6e17f67bb46f0990fff2bfd9d356b",
        "srcKUID": "f7a63b1bb18644bdbb1f0a7d1c1fc108",
        "wType": "FlexContainer"
      }
    },
    "customhamburger.flxWireTransferMyRecipients": {
      "__events__": {},
      "__info__": {
        "kuid": "c134817132bd4df69ecbc8a825f84ea4",
        "srcKUID": "ic7afce86593464b830c20b7eaaa7000",
        "wType": "FlexContainer"
      }
    },
    "customhamburger.flxWireTransferSubMenu": {
      "__events__": {},
      "__info__": {
        "kuid": "fb0c5bcc9bea46b39edb7105d013c5d5",
        "srcKUID": "c1b6035a15254cd380f2d7f0bccc1a35",
        "wType": "FlexContainer"
      }
    },
    "customhamburger.flxWireTransfersAddRecipient": {
      "__events__": {},
      "__info__": {
        "kuid": "de936e1dcced4faaa063810d499d59a9",
        "srcKUID": "d8d7ecb1da3b431b8a8f09ecfd49dfb4",
        "wType": "FlexContainer"
      }
    },
    "customhamburger.imgAboutUs": {
      "__events__": {},
      "__info__": {
        "kuid": "d40ebe1d8f5347caab2b735d3bb30385",
        "srcKUID": "aedf72df6b6646e4b0541f118b852737",
        "wType": "Image"
      }
    },
    "customhamburger.imgAboutUsCollapse": {
      "__events__": {},
      "__info__": {
        "kuid": "id54399d5e6743658d75b27af5894932",
        "srcKUID": "j47f6cdfaec144f1bc183fc1ee131f6f",
        "wType": "Image"
      }
    },
    "customhamburger.imgAccounts": {
      "__events__": {},
      "__info__": {
        "kuid": "b87212806458460f9248bcee69ebd271",
        "srcKUID": "b12cdc793bce49a48965b40e1599be38",
        "wType": "Image"
      }
    },
    "customhamburger.imgAlertsAndMessages": {
      "__events__": {},
      "__info__": {
        "kuid": "d6675d75687f4bb8b04b1f481099c929",
        "srcKUID": "j15a94b7920346d4bc2ad8031f893737",
        "wType": "Image"
      }
    },
    "customhamburger.imgAlertsAndMessagesCollapse": {
      "__events__": {},
      "__info__": {
        "kuid": "d5cdba00395a4b539b816b1f0b636ef2",
        "srcKUID": "aca93ef7e22940b2934c21108b51accd",
        "wType": "Image"
      }
    },
    "customhamburger.imgBillBay": {
      "__events__": {},
      "__info__": {
        "kuid": "a673212da3e0453683d8f7ce3b78f65c",
        "srcKUID": "d9d417ef42e34752838998db97365d9f",
        "wType": "Image"
      }
    },
    "customhamburger.imgBillPayCollapse": {
      "__events__": {},
      "__info__": {
        "kuid": "d21493f3947e4d388db610389d4657dc",
        "srcKUID": "e2c091a5a06b4bd99605cb431850b92a",
        "wType": "Image"
      }
    },
    "customhamburger.imgClose": {
      "__events__": {},
      "__info__": {
        "kuid": "h858cbd612bd4cdca492c314164200a4",
        "srcKUID": "b16e44ed01844172894d7476bf054a4e",
        "wType": "Image"
      }
    },
    "customhamburger.imgCollapseAccounts": {
      "__events__": {},
      "__info__": {
        "kuid": "eddd4150450141eea5c8826209c71bfc",
        "srcKUID": "cc9717fdf0ce469aa167f4b79dc1f439",
        "wType": "Image"
      }
    },
    "customhamburger.imgCollapseTransfers": {
      "__events__": {},
      "__info__": {
        "kuid": "g7e7eb52fb0843d7881d0261bf4bbf39",
        "srcKUID": "g8ac7330ba6a4fcc94c6de0c85163b0a",
        "wType": "Image"
      }
    },
    "customhamburger.imgKony": {
      "__events__": {},
      "__info__": {
        "kuid": "a2fcb70adca14e4b960aa81e5ec9e898",
        "srcKUID": "e51c8a8198184739b48a18c3fbc65273",
        "wType": "Image"
      }
    },
    "customhamburger.imgLogout": {
      "__events__": {},
      "__info__": {
        "kuid": "cab0da78eb044b88abf0af2a28f39dab",
        "srcKUID": "g8c77dbeed3b43038e912f34fbe614fd",
        "wType": "Image"
      }
    },
    "customhamburger.imgPayAPerson": {
      "__events__": {},
      "__info__": {
        "kuid": "ibc1043deabe4b2c973977b154f85773",
        "srcKUID": "c40e76c18b114f96a40918df9e984c72",
        "wType": "Image"
      }
    },
    "customhamburger.imgPayAPersonCollapse": {
      "__events__": {},
      "__info__": {
        "kuid": "a0cd206c6e8847ad8efe705d0d61e552",
        "srcKUID": "d4487e371bca4c0ab4fed6a829640f23",
        "wType": "Image"
      }
    },
    "customhamburger.imgProfileManagement": {
      "__events__": {},
      "__info__": {
        "kuid": "g8617c8c85d847389eaee0c54046e65d",
        "srcKUID": "c256c4de888b46eda952c16c301a26e6",
        "wType": "Image"
      }
    },
    "customhamburger.imgProfileManagementCollapse": {
      "__events__": {},
      "__info__": {
        "kuid": "a3ab19887da948a8921b1ec843577864",
        "srcKUID": "cc11b10b955f4de8ac2e1f5349683cdc",
        "wType": "Image"
      }
    },
    "customhamburger.imgTransfers": {
      "__events__": {},
      "__info__": {
        "kuid": "jaa016ed3f984b849d00cbfe330a537b",
        "srcKUID": "f226bd307bf34f2a8645072816db1907",
        "wType": "Image"
      }
    },
    "customhamburger.imgWireTransfer": {
      "__events__": {},
      "__info__": {
        "kuid": "e090507231a24b0093b056b098b6da75",
        "srcKUID": "d1eaae0c6e784ef3b1eace4495b3f8f7",
        "wType": "Image"
      }
    },
    "customhamburger.imgWireTransferCollapse": {
      "__events__": {},
      "__info__": {
        "kuid": "c4b99e4252c34f8db0bba4948bb9ec53",
        "srcKUID": "j64b6a202cfa4080a0cb2b9e0c591e00",
        "wType": "Image"
      }
    },
    "customhamburger.lblAboutUs": {
      "__events__": {},
      "__info__": {
        "kuid": "j34ec18e8d68479284f4285e1c7fd2b0",
        "srcKUID": "i493eec7d326462f92313816d7ae5961",
        "wType": "Label"
      }
    },
    "customhamburger.lblAccounts": {
      "__events__": {},
      "__info__": {
        "kuid": "fc21b1569ec641a3a698d7149ea26186",
        "srcKUID": "aed697189cee47098907b5f830c7134b",
        "wType": "Label"
      }
    },
    "customhamburger.lblAddKonyAccounts": {
      "__events__": {},
      "__info__": {
        "kuid": "hd81c0f298b54e9495e00e34d0ca4350",
        "srcKUID": "ff5d216a556e426ea0485d1305d1cdfc",
        "wType": "Label"
      }
    },
    "customhamburger.lblAddNonKonyAccounts": {
      "__events__": {},
      "__info__": {
        "kuid": "b48a446bf7a945538f2b1e01ef0c87b9",
        "srcKUID": "c0b0a03608614e5f893ef37dabfa17a8",
        "wType": "Label"
      }
    },
    "customhamburger.lblAddPayee": {
      "__events__": {},
      "__info__": {
        "kuid": "idda770c9dc149f88e20a89da532d3cf",
        "srcKUID": "b1ed43109a994044957b192e976111d5",
        "wType": "Label"
      }
    },
    "customhamburger.lblAlerts": {
      "__events__": {},
      "__info__": {
        "kuid": "jd665bdeb61141ceafb40dbe60429a0f",
        "srcKUID": "jdf83704ef2b4947a774852f4c514bb6",
        "wType": "Label"
      }
    },
    "customhamburger.lblAlertsAndMessages": {
      "__events__": {},
      "__info__": {
        "kuid": "i576bed6c4ba493690e162ffc0a59747",
        "srcKUID": "c8bfe7de3cb1469aaef6d3ffee8c215e",
        "wType": "Label"
      }
    },
    "customhamburger.lblBillPay": {
      "__events__": {},
      "__info__": {
        "kuid": "db991473f45d43fab7560202b8c99576",
        "srcKUID": "e219504191c84becaee171477e34698a",
        "wType": "Label"
      }
    },
    "customhamburger.lblBillPayHistory": {
      "__events__": {},
      "__info__": {
        "kuid": "h3981419c5ea49a5a1c1919426eaee05",
        "srcKUID": "ce6923a7ee8b477bab3d1bfa0979246d",
        "wType": "Label"
      }
    },
    "customhamburger.lblContactUs": {
      "__events__": {},
      "__info__": {
        "kuid": "b4896fb041aa498a90dee979dd9258e2",
        "srcKUID": "efd35344776642a49ef6e3aae807a692",
        "wType": "Label"
      }
    },
    "customhamburger.lblExternalAccounts": {
      "__events__": {},
      "__info__": {
        "kuid": "a0b70e64ea18412785be6e764c88eee9",
        "srcKUID": "abc7e43bdfb142efb0d94a00a797f211",
        "wType": "Label"
      }
    },
    "customhamburger.lblFaq": {
      "__events__": {},
      "__info__": {
        "kuid": "d97863500c774d00bbcfa65c0ace592c",
        "srcKUID": "d8ba96ef5a2e4bf8be5c973713049dc0",
        "wType": "Label"
      }
    },
    "customhamburger.lblLocateUs": {
      "__events__": {},
      "__info__": {
        "kuid": "i273f61f4ee347e6a01eba3262607e57",
        "srcKUID": "g3b7ff8590d0445197ae60ef7a93a17d",
        "wType": "Label"
      }
    },
    "customhamburger.lblLogout": {
      "__events__": {},
      "__info__": {
        "kuid": "d09ec12b3cba4106b064cef0db2b0faf",
        "srcKUID": "h4feb1ebd1d844adbbb270e5f22582cd",
        "wType": "Label"
      }
    },
    "customhamburger.lblMessages": {
      "__events__": {},
      "__info__": {
        "kuid": "i030708855c74e9cb7c1c46a2487cd73",
        "srcKUID": "bc3a860393a642769c9453d52202a501",
        "wType": "Label"
      }
    },
    "customhamburger.lblMyAccounts": {
      "__events__": {},
      "__info__": {
        "kuid": "c51a8c8d7e2a425b8bf4e77340ce44a2",
        "srcKUID": "a202b406f5f04a1698b17c9f0f9e1694",
        "wType": "Label"
      }
    },
    "customhamburger.lblMyPayee": {
      "__events__": {},
      "__info__": {
        "kuid": "h8cd0e4b550e4e039a605cb4956f3ccc",
        "srcKUID": "gac82f09141642e3bc00bf3a4c27e7a0",
        "wType": "Label"
      }
    },
    "customhamburger.lblNewMessage": {
      "__events__": {},
      "__info__": {
        "kuid": "bcfb17f24ff4448aa7719e96fbace569",
        "srcKUID": "d62536e6a959458a97d070c4fbc8bbcb",
        "wType": "Label"
      }
    },
    "customhamburger.lblPayABill": {
      "__events__": {},
      "__info__": {
        "kuid": "fb18701190ed406a84de03228e6defca",
        "srcKUID": "dc6b9bef9ddf45c0864525e01b4b08d8",
        "wType": "Label"
      }
    },
    "customhamburger.lblPrivacyPolicy": {
      "__events__": {},
      "__info__": {
        "kuid": "def7e9284044409888fb2682818c6f64",
        "srcKUID": "ba595802100f49ed8ebfbfc56c559f36",
        "wType": "Label"
      }
    },
    "customhamburger.lblTermsAndCondition": {
      "__events__": {},
      "__info__": {
        "kuid": "db27d6d9eb6d4214bced533eba0dee33",
        "srcKUID": "dc7b8618b5ed4cf3ba5a013618d07063",
        "wType": "Label"
      }
    },
    "customhamburger.lblTransferHistory": {
      "__events__": {},
      "__info__": {
        "kuid": "a9a76cd9f5a6473facf867445a76368b",
        "srcKUID": "d62b43e095964b29b436135534a7afec",
        "wType": "Label"
      }
    },
    "customhamburger.lblTransferMoney": {
      "__events__": {},
      "__info__": {
        "kuid": "ac5c4128d74a4f7b8f61c8799ab0bc7d",
        "srcKUID": "b61740e755f3405791224a340675e733",
        "wType": "Label"
      }
    },
    "customhamburger.lblTransfers": {
      "__events__": {},
      "__info__": {
        "kuid": "j69d64832f014287aad6551b093a9dad",
        "srcKUID": "d4c40832e9a140ab8fafbb30d4d1df1d",
        "wType": "Label"
      }
    },
    "customheader": {
      "__events__": {},
      "__info__": {
        "isRoot": true,
        "kuid": "d08f7738a8ab4e9eb17605ef9c8d646a",
        "srcKUID": "c04bbf50611342ca895c5e0a329aeb52",
        "wType": "FlexContainer"
      }
    },
    "flxAccountTypesSegment": {
      "__events__": {},
      "__info__": {
        "kuid": "c46bed1608c74693ba71d8e313906edb",
        "srcKUID": "d431114047984f3ba84cf9829500caf5",
        "wType": "FlexContainer"
      }
    },
    "flxBottomContainer": {
      "__events__": {},
      "__info__": {
        "kuid": "j66969a4a08644f6a676b582cfcae44c",
        "srcKUID": "h9bdf039c3f54878b18ff66171c8c6c6",
        "wType": "FlexContainer"
      }
    },
    "flxHamburger": {
      "__events__": {},
      "__info__": {
        "kuid": "i838f6bf68a343aa95645ef900c0eec0",
        "srcKUID": "f04c6e11e7da43b49dd181b8b47d93c4",
        "wType": "FlexContainer"
      },
      "width": {
        "Default": {
          "type": "string",
          "value": "450dp"
        }
      }
    },
    "flxHamburgerBack": {
      "__events__": {},
      "__info__": {
        "kuid": "g45fb5d5cddb427a84f2ab0fec27355c",
        "srcKUID": "d74ea43244984beda96f3fdfd7e1de6b",
        "wType": "FlexContainer"
      }
    },
    "flxSeperatorHor2": {
      "__events__": {},
      "__info__": {
        "kuid": "fd488645320846de8c499532128b5bad",
        "srcKUID": "hadeefb9ccf84d75b58e19e7a860af8f",
        "wType": "FlexContainer"
      }
    },
    "flxSeperatorhor": {
      "__events__": {},
      "__info__": {
        "kuid": "cd0b4afcf0334dc6a38b5cc16aeed913",
        "srcKUID": "d0d14e359d9b4f2bae40325782d5d3d0",
        "wType": "FlexContainer"
      }
    },
    "flxTopmenu": {
      "__events__": {},
      "__info__": {
        "kuid": "gf983462e9d641a5ae0ef63843c6f42d",
        "srcKUID": "ed60ec01cd4843d8acaf4c0c4767b493",
        "wType": "FlexContainer"
      }
    },
    "flxUserActions": {
      "__events__": {},
      "__info__": {
        "kuid": "g1370d1a1ffa482b82739fb51db6ad47",
        "srcKUID": "j914824243a446a18dc539def72a7642",
        "wType": "FlexContainer"
      }
    },
    "headermenu": {
      "__events__": {},
      "__info__": {
        "kuid": "ddf76cef5c364267bd386eb49aaae32a",
        "srcKUID": "haabafcdc12f4455b3af44d1e0d8f80b",
        "wType": "UserWidgetInstance"
      }
    },
    "headermenu.btnLogout": {
      "__events__": {},
      "__info__": {
        "kuid": "da7992d6a3214793b7f0358fbf6c8e93",
        "srcKUID": "a766f3cd9f714697b54e4cdcbe1c544b",
        "wType": "Button"
      },
      "i18n_text": "i18n.common.logout"
    },
    "headermenu.flxMessages": {
      "__events__": {},
      "__info__": {
        "kuid": "d3b07e429a7f4acb8a9633f30223bf6f",
        "srcKUID": "ac3447a671db4ff79c563e385d237583",
        "wType": "FlexContainer"
      }
    },
    "headermenu.flxResetUserImg": {
      "__events__": {},
      "__info__": {
        "kuid": "b81a9eef3f31405bbd6bf0f8581c3533",
        "srcKUID": "adcf593a077c4c0cb56c90ee73238583",
        "wType": "FlexContainer"
      }
    },
    "headermenu.flxUserId": {
      "__events__": {},
      "__info__": {
        "kuid": "b7d3f632525e45679e08d6d010149ae5",
        "srcKUID": "c135ea56ffd24834a20c4f3af08e75ed",
        "wType": "FlexContainer"
      }
    },
    "headermenu.flxVerticalSeperator1": {
      "__events__": {},
      "__info__": {
        "kuid": "eff49ffc1ad248ae833bbd6246126cf9",
        "srcKUID": "g1cf2c5ea04748138b67069bf6443784",
        "wType": "FlexContainer"
      }
    },
    "headermenu.flxVerticalSeperator2": {
      "__events__": {},
      "__info__": {
        "kuid": "b4ee239d20584ad286f5ba19a8b9b188",
        "srcKUID": "i869d64f25f744c7a219ce87160f4fa9",
        "wType": "FlexContainer"
      }
    },
    "headermenu.flxWarning": {
      "__events__": {},
      "__info__": {
        "kuid": "fc25706346f84dcf94be29d30011060a",
        "srcKUID": "a3f637c9fa154e6ca5621edf7af7f744",
        "wType": "FlexContainer"
      }
    },
    "headermenu.flximgUserResetWrapper": {
      "__events__": {},
      "__info__": {
        "kuid": "c1e5a6f42df149ad88d8ef4006e5064b",
        "srcKUID": "e3916b40967c456aa3942940472ad47e",
        "wType": "FlexContainer"
      }
    },
    "headermenu.imgDropdown": {
      "__events__": {},
      "__info__": {
        "kuid": "f9eeaf3039a54707b0819f04c5d0c29c",
        "srcKUID": "h3d2b4b7f954464d931e34492064ab17",
        "wType": "Image"
      }
    },
    "headermenu.imgNotifications": {
      "__events__": {},
      "__info__": {
        "kuid": "dc9f640a798f4abf8939f599b6c17234",
        "srcKUID": "j053dc709b2c497681932e7129f70ddb",
        "wType": "Image"
      }
    },
    "headermenu.imgUserBoundary": {
      "__events__": {},
      "__info__": {
        "kuid": "gffbac2f2bfc43cda0f341fb01a952b7",
        "srcKUID": "g6047dd874ff440fab7ed86f7b808fdd",
        "wType": "Image"
      }
    },
    "headermenu.imgUserReset": {
      "__events__": {},
      "__info__": {
        "kuid": "f1acbb2918a741c48eae4cfdf08fa236",
        "srcKUID": "i9a593cdf8934086b62dd5b4b4d93eda",
        "wType": "Image"
      }
    },
    "headermenu.imgWarning": {
      "__events__": {},
      "__info__": {
        "kuid": "jbc6b04f42e84927a034198093c2d3a2",
        "srcKUID": "j00ce4f7525e4f2aa69884ac2cc7b8a0",
        "wType": "Image"
      }
    },
    "headermenu.imgheaderdefault": {
      "__events__": {},
      "__info__": {
        "kuid": "ga666b23b69146f2befd4ce28c123585",
        "srcKUID": "i589d54c00ef4b33bc0e54ccd9b1e9b9",
        "wType": "Image"
      }
    },
    "headermenu.lblNewMessages": {
      "__events__": {},
      "__info__": {
        "kuid": "e6ac399ddaad4078ae035e3fd504896e",
        "srcKUID": "bc2f4a9f76164bc18e8e1663bbba3a61",
        "wType": "Label"
      }
    },
    "headermenu.rtxWarning": {
      "__events__": {},
      "__info__": {
        "kuid": "d7e63c7cde65478f85564d90e323a113",
        "srcKUID": "i05c5f9533194937886bb0d238f640e3",
        "wType": "RichText"
      }
    },
    "imgKony": {
      "__events__": {},
      "__info__": {
        "kuid": "hd6e1af9d46c4849a7dd61bc34de8559",
        "srcKUID": "i89a4c93ab68416c8f6a24b3e85d037c",
        "wType": "Image"
      }
    },
    "imgToolTip": {
      "__events__": {},
      "__info__": {
        "kuid": "a05fc3ea5cc94f7eb96c54f4c6783e73",
        "srcKUID": "b05c4200ee7747f2b596bc0eafc18760",
        "wType": "Image"
      }
    },
    "lblUserEmail": {
      "__events__": {},
      "__info__": {
        "kuid": "e87e5b8494f042da8f4e04b76b146fee",
        "srcKUID": "j0ea4a96f1104289ad3d0312ed141d3b",
        "wType": "Label"
      }
    },
    "leftcontainer": {
      "__events__": {},
      "__info__": {
        "kuid": "e8c14598264a43ae8e9b4b74101e664e",
        "srcKUID": "bd51d17a858b470f86d30f1fdb49d6d3",
        "wType": "FlexContainer"
      }
    },
    "rightcontainer": {
      "__events__": {},
      "__info__": {
        "kuid": "g16f1f4bff7d480ea4d67ee11b5c5d4d",
        "srcKUID": "j9e2ac398ee647f8b33a80640560a977",
        "wType": "FlexContainer"
      }
    },
    "segUserActions": {
      "__events__": {},
      "__info__": {
        "kuid": "a1a1673cac5d441ba924cf45a1ac45a1",
        "srcKUID": "h6bf423223694ef0be1f75d0abee1c0a",
        "wType": "Segment"
      }
    },
    "topmenu": {
      "__events__": {},
      "__info__": {
        "kuid": "e654630603cd4400a67a35cea34e8adf",
        "srcKUID": "f3bc1d211a8342419317a1f649e456a0",
        "wType": "UserWidgetInstance"
      }
    },
    "topmenu.CopyLabel0a8b12f7002084d": {
      "__events__": {},
      "__info__": {
        "kuid": "a78426e3404641f490595aebabf5835a",
        "srcKUID": "a051506ea3864885b198b844795df50e",
        "wType": "Label"
      }
    },
    "topmenu.CopyLabel0b07dfb57de2445": {
      "__events__": {},
      "__info__": {
        "kuid": "g341083270c74d999345bcf8ead3aa36",
        "srcKUID": "f0f9e56b281d4eceb0749c61522f4a90",
        "wType": "Label"
      }
    },
    "topmenu.CopyLabel0b53cc10abb0342": {
      "__events__": {},
      "__info__": {
        "kuid": "gcfda214c2aa4f4188ed8176cc502569",
        "srcKUID": "a28491ec994f45f18c08fe5d1f9b23c5",
        "wType": "Label"
      }
    },
    "topmenu.CopyLabel0bb648d916e554d": {
      "__events__": {},
      "__info__": {
        "kuid": "fdeef2f998d645ffbb2bbca153a89c68",
        "srcKUID": "bc077f5775344d05abc4b26b93f547e2",
        "wType": "Label"
      }
    },
    "topmenu.CopyLabel0h9e71b8a76ad44": {
      "__events__": {},
      "__info__": {
        "kuid": "c0b8bc3416684d77858f26d6ab973f73",
        "srcKUID": "j8cfefac3629406384cc9ab091131d25",
        "wType": "Label"
      }
    },
    "topmenu.CopyLabel0ifdc84d9814842": {
      "__events__": {},
      "__info__": {
        "kuid": "hfd8c3cb5cac483c82b1ec93a61ff2b4",
        "srcKUID": "ja80f2c849514793bc2b7ef76880027c",
        "wType": "Label"
      }
    },
    "topmenu.Label0b60331706e5e45": {
      "__events__": {},
      "__info__": {
        "kuid": "c25a2ca020e248568abea9922af3080a",
        "srcKUID": "f5dfdacb3a9c44f0a62033ada65c55ec",
        "wType": "Label"
      }
    },
    "topmenu.Label0dcf00103bdba46": {
      "__events__": {},
      "__info__": {
        "kuid": "e46004688649415489230ba564ee6b5a",
        "srcKUID": "c696e7354c7341469fe1c6fac1869c9b",
        "wType": "Label"
      }
    },
    "topmenu.flxContextualMenu": {
      "__events__": {},
      "__info__": {
        "kuid": "fb77be5681924f3db959a3ac51141824",
        "srcKUID": "d93e029b84b847fc81a03de1b30f353f",
        "wType": "FlexContainer"
      }
    },
    "topmenu.flxFeedback": {
      "__events__": {},
      "__info__": {
        "kuid": "d5e72a502b1541f3885a59a32e7fbbda",
        "srcKUID": "cd10d4b4f565433fb35f2d2d0a97fe1e",
        "wType": "FlexContainer"
      }
    },
    "topmenu.flxFeedbackimg": {
      "__events__": {},
      "__info__": {
        "kuid": "cb0524ad7db94b4a919c271b9b2cad43",
        "srcKUID": "g11b5488a8d343ae866e1de13660acda",
        "wType": "FlexContainer"
      }
    },
    "topmenu.flxHelp": {
      "__events__": {},
      "__info__": {
        "kuid": "db7e2ff61c7b488fb0e10dd06ec241e5",
        "srcKUID": "i2d06c634cdc4172ba80e744bcdcfebb",
        "wType": "FlexContainer"
      }
    },
    "topmenu.flxMenu": {
      "__events__": {},
      "__info__": {
        "kuid": "gc178df3a298450ebacd17826302a9e2",
        "srcKUID": "e3be9a8fdce047e6bfc57c6134e9a975",
        "wType": "FlexContainer"
      }
    },
    "topmenu.flxMenusMain": {
      "__events__": {},
      "__info__": {
        "kuid": "b63294de464341b0b1ade4c51b7b5283",
        "srcKUID": "da5555fd4c164726bf9860ec53363048",
        "wType": "FlexContainer"
      }
    },
    "topmenu.flxPayBills": {
      "__events__": {},
      "__info__": {
        "kuid": "jb3183cf6a42449c8051fc232d6a8c1a",
        "srcKUID": "b0405a53deab419f93cadece0ff2e29e",
        "wType": "FlexContainer"
      }
    },
    "topmenu.flxSendMoney": {
      "__events__": {},
      "__info__": {
        "kuid": "fae01450113742d2867033170fdb1619",
        "srcKUID": "aa94ebd29fcb48ee8d1006f949210f98",
        "wType": "FlexContainer"
      }
    },
    "topmenu.flxSeperator": {
      "__events__": {},
      "__info__": {
        "kuid": "j1063f718f6c4cc4b60a56b3da3f4960",
        "srcKUID": "d7f042bfaaf046d5942ed568eec44b23",
        "wType": "FlexContainer"
      }
    },
    "topmenu.flxSeperator1": {
      "__events__": {},
      "__info__": {
        "kuid": "e45cdb4e2994459197c2d81c9361b3a9",
        "srcKUID": "i09ec806e136452589e84e2f83e53e68",
        "wType": "FlexContainer"
      }
    },
    "topmenu.flxSeperator3": {
      "__events__": {},
      "__info__": {
        "kuid": "a171e870fcb141eabda7ca322866750a",
        "srcKUID": "c7f495ff87f14421b1740a719941e64b",
        "wType": "FlexContainer"
      }
    },
    "topmenu.flxTransferMoney": {
      "__events__": {},
      "__info__": {
        "kuid": "ac21fd23cc544ce6ab524e02711ce1e8",
        "srcKUID": "ceecbd5ac73749c0b95918674f9ffb17",
        "wType": "FlexContainer"
      }
    },
    "topmenu.flxTransfersAndPay": {
      "__events__": {},
      "__info__": {
        "kuid": "befdff88f98c43d1917c0e0d81905d5d",
        "srcKUID": "j83fe7fb58c04ec394a0d8313351f539",
        "wType": "FlexContainer"
      }
    },
    "topmenu.flxWireMoney": {
      "__events__": {},
      "__info__": {
        "kuid": "eefc2d1163364da49ecd99af173a53d9",
        "srcKUID": "bed5646364634571b664cc577ca65144",
        "wType": "FlexContainer"
      }
    },
    "topmenu.flxaccounts": {
      "__events__": {},
      "__info__": {
        "kuid": "df9c99ac31ab464b970fa89b5046e7eb",
        "srcKUID": "b6366fc9b5854ca5aecefb68e89386e7",
        "wType": "FlexContainer"
      }
    },
    "topmenu.flxverseperator1": {
      "__events__": {},
      "__info__": {
        "kuid": "fdbb5dbe5bd04004b43c810f64fc73a8",
        "srcKUID": "cd2f891c8cc94e9b87555c8c6066f221",
        "wType": "FlexContainer"
      }
    },
    "topmenu.flxverseperator2": {
      "__events__": {},
      "__info__": {
        "kuid": "h8e1a77348ca4d92a9b04529179809e2",
        "srcKUID": "f9719a0b9d3f42b690d0b92a4477ec5d",
        "wType": "FlexContainer"
      }
    },
    "topmenu.imgAccounts": {
      "__events__": {},
      "__info__": {
        "kuid": "e5eb507f3a8f4943bef4490a8f591d10",
        "srcKUID": "h41efc3bbd044c57a91bf7a47617cb38",
        "wType": "Image"
      }
    },
    "topmenu.imgFeedback": {
      "__events__": {},
      "__info__": {
        "kuid": "b0c64cbfd6e1445ab269ff437cc1d037",
        "srcKUID": "f4a6ae818e504daab62eabcb47b9a961",
        "wType": "Image"
      }
    },
    "topmenu.imgHelp": {
      "__events__": {},
      "__info__": {
        "kuid": "h56b5cdfcd7842908cc608d16238b57d",
        "srcKUID": "h95d6926104248c4abfea8af0ad0bb2d",
        "wType": "Image"
      }
    },
    "topmenu.imgMenu": {
      "__events__": {},
      "__info__": {
        "kuid": "j2446976eab74c5a9f92d2fadb57d999",
        "srcKUID": "be1e045b3a3347d88509b7efc7d8015b",
        "wType": "Image"
      }
    },
    "topmenu.imgTransfers": {
      "__events__": {},
      "__info__": {
        "kuid": "ga04bb72b7314c52b08215ccccdd97b0",
        "srcKUID": "aa4f2882266a4cdda63980b155b9df71",
        "wType": "Image"
      }
    },
    "topmenu.lblAccounts": {
      "__events__": {},
      "__info__": {
        "kuid": "af0c5b2367ba43ac84e547ad7fa12a73",
        "srcKUID": "bcf724a120b24fdbb2278444060c639c",
        "wType": "Label"
      }
    },
    "topmenu.lblFeedback": {
      "__events__": {},
      "__info__": {
        "kuid": "c33e6204c4154a4f80ae0315a1b76390",
        "srcKUID": "i45ffb2e674e425ba9e5542807008a2e",
        "wType": "Label"
      }
    },
    "topmenu.lblHelp": {
      "__events__": {},
      "__info__": {
        "kuid": "cbdb6343649f449db213ef85f3ac573a",
        "srcKUID": "b910c72e31ac4950b9d4fcca565a1df4",
        "wType": "Label"
      }
    },
    "topmenu.lblMenu": {
      "__events__": {},
      "__info__": {
        "kuid": "edb6c158bd22426e867f34323523e717",
        "srcKUID": "h7239719ed104114b04620b3da15cd02",
        "wType": "Label"
      }
    },
    "topmenu.lblTransferAndPay": {
      "__events__": {},
      "__info__": {
        "kuid": "d07d8a2e34424d728485e89e4a643e33",
        "srcKUID": "gf970d4c8185498db726665e80e4fff7",
        "wType": "Label"
      }
    },
    "CopyflxVerticalSeperator0b961fc23108f4b": {
      "__events__": {},
      "__info__": {
        "kuid": "ae8543009aa0483294b8a7657994dedd",
        "srcKUID": "b6e0434c2f904010bfff7590777daf67",
        "wType": "FlexContainer"
      }
    },
    "customhamburger.CopyflxSeperator0a7fd02d026804c": {
      "__events__": {},
      "__info__": {
        "kuid": "cb4f6a711e004a22a3b8238abd3183e3",
        "srcKUID": "e6c67e99b0b64a4e83a34c312dc501a5",
        "wType": "FlexContainer"
      }
    },
    "customhamburger.CopyflxSeperator0dfcbfe80de1946": {
      "__events__": {},
      "__info__": {
        "kuid": "cbf054be531f409ca06bd2b7f8ec0269",
        "srcKUID": "ec5e9cdda1b4473aa156d59730730f65",
        "wType": "FlexContainer"
      }
    },
    "customhamburger.CopyflxSeperator0e9219bd0514c46": {
      "__events__": {},
      "__info__": {
        "kuid": "c0f4dcf759b549f3a7f34d7738e6bc16",
        "srcKUID": "g39fe81fa7b0498b87ae946e0e5daf27",
        "wType": "FlexContainer"
      }
    },
    "customhamburger.CopyflxSeperator0ef56548331074b": {
      "__events__": {},
      "__info__": {
        "kuid": "eb45f4652caf4c1baa09dbb5c43882bf",
        "srcKUID": "j62d0667a0e5431d94bbeb7127ae6e11",
        "wType": "FlexContainer"
      }
    },
    "customhamburger.CopyflxSeperator0fcac07927fef43": {
      "__events__": {},
      "__info__": {
        "kuid": "b5e0af9b0ada47adb6244dcd5c9b41b5",
        "srcKUID": "e1a67da7232b497db891680f5147e005",
        "wType": "FlexContainer"
      }
    },
    "customhamburger.flxAddExternalBankAccounts": {
      "__events__": {},
      "__info__": {
        "kuid": "a88e541f0b25487698dac903cc5b2094",
        "srcKUID": "d829e28813f643ab8cc7b53a38a11877",
        "wType": "FlexContainer"
      }
    },
    "customhamburger.flxCardManagement": {
      "__events__": {},
      "__info__": {
        "kuid": "ca1cbfebfe7a410da3f9cfbfecf2f776",
        "srcKUID": "fca38cea39334c569e00cf833a296ff0",
        "wType": "FlexContainer"
      }
    },
    "customhamburger.flxPFM": {
      "__events__": {},
      "__info__": {
        "kuid": "af22f1d2859048b2988252abd2a23350",
        "srcKUID": "bfc8636c05da4c4e9131d447fb520a97",
        "wType": "FlexContainer"
      }
    },
    "customhamburger.flxStopPaymentRequests": {
      "__events__": {},
      "__info__": {
        "kuid": "c072d297c2d84c17a1906ba6e1d633a3",
        "srcKUID": "c6e0f2b6aa1948688094395a053fa1d8",
        "wType": "FlexContainer"
      }
    },
    "customhamburger.lblAddExternalBankAccounts": {
      "__events__": {},
      "__info__": {
        "kuid": "b10441c510ba4e289ca5c7e78f14ffad",
        "srcKUID": "edabb77d8ed2442ab7ed61fb91558f23",
        "wType": "Label"
      }
    },
    "customhamburger.lblCardManagement": {
      "__events__": {},
      "__info__": {
        "kuid": "h7aaa9d2e6b9419c92ca83732dea8b57",
        "srcKUID": "b0c732201f424826b31b883b5eec6956",
        "wType": "Label"
      }
    },
    "customhamburger.lblPFM": {
      "__events__": {},
      "__info__": {
        "kuid": "f70be295191640f7a1babc296e8151c6",
        "srcKUID": "e09127ede361436abb545b5527fba0e0",
        "wType": "Label"
      }
    },
    "customhamburger.lblStopPaymentRequests": {
      "__events__": {},
      "__info__": {
        "kuid": "f1669d05a6274490be1dc2ea61f39266",
        "srcKUID": "a87770408c7e42698c673972b990dd6d",
        "wType": "Label"
      }
    }
  },
  "id": "customheader",
  "info": null,
  "isdatareferenced": false,
  "isvisible": true,
  "kuid": "j085512141394a00bc06b29dcc0269dc",
  "layouttype": 2,
  "masterType": 0,
  "name": "kony.ui.UserWidgetInstance",
  "parent": "flxHeader",
  "pf": "frmVerifyAccount",
  "sourceUserWidget": "c04bbf50611342ca895c5e0a329aeb52",
  "wType": "UserWidgetInstance",
  "zindex": 1000
}