{
  "@class": "com.kony.gen.viz.model.component.KVizUserWidget",
  "DNDConfig": null,
  "__parentReadjusting__": false,
  "_children_": [],
  "_height_": {
    "type": "string",
    "value": "150dp"
  },
  "_left_": {
    "type": "string",
    "value": "0dp"
  },
  "_margin_": [
    0,
    0,
    0,
    0
  ],
  "_orientation_": 1,
  "_padding_": [
    0,
    0,
    0,
    0
  ],
  "_percent_": true,
  "_render_": true,
  "_skin_": "s5e4481a3c944709a3f40dd22558173a",
  "_top_": {
    "type": "string",
    "value": "0dp"
  },
  "_width_": {
    "type": "string",
    "value": "1366dp"
  },
  "areflexpropsreferenced": false,
  "canUpdateUI": true,
  "centerx": {
    "type": "string",
    "value": "50%"
  },
  "clipbounds": true,
  "containerweight": 0,
  "dataDiffs": {
    "btnContactUs": {
      "__events__": {},
      "__info__": {
        "kuid": "e40ee9c73164446cbe51d8a66ad262f3",
        "srcKUID": "c47b0c9af1b84e63aa01af59eb52124a",
        "wType": "Button"
      }
    },
    "btnFaqs": {
      "__events__": {},
      "__info__": {
        "kuid": "d9e5bd58902a483aa5f8b2d56ef19c70",
        "srcKUID": "ced702d00bc5426892e4632faec9df5d",
        "wType": "Button"
      }
    },
    "btnLocateUs": {
      "__events__": {},
      "__info__": {
        "kuid": "b5ee4dc98f5d42a19b12dd99b0efb840",
        "srcKUID": "i52587cdcb68471f9e389671ddc5f138",
        "wType": "Button"
      }
    },
    "btnNMLS": {
      "__events__": {},
      "__info__": {
        "kuid": "j38c75c23e674463aaefa09b054c089e",
        "srcKUID": "dd794b8c9b8948de910093e93695d9da",
        "wType": "Button"
      }
    },
    "btnPrivacy": {
      "__events__": {},
      "__info__": {
        "kuid": "b65cba6434c744d6acd4733ac1a9f9f6",
        "srcKUID": "c3810888a2304c409e04db4cd519b8ee",
        "wType": "Button"
      }
    },
    "btnPrivacyNote": {
      "__events__": {},
      "__info__": {
        "kuid": "c7b865e35d92420894a5a563ecbcedf3",
        "srcKUID": "ffe6d34ddebe42abb2fa3fa994d8578f",
        "wType": "Button"
      }
    },
    "btnRouting": {
      "__events__": {},
      "__info__": {
        "kuid": "b08c5feb9db444179084df237e4e7830",
        "srcKUID": "c0ef76fac81742ff9d56ebd42f636563",
        "wType": "Button"
      }
    },
    "btnTermsAndConditions": {
      "__events__": {},
      "__info__": {
        "kuid": "h5b634c50a814a69b26505720ffd6b99",
        "srcKUID": "baf7c8f817b34b618b7e1f148f49770a",
        "wType": "Button"
      }
    },
    "customfooter": {
      "__events__": {},
      "__info__": {
        "isRoot": true,
        "kuid": "c0182505a28c4659b5f38822d4f892ea",
        "srcKUID": "a142e816812a4b5b80f84484dcef7232",
        "wType": "FlexContainer"
      },
      "centerX": {
        "Default": {
          "type": "string",
          "value": "50%"
        }
      },
      "width": {
        "Default": {
          "type": "string",
          "value": "1366dp"
        }
      },
      "zIndex": {
        "Default": 2
      }
    },
    "flxFooterMenu": {
      "__events__": {},
      "__info__": {
        "kuid": "c72c0782a949418eb9895c0d69bad09b",
        "srcKUID": "e6b5bc6faf00428680c4dedfe25a0b9a",
        "wType": "FlexContainer"
      },
      "centerX": {
        "Default": {
          "type": "string",
          "value": "50%"
        }
      },
      "left": {
        "Default": {
          "type": "string",
          "value": ""
        }
      },
      "width": {
        "Default": {
          "type": "string",
          "value": "1200dp"
        }
      }
    },
    "flxVBar1": {
      "__events__": {},
      "__info__": {
        "kuid": "icfee64e9aad46c2afb995ca064aa942",
        "srcKUID": "f31fd58a22cc496a93899a924cf2927d",
        "wType": "FlexContainer"
      }
    },
    "flxVBar2": {
      "__events__": {},
      "__info__": {
        "kuid": "f49d6cd6701b4fe692fd038b4a6b6159",
        "srcKUID": "j39a662286e64bbc9be78a96bb491e27",
        "wType": "FlexContainer"
      }
    },
    "flxVBar3": {
      "__events__": {},
      "__info__": {
        "kuid": "fa98cba24ec54918b464f4945406ce6a",
        "srcKUID": "a6990ffd77914b8e8757540cb40cad1a",
        "wType": "FlexContainer"
      }
    },
    "flxVBar4": {
      "__events__": {},
      "__info__": {
        "kuid": "f30e38497f4f43c08f4d6d6e7d5c7202",
        "srcKUID": "e75f96d248634147afa5b6848252df6e",
        "wType": "FlexContainer"
      }
    },
    "imgFooterIconOne": {
      "__events__": {},
      "__info__": {
        "kuid": "g70a7d7213994297b6fccc1ee641bddc",
        "srcKUID": "f2305e3d65bb448e9d68f5608421f28a",
        "wType": "Image"
      }
    },
    "imgFooterIconThree": {
      "__events__": {},
      "__info__": {
        "kuid": "h998a3f8a2fc4daf9b365ab1df1ca38e",
        "srcKUID": "hc27193bc4d14f24b60f03ac3c2bddb7",
        "wType": "Image"
      }
    },
    "imgFooterIconTwo": {
      "__events__": {},
      "__info__": {
        "kuid": "fefe0747c82e475fa358740c425315a3",
        "srcKUID": "cf67ed169e364ace9f62b5aa10dcf1d8",
        "wType": "Image"
      }
    },
    "lblCopyright": {
      "__events__": {},
      "__info__": {
        "kuid": "jb8169c1771a4d92a990a598d716c620",
        "srcKUID": "a696ff4e198a4124810242908deae798",
        "wType": "Label"
      },
      "centerX": {
        "Default": {
          "type": "string",
          "value": ""
        }
      },
      "left": {
        "Default": {
          "type": "string",
          "value": "83px"
        }
      },
      "width": {
        "Default": {
          "type": "string",
          "value": "60%"
        }
      }
    },
    "lblImgText": {
      "__events__": {},
      "__info__": {
        "kuid": "je28279fbe71425684b41cf26a1a97fb",
        "srcKUID": "c7ccba35746440ed997e9d567978ec4d",
        "wType": "Label"
      }
    }
  },
  "id": "CustomFooterMain",
  "info": null,
  "isdatareferenced": false,
  "isvisible": true,
  "kuid": "if12e248d82d42cf8675d1057d472209",
  "layouttype": 2,
  "masterType": 0,
  "name": "kony.ui.UserWidgetInstance",
  "parent": "flxFooter",
  "pf": "frmVerifyAccount",
  "snaptogrid": true,
  "sourceUserWidget": "a142e816812a4b5b80f84484dcef7232",
  "wType": "UserWidgetInstance",
  "zindex": 2
}