{
  "DNDConfig": null,
  "__parentReadjusting__": false,
  "_height_": {
    "type": "string",
    "value": "25dp"
  },
  "_margin_": [
    0,
    0,
    0,
    0
  ],
  "_orientation_": 6,
  "_padding_": [
    0,
    0,
    0,
    0
  ],
  "_percent_": true,
  "_right_": {
    "type": "string",
    "value": "9.52%"
  },
  "_skin_": "s24c92fc23b14f5484b693ee9b8a9b35",
  "_top_": {
    "type": "string",
    "value": "21dp"
  },
  "_width_": {
    "type": "string",
    "value": "25dp"
  },
  "allboxes": [],
  "autogrowmode": 0,
  "canUpdateUI": true,
  "children": [
    "CopyimgPrint0cb1a69de676e48"
  ],
  "clipbounds": true,
  "containerweight": 100,
  "desktopweb": {
    "psp": {
      "hoverSkin": "s95c29ac5dbb4af8b276ae31a8a4819a"
    }
  },
  "enablescrolling": true,
  "id": "flxPrint",
  "info": null,
  "isvisible": false,
  "kuid": "f5a94bbc75e94a5ab926fc741a330cc5",
  "layouttype": 2,
  "name": "kony.ui.FlexContainer",
  "parent": "flxMainAccountConfirm",
  "pf": "frmVerifyAccount",
  "snapgridsize": 10,
  "snaptogrid": true,
  "wType": "FlexContainer",
  "widgetalignment": 1,
  "zindex": 1
}