{
  "DNDConfig": null,
  "__parentReadjusting__": false,
  "_height_": {
    "type": "string",
    "value": "410dp"
  },
  "_left_": {
    "type": "string",
    "value": "0dp"
  },
  "_margin_": [
    0,
    0,
    0,
    0
  ],
  "_orientation_": 6,
  "_padding_": [
    0,
    0,
    0,
    0
  ],
  "_percent_": true,
  "_skin_": "s4b3bfcb27c14526bcdce6dec3972d8d",
  "_top_": {
    "type": "string",
    "value": "0dp"
  },
  "_width_": {
    "type": "string",
    "value": "100%"
  },
  "allboxes": [],
  "autogrowmode": 0,
  "canUpdateUI": true,
  "children": [
    "flxVerifyPayeeCorrect",
    "flxSeparatorVerifySelected",
    "flxBankName",
    "flxBankAddress",
    "flxAccountType",
    "flx",
    "flxNameOnBill",
    "flxAccountNickName"
  ],
  "clipbounds": true,
  "containerweight": 100,
  "enablescrolling": true,
  "id": "flxVerifyPayeeInformation",
  "info": null,
  "isvisible": true,
  "kuid": "hdafca15641346a18b5fb2fa47211fe2",
  "layouttype": 4,
  "name": "kony.ui.FlexContainer",
  "parent": "flxConfirmContainer",
  "pf": "frmVerifyAccount",
  "snapgridsize": 10,
  "snaptogrid": true,
  "wType": "FlexContainer",
  "widgetalignment": 1,
  "zindex": 1
}