{
  "DNDConfig": null,
  "__parentReadjusting__": false,
  "_height_": {
    "type": "string",
    "value": "110dp"
  },
  "_left_": {
    "type": "string",
    "value": "0dp"
  },
  "_margin_": [
    0,
    0,
    0,
    0
  ],
  "_orientation_": 6,
  "_padding_": [
    0,
    0,
    0,
    0
  ],
  "_percent_": true,
  "_skin_": "s92425f466754964b2123cbce2313ad6",
  "_top_": {
    "type": "string",
    "value": "0%"
  },
  "_width_": {
    "type": "string",
    "value": "100%"
  },
  "allboxes": [],
  "autogrowmode": 0,
  "canUpdateUI": true,
  "children": [
    "btnCancel",
    "btnConfirm",
    "flxHorizontalLine"
  ],
  "clipbounds": true,
  "containerweight": 100,
  "enablescrolling": true,
  "id": "flxVerifyActions",
  "info": null,
  "isvisible": true,
  "kuid": "db273b49a08847a887ec20d84085e470",
  "layouttype": 2,
  "name": "kony.ui.FlexContainer",
  "parent": "flxConfirmContainer",
  "pf": "frmVerifyAccount",
  "snapgridsize": 10,
  "snaptogrid": true,
  "wType": "FlexContainer",
  "widgetalignment": 1,
  "zindex": 1
}