{
  "@class": "com.kony.gen.viz.model.component.KVizLabel",
  "DNDConfig": null,
  "__parentReadjusting__": false,
  "_height_": {
    "type": "ref",
    "value": "preferred"
  },
  "_left_": {
    "type": "string",
    "value": "0dp"
  },
  "_margin_": [
    1,
    1,
    1,
    1
  ],
  "_padding_": [
    0,
    0,
    2,
    0
  ],
  "_skin_": "sb57ddd930ef42d5b307efc805cba3d6",
  "_text_": "Biller Account Number",
  "_top_": {
    "type": "string",
    "value": "0dp"
  },
  "_width_": {
    "type": "string",
    "value": "100%"
  },
  "_wrapping_": 2,
  "android": {
    "textStyle": {
      "letterSpacing": 0,
      "strikeThrough": false
    }
  },
  "canUpdateUI": true,
  "containerweight": 100,
  "contentalignment": 4,
  "id": "lblAccountType",
  "info": null,
  "ipad": {
    "psp": {
      "wrapping": 2
    }
  },
  "iphone": {
    "psp": {
      "wrapping": 2
    }
  },
  "isvisible": true,
  "kuid": "b5087f7d1d0c4ebf9f11081769287d40",
  "name": "kony.ui.Label",
  "paddinginpixel": false,
  "parent": "flxAccountTypeKey",
  "pf": "frmVerifyAccount",
  "texti18n": "i18n.transfers.accountType",
  "tooltip": "",
  "wType": "Label",
  "zindex": 1
}