{
  "@class": "com.kony.gen.viz.model.component.KVizLabel",
  "DNDConfig": null,
  "__parentReadjusting__": false,
  "_height_": {
    "type": "ref",
    "value": "preferred"
  },
  "_left_": {
    "type": "string",
    "value": "102dp"
  },
  "_margin_": [
    1,
    1,
    1,
    1
  ],
  "_padding_": [
    0,
    0,
    2,
    0
  ],
  "_skin_": "sf0cb6e968274aa389aafbf14ff806fd",
  "_text_": "American Express Credit Card",
  "_top_": {
    "type": "string",
    "value": "0dp"
  },
  "_width_": {
    "type": "ref",
    "value": "preferred"
  },
  "_wrapping_": 2,
  "android": {
    "textStyle": {
      "letterSpacing": 0,
      "strikeThrough": false
    }
  },
  "canUpdateUI": true,
  "containerweight": 100,
  "contentalignment": 4,
  "id": "lblBillerValue",
  "info": null,
  "ipad": {
    "psp": {
      "wrapping": 2
    }
  },
  "iphone": {
    "psp": {
      "wrapping": 2
    }
  },
  "isvisible": true,
  "kuid": "aeabf92e77b94ba5b1a54251d161088f",
  "name": "kony.ui.Label",
  "paddinginpixel": false,
  "parent": "flxBankNameValue",
  "pf": "frmVerifyAccount",
  "tooltip": "",
  "wType": "Label",
  "zindex": 1
}