{
  "@class": "com.kony.gen.viz.model.component.KVizRichText",
  "DNDConfig": null,
  "__parentReadjusting__": false,
  "_height_": {
    "type": "ref",
    "value": "preferred"
  },
  "_left_": {
    "type": "string",
    "value": "102dp"
  },
  "_margin_": [
    0,
    0,
    0,
    0
  ],
  "_padding_": [
    0,
    0,
    0,
    0
  ],
  "_skin_": "sc4cc30bc71442ee9f8b2e9230a973fa",
  "_text_": "PO BOX 1264\u003cbr/\u003eNewwark, NJ 04875-8836",
  "_top_": {
    "type": "string",
    "value": "0dp"
  },
  "_width_": {
    "type": "ref",
    "value": "preferred"
  },
  "_wrapping_": 2,
  "canUpdateUI": true,
  "containerweight": 100,
  "contentalignment": 4,
  "id": "rtxBillerAddress",
  "info": null,
  "isvisible": true,
  "kuid": "j9d8c452d833467eb746104df10b62a6",
  "name": "kony.ui.RichText",
  "parent": "flxAddresValue",
  "pf": "frmVerifyAccount",
  "wType": "RichText",
  "widgetalignment": 5,
  "zindex": 1
}