{
  "@class": "com.kony.gen.viz.model.component.KVizUserWidget",
  "DNDConfig": null,
  "__markedForDelete__": true,
  "__parentReadjusting__": false,
  "_children_": [],
  "_height_": {
    "type": "string",
    "value": "10.66%"
  },
  "_left_": "0dp",
  "_margin_": [
    0,
    0,
    0,
    0
  ],
  "_orientation_": 1,
  "_padding_": [
    0,
    0,
    0,
    0
  ],
  "_percent_": true,
  "_render_": true,
  "_skin_": "sec6a31ace8e4d1d8b093e2542d6b6d2",
  "_top_": {
    "type": "string",
    "value": "5%"
  },
  "_width_": "85%",
  "areflexpropsreferenced": false,
  "autogrowmode": 0,
  "canUpdateUI": true,
  "centerx": "50.00%",
  "clipbounds": true,
  "containerweight": 0,
  "dataDiffs": {
    "AlterneteActions": {
      "__events__": {
        "ide_onTouchStart": "AS_UWI_d04b4c87ef05438682faaf376492ac40"
      },
      "__info__": {
        "isRoot": true,
        "kuid": "cc9e64e842934e648dd492ce0d318910",
        "srcKUID": "ba68e7f06305436fa6ebfcbc05efdfaf",
        "wType": "FlexContainer"
      },
      "autogrowMode": 0,
      "height": {
        "Default": {
          "type": "string",
          "value": "10.66%"
        }
      },
      "top": {
        "Default": {
          "type": "string",
          "value": "5%"
        }
      }
    },
    "flcVerticalBar": {
      "__events__": {},
      "__info__": {
        "kuid": "e044f9a86c314cc395755994774a653e",
        "srcKUID": "c1e3a82dec2c494da32fadaf2ab509f8",
        "wType": "FlexContainer"
      }
    },
    "flxImgContainer": {
      "__events__": {},
      "__info__": {
        "kuid": "h1156385d8b94da3986e0e61276700cb",
        "srcKUID": "a5b043f56ff04c68b0d8766aeb55b239",
        "wType": "FlexContainer"
      }
    },
    "flxImgMain": {
      "__events__": {},
      "__info__": {
        "kuid": "jac7001600cb45f8a4a31d1fb53cc9b8",
        "srcKUID": "b04cedab42e84d7dae9726a221da10c1",
        "wType": "FlexContainer"
      }
    },
    "imgOptionKA": {
      "__events__": {},
      "__info__": {
        "kuid": "d2a11931a3ce4c4a933943002ef93032",
        "srcKUID": "a1d6b1a537f741ed86fe089d4f49bfdb",
        "wType": "Image"
      }
    },
    "imgRightTip": {
      "__events__": {},
      "__info__": {
        "kuid": "c5293b54a60c466498e45079fb43b69e",
        "srcKUID": "fd6a5a99442143d381c3d4fc2afbaf67",
        "wType": "Image"
      }
    },
    "rtxCVV": {
      "__events__": {},
      "__info__": {
        "kuid": "e7dc4b336b254fb4ab493eb7687b5eca",
        "srcKUID": "h34b4091f7d347fcb7805380e64df24f",
        "wType": "RichText"
      }
    }
  },
  "id": "AlterneteActionsResetPassword",
  "ide_onTouchStart": "AS_UWI_d04b4c87ef05438682faaf376492ac40",
  "info": null,
  "isdatareferenced": false,
  "isvisible": true,
  "kuid": "f669e91e93934053ab0ab9fa831f7571",
  "layouttype": 2,
  "masterType": 0,
  "name": "kony.ui.UserWidgetInstance",
  "ontouchstart": "AS_UWI_ffc83bb67a2f49f294b4ff3fbdc9d418",
  "parent": "flxWelcomeBack",
  "pf": "frmLoginTab",
  "snaptogrid": true,
  "sourceUserWidget": "ba68e7f06305436fa6ebfcbc05efdfaf",
  "wType": "UserWidgetInstance"
}