{
  "@class": "com.kony.gen.viz.model.component.KVizImage2",
  "DNDConfig": null,
  "__markedForDelete__": true,
  "__parentReadjusting__": false,
  "_base64_": null,
  "_height_": {
    "type": "string",
    "value": "46dp"
  },
  "_margin_": [
    0,
    0,
    0,
    0
  ],
  "_padding_": [
    0,
    0,
    0,
    0
  ],
  "_skin_": "s78a5f26c9f14cec9ebed1bb46098f80",
  "_src_": "login_user_frame.png",
  "_width_": {
    "type": "string",
    "value": "46dp"
  },
  "canUpdateUI": true,
  "centerx": {
    "type": "string",
    "value": "50%"
  },
  "centery": {
    "type": "string",
    "value": "50%"
  },
  "containerweight": 100,
  "context": {
    "channel": "tablet",
    "formID": "frmLoginTab",
    "platform": "spaipad",
    "templateType": "forms",
    "topLevelBox": null
  },
  "id": "imgUserBoundary",
  "imagescalemode": 1,
  "info": null,
  "invokedProperty": "src",
  "isvisible": true,
  "kuid": "b230ff7cd3e642d9a40409cd71c9ce81",
  "name": "kony.ui.Image2",
  "parent": "flxResetUserImg",
  "pf": "frmLoginTab",
  "srcType": 1,
  "wType": "Image",
  "widgetalignment": 5,
  "zindex": 1
}