{
  "@class": "com.kony.gen.viz.model.component.KVizLabel",
  "DNDConfig": null,
  "__markedForDelete__": true,
  "__parentReadjusting__": false,
  "_height_": {
    "type": "ref",
    "value": "preferred"
  },
  "_margin_": [
    1,
    1,
    1,
    1
  ],
  "_padding_": [
    0,
    0,
    0,
    0
  ],
  "_skin_": "s6142e777f8b43afb5289cb3eb44b8c3",
  "_text_": "Label",
  "_width_": {
    "type": "string",
    "value": "100%"
  },
  "_wrapping_": 2,
  "android": {
    "textStyle": {
      "letterSpacing": 0,
      "strikeThrough": false
    }
  },
  "canUpdateUI": true,
  "centerx": {
    "type": "string",
    "value": "50%"
  },
  "centery": {
    "type": "string",
    "value": "50%"
  },
  "containerweight": 100,
  "contentalignment": 5,
  "id": "lblContactUs",
  "info": null,
  "ipad": {
    "psp": {
      "wrapping": 2
    }
  },
  "iphone": {
    "psp": {
      "wrapping": 2
    }
  },
  "isvisible": true,
  "kuid": "a051a7f29eae4dc5a6e94646084bdad9",
  "name": "kony.ui.Label",
  "parent": "flxContactUs",
  "pf": "frmLoginTab",
  "texti18n": "i18n.footer.contactUs",
  "tooltip": "",
  "wType": "Label",
  "zindex": 1
}