{
  "@class": "com.kony.gen.viz.model.component.KVizLabel",
  "DNDConfig": null,
  "__markedForDelete__": true,
  "__parentReadjusting__": false,
  "_height_": {
    "type": "ref",
    "value": "preferred"
  },
  "_margin_": [
    1,
    1,
    1,
    1
  ],
  "_padding_": [
    3,
    0,
    3,
    0
  ],
  "_skin_": "s18d3552bc4143569a7c5aef6bd5eaa1",
  "_text_": "Label",
  "_top_": {
    "type": "string",
    "value": "6.87%"
  },
  "_width_": {
    "type": "ref",
    "value": "preferred"
  },
  "_wrapping_": 2,
  "android": {
    "textStyle": {
      "letterSpacing": 0,
      "strikeThrough": false
    }
  },
  "canUpdateUI": true,
  "centerx": {
    "type": "string",
    "value": "50%"
  },
  "containerweight": 100,
  "contentalignment": 5,
  "id": "lblYourUsername",
  "info": null,
  "ipad": {
    "psp": {
      "wrapping": 2
    }
  },
  "iphone": {
    "psp": {
      "wrapping": 2
    }
  },
  "isvisible": true,
  "kuid": "j27cebd1af9641d390d931b8c9212a76",
  "name": "kony.ui.Label",
  "paddinginpixel": false,
  "parent": "flxWelcomeBack",
  "pf": "frmLoginTab",
  "texti18n": "i18n.login.YourUsernameIs",
  "tooltip": "",
  "wType": "Label",
  "zindex": 1
}