{
  "@class": "com.kony.gen.viz.model.component.KVizUserWidget",
  "DNDConfig": null,
  "__markedForDelete__": true,
  "__parentReadjusting__": false,
  "_bottom_": {
    "type": "string",
    "value": ""
  },
  "_children_": [],
  "_height_": {
    "type": "string",
    "value": "568dp"
  },
  "_left_": {
    "type": "string",
    "value": "0dp"
  },
  "_margin_": [
    0,
    0,
    0,
    0
  ],
  "_orientation_": 1,
  "_padding_": [
    0,
    0,
    0,
    0
  ],
  "_percent_": true,
  "_render_": true,
  "_right_": {
    "type": "string",
    "value": ""
  },
  "_skin_": "sf94624be61d43e299a4790d019276ba",
  "_top_": {
    "type": "string",
    "value": "0dp"
  },
  "_width_": "100%",
  "areflexpropsreferenced": false,
  "autogrowmode": 0,
  "canUpdateUI": true,
  "clipbounds": true,
  "containerweight": 0,
  "dataDiffs": {
    "btnForgotPassword": {
      "__events__": {},
      "__info__": {
        "kuid": "ef31286f2d5d4eeaa0cf669854f2c9ab",
        "srcKUID": "d234bb1561264f9c918f2415e1fcfd2e",
        "wType": "Button"
      }
    },
    "btnLogin": {
      "__events__": {},
      "__info__": {
        "kuid": "dd3e700d0d7047c9b5b6043dbc4bc6d5",
        "srcKUID": "ga1ff8714da0426386825a8d459be1b0",
        "wType": "Button"
      }
    },
    "btnOnlineAccessEnroll": {
      "__events__": {},
      "__info__": {
        "kuid": "c21a4643ff4f4d4c8337cb65449ed071",
        "srcKUID": "f3b768ea7f84483cb7311478ee469e29",
        "wType": "Button"
      }
    },
    "flexcheckuncheck": {
      "__events__": {},
      "__info__": {
        "kuid": "a2fd477184a5445094a43d6d0258455f",
        "srcKUID": "cea09b7494ca49069802fc85c4900597",
        "wType": "FlexContainer"
      }
    },
    "flxClick": {
      "__events__": {},
      "__info__": {
        "kuid": "cf4aeb444c2843218a9414e892567af9",
        "srcKUID": "h95c315113104cb0ade29684be0f88a5",
        "wType": "FlexContainer"
      }
    },
    "flxContainer": {
      "__events__": {},
      "__info__": {
        "kuid": "h71075ea404c4629a692494e430a0675",
        "srcKUID": "affaef772c3943abb94a9e0332769cc2",
        "wType": "FlexContainer"
      }
    },
    "flxImageUser": {
      "__events__": {},
      "__info__": {
        "kuid": "ea6f588051b5453da74f547757677802",
        "srcKUID": "ff94c6e2e38b48e0b204b4c09a45e28d",
        "wType": "FlexContainer"
      }
    },
    "flxLoginUser": {
      "__events__": {},
      "__info__": {
        "kuid": "jcfe987a8cdd4958bed12200c7bcee6f",
        "srcKUID": "e60fd75866cd4ae8b9c88c812cadec15",
        "wType": "FlexContainer"
      }
    },
    "flxPassword": {
      "__events__": {},
      "__info__": {
        "kuid": "j7172a2ec9c44b1a9df793ba528644fa",
        "srcKUID": "e1404f14f7424db7856d82bb1b2b75d5",
        "wType": "FlexContainer"
      }
    },
    "flxRemember": {
      "__events__": {},
      "__info__": {
        "kuid": "habeffad462743a9abe7b603eea101df",
        "srcKUID": "f8ebcec70a154a8cad2f1db254909cff",
        "wType": "FlexContainer"
      }
    },
    "flxRememberMe": {
      "__events__": {},
      "__info__": {
        "kuid": "ec5ed38e9e314ba09f1ca68a69a61808",
        "srcKUID": "f2013ce0e2cd40d1b96f4df80d71ff11",
        "wType": "FlexContainer"
      }
    },
    "flxRememberedUsers": {
      "__events__": {},
      "__info__": {
        "kuid": "be5cdafdedc944f38269802ff8ea8662",
        "srcKUID": "e95d0a4d434949bcb0a2ae90c5fe32e1",
        "wType": "FlexContainer"
      }
    },
    "flxUserDropdown": {
      "__events__": {},
      "__info__": {
        "kuid": "b9d4d41a38304bbcb3ddff96d0dbf563",
        "srcKUID": "bd34e9d539934659a6c90038b6dc60b6",
        "wType": "FlexContainer"
      }
    },
    "flxUserName": {
      "__events__": {},
      "__info__": {
        "kuid": "f4d58b130efa45b799be3099e5c382dc",
        "srcKUID": "j7bfc07060fd411e9dc231515dc11d50",
        "wType": "FlexContainer"
      }
    },
    "imgPassword": {
      "__events__": {},
      "__info__": {
        "kuid": "acd5c1b763ac4652b5047e0f8a48efbb",
        "srcKUID": "fedc50653fc045d89c647f063406d896",
        "wType": "Image"
      }
    },
    "imgRememberMe": {
      "__events__": {},
      "__info__": {
        "kuid": "j08a77e0a98c433795e61c6d1014e6c0",
        "srcKUID": "a9f37a4ce9444387ae10a1ea05ba36f2",
        "wType": "Image"
      }
    },
    "imgUser": {
      "__events__": {},
      "__info__": {
        "kuid": "c5da8541507f4e8bafe1e3fcc637ca27",
        "srcKUID": "d8f07cdf6c1d4e49a9f03285dcaa220a",
        "wType": "Image"
      }
    },
    "imgUserAToolTip": {
      "__events__": {},
      "__info__": {
        "kuid": "a48202da7aaf41f3a5af0228bb644e1f",
        "srcKUID": "d85d6d455fbb433d8408c4dfa435aa4b",
        "wType": "Image"
      }
    },
    "imgUserName": {
      "__events__": {},
      "__info__": {
        "kuid": "c34f3e63a0594469b8c5499cd8c5c212",
        "srcKUID": "d28aa5232be445af942374479e7ba0d1",
        "wType": "Image"
      }
    },
    "imgUserOutline": {
      "__events__": {},
      "__info__": {
        "kuid": "a576a194081849b5a93fb53b55afce0d",
        "srcKUID": "j272915216a34155aebd45313b9c3281",
        "wType": "Image"
      }
    },
    "imgViewPassword": {
      "__events__": {},
      "__info__": {
        "kuid": "fad4f5826d954e6584de6b023dcccc6c",
        "srcKUID": "b67ed95fcf524cc6841589fe202bc9ea",
        "wType": "Image"
      }
    },
    "lblAppName": {
      "__events__": {},
      "__info__": {
        "kuid": "efdaada6aeb645dd9934ffc08e0ab6f1",
        "srcKUID": "b6cc0f84085c456e8e9726dc31f31055",
        "wType": "Label"
      }
    },
    "lblRememberMe": {
      "__events__": {},
      "__info__": {
        "kuid": "cb8c1ccc052a452fb9c55ac45dbd5013",
        "srcKUID": "c6155262cc5a41408a57645dcfa8d379",
        "wType": "Label"
      }
    },
    "lblVerifiedUser": {
      "__events__": {},
      "__info__": {
        "kuid": "eed5d760c836480dab0c33226cd21041",
        "srcKUID": "g297b8758a694564ab13b388911202a6",
        "wType": "Label"
      }
    },
    "lblWelcome": {
      "__events__": {},
      "__info__": {
        "kuid": "f18f2750782f413594d80fbca51681b6",
        "srcKUID": "c819cb0b5d094d399b04d8493f7e250d",
        "wType": "Label"
      }
    },
    "main": {
      "__events__": {},
      "__info__": {
        "isRoot": true,
        "kuid": "e4037279808f4d7ba5829920a615d390",
        "srcKUID": "hc2e64b499074a4689ff61a0151ec024",
        "wType": "FlexContainer"
      },
      "autogrowMode": 0,
      "bottom": {
        "Default": {
          "type": "string",
          "value": ""
        }
      },
      "height": {
        "Default": {
          "type": "string",
          "value": "568dp"
        }
      },
      "left": {
        "Default": {
          "type": "string",
          "value": "0dp"
        }
      },
      "right": {
        "Default": {
          "type": "string",
          "value": ""
        }
      },
      "top": {
        "Default": {
          "type": "string",
          "value": "0dp"
        }
      },
      "zIndex": {
        "Default": 1
      }
    },
    "rtxErrorMsg": {
      "__events__": {},
      "__info__": {
        "kuid": "id0ea19c7b5b4e6ca643f9da755cc245",
        "srcKUID": "c6408670831245a4b8787a9acf685ccc",
        "wType": "RichText"
      }
    },
    "rtxErrorMsgUser": {
      "__events__": {},
      "__info__": {
        "kuid": "jed405bbb1dc405fb10ba22979e6e7c3",
        "srcKUID": "ba3264755c4744988692e4c7391fb009",
        "wType": "RichText"
      }
    },
    "rtxWithUsername": {
      "__events__": {},
      "__info__": {
        "kuid": "ec7ec9f688144e62b19b7ea5c46ef3cc",
        "srcKUID": "eb61ad8f059549029cf9f5b09e91c3b7",
        "wType": "RichText"
      }
    },
    "segUsers": {
      "__events__": {},
      "__info__": {
        "kuid": "aa70a7842f254063a46b490ad3527843",
        "srcKUID": "b6cee1b057944211b702f0e4f236811c",
        "wType": "Segment"
      }
    },
    "tbxPassword": {
      "__events__": {},
      "__info__": {
        "kuid": "eaec9811c921476992d95eca3f5ef16a",
        "srcKUID": "d65b0e7288be4aa78a3ee2012ab9bf06",
        "wType": "TextField"
      }
    },
    "tbxUserName": {
      "__events__": {},
      "__info__": {
        "kuid": "c6a68d9a7f594f4d98715453c9855b72",
        "srcKUID": "bf45340a06e94af6bbd447f3db454f96",
        "wType": "TextField"
      }
    }
  },
  "id": "main",
  "info": null,
  "isdatareferenced": false,
  "isvisible": true,
  "kuid": "e4037279808f4d7ba5829920a615d390",
  "layouttype": 2,
  "masterType": 0,
  "name": "kony.ui.UserWidgetInstance",
  "parent": "flxLogin",
  "pf": "frmLoginTab",
  "snaptogrid": true,
  "sourceUserWidget": "hc2e64b499074a4689ff61a0151ec024",
  "wType": "UserWidgetInstance",
  "zindex": 1
}