{
  "@class": "com.kony.gen.viz.model.component.KVizUserWidget",
  "DNDConfig": null,
  "__markedForDelete__": true,
  "__parentReadjusting__": false,
  "_children_": [],
  "_height_": "398dp",
  "_left_": "0dp",
  "_margin_": [
    0,
    0,
    0,
    0
  ],
  "_orientation_": 1,
  "_padding_": [
    0,
    0,
    0,
    0
  ],
  "_percent_": true,
  "_render_": true,
  "_skin_": "sf94624be61d43e299a4790d019276ba",
  "_top_": "0dp",
  "_width_": "100%",
  "areflexpropsreferenced": false,
  "autogrowmode": 0,
  "canUpdateUI": true,
  "clipbounds": true,
  "containerweight": 0,
  "dataDiffs": {
    "btnLoginLater": {
      "__events__": {},
      "__info__": {
        "kuid": "b0bce07ca3c849248bb9bbb7f96223e0",
        "srcKUID": "hc8a8e2f83db408d9139bfe9a8c7d6f1",
        "wType": "Button"
      }
    },
    "btnProceed": {
      "__events__": {},
      "__info__": {
        "kuid": "j04669e319be4a6d8084e2f06be501dc",
        "srcKUID": "ga1b69e6acc44c0b8f054d948b142503",
        "wType": "Button"
      }
    },
    "flxDoneLoginLater": {
      "__events__": {},
      "__info__": {
        "kuid": "e673c09f4c7843aa96d49305e0a4f56c",
        "srcKUID": "f8698c9c7dff42e5ab300992eb8eeb90",
        "wType": "FlexContainer"
      }
    },
    "flxUserImagewithTick": {
      "__events__": {},
      "__info__": {
        "kuid": "d14fed20f24f42fb92c95d450ead4e56",
        "srcKUID": "cdd41548c60f43d8b68cd86d703d7337",
        "wType": "FlexContainer"
      }
    },
    "imgTickFrame": {
      "__events__": {},
      "__info__": {
        "kuid": "h94eb172bb754fbdbfd0eed976413ed2",
        "srcKUID": "hea6b64cbe604807a0df4a67cdb2c6f8",
        "wType": "Image"
      },
      "src": "login_user_succes_frame.png"
    },
    "imgUserwithoutTick": {
      "__events__": {},
      "__info__": {
        "kuid": "hc8c27cd8d8e4e7887294d9aac69ea51",
        "srcKUID": "g810bf5a043a477287298e5ef22e4463",
        "wType": "Image"
      }
    },
    "lblCongrats": {
      "__events__": {},
      "__info__": {
        "kuid": "d2fd5f9031df4b228854e82a8b61bf69",
        "srcKUID": "a892f75f43dd430da5572fe6d1b3a806",
        "wType": "Label"
      }
    },
    "lblReserSuccessMsg": {
      "__events__": {},
      "__info__": {
        "kuid": "a892b18055144a66bb1a7850aa003664",
        "srcKUID": "b5649c61999947d2983196c97f13d7c3",
        "wType": "Label"
      }
    },
    "passwordresetsuccess": {
      "__events__": {},
      "__info__": {
        "isRoot": true,
        "kuid": "a9485ac1bb834fd09a213fc7a5761426",
        "srcKUID": "a0ad0f1501a647b59d9565e22ab21269",
        "wType": "FlexContainer"
      }
    },
    "rtxDoneLoginlater": {
      "__events__": {},
      "__info__": {
        "kuid": "c04294f5b09248a5bd74ac2e94f735c7",
        "srcKUID": "ge59229877d94b64a082d491aa3a9020",
        "wType": "RichText"
      }
    }
  },
  "id": "passwordresetsuccess",
  "info": null,
  "isdatareferenced": false,
  "isvisible": true,
  "kuid": "dd83fd9f540847ff8d8cda4c5ff339ae",
  "layouttype": 4,
  "masterType": 0,
  "name": "kony.ui.UserWidgetInstance",
  "parent": "flxResetSuccessful",
  "pf": "frmLoginTab",
  "snaptogrid": true,
  "sourceUserWidget": "a0ad0f1501a647b59d9565e22ab21269",
  "wType": "UserWidgetInstance"
}