{
  "@class": "com.kony.gen.viz.model.component.KVizUserWidget",
  "DNDConfig": null,
  "__parentReadjusting__": false,
  "_children_": [],
  "_height_": {
    "type": "ref",
    "value": "preferred"
  },
  "_left_": {
    "type": "string",
    "value": "80.20%"
  },
  "_margin_": [
    0,
    0,
    0,
    0
  ],
  "_orientation_": 1,
  "_padding_": [
    0,
    0,
    0,
    0
  ],
  "_percent_": true,
  "_render_": true,
  "_skin_": "scbd4cac3526468089bf3013adff0549",
  "_top_": {
    "type": "string",
    "value": "180dp"
  },
  "_width_": {
    "type": "string",
    "value": "250dp"
  },
  "areflexpropsreferenced": false,
  "autogrowmode": 1,
  "canUpdateUI": true,
  "clipbounds": true,
  "containerweight": 0,
  "dataDiffs": {
    "AllForms": {
      "__events__": {},
      "__info__": {
        "isRoot": true,
        "kuid": "be8f111707484ac69e64ac3ff3486a85",
        "srcKUID": "aef6ac17436948abacbe12ea5a1d5e5b",
        "wType": "FlexContainer"
      },
      "isVisible": false,
      "left": {
        "Default": {
          "type": "string",
          "value": "80.20%"
        }
      },
      "top": {
        "Default": {
          "type": "string",
          "value": "180dp"
        }
      },
      "width": {
        "Default": {
          "type": "string",
          "value": "250dp"
        }
      },
      "zIndex": {
        "Default": 20
      }
    },
    "RichTextInfo": {
      "__events__": {},
      "__info__": {
        "kuid": "aa27e92c720646e7a7ca0ad7a83c7c4a",
        "srcKUID": "i86f020750564f6ba173ce46ea601ab5",
        "wType": "RichText"
      },
      "i18n_text": "i18n.AlertsMessages.msgInfo",
      "text": "If you dismiss an alert, it will be removed from your alerts list. This action cannot be reversed. ",
      "width": {
        "Default": {
          "type": "string",
          "value": "83%"
        }
      }
    },
    "flxAccountType": {
      "__events__": {},
      "__info__": {
        "kuid": "fb172cdb66c34dfa97fe15dcef01c43f",
        "srcKUID": "ed52287fd449401ba9a5f005c99e3f35",
        "wType": "FlexContainer"
      }
    },
    "flxCross": {
      "__events__": {},
      "__info__": {
        "kuid": "i86c7ec10063454fa929a0a2441b6709",
        "srcKUID": "d452c358ed1445a58e5fdff55685498f",
        "wType": "FlexContainer"
      }
    },
    "flxInformation": {
      "__events__": {},
      "__info__": {
        "kuid": "dae633fe3e264bdcbd5f5a8ea5d457f7",
        "srcKUID": "be414255ea60408894eb2a9b719b864e",
        "wType": "FlexContainer"
      }
    },
    "flxInformationText": {
      "__events__": {},
      "__info__": {
        "kuid": "ic45825e3d75428489f92ea6c16ef968",
        "srcKUID": "fa4dbab87ecf4647a21060118b02bd03",
        "wType": "FlexContainer"
      }
    },
    "imgCross": {
      "__events__": {},
      "__info__": {
        "kuid": "dba5074003ff494e8e26ee7ea8da8a48",
        "srcKUID": "d86a08cea857467eae13f42ed033a771",
        "wType": "Image"
      }
    },
    "imgToolTip": {
      "__events__": {},
      "__info__": {
        "kuid": "c379e782f0fb4fd2b54a2517724846a8",
        "srcKUID": "f9274528aa6b41bfb057f17c510b73b5",
        "wType": "Image"
      },
      "left": {
        "Default": {
          "type": "string",
          "value": "53.50%"
        }
      }
    },
    "lblInfo": {
      "__events__": {},
      "__info__": {
        "kuid": "c106169d519c4605b6ab9401a63efd58",
        "srcKUID": "c6ecc9c129c943b396152e99a30763f6",
        "wType": "Label"
      }
    },
    "lblSeperator": {
      "__events__": {},
      "__info__": {
        "kuid": "c526cfeb5c6e4abfa289bb410d81f552",
        "srcKUID": "f142d5aa44384a3fb94504a874cbbb95",
        "wType": "Label"
      }
    }
  },
  "id": "AllForms",
  "info": null,
  "isdatareferenced": false,
  "isvisible": false,
  "kuid": "a9adefe2d1fa4d468c8b0118a3cc0a41",
  "layouttype": 4,
  "masterType": 0,
  "name": "kony.ui.UserWidgetInstance",
  "parent": "flxMainContainer",
  "pf": "frmNotificationsAndMessages",
  "snaptogrid": true,
  "sourceUserWidget": "aef6ac17436948abacbe12ea5a1d5e5b",
  "wType": "UserWidgetInstance",
  "zindex": 20
}