{
  "@class": "com.kony.gen.viz.model.component.KVizUserWidget",
  "DNDConfig": null,
  "__parentReadjusting__": false,
  "_children_": [],
  "_height_": {
    "type": "string",
    "value": "268px"
  },
  "_left_": "0dp",
  "_margin_": [
    0,
    0,
    0,
    0
  ],
  "_orientation_": 1,
  "_padding_": [
    0,
    0,
    0,
    0
  ],
  "_percent_": true,
  "_render_": true,
  "_skin_": "s4b3bfcb27c14526bcdce6dec3972d8d",
  "_top_": {
    "type": "string",
    "value": "361dp"
  },
  "_width_": {
    "type": "string",
    "value": "43.27%"
  },
  "areflexpropsreferenced": false,
  "autogrowmode": 0,
  "canUpdateUI": true,
  "centerx": {
    "type": "string",
    "value": "50%"
  },
  "clipbounds": false,
  "containerweight": 0,
  "dataDiffs": {
    "CustomPopup": {
      "__events__": {},
      "__info__": {
        "isRoot": true,
        "kuid": "j7fa1d9ab2b248378403bc46f410af31",
        "srcKUID": "eb2d311dcb4744a7b05aa4f5428a6c53",
        "wType": "FlexContainer"
      },
      "centerX": {
        "Default": {
          "type": "string",
          "value": "50%"
        }
      },
      "top": {
        "Default": {
          "type": "string",
          "value": "361dp"
        }
      },
      "width": {
        "Default": {
          "type": "string",
          "value": "43.27%"
        }
      }
    },
    "btnNo": {
      "__events__": {},
      "__info__": {
        "kuid": "cbad91a062734bfc87d1c8f5a5d5f425",
        "srcKUID": "h61577b4448c4e22a2636221e8fe0d6d",
        "wType": "Button"
      }
    },
    "btnYes": {
      "__events__": {},
      "__info__": {
        "kuid": "i070eee08e5340e79839ce49621f6b4b",
        "srcKUID": "e1c11d09edb846848d4aaf921cb1e5a0",
        "wType": "Button"
      }
    },
    "flxCross": {
      "__events__": {},
      "__info__": {
        "kuid": "bc206e59abd440b99b59aa0f00d5ea07",
        "srcKUID": "e896a8d6e1244397be41e1011101c6ec",
        "wType": "FlexContainer"
      }
    },
    "flxHeader": {
      "__events__": {},
      "__info__": {
        "kuid": "acb22e7bb5214405bd707f172bbb7faf",
        "srcKUID": "b6d465d7232a428eba11c466c6843856",
        "wType": "FlexContainer"
      }
    },
    "flxSeperator": {
      "__events__": {},
      "__info__": {
        "kuid": "bf65753c5d4e45a084a6574d71eb1af3",
        "srcKUID": "b469cc45156e429d8fa47b9786168d10",
        "wType": "FlexContainer"
      }
    },
    "flxSeperator2": {
      "__events__": {},
      "__info__": {
        "kuid": "f30b9fd1461c49a79076a6583ddf44bd",
        "srcKUID": "e909e4e4b4a145b1aa92b22ece7050d3",
        "wType": "FlexContainer"
      }
    },
    "imgCross": {
      "__events__": {},
      "__info__": {
        "kuid": "ef58f4b678b149bb91a40b7deb7f6b40",
        "srcKUID": "ja13bba308404016b1cd223dbcdf01ae",
        "wType": "Image"
      }
    },
    "lblHeading": {
      "__events__": {},
      "__info__": {
        "kuid": "bdc84cecce5b43d38bdfd8556caf1a3a",
        "srcKUID": "f97c1408984847af9f3cd9984a260c74",
        "wType": "Label"
      },
      "text": "DISMISS"
    },
    "lblPopupMessage": {
      "__events__": {},
      "__info__": {
        "kuid": "f4a1fdf6512d46939da2fd00e69f3dba",
        "srcKUID": "f7c7509dccf24b88aeb13dc3d34fcc6b",
        "wType": "Label"
      },
      "text": "Are you sure you want to dismiss this Notification?"
    }
  },
  "desktopweb": {
    "render": true
  },
  "id": "CustomPopup1",
  "info": null,
  "isdatareferenced": false,
  "isvisible": true,
  "kiosk": {
    "render": true
  },
  "kuid": "b9fd8c2fe5024164b0d77574da0f1352",
  "layouttype": 2,
  "masterType": 0,
  "name": "kony.ui.UserWidgetInstance",
  "parent": "FlxDismiss",
  "pf": "frmNotificationsAndMessages",
  "snaptogrid": true,
  "sourceUserWidget": "eb2d311dcb4744a7b05aa4f5428a6c53",
  "wType": "UserWidgetInstance"
}