{
  "@class": "com.kony.gen.viz.model.component.KVizUserWidget",
  "DNDConfig": null,
  "__parentReadjusting__": false,
  "_children_": [],
  "_height_": {
    "type": "string",
    "value": "700px"
  },
  "_left_": {
    "type": "string",
    "value": "0dp"
  },
  "_margin_": [
    0,
    0,
    0,
    0
  ],
  "_orientation_": 1,
  "_padding_": [
    0,
    0,
    0,
    0
  ],
  "_percent_": true,
  "_render_": true,
  "_skin_": "s344174b66d24a22be7a954acfcdefc5",
  "_top_": {
    "type": "string",
    "value": "0dp"
  },
  "_width_": {
    "type": "string",
    "value": "100%"
  },
  "areflexpropsreferenced": false,
  "canUpdateUI": true,
  "clipbounds": true,
  "containerweight": 0,
  "dataDiffs": {
    "CopyLabel0ac92c17bf93b45": {
      "__events__": {},
      "__info__": {
        "kuid": "g7c2cf7a6d5b429c9e75d6a206f00502",
        "srcKUID": "dd8281e08c46439a89528ed229d77128",
        "wType": "Label"
      }
    },
    "CopyflxAttachmentName0j6721013baa740": {
      "__events__": {},
      "__info__": {
        "kuid": "c5039c871a674739b885324d170280c3",
        "srcKUID": "a98d661a3a8a425eb52d761593c88a96",
        "wType": "FlexContainer"
      }
    },
    "CopyflxDocAttachment0ia55d15b1ecf43": {
      "__events__": {},
      "__info__": {
        "kuid": "f0657a8ec2c840eaa2647decf2131453",
        "srcKUID": "cba3cce782e44a33a1089a1adacecf81",
        "wType": "FlexContainer"
      }
    },
    "CopyflxRemoveAttachment0fc6b8230fc794d": {
      "__events__": {},
      "__info__": {
        "kuid": "aa56e1a1f8dd473a8fc5ffa39a8dbaf6",
        "srcKUID": "be48877c5abb4eaeb8f64430f04ca57e",
        "wType": "FlexContainer"
      }
    },
    "CopyflxVerticalMiniSeparator0cbe6289dc4824b": {
      "__events__": {},
      "__info__": {
        "kuid": "j1741060e0474348ba1249e4508702eb",
        "srcKUID": "c85575d389ed456a9c21cdda5225dd8f",
        "wType": "FlexContainer"
      }
    },
    "CopyimgPDF0eb903a7555ab42": {
      "__events__": {},
      "__info__": {
        "kuid": "a09542f18b6d4f6aa663bea4e3ef9cd9",
        "srcKUID": "f02b604090a141c4b87b47e45d634848",
        "wType": "Image"
      }
    },
    "CopyimgRemoveAttachment0c98d301cc3d94c": {
      "__events__": {},
      "__info__": {
        "kuid": "f960bb4c32c44a39975badf44e494183",
        "srcKUID": "dd8cf8c14b48409db109fa65dbf96641",
        "wType": "Image"
      }
    },
    "CopylblAccountRenewal0d9447ab30fc64d": {
      "__events__": {},
      "__info__": {
        "kuid": "f68715bf59a642619e0e891962cf66fa",
        "srcKUID": "g1be467250b6429aafa634f88c4fda26",
        "wType": "Label"
      }
    },
    "CopylblDOcName0efb426c90e2843": {
      "__events__": {},
      "__info__": {
        "kuid": "g2d6fe58f2a34a15b9d220cc778ad74e",
        "srcKUID": "f1e26e2b8bbe4692bb2cffd482f624c9",
        "wType": "Label"
      }
    },
    "NotficationsAndMessages": {
      "__events__": {},
      "__info__": {
        "isRoot": true,
        "kuid": "c3f601cd37934a3e98d94fb96f99e313",
        "srcKUID": "b3ec3b2942d24f42909c0353c7ffcc94",
        "wType": "FlexContainer"
      },
      "zIndex": {
        "Default": 1
      }
    },
    "RichText0c22ac14f53af45": {
      "__events__": {},
      "__info__": {
        "kuid": "g62485de124a44a2af2ca12a90993c52",
        "srcKUID": "f73c5d3ce38e4e369ff2522c5f959f4c",
        "wType": "RichText"
      }
    },
    "btnCancel": {
      "__events__": {},
      "__info__": {
        "kuid": "i5563024e91644f7a584ff6477449aac",
        "srcKUID": "b9ac5c77e73d4e2d971999323c62f2c3",
        "wType": "Button"
      }
    },
    "btnCancelReply": {
      "__events__": {},
      "__info__": {
        "kuid": "c8a311755fcb4f718652782a5236e4b2",
        "srcKUID": "i9b03e2807354c2ca94c1078e37d9f87",
        "wType": "Button"
      }
    },
    "btnDelete": {
      "__events__": {},
      "__info__": {
        "kuid": "f06f6b9abd7e446f9ef21993cd04c499",
        "srcKUID": "d2956fd59ec74a0a91a37a882fc5c05c",
        "wType": "Button"
      },
      "text": "Delete"
    },
    "btnDeleteForever": {
      "__events__": {},
      "__info__": {
        "kuid": "a1a3847553994c21b1ac11d02d643de8",
        "srcKUID": "d9b3c9a475d242a2a9fa282829767431",
        "wType": "Button"
      }
    },
    "btnDeletedMessages": {
      "__events__": {},
      "__info__": {
        "kuid": "j2ed0a7e24d84a979b875933efd7aa5a",
        "srcKUID": "ee99a50d820b479e88d78186da836813",
        "wType": "Button"
      },
      "i18n_text": "i18n.AlertsAndMessages.DeletedMessages",
      "text": "Deleted Messages"
    },
    "btnDismiss": {
      "__events__": {},
      "__info__": {
        "kuid": "a2ad599ca7fe49d9b21d29d9ba809f16",
        "srcKUID": "d1daca79e7f1426c99efe2efa34ef303",
        "wType": "Button"
      },
      "right": {
        "Default": {
          "type": "string",
          "value": "6.50%"
        }
      },
      "i18n_text": "i18n.NotificationsAndMessages.Dismiss",
      "text": "Dismiss"
    },
    "btnDummy": {
      "__events__": {},
      "__info__": {
        "kuid": "b5e95625e2a247abb36b88bc3911e715",
        "srcKUID": "f7dea84eebf447ff84e4942e44c1e643",
        "wType": "Button"
      }
    },
    "btnLeft": {
      "__events__": {},
      "__info__": {
        "kuid": "gd017a11013c44e687a529ecacf767f2",
        "srcKUID": "g2cb246c8bde4b4e85551e968cea913d",
        "wType": "Button"
      }
    },
    "btnMyMessages": {
      "__events__": {},
      "__info__": {
        "kuid": "bc95f7a8c1864756a523a640a85a78af",
        "srcKUID": "c8e02ca2037c4b4cb8223f3c2440aaa0",
        "wType": "Button"
      },
      "i18n_text": "i18n.AlertsAndMessages.Messages",
      "text": "MY MESSAGES (2)"
    },
    "btnNewMessage": {
      "__events__": {},
      "__info__": {
        "kuid": "a0311a8991c14294972131305d1ae245",
        "srcKUID": "f9201c5d63ba4170898e75152515cfea",
        "wType": "Button"
      }
    },
    "btnNewMessageSend": {
      "__events__": {},
      "__info__": {
        "kuid": "d0aabffb987b403e803f6c8a0877dd30",
        "srcKUID": "be55b6f0d72b44f695454b48e9acf885",
        "wType": "Button"
      }
    },
    "btnNotificationAction": {
      "__events__": {},
      "__info__": {
        "kuid": "b93a96fa54f24a8aae742ffc86403f91",
        "srcKUID": "iedc02c243474907a668e485f8844430",
        "wType": "Button"
      }
    },
    "btnNotifications": {
      "__events__": {},
      "__info__": {
        "kuid": "d1c135e31c8a425aa034d537bf1d0745",
        "srcKUID": "d5a1b52306024a089ff4a26141ca6d72",
        "wType": "Button"
      },
      "i18n_text": "i18n.AlertsAndMessages.Alerts"
    },
    "btnReplyCancel": {
      "__events__": {},
      "__info__": {
        "kuid": "c2ea088a78484ae5a6d7b6a5576ab003",
        "srcKUID": "i2158672abd54e28a6ff7b53de55d900",
        "wType": "Button"
      }
    },
    "btnReplySend": {
      "__events__": {},
      "__info__": {
        "kuid": "f9ef8658e12c45ccbc5d753f339ae1bd",
        "srcKUID": "jad78926cb6f4a05b8ec66ca56851497",
        "wType": "Button"
      }
    },
    "btnRestore": {
      "__events__": {},
      "__info__": {
        "kuid": "d4a3a91a72e44d8897fb23f5f3c38712",
        "srcKUID": "aa61cbf3c01b4c55b730794a4338ebe9",
        "wType": "Button"
      }
    },
    "btnSearch": {
      "__events__": {},
      "__info__": {
        "kuid": "a7699e7ee552413a903eaaa8c01e8c43",
        "srcKUID": "jcfd97dd16eb4c04b1d77a4d1764e9cf",
        "wType": "FlexContainer"
      },
      "centerY": {
        "Default": {
          "type": "string",
          "value": ""
        }
      },
      "isVisible": true,
      "left": {
        "Default": {
          "type": "string",
          "value": "2%"
        }
      },
      "right": {
        "Default": {
          "type": "string",
          "value": "0%"
        }
      },
      "top": {
        "Default": {
          "type": "string",
          "value": "22dp"
        }
      },
      "width": {
        "Default": {
          "type": "string",
          "value": "60dp"
        }
      }
    },
    "btnSendReply": {
      "__events__": {},
      "__info__": {
        "kuid": "c81b20999d9f49f8bcebff2d1e3a507e",
        "srcKUID": "e366056740cc443f925ad14276670509",
        "wType": "Button"
      }
    },
    "flxClearSearch": {
      "__events__": {},
      "__info__": {
        "kuid": "b29df4d4482047af80cda1cf5de62c29",
        "srcKUID": "b267fad348f4431a9c4455ce5e6b070a",
        "wType": "FlexContainer"
      }
    },
    "flxContainer": {
      "__events__": {},
      "__info__": {
        "kuid": "iad3c0238ada4394b770332cdfaeeb1f",
        "srcKUID": "i9025e1ddd8c47afa56968453d8c593e",
        "wType": "FlexContainer"
      }
    },
    "flxData": {
      "__events__": {},
      "__info__": {
        "kuid": "g25ca8331cce4303a760c0e3354ec826",
        "srcKUID": "a3776e9923cb47e498200c2a2ef24771",
        "wType": "FlexContainer"
      }
    },
    "flxDeletedMessagesBottom": {
      "__events__": {},
      "__info__": {
        "kuid": "gf7d7fef575a40dbb3fa2868c8336b8e",
        "srcKUID": "g0b583eed6c149bbbbe150fddcbb50a2",
        "wType": "FlexContainer"
      }
    },
    "flxDocAttachment": {
      "__events__": {},
      "__info__": {
        "kuid": "d8f75ddd55fc4871804748b86e235212",
        "srcKUID": "c0f81c672e9e457ca0cca07cb402bed5",
        "wType": "FlexContainer"
      }
    },
    "flxDocAttachmentRightMessage": {
      "__events__": {},
      "__info__": {
        "kuid": "c0b27186968748f6a4544e2304f24b48",
        "srcKUID": "d711a8d797b14ccfab564f68b2487ef0",
        "wType": "FlexContainer"
      }
    },
    "flxDummy": {
      "__events__": {},
      "__info__": {
        "kuid": "edf1f94c68b54cd791160e39f13d396b",
        "srcKUID": "a10f032f791e41458226f6ad11ece211",
        "wType": "FlexContainer"
      }
    },
    "flxHeader": {
      "__events__": {},
      "__info__": {
        "kuid": "i0b5a4d0640a42729c66d5c3f9310100",
        "srcKUID": "d2e54218cbcd4b9d83bb33a1e7cbac93",
        "wType": "FlexContainer"
      }
    },
    "flxImageAttachment": {
      "__events__": {},
      "__info__": {
        "kuid": "gc3dadc6202840b69eec224d42d761ae",
        "srcKUID": "h83cb7ff84ad4717b475642eac4b17e4",
        "wType": "FlexContainer"
      }
    },
    "flxImageAttachment2": {
      "__events__": {},
      "__info__": {
        "kuid": "b64006c75e894195914dd20e2f749f56",
        "srcKUID": "ib964ea777d34ebd9dba451d631cc986",
        "wType": "FlexContainer"
      }
    },
    "flxImgBanner": {
      "__events__": {},
      "__info__": {
        "kuid": "d480d57a7b4b4fd89b6d9de4475c258e",
        "srcKUID": "a9a870ecd3634f2f866e6be9d70c0e33",
        "wType": "FlexContainer"
      }
    },
    "flxInfo": {
      "__events__": {},
      "__info__": {
        "kuid": "g98e41f225fd40bd8c612e9d77971141",
        "srcKUID": "g890e9c2fe8d481c886b9f1f5d35b990",
        "wType": "FlexContainer"
      },
      "right": {
        "Default": {
          "type": "string",
          "value": "4%"
        }
      },
      "top": {
        "Default": {
          "type": "string",
          "value": "22dp"
        }
      }
    },
    "flxInfoContent": {
      "__events__": {},
      "__info__": {
        "kuid": "c6029fc6c9e348b3bd181a256bc10a9a",
        "srcKUID": "af9cd892bd284944942c4c5b842ad479",
        "wType": "FlexContainer"
      }
    },
    "flxMainMessages": {
      "__events__": {},
      "__info__": {
        "kuid": "j605b596a287480b8db92923c8153a56",
        "srcKUID": "ece82d4363ab4992b54da45ff4709c12",
        "wType": "FlexScrollContainer"
      }
    },
    "flxMainNewMessage": {
      "__events__": {},
      "__info__": {
        "kuid": "h63e6faed80e45fc9b5f26b28c561b93",
        "srcKUID": "e4093181d5b345f8a533c9c22d165202",
        "wType": "FlexScrollContainer"
      },
      "isVisible": true
    },
    "flxMessagesHeader": {
      "__events__": {},
      "__info__": {
        "kuid": "fbd7fb511c034d95a551579d410e6e41",
        "srcKUID": "ee9ab210d96a4313b31cb405c051ef4c",
        "wType": "FlexContainer"
      }
    },
    "flxMessagesSeparator": {
      "__events__": {},
      "__info__": {
        "kuid": "e55e4bdeeaff4ad2b947d3e1533dc284",
        "srcKUID": "ief7366458b247d783ccfcc6843f3643",
        "wType": "FlexContainer"
      }
    },
    "flxMiniVerticalLine": {
      "__events__": {},
      "__info__": {
        "kuid": "ea3efab18a4f46308064c91444fd48a1",
        "srcKUID": "dbc281288f0e4c0a8b00d370bce3a795",
        "wType": "FlexContainer"
      }
    },
    "flxMiniVerticalLine2": {
      "__events__": {},
      "__info__": {
        "kuid": "f5df1b6cd4cc4568b7cdbf4ceed7482f",
        "srcKUID": "e879cf3594a2438a910413ea4af0da22",
        "wType": "FlexContainer"
      }
    },
    "flxMockData": {
      "__events__": {},
      "__info__": {
        "kuid": "cfb596c45a9a45199cf588e207e68ca4",
        "srcKUID": "ge8b66a86c6643848d5e30a44ea1618b",
        "wType": "FlexContainer"
      }
    },
    "flxNewMessage": {
      "__events__": {},
      "__info__": {
        "kuid": "c226ebe0b95d4c31ac4004a9962dcf80",
        "srcKUID": "f0f75ef1a2f3466ea0ecbee3f36fa5d2",
        "wType": "FlexContainer"
      },
      "isVisible": false
    },
    "flxNewMessagesHeader": {
      "__events__": {},
      "__info__": {
        "kuid": "ee294438b43f404b872c061561d3302e",
        "srcKUID": "e9c5a5371c4541609ea4dd6d32c5c4e9",
        "wType": "FlexContainer"
      }
    },
    "flxNoSearchResult": {
      "__events__": {},
      "__info__": {
        "kuid": "h7a748b6efe549f99ad414dfb28ef376",
        "srcKUID": "a5cfa27245dd474794d02ecd280da053",
        "wType": "FlexContainer"
      }
    },
    "flxNotificationHeader": {
      "__events__": {},
      "__info__": {
        "kuid": "af1704b0d90c4a9a8b416dc734f7803b",
        "srcKUID": "aa0e785aa2584b1892bdd11ed8b36742",
        "wType": "FlexContainer"
      }
    },
    "flxReply": {
      "__events__": {},
      "__info__": {
        "kuid": "e42fc5ba1b954444845d5e842d895eca",
        "srcKUID": "bc36404a8f71448892e94056054fb8f4",
        "wType": "FlexContainer"
      },
      "isVisible": true
    },
    "flxReplyAttachment": {
      "__events__": {},
      "__info__": {
        "kuid": "e27cb3fbfa3441bb9be195aa52156d9c",
        "srcKUID": "b6e0202c501f4f6c8dba528cd6ca237e",
        "wType": "FlexContainer"
      }
    },
    "flxReplyHeader": {
      "__events__": {},
      "__info__": {
        "kuid": "i8b51fbda9414a23bf6d2e7a8a038dc1",
        "srcKUID": "icb2086d648049f2848905fe5053afc1",
        "wType": "FlexContainer"
      }
    },
    "flxReplyImageAttachment": {
      "__events__": {},
      "__info__": {
        "kuid": "a0a271643913468ba5031f0ce5a5c409",
        "srcKUID": "ea49917059a641e6b5c9f12e07d1b4ff",
        "wType": "FlexContainer"
      }
    },
    "flxReplyMessageButtons": {
      "__events__": {},
      "__info__": {
        "kuid": "a992cbb017e343b19c00acd65cc3b7dc",
        "srcKUID": "fd59cb3bbb3a41518aa82a8327e7b28a",
        "wType": "FlexContainer"
      }
    },
    "flxReplySeparator": {
      "__events__": {},
      "__info__": {
        "kuid": "bfc034ed05a843d2bb10215ca7982f1e",
        "srcKUID": "c61b0e113ea44e0bbd3ac5bf4ceaf454",
        "wType": "FlexContainer"
      }
    },
    "flxReplyTextArea": {
      "__events__": {},
      "__info__": {
        "kuid": "deeec0730a104762bd76c54002877b27",
        "srcKUID": "a96aa7a91a474a03a14d840b3903d09f",
        "wType": "FlexContainer"
      }
    },
    "flxReplyWrapper": {
      "__events__": {},
      "__info__": {
        "kuid": "a97a2d3486b34581886bbfaefa1fdc3e",
        "srcKUID": "d5ad0df82dfe46b48b9875c73abc3059",
        "wType": "FlexContainer"
      }
    },
    "flxRightMessages": {
      "__events__": {},
      "__info__": {
        "kuid": "f56ad8bf01a04e5b81ff47d0711e7a6f",
        "srcKUID": "i0571790552648469bfacf702cfd5c73",
        "wType": "FlexContainer"
      },
      "isVisible": true
    },
    "flxRightNotifications": {
      "__events__": {},
      "__info__": {
        "kuid": "cfc562016e9c40908fdb42dc72b7adfe",
        "srcKUID": "e1401fa45dab40198e27bb40888eec7a",
        "wType": "FlexContainer"
      }
    },
    "flxRightNotificationsWrapper": {
      "__events__": {},
      "__info__": {
        "kuid": "h8e538dcd46f4d2ab217fc1576c19016",
        "srcKUID": "eab58b24593940ab9cad7bdb235ceaf9",
        "wType": "FlexScrollContainer"
      }
    },
    "flxSearch": {
      "__events__": {},
      "__info__": {
        "kuid": "g310489870fd473e9e1a836f8b1e7efc",
        "srcKUID": "g8f67b3c7828447aba3f79b7d3a2a62a",
        "wType": "FlexContainer"
      }
    },
    "flxSearchAndSort": {
      "__events__": {},
      "__info__": {
        "kuid": "c3c154c1708d4b3fa080b7dcde6ad72e",
        "srcKUID": "c4e0f49ea7a843bc9f487dc2223f0d05",
        "wType": "FlexContainer"
      }
    },
    "flxSearchImage": {
      "__events__": {},
      "__info__": {
        "kuid": "b30ab4aaa9254470b526c73e867352df",
        "srcKUID": "ea78d388287840508dae5974e285ac14",
        "wType": "FlexContainer"
      }
    },
    "flxSendMessage": {
      "__events__": {},
      "__info__": {
        "kuid": "fbe52ddab0204523ae6bd9620635d85c",
        "srcKUID": "dbe2cfa2ab8645e99022a958b11bc718",
        "wType": "FlexContainer"
      }
    },
    "flxSendNewMessage": {
      "__events__": {},
      "__info__": {
        "kuid": "f107afab80fd4e66b0e5b642621d8bd2",
        "srcKUID": "ca91d11332a147d1919644fc45503932",
        "wType": "FlexContainer"
      }
    },
    "flxSendSeparator": {
      "__events__": {},
      "__info__": {
        "kuid": "icdb41f5c4df4ac7ac0905943d57ff64",
        "srcKUID": "b4dd19dc774b40b3969b75f6fcddfa06",
        "wType": "FlexContainer"
      }
    },
    "flxSeparator": {
      "__events__": {},
      "__info__": {
        "kuid": "d28a6523ca6d4cf6b56671a3ccab784b",
        "srcKUID": "b0c3aa3792704d038130eeaaa39623ef",
        "wType": "FlexContainer"
      }
    },
    "flxSeparator2": {
      "__events__": {},
      "__info__": {
        "kuid": "i8b0661d3e074c278db6c4295ee042e6",
        "srcKUID": "hd440fd6779341b99e8f4768f6b3acd5",
        "wType": "FlexContainer"
      }
    },
    "flxSort": {
      "__events__": {},
      "__info__": {
        "kuid": "j2024c15862f45dd8c006b4a8554ff0a",
        "srcKUID": "ad6eda6d1fd84b1eb7ab56c900fc771a",
        "wType": "FlexContainer"
      }
    },
    "flxTabs": {
      "__events__": {},
      "__info__": {
        "kuid": "a15c1cec8c5c42e8a260757c44e993a6",
        "srcKUID": "ab1510f0e6364788ab04a6f10198056b",
        "wType": "FlexContainer"
      },
      "top": {
        "Default": {
          "type": "string",
          "value": "61dp"
        }
      }
    },
    "flxVerticalLine": {
      "__events__": {},
      "__info__": {
        "kuid": "d659ec82f7734cb599bd6e0c005b5b90",
        "srcKUID": "a05405931abb4ec6a904eba063fb36a8",
        "wType": "FlexContainer"
      }
    },
    "flxVerticalSeparator": {
      "__events__": {},
      "__info__": {
        "kuid": "af8faa7825f44339a780736cacb7da96",
        "srcKUID": "e709a8d3134e410489bbc7b640aabc03",
        "wType": "FlexContainer"
      }
    },
    "flxWrapper": {
      "__events__": {},
      "__info__": {
        "kuid": "f9d9c1641d724aa3a2c5ea76ec07e8a5",
        "srcKUID": "eea74793b6554a8a9ca2b03d9e1b643c",
        "wType": "FlexContainer"
      }
    },
    "imgAttachmentBLue": {
      "__events__": {},
      "__info__": {
        "kuid": "d5d29427f42c4163b5ffd66e39f8bfa5",
        "srcKUID": "de58425756004206bb4938ca0be94194",
        "wType": "Image"
      }
    },
    "imgAttachmentBLue2": {
      "__events__": {},
      "__info__": {
        "kuid": "j3491c0820dd4030b98fcc1980955aaa",
        "srcKUID": "b68fc7bf32eb44fea31f0baf3bb971b9",
        "wType": "Image"
      }
    },
    "imgBanner": {
      "__events__": {},
      "__info__": {
        "kuid": "d3d7935c45834c98845024ba8c4a50ba",
        "srcKUID": "e1b0948018dc4a1fbb5be85ad81acea2",
        "wType": "Image"
      }
    },
    "imgClose": {
      "__events__": {},
      "__info__": {
        "kuid": "e4f81e5c16af48af969b7e7d3956fdb8",
        "srcKUID": "f5fcd024963d4ac5b3a94b871f09b918",
        "wType": "Image"
      }
    },
    "imgCross": {
      "__events__": {},
      "__info__": {
        "kuid": "aa3c1856784341cc8846b1db0bc8fe64",
        "srcKUID": "g2f22675614c4142b827681922b724db",
        "wType": "Image"
      },
      "isVisible": false
    },
    "imgInfo": {
      "__events__": {},
      "__info__": {
        "kuid": "aca3d2df2a514118b33efff61b5ac145",
        "srcKUID": "d6a805b84f0b4039866dada1955be39d",
        "wType": "Image"
      }
    },
    "imgInfoNoSearchResult": {
      "__events__": {},
      "__info__": {
        "kuid": "hf8dd54f02a9448b91a7ca5da46da860",
        "srcKUID": "h803ed51af434277a2059d04d40a6af4",
        "wType": "Image"
      }
    },
    "imgReplyAttachmentBLue": {
      "__events__": {},
      "__info__": {
        "kuid": "a3a25459d8474286811e964fa314a10b",
        "srcKUID": "e8eb9bdf1c4441cbb632e43a11fa9835",
        "wType": "Image"
      }
    },
    "imgSearch": {
      "__events__": {},
      "__info__": {
        "kuid": "f407215bc49d412da47fa26f8d1ea619",
        "srcKUID": "f08aa9da18774506ab3a86aeadbbac9b",
        "wType": "Image"
      }
    },
    "imgTbxSearch": {
      "__events__": {},
      "__info__": {
        "kuid": "h8d69e81eac54799ad605a3bc48378b2",
        "srcKUID": "bcd48127f8644d38bdeb2bc001ddd4fa",
        "wType": "Image"
      }
    },
    "imgToolTip": {
      "__events__": {},
      "__info__": {
        "kuid": "f6e3d8c173f94ecf8a26a23cf92f2a9c",
        "srcKUID": "ebdc37637a0c44a8aaa7626084f4fc84",
        "wType": "Image"
      }
    },
    "lblAccountRenewal": {
      "__events__": {},
      "__info__": {
        "kuid": "e142b4cb3ced47388d536d0b172d7ecc",
        "srcKUID": "hc9da1b84ba1465c83ffa19892490133",
        "wType": "Label"
      }
    },
    "lblCategory": {
      "__events__": {},
      "__info__": {
        "kuid": "cd220eb64af74072a8846d20761be44c",
        "srcKUID": "e13f476baf524758a4a6a0ab11170a78",
        "wType": "Label"
      }
    },
    "lblDateAndTime": {
      "__events__": {},
      "__info__": {
        "kuid": "d8363bea138148ef82f097a6ee7ae281",
        "srcKUID": "j545e0cffc3b445780d707f50e8ad46e",
        "wType": "Label"
      }
    },
    "lblDescripption": {
      "__events__": {},
      "__info__": {
        "kuid": "gc51f95532f14b0d88962bdc77bf4163",
        "srcKUID": "a009d1bc89414bafb9268ab75fb550ee",
        "wType": "Label"
      },
      "text": "Description"
    },
    "lblHeadingNotification": {
      "__events__": {},
      "__info__": {
        "kuid": "e1ffc97920a649808e8f20d0c9e419ff",
        "srcKUID": "ac739dde5f544c3a85010c6fea48511b",
        "wType": "Label"
      }
    },
    "lblInfoContent": {
      "__events__": {},
      "__info__": {
        "kuid": "af9432cd01c64e8e9e4513565a111dcd",
        "srcKUID": "b2270f49a52b4e28b341117050366793",
        "wType": "Label"
      }
    },
    "lblInfoHeader": {
      "__events__": {},
      "__info__": {
        "kuid": "a08ccd6ba0aa4b1cbca55ab633e4945b",
        "srcKUID": "ada656739b0f430c92490d72b304b3c7",
        "wType": "Label"
      }
    },
    "lblNewMessage": {
      "__events__": {},
      "__info__": {
        "kuid": "g17c8170c2154472ac58f58fda01e6e5",
        "srcKUID": "a227597498bf4daaa776f8ce91b1bc67",
        "wType": "Label"
      }
    },
    "lblOfferLink": {
      "__events__": {},
      "__info__": {
        "kuid": "a5bf23a729fb4830993710b0c8b06a33",
        "srcKUID": "h20aafb4a058409a906ce189acd2de64",
        "wType": "Label"
      }
    },
    "lblSort": {
      "__events__": {},
      "__info__": {
        "kuid": "e302922df92744bb83f2c1484643dd6f",
        "srcKUID": "cc666a0e49974a0f8e6536aa18b04da0",
        "wType": "Label"
      }
    },
    "lblSubject": {
      "__events__": {},
      "__info__": {
        "kuid": "e3d856b3d5d34797ba6c62bccf74a8d1",
        "srcKUID": "ad3bfc6bf7474255802fa46ca5004a6e",
        "wType": "Label"
      }
    },
    "lblTransactions": {
      "__events__": {},
      "__info__": {
        "kuid": "j630868f39654a29ad1c134d9f1e14ed",
        "srcKUID": "8c770a640d8f4558a001a67fbb8f48f6",
        "wType": "Label"
      },
      "i18n_text": "i18n.AlertsAndMessages.AlertsAndMessages"
    },
    "lblWarningNewMessage": {
      "__events__": {},
      "__info__": {
        "kuid": "b2955da39ba64e73b184e21e5ccdebb8",
        "srcKUID": "f41654b0336a4a7a9dba48c1af932f78",
        "wType": "Label"
      }
    },
    "lblWarningNotMoreThan5files": {
      "__events__": {},
      "__info__": {
        "kuid": "cf52fed1b3d14dabaec1de0365e79a59",
        "srcKUID": "d1ec31f87b5b48d58bccfe360a43121b",
        "wType": "Label"
      }
    },
    "lblWarningReplyMessage": {
      "__events__": {},
      "__info__": {
        "kuid": "j0bddddd01d6401091249ba82b03802d",
        "srcKUID": "aef0f831b649499989b7bd1b819f00c6",
        "wType": "Label"
      }
    },
    "lbxDate": {
      "__events__": {},
      "__info__": {
        "kuid": "c23b2cd79da24d34b1a13c860bf75d58",
        "srcKUID": "d5ee506eb7664873860aa7f1cf774a4d",
        "wType": "ListBox"
      }
    },
    "listbxCategory": {
      "__events__": {
        "ide_onTouchEnd": "AS_ListBox_c95d6e25dd4d49a387c5f5eba6746ace"
      },
      "__info__": {
        "kuid": "e68f8831ab7d47bf9a1453778bff4ed9",
        "srcKUID": "ebc8c95ed75c47f893d09e08dc228c0e",
        "wType": "ListBox"
      }
    },
    "rtxNoSearchResults": {
      "__events__": {},
      "__info__": {
        "kuid": "e8b40daa7c50411bb2dfe73f67140271",
        "srcKUID": "jc91662cf211434085cfa1e61ac1274d",
        "wType": "RichText"
      }
    },
    "rtxNotificationData": {
      "__events__": {},
      "__info__": {
        "kuid": "e60dd7e0cd8847f48f07e4f7ae576729",
        "srcKUID": "ed445ccb45ab47c5bc97bbccf3bef1cc",
        "wType": "RichText"
      }
    },
    "segAttachment": {
      "__events__": {},
      "__info__": {
        "kuid": "b79884c390ee49a582ff76ba8e372b94",
        "srcKUID": "cc409b9315164a0493e07f38a5e5f866",
        "wType": "Segment"
      }
    },
    "segAttachmentRightMessage": {
      "__events__": {},
      "__info__": {
        "kuid": "h1c1306ae6dc420dab6adf4858e10d2f",
        "srcKUID": "h749fb7af6354966952b7d0ee385ca58",
        "wType": "Segment"
      }
    },
    "segMessageAndNotification": {
      "__events__": {},
      "__info__": {
        "kuid": "gb033e5b30eb46d4b766258e018ef4e0",
        "srcKUID": "fab39218c3764738b4fd9d1ea0c0924e",
        "wType": "Segment"
      }
    },
    "segMessages": {
      "__events__": {},
      "__info__": {
        "kuid": "if352a2efac343198f750e526ab169a8",
        "srcKUID": "addc3c51fd1742ee8a1f73c73c5424fb",
        "wType": "Segment"
      },
      "isVisible": true
    },
    "tbxSubject": {
      "__events__": {
        "desktopweb": {
          "ide_onEndEditing": "AS_TextField_c49e2c7d4bdc41c7b4c01d7361a592cc"
        }
      },
      "__info__": {
        "kuid": "cdd4d4b8e4264ebd9fd8a6b8fa5a0207",
        "srcKUID": "a4efc60a66064ee79abd6638b68faeb5",
        "wType": "TextField"
      }
    },
    "textareaDescription": {
      "__events__": {
        "desktopweb": {
          "ide_onEndEditing": "AS_TextArea_a214c22d7aae4f9da97f48ef922bfa7d"
        }
      },
      "__info__": {
        "kuid": "heb0cf541e674251bb167ee324cc85af",
        "srcKUID": "c2b049cafe364438bd27bd637441c360",
        "wType": "TextArea"
      },
      "isVisible": true
    },
    "txtAreaReply": {
      "__events__": {},
      "__info__": {
        "kuid": "b50be2b73496478580f0725776e0c6fb",
        "srcKUID": "g060dab5331045159072199d078efd4d",
        "wType": "TextArea"
      }
    },
    "txtSearch": {
      "__events__": {},
      "__info__": {
        "kuid": "da01a9172469476b8aa13841151e24e1",
        "srcKUID": "h8a026bc59384d51bd8f77c0c8d09309",
        "wType": "TextField"
      },
      "left": {
        "Default": {
          "type": "string",
          "value": "5%"
        }
      },
      "width": {
        "Default": {
          "type": "string",
          "value": "80%"
        }
      }
    },
    "txtareaNotification": {
      "__events__": {},
      "__info__": {
        "kuid": "af0be1df83e74c6fa2028353c8ffa38a",
        "srcKUID": "g4bb6716a85f4e3ebd409cd2bb67c9da",
        "wType": "TextArea"
      }
    },
    "btnSearchCancel": {
      "__events__": {},
      "__info__": {
        "kuid": "db8aca76ee764494b1f196ab3cee73d9",
        "srcKUID": "ba9e43571d6647cd82856f6b820c1dcb",
        "wType": "Button"
      },
      "isVisible": false
    },
    "btnSearchmod": {
      "__events__": {},
      "__info__": {
        "kuid": "ea054d3e68a8485d99de1aa6136138f6",
        "srcKUID": "ccff9722fd5045babf0457c19f8acd25",
        "wType": "Button"
      }
    },
    "flxSeparatorMessages": {
      "__events__": {},
      "__info__": {
        "kuid": "a9fd2aabc64d479284b6c26dedd58c0d",
        "srcKUID": "f557a1cf45ee49fdb488b47dbcec34f2",
        "wType": "FlexContainer"
      },
      "top": {
        "Default": {
          "type": "string",
          "value": "59dp"
        }
      }
    },
    "imgMsgsSearch": {
      "__events__": {},
      "__info__": {
        "kuid": "j775110a0d2f4a709f85c5cdaa67b031",
        "srcKUID": "c16a7db5d5244dcd9041e00a15aabcb3",
        "wType": "Image"
      },
      "centerX": {
        "Default": {
          "type": "string",
          "value": "34%"
        }
      },
      "isVisible": true
    }
  },
  "id": "NotficationsAndMessages",
  "info": null,
  "isdatareferenced": false,
  "isvisible": true,
  "kuid": "c3f601cd37934a3e98d94fb96f99e313",
  "layouttype": 2,
  "masterType": 0,
  "name": "kony.ui.UserWidgetInstance",
  "parent": "flxMain",
  "pf": "frmNotificationsAndMessages",
  "snaptogrid": true,
  "sourceUserWidget": "b3ec3b2942d24f42909c0353c7ffcc94",
  "wType": "UserWidgetInstance",
  "zindex": 1
}