{
  "@class": "com.kony.gen.viz.model.component.KVizButton",
  "DNDConfig": null,
  "__parentReadjusting__": false,
  "_height_": {
    "type": "ref",
    "value": "preferred"
  },
  "_left_": {
    "type": "string",
    "value": "102dp"
  },
  "_margin_": [
    6,
    6,
    6,
    6
  ],
  "_padding_": [
    0,
    0,
    0,
    0
  ],
  "_skin_": "seec679710ee418aa45211d9251db365",
  "_text_": "Button",
  "_top_": {
    "type": "string",
    "value": "2dp"
  },
  "_width_": {
    "type": "string",
    "value": "170dp"
  },
  "canUpdateUI": true,
  "containerweight": 100,
  "contentalignment": 4,
  "disabledSkins": {
    "focusSkin": "sf44d06ca8224832827ea7fdff757013"
  },
  "displaytext": true,
  "focusskin": null,
  "id": "btnTermsAndConditions",
  "info": null,
  "isvisible": true,
  "kuid": "dfffc650dca044eea2964fbe0ab9aa43",
  "name": "kony.ui.Button",
  "parent": "flxTCCheckBox",
  "pf": "userwidgetmodel",
  "texti18n": "i18n.common.TnC",
  "wType": "Button",
  "zindex": 1,
  "tooltip": "Terms \u0026 Conditions"
}