{
  "@class": "com.kony.gen.viz.model.component.KVizLabel",
  "DNDConfig": null,
  "__markedForDelete__": true,
  "__parentReadjusting__": false,
  "_height_": {
    "type": "ref",
    "value": "preferred"
  },
  "_left_": {
    "type": "string",
    "value": "15dp"
  },
  "_margin_": [
    1,
    1,
    1,
    1
  ],
  "_padding_": [
    0,
    0,
    0,
    0
  ],
  "_skin_": "s74394b79b8040d780c3e1c1d5a14165",
  "_text_": " Page level/transaction level errors appear here.",
  "_top_": {
    "type": "string",
    "value": "6dp"
  },
  "_width_": {
    "type": "string",
    "value": "95%"
  },
  "_wrapping_": 2,
  "android": {
    "textStyle": {
      "letterSpacing": 0,
      "strikeThrough": false
    }
  },
  "canUpdateUI": true,
  "containerweight": 100,
  "contentalignment": 4,
  "id": "lblInfoMessage2",
  "info": null,
  "ipad": {
    "psp": {
      "wrapping": 2
    }
  },
  "iphone": {
    "psp": {
      "wrapping": 2
    }
  },
  "isvisible": true,
  "kuid": "ja0be962fd554a6896b03b72f4b4e51d",
  "name": "kony.ui.Label",
  "parent": "flxPleaseNoteTheFollowingPoints",
  "pf": "userwidgetmodel",
  "texti18n": "i18n.StopcheckPayments.ThisRequestWillbeProcessedWithin12hrs",
  "tooltip": "",
  "wType": "Label",
  "zindex": 1
}