{
  "@class": "com.kony.gen.viz.model.component.KVizLabel",
  "DNDConfig": null,
  "__markedForDelete__": true,
  "__parentReadjusting__": false,
  "_height_": {
    "type": "ref",
    "value": "preferred"
  },
  "_left_": {
    "type": "string",
    "value": "14dp"
  },
  "_margin_": [
    1,
    1,
    1,
    1
  ],
  "_padding_": [
    0,
    0,
    0,
    0
  ],
  "_skin_": "s53d097dd998470bac90064e6f696f84",
  "_text_": "Page level/transaction level errors appear here.",
  "_top_": {
    "type": "string",
    "value": "3dp"
  },
  "_width_": {
    "type": "string",
    "value": "85%"
  },
  "_wrapping_": 2,
  "android": {
    "textStyle": {
      "letterSpacing": 0,
      "strikeThrough": false
    }
  },
  "canUpdateUI": true,
  "containerweight": 100,
  "contentalignment": 4,
  "id": "lblPleaseNoteTheFollowingPoints",
  "info": null,
  "ipad": {
    "psp": {
      "wrapping": 2
    }
  },
  "iphone": {
    "psp": {
      "wrapping": 2
    }
  },
  "isvisible": true,
  "kuid": "jd64fa2f33a54fed8dd544166ef507db",
  "name": "kony.ui.Label",
  "parent": "flxFollowingPoints",
  "pf": "userwidgetmodel",
  "texti18n": "i18n.ProfileManagement.PleaseNoteTheFollowingPoints",
  "tooltip": "",
  "wType": "Label",
  "zindex": 1
}