{
  "@class": "com.kony.gen.viz.model.component.KVizTextBox2",
  "DNDConfig": null,
  "__parentReadjusting__": false,
  "_height_": {
    "type": "string",
    "value": "40dp"
  },
  "_left_": {
    "type": "string",
    "value": "35dp"
  },
  "_margin_": [
    0,
    0,
    0,
    0
  ],
  "_padding_": [
    3,
    0,
    0,
    0
  ],
  "_placeholder_": "Amount",
  "_skin_": "sb049626e4a048c682930b6769048b65",
  "_text_": "",
  "_width_": {
    "type": "string",
    "value": "90.28%"
  },
  "autocapitalize": "none",
  "autocomplete": false,
  "autocorrect": false,
  "autofilter": false,
  "canUpdateUI": true,
  "containerheight": "",
  "containerheightmode": 1,
  "containerweight": 100,
  "contentalignment": 4,
  "id": "tbxAmount",
  "info": null,
  "isvisible": true,
  "keyboardtype": "A",
  "kuid": "ib99aa4fd59148e4859820a7010c98b6",
  "mode": "A",
  "name": "kony.ui.TextBox2",
  "parent": "flxAmount",
  "pf": "userwidgetmodel",
  "securetextentry": false,
  "textinputmode": "A",
  "viewtype": "default",
  "wType": "TextField",
  "zindex": 1,
  "__markedForDelete__": true,
  "centery": "49.29%",
  "disabledSkins": {
    "focusSkin": "s5f5a9f8c3a548e281fa49915b760e95"
  }
}