{
  "DNDConfig": null,
  "__parentReadjusting__": false,
  "_height_": {
    "type": "string",
    "value": "60dp"
  },
  "_left_": {
    "type": "string",
    "value": "0dp"
  },
  "_margin_": [
    0,
    0,
    0,
    0
  ],
  "_orientation_": 6,
  "_padding_": [
    0,
    0,
    0,
    0
  ],
  "_percent_": true,
  "_skin_": "s24c92fc23b14f5484b693ee9b8a9b35",
  "_top_": {
    "type": "string",
    "value": "0dp"
  },
  "_width_": {
    "type": "string",
    "value": "80%"
  },
  "allboxes": [],
  "autogrowmode": 0,
  "canUpdateUI": true,
  "children": [
    "lblDocName1",
    "lblSize1"
  ],
  "clipbounds": true,
  "containerId": true,
  "containerweight": 100,
  "enablescrolling": true,
  "id": "flxAttachmentName1",
  "info": null,
  "isvisible": true,
  "kuid": "dc8d1b53513a42d4ba9685971861d210",
  "layouttype": 3,
  "name": "kony.ui.FlexContainer",
  "parent": "flxDocAttachment1",
  "pf": "segMessagesLeft",
  "snapgridsize": 10,
  "snaptogrid": true,
  "wType": "FlexContainer",
  "widgetalignment": 1,
  "zindex": 1
}