{
  "DNDConfig": null,
  "__parentReadjusting__": false,
  "_bottom_": {
    "type": "string",
    "value": "10dp"
  },
  "_height_": {
    "type": "string",
    "value": "60dp"
  },
  "_left_": {
    "type": "string",
    "value": "24dp"
  },
  "_margin_": [
    0,
    0,
    0,
    0
  ],
  "_orientation_": 6,
  "_padding_": [
    0,
    0,
    0,
    0
  ],
  "_percent_": true,
  "_right_": {
    "type": "string",
    "value": "24dp"
  },
  "_skin_": "s72e91a1d9934d2a810357fc7191ba4e",
  "_width_": {
    "type": "string",
    "value": "93.10%"
  },
  "allboxes": [],
  "autogrowmode": 0,
  "canUpdateUI": true,
  "children": [
    "imgPDF4",
    "flxVerticalMiniSeparator4",
    "flxAttachmentName4",
    "flxRemoveAttachment4",
    "flxDownloadAttachment4"
  ],
  "clipbounds": true,
  "containerId": true,
  "containerweight": 100,
  "enablescrolling": true,
  "id": "flxDocAttachment4",
  "info": null,
  "isvisible": false,
  "kuid": "bde29612875a42bdac7b24029c2746d9",
  "layouttype": 3,
  "name": "kony.ui.FlexContainer",
  "parent": "flxMessage",
  "pf": "segMessagesLeft",
  "snapgridsize": 10,
  "snaptogrid": true,
  "wType": "FlexContainer",
  "widgetalignment": 1,
  "zindex": 1
}