{
  "@class": "com.kony.gen.viz.model.component.KVizLabel",
  "DNDConfig": null,
  "__markedForDelete__": true,
  "__parentReadjusting__": false,
  "_bottom_": {
    "type": "string",
    "value": "20dp"
  },
  "_height_": {
    "type": "ref",
    "value": "preferred"
  },
  "_margin_": [
    1,
    1,
    1,
    1
  ],
  "_padding_": [
    0,
    0,
    0,
    0
  ],
  "_right_": {
    "type": "string",
    "value": "1.50%"
  },
  "_skin_": "sf7eee7225154cdab560765c8599ad14",
  "_text_": "Platinum card.pdf",
  "_top_": {
    "type": "string",
    "value": "10dp"
  },
  "_width_": {
    "type": "ref",
    "value": "preferred"
  },
  "_wrapping_": 2,
  "android": {
    "textStyle": {
      "letterSpacing": 0,
      "strikeThrough": false
    }
  },
  "canUpdateUI": true,
  "containerId": true,
  "containerweight": 100,
  "contentalignment": 4,
  "id": "lblShowAll",
  "info": null,
  "ipad": {
    "psp": {
      "wrapping": 2
    }
  },
  "iphone": {
    "psp": {
      "wrapping": 2
    }
  },
  "isvisible": false,
  "kuid": "a0a12f55ef734a46b4faa04f217bbff4",
  "name": "kony.ui.Label",
  "parent": "flxMessage",
  "pf": "segMessagesLeft",
  "texti18n": "i18n.Notifications\u0026Messages.ShowAll",
  "tooltip": "",
  "wType": "Label",
  "zindex": 1
}