{
  "@class": "com.kony.gen.viz.model.component.KVizLabel",
  "DNDConfig": null,
  "__parentReadjusting__": false,
  "_bottom_": {
    "type": "string",
    "value": "15dp"
  },
  "_height_": {
    "type": "ref",
    "value": "preferred"
  },
  "_left_": {
    "type": "string",
    "value": "0%"
  },
  "_margin_": [
    1,
    1,
    1,
    1
  ],
  "_padding_": [
    0,
    0,
    0,
    0
  ],
  "_skin_": "s7b901f0589e4cbd914447ed46411bf5",
  "_text_": "",
  "_top_": {
    "type": "string",
    "value": "34dp"
  },
  "_width_": {
    "type": "ref",
    "value": "preferred"
  },
  "_wrapping_": 2,
  "android": {
    "textStyle": {
      "letterSpacing": 0,
      "strikeThrough": false
    }
  },
  "canUpdateUI": true,
  "containerweight": 100,
  "contentalignment": 4,
  "id": "lblMessageHeading",
  "info": null,
  "ipad": {
    "psp": {
      "wrapping": 2
    }
  },
  "iphone": {
    "psp": {
      "wrapping": 2
    }
  },
  "isvisible": true,
  "kuid": "h70ce62095594b6991bb6b65abd27764",
  "name": "kony.ui.Label",
  "parent": "flxIdentityVerificationMessageBox",
  "pf": "userwidgetmodel",
  "texti18n": "i18n.NUO.IdentityVerificationError",
  "tooltip": "",
  "wType": "Label",
  "zindex": 1
}