{
  "@class": "com.kony.gen.viz.model.component.KVizLabel",
  "DNDConfig": null,
  "__parentReadjusting__": false,
  "_height_": {
    "type": "ref",
    "value": "preferred"
  },
  "_left_": {
    "type": "string",
    "value": "0%"
  },
  "_margin_": [
    1,
    1,
    1,
    1
  ],
  "_padding_": [
    0,
    0,
    0,
    0
  ],
  "_skin_": "sc30b371f40d4cd2979dfbd67c441409",
  "_text_": "",
  "_top_": {
    "type": "string",
    "value": "0dp"
  },
  "_width_": {
    "type": "string",
    "value": "70%"
  },
  "_wrapping_": 2,
  "android": {
    "textStyle": {
      "letterSpacing": 0,
      "strikeThrough": false
    }
  },
  "canUpdateUI": true,
  "containerweight": 100,
  "contentalignment": 4,
  "id": "lblMessage",
  "info": null,
  "ipad": {
    "psp": {
      "wrapping": 2
    }
  },
  "iphone": {
    "psp": {
      "wrapping": 2
    }
  },
  "isvisible": true,
  "kuid": "a8c04ba0cbab40478d78d5aa4badb441",
  "name": "kony.ui.Label",
  "parent": "flxIdentityVerificationMessageBox",
  "pf": "userwidgetmodel",
  "texti18n": "i18n.NUO.TheIdentityVerificationhasFailed",
  "tooltip": "",
  "wType": "Label",
  "zindex": 1
}