{
  "@class": "com.kony.gen.viz.model.component.KVizUserWidget",
  "DNDConfig": null,
  "__parentReadjusting__": false,
  "_children_": [],
  "_height_": {
    "type": "string",
    "value": "51dp"
  },
  "_left_": {
    "type": "string",
    "value": "0dp"
  },
  "_margin_": [
    0,
    0,
    0,
    0
  ],
  "_orientation_": 1,
  "_padding_": [
    0,
    0,
    0,
    0
  ],
  "_percent_": true,
  "_render_": true,
  "_skin_": "s2ce93a13331476c8dd4bdd20e9a2e14",
  "_top_": {
    "type": "string",
    "value": "1dp"
  },
  "_width_": {
    "type": "string",
    "value": "100%"
  },
  "areflexpropsreferenced": false,
  "autogrowmode": 0,
  "canUpdateUI": true,
  "clipbounds": true,
  "containerweight": 0,
  "dataDiffs": {
    "breadcrumb": {
      "__events__": {},
      "__info__": {
        "isRoot": true,
        "kuid": "ebb1ba92e3b94fccbf55ac1147d35a17",
        "srcKUID": "jdbd779e0c7743739197ebb17ae3c27e",
        "wType": "FlexContainer"
      },
      "autogrowMode": {
        "Default": 0
      },
      "height": {
        "Default": {
          "type": "string",
          "value": "51dp"
        }
      },
      "isVisible": true,
      "top": {
        "Default": {
          "type": "string",
          "value": "1dp"
        }
      }
    },
    "btnBreadcrumb1": {
      "__events__": {},
      "__info__": {
        "kuid": "ef4b20a86d314dada68184efbffb717c",
        "srcKUID": "j8c10426f5ad4cc5abe5b3dafa2dbb1c",
        "wType": "Button"
      },
      "i18n_text": "i18n.billPay.BillPayMakeTransfer"
    },
    "btnBreadcrumb2": {
      "__events__": {},
      "__info__": {
        "kuid": "b9eb2b7aeacf41f496bbbac6ac400639",
        "srcKUID": "e8107b226c2b40cf90a9a46174bc7f1d",
        "wType": "Button"
      },
      "i18n_text": "i18n.billPay.BillPayMakeTransfer"
    },
    "flxBottomBorder": {
      "__events__": {},
      "__info__": {
        "kuid": "fbe4daa7f74d4903b40ac2763fc14722",
        "srcKUID": "i0ec1627a998464aade04cd886ef46aa",
        "wType": "FlexContainer"
      }
    },
    "flxBreadcrumbcontainer": {
      "__events__": {},
      "__info__": {
        "kuid": "e12bc755d02f49ff8ea413ad19a2dfa1",
        "srcKUID": "j0c7057677fd4a26b82f7fa59cdd360e",
        "wType": "FlexContainer"
      },
      "autogrowMode": {
        "Default": 0
      },
      "centerX": {
        "Default": {
          "type": "string",
          "value": "50%"
        }
      },
      "height": {
        "Default": {
          "type": "string",
          "value": "50dp"
        }
      },
      "width": {
        "Default": {
          "type": "string",
          "value": "1366dp"
        }
      }
    },
    "flxTopBorder": {
      "__events__": {},
      "__info__": {
        "kuid": "gf53758c722f499cba7013a31dcc3a70",
        "srcKUID": "bb6bda1822574264b7678002ffe888d6",
        "wType": "FlexContainer"
      }
    },
    "imgBreadcrumb": {
      "__events__": {},
      "__info__": {
        "kuid": "g69e049b547b4b8182af4519b2ec9caf",
        "srcKUID": "f5a4304fad2f41a3b5b783c4326dfc7f",
        "wType": "Image"
      },
      "centerY": {
        "Default": {
          "type": "string",
          "value": "50%"
        }
      }
    },
    "imgBreadcrumb2": {
      "__events__": {},
      "__info__": {
        "kuid": "g6df2a4bc21a4dfca4c774b74cd95605",
        "srcKUID": "ec657451494941c9970301e279e7bf1a",
        "wType": "Image"
      }
    },
    "lblBreadcrumb2": {
      "__events__": {},
      "__info__": {
        "kuid": "b442ba6a0c1b41ab912c6c36aa17d8b0",
        "srcKUID": "c087aea595bb4c9fa3e64e58b7e245f9",
        "wType": "Label"
      },
      "i18n_text": "i18n.billPay.BillPayMakeTransfer",
      "isVisible": false
    },
    "lblBreadcrumb3": {
      "__events__": {},
      "__info__": {
        "kuid": "h8dc08c8924848599d1f1aa5ece8eed5",
        "srcKUID": "ec107db8650a4c9db78a5676ab665c29",
        "wType": "Label"
      },
      "i18n_text": "i18n.hamburger.transfers",
      "isVisible": false
    }
  },
  "id": "breadcrumb",
  "info": null,
  "isdatareferenced": false,
  "isvisible": true,
  "kuid": "ebb1ba92e3b94fccbf55ac1147d35a17",
  "layouttype": 2,
  "masterType": 0,
  "name": "kony.ui.UserWidgetInstance",
  "parent": "flxContainer",
  "pf": "frmBillPay",
  "snaptogrid": true,
  "sourceUserWidget": "jdbd779e0c7743739197ebb17ae3c27e",
  "wType": "UserWidgetInstance"
}