{
  "@class": "com.kony.gen.viz.model.component.KVizButton",
  "DNDConfig": null,
  "__parentReadjusting__": false,
  "_height_": {
    "type": "string",
    "value": "50dp"
  },
  "_left_": {
    "type": "string",
    "value": "45%"
  },
  "_margin_": [
    6,
    6,
    6,
    6
  ],
  "_padding_": [
    0,
    0,
    0,
    0
  ],
  "_skin_": "sfbbba35ede4457b94eb681b72349b98",
  "_text_": "",
  "_top_": {
    "type": "string",
    "value": "0px"
  },
  "_width_": {
    "type": "string",
    "value": "256dp"
  },
  "canUpdateUI": true,
  "containerweight": 100,
  "contentalignment": 5,
  "desktopweb": {
    "psp": {
      "hoverSkin": "s81054b5e2b74f17a5261991df565427"
    }
  },
  "disabledSkins": {},
  "displaytext": true,
  "focusskin": "s5a4f67acd3e47b9be6d6910a7a6686f",
  "id": "btnConfirm",
  "ide_onClick": "AS_Button_h80efc8b19a54629a344df1982dcef41",
  "info": null,
  "isvisible": false,
  "kuid": "d7b1f7f23c654bdd80b30899d57b4cf3",
  "name": "kony.ui.Button",
  "parent": "flxConfirmButton",
  "pf": "frmBillPay",
  "texti18n": "i18n.common.continue",
  "tooltip": "Continue",
  "wType": "Button",
  "zindex": 1
}