{
  "DNDConfig": null,
  "__parentReadjusting__": false,
  "_height_": {
    "type": "string",
    "value": "60dp"
  },
  "_left_": {
    "type": "string",
    "value": "0%"
  },
  "_margin_": [
    0,
    0,
    0,
    0
  ],
  "_orientation_": 6,
  "_padding_": [
    0,
    0,
    0,
    0
  ],
  "_percent_": true,
  "_skin_": "s93ac737171d42a798da0f2e334b75d9",
  "_top_": {
    "type": "string",
    "value": "0dp"
  },
  "_width_": {
    "type": "string",
    "value": "100%"
  },
  "allboxes": [],
  "autogrowmode": 0,
  "canUpdateUI": true,
  "children": [
    "btnAddPayee"
  ],
  "clipbounds": false,
  "containerweight": 100,
  "desktopweb": {
    "psp": {}
  },
  "disabledSkins": {
    "hoverSkin": "s4f295c6755849a8ada803af434f162b"
  },
  "enablescrolling": true,
  "id": "flxAddPayee",
  "ide_onClick": "AS_FlexContainer_gea336c42e864916b6cf9f810ed4262d",
  "info": null,
  "isvisible": true,
  "kuid": "ce12343bfa344915a18f9e78409484c1",
  "layouttype": 2,
  "name": "kony.ui.FlexContainer",
  "parent": "flxaddpayeemakeonetimepayment",
  "pf": "frmBillPay",
  "snapgridsize": 10,
  "snaptogrid": true,
  "wType": "FlexContainer",
  "widgetalignment": 1,
  "zindex": 1
}