{
  "DNDConfig": null,
  "__parentReadjusting__": false,
  "_height_": {
    "type": "ref",
    "value": "preferred"
  },
  "_left_": {
    "type": "string",
    "value": "6.08%"
  },
  "_margin_": [
    0,
    0,
    0,
    0
  ],
  "_orientation_": 6,
  "_padding_": [
    0,
    0,
    0,
    0
  ],
  "_percent_": true,
  "_skin_": "s67aaf880c314a078260ceb44e717e5d",
  "_top_": {
    "type": "string",
    "value": "30dp"
  },
  "_width_": {
    "type": "string",
    "value": "62.20%"
  },
  "allboxes": [],
  "autogrowmode": 1,
  "canUpdateUI": true,
  "children": [
    "transferActivitymodified"
  ],
  "clipbounds": false,
  "containerweight": 100,
  "enablescrolling": true,
  "id": "flxBillPayManagePayeeActivitymodified",
  "info": null,
  "isvisible": false,
  "kuid": "i2470e755e32473796f37931595f28b9",
  "layouttype": 2,
  "minheight": {
    "type": "string",
    "value": "610dp"
  },
  "name": "kony.ui.FlexContainer",
  "parent": "flxMainContainer",
  "pf": "frmBillPay",
  "snapgridsize": 10,
  "snaptogrid": true,
  "wType": "FlexContainer",
  "widgetalignment": 1,
  "zindex": 1
}