{
  "@class": "com.kony.gen.viz.model.component.KVizUserWidget",
  "DNDConfig": null,
  "__parentReadjusting__": false,
  "_children_": [],
  "_height_": {
    "type": "ref",
    "value": "preferred"
  },
  "_left_": {
    "type": "string",
    "value": "1dp"
  },
  "_margin_": [
    0,
    0,
    0,
    0
  ],
  "_orientation_": 1,
  "_padding_": [
    0,
    0,
    0,
    0
  ],
  "_percent_": true,
  "_render_": true,
  "_skin_": "s6c801425113440f9292523a3df3e5c2",
  "_top_": "0dp",
  "_width_": {
    "type": "string",
    "value": "100%"
  },
  "areflexpropsreferenced": false,
  "autogrowmode": 1,
  "canUpdateUI": true,
  "clipbounds": true,
  "containerweight": 0,
  "dataDiffs": {
    "LetsAuthenticate": {
      "__events__": {},
      "__info__": {
        "isRoot": true,
        "kuid": "f2a44db97f5340bca79b27ccc1ffa1a3",
        "srcKUID": "c110f31ce6a342ed93e196fc53ae6d8f",
        "wType": "FlexContainer"
      }
    },
    "btnCancel": {
      "__events__": {},
      "__info__": {
        "kuid": "e336e9b4a9904d768873853d5fc339ba",
        "srcKUID": "d6c5e9ebe58d454ca1a0ed9f994b9e9d",
        "wType": "Button"
      },
      "i18n_text": "i18n.transfers.Cancel"
    },
    "btnProceed": {
      "__events__": {},
      "__info__": {
        "kuid": "ic077c5bd38546438dedaf760bdf27ac",
        "srcKUID": "a390d49d5d9e4a25a793214eebc32426",
        "wType": "Button"
      },
      "left": {
        "Default": {
          "type": "string",
          "value": "76.8%"
        }
      },
      "i18n_text": "i18n.common.proceed"
    },
    "btnProfileSetting": {
      "__events__": {},
      "__info__": {
        "kuid": "a85bbd1f12224a6286b1eb82a2edefcd",
        "srcKUID": "a0a8589a83fc4c93acb891384e93e398",
        "wType": "Button"
      }
    },
    "flxActions": {
      "__events__": {},
      "__info__": {
        "kuid": "edb6d5091d0c47b2a54b936404eeb6f5",
        "srcKUID": "c18056c1885a469b8b7167178d91ae17",
        "wType": "FlexContainer"
      }
    },
    "flxCheckBoxPhoneNo": {
      "__events__": {},
      "__info__": {
        "kuid": "f112a52dd319440d9d16e80dba1b2e9c",
        "srcKUID": "bb65a12df78b4ea1b5745013a3812f2e",
        "wType": "FlexContainer"
      }
    },
    "flxCheckboxEmailId": {
      "__events__": {},
      "__info__": {
        "kuid": "e2e15cbbccae492f80f5bd6aafe145ce",
        "srcKUID": "a1a9feb097fc4de79085c30cae06b133",
        "wType": "FlexContainer"
      }
    },
    "flxDetails": {
      "__events__": {},
      "__info__": {
        "kuid": "g4cd1bb8e9794f689d429e54467c26cd",
        "srcKUID": "aefbe13b53194acfb9d0aae6baa63d7f",
        "wType": "FlexContainer"
      }
    },
    "flxHeader": {
      "__events__": {},
      "__info__": {
        "kuid": "a1afe38a329a431ba8afa048a862869c",
        "srcKUID": "ib9d03e44e744af88f062a94dcd1efde",
        "wType": "FlexContainer"
      }
    },
    "flxProfileSetting": {
      "__events__": {},
      "__info__": {
        "kuid": "c7b3dd7554f0456baedad23a53f6f8e3",
        "srcKUID": "d24d179578c54533b1b15ed5025a24dd",
        "wType": "FlexContainer"
      }
    },
    "flxRegisteredEmailId": {
      "__events__": {},
      "__info__": {
        "kuid": "bd44c1a2694549d3bfa4e3a0681fd30e",
        "srcKUID": "b9acf9ab55c6446093ba55f15a723f9d",
        "wType": "FlexContainer"
      }
    },
    "flxRegisteredPhoneNo": {
      "__events__": {},
      "__info__": {
        "kuid": "bdd5180b403e4ef299eb51b154b14171",
        "srcKUID": "ad4018780fa34e558f6648ac96379d39",
        "wType": "FlexContainer"
      }
    },
    "flxSeparator": {
      "__events__": {},
      "__info__": {
        "kuid": "f790e803dabe461096c93eb476cbf3ce",
        "srcKUID": "g45a48792a344617a66466029c804983",
        "wType": "FlexContainer"
      }
    },
    "flxSeparator2": {
      "__events__": {},
      "__info__": {
        "kuid": "edd0abe4bf064508a0e12992895c6a43",
        "srcKUID": "c132a9d87a2d4399a0ec03d9b31cd00a",
        "wType": "FlexContainer"
      }
    },
    "imgCheckBoxPhoneNo": {
      "__events__": {},
      "__info__": {
        "kuid": "df90a693bb5a43b1a4b97d6a5a541edc",
        "srcKUID": "d153b419fbfe4e619b377a9bc6a65eae",
        "wType": "Image"
      }
    },
    "imgCheckboxEmailId": {
      "__events__": {},
      "__info__": {
        "kuid": "aae5dd590e56438ab83dc1f4ce7214ec",
        "srcKUID": "e04d639c4030433898502072ba5575d3",
        "wType": "Image"
      }
    },
    "lblChangeReceivingMedium": {
      "__events__": {},
      "__info__": {
        "kuid": "h40ba53e411e4a4c8c02ff208698f1b8",
        "srcKUID": "b8756d17655a462ebc648f0cd830b40f",
        "wType": "Label"
      }
    },
    "lblCloseBrace": {
      "__events__": {},
      "__info__": {
        "kuid": "iadb4211fe3c4ba9b4e7295ffac1c355",
        "srcKUID": "hdc925593da046d7b18f9480343a5af3",
        "wType": "Label"
      }
    },
    "lblCloseBracePhoneNo": {
      "__events__": {},
      "__info__": {
        "kuid": "ffc40180df2948819d89101eafc93952",
        "srcKUID": "e73c83d0369c41708b15ac589c34927a",
        "wType": "Label"
      }
    },
    "lblHeader": {
      "__events__": {},
      "__info__": {
        "kuid": "j1ff62f8cfba4d0a9b01c2568f5a06fc",
        "srcKUID": "b29f289e898d4085bd3776fc03f87654",
        "wType": "Label"
      }
    },
    "lblHeading1": {
      "__events__": {},
      "__info__": {
        "kuid": "h581dca6ee2e426aaef7588c1e0bfff2",
        "srcKUID": "de4c99c07c0b4ac2a18238bbd4fff9bf",
        "wType": "Label"
      }
    },
    "lblHeading2": {
      "__events__": {},
      "__info__": {
        "kuid": "a48991caae4a4e94806373c2a0be871e",
        "srcKUID": "e71fac16f420444e9550a8e9d3d2b169",
        "wType": "Label"
      }
    },
    "lblNoteSecureAccessCode": {
      "__events__": {},
      "__info__": {
        "kuid": "d22e18a95caa4e0186351c18e93f8a17",
        "srcKUID": "j87f2012feeb4bfaaa1be3e332445685",
        "wType": "Label"
      }
    },
    "lblOpenBrace": {
      "__events__": {},
      "__info__": {
        "kuid": "c628669331f04552a0781d2645b90edc",
        "srcKUID": "dafcf44392f44a55b683bd77a6b46cd5",
        "wType": "Label"
      }
    },
    "lblOpenBracePhoneNo": {
      "__events__": {},
      "__info__": {
        "kuid": "h5205d70578349ae8f5323340cb6d5ba",
        "srcKUID": "g69c29a21d844a408b9e506a2e213b64",
        "wType": "Label"
      }
    },
    "lblPhoneNo": {
      "__events__": {},
      "__info__": {
        "kuid": "dc6ef3eef8bf4d9f8e4cffa9aa7ef0fb",
        "srcKUID": "a46e4ab7fa004db0a34f8b56c15eb18c",
        "wType": "Label"
      }
    },
    "lblRegisteredEmailIDs": {
      "__events__": {},
      "__info__": {
        "kuid": "idef0cae1c084b9481fb4f8bf6fcb778",
        "srcKUID": "e40ace0b297843e399f4d43ed49b6fae",
        "wType": "Label"
      }
    },
    "lblRegisteredEmailId": {
      "__events__": {},
      "__info__": {
        "kuid": "bc2e84f351f842b8abd0cb8c32d54b8a",
        "srcKUID": "j8cf773e75c4411ea2c2e0c1aed82392",
        "wType": "Label"
      }
    },
    "lblRegisteredPhoneNo": {
      "__events__": {},
      "__info__": {
        "kuid": "feb1682efd8a407c96e44b356f690c18",
        "srcKUID": "f6a1c34450644c2cad46e2bc9793d078",
        "wType": "Label"
      }
    }
  },
  "id": "LetsAuthenticateSecureAccessCode",
  "info": null,
  "isdatareferenced": false,
  "isvisible": true,
  "kuid": "aaa6ceabd3d849529ed82804a29ca7c0",
  "layouttype": 4,
  "masterType": 0,
  "name": "kony.ui.UserWidgetInstance",
  "parent": "flxOptionToRecieveAccessCode",
  "pf": "frmBillPay",
  "snaptogrid": true,
  "sourceUserWidget": "c110f31ce6a342ed93e196fc53ae6d8f",
  "wType": "UserWidgetInstance"
}