{
  "@class": "com.kony.gen.viz.model.component.KVizUserWidget",
  "DNDConfig": null,
  "__parentReadjusting__": false,
  "_children_": [],
  "_height_": {
    "type": "ref",
    "value": "preferred"
  },
  "_left_": {
    "type": "string",
    "value": "0dp"
  },
  "_margin_": [
    0,
    0,
    0,
    0
  ],
  "_orientation_": 1,
  "_padding_": [
    0,
    0,
    0,
    0
  ],
  "_percent_": true,
  "_render_": true,
  "_skin_": "s62fd36c900748fdba25b1c878759dcc",
  "_top_": {
    "type": "string",
    "value": "0dp"
  },
  "_width_": {
    "type": "string",
    "value": "100%"
  },
  "areflexpropsreferenced": false,
  "autogrowmode": 1,
  "canUpdateUI": true,
  "clipbounds": true,
  "containerweight": 0,
  "dataDiffs": {
    "CopyflxAmount0ae769f7c9d2b48": {
      "__events__": {},
      "__info__": {
        "kuid": "bdbde08782a7464c85d788305ee8704f",
        "srcKUID": "h27974c4c54f4fea88d861a8b4b97725",
        "wType": "FlexContainer"
      }
    },
    "CopyflxBill0a0a4340e41b14e": {
      "__events__": {},
      "__info__": {
        "kuid": "c9433aabd5b844979c722adc25ad0ea9",
        "srcKUID": "c95cfb4643e74458aa9b41d6794f9d1d",
        "wType": "FlexContainer"
      }
    },
    "CopyflxBillPayAllPayeesWrapper0f4d4d2e32a7e4d": {
      "__events__": {},
      "__info__": {
        "kuid": "a1d9d96feda346b48bd727d2b0b9a3bc",
        "srcKUID": "f52ca4682ba84bfa9527518857b3bafb",
        "wType": "FlexContainer"
      }
    },
    "CopyflxDate0e9f719bff5034e": {
      "__events__": {},
      "__info__": {
        "kuid": "gf16ace4f50045c198f2a4a32b8cac8f",
        "srcKUID": "id0b8e04845a44d89a8fa01c99e338d0",
        "wType": "FlexContainer"
      }
    },
    "CopyflxDropdown0d5c5e8147f1f4e": {
      "__events__": {},
      "__info__": {
        "kuid": "e7a046eccd13441ab77d884104ccb20c",
        "srcKUID": "ef038eeb1ca2446ba803f38e92b23941",
        "wType": "FlexContainer"
      }
    },
    "CopyflxHorizontalLine0d0817beac4d543": {
      "__events__": {},
      "__info__": {
        "kuid": "i661b44b38b74406bc8f87ca697e8474",
        "srcKUID": "cc738569fe0e438bb339866b9714a979",
        "wType": "FlexContainer"
      }
    },
    "CopyflxPayee0g1766db8a5a746": {
      "__events__": {},
      "__info__": {
        "kuid": "dd5253f75bf442acbfe02ed5a3d97ad3",
        "srcKUID": "i3f364917779434fa1af7eeacc1320db",
        "wType": "FlexContainer"
      }
    },
    "CopyflxPayee0geacd45d25de4f": {
      "__events__": {},
      "__info__": {
        "kuid": "be485a969fdf445c9f6e45d3d584a086",
        "srcKUID": "h29e7de0b403477688d86580ddf8e8f7",
        "wType": "FlexContainer"
      }
    },
    "CopyflxPayeeWrapper0ed0f5e3581604a": {
      "__events__": {},
      "__info__": {
        "kuid": "b2ed13191be74ae1a7299ebc4a44b836",
        "srcKUID": "f12d22300a324605be7e9eef4fbb3752",
        "wType": "FlexContainer"
      }
    },
    "CopyflxPayeeWrapper0ja1d65472f5b43": {
      "__events__": {},
      "__info__": {
        "kuid": "de416503a58042d0b22cfb770ae587b2",
        "srcKUID": "fc394a4d34b449a1967035b06ba71c24",
        "wType": "FlexContainer"
      }
    },
    "CopyflxWrapper0c8518602c5f44f": {
      "__events__": {},
      "__info__": {
        "kuid": "if86d7af9cbc4022acb7686d64631041",
        "srcKUID": "a8282960b5854d058246f610f97782c1",
        "wType": "FlexContainer"
      }
    },
    "CopyimgBill0idfbb778171e48": {
      "__events__": {},
      "__info__": {
        "kuid": "bfc6d4eeddf04a629d1813ed92b83388",
        "srcKUID": "d1289a446ead43a7b45f5ea976b6fed0",
        "wType": "Image"
      }
    },
    "CopyimgDropdown0i3be8fc01a9f4b": {
      "__events__": {},
      "__info__": {
        "kuid": "j9fcb43562ed4c4dbde4a95b14029dc6",
        "srcKUID": "b6c259784441490b9224af0b51ba0710",
        "wType": "Image"
      }
    },
    "CopyimgSortDatee0e6851c369b294c": {
      "__events__": {},
      "__info__": {
        "kuid": "c3cc08ba20744d7fa99db122ecae7b72",
        "srcKUID": "a4edbe55b3984b6f880f1d93046f9a6b",
        "wType": "Image"
      }
    },
    "CopyimgSortDatee0i6778bd50dbf47": {
      "__events__": {},
      "__info__": {
        "kuid": "ec3e297b1f664692b569d01096ccfe2d",
        "srcKUID": "gcc966f76e47498dab5e6474f367ffca",
        "wType": "Image"
      }
    },
    "CopyimgSortPayee0b9e84f45c64f4c": {
      "__events__": {},
      "__info__": {
        "kuid": "f538bcd55ebf4f09bc9d235972fa1068",
        "srcKUID": "j568ce9bc7c44d4c82569664ac7fb3d3",
        "wType": "Image"
      }
    },
    "CopyimgSortPayee0h18cd98de27745": {
      "__events__": {},
      "__info__": {
        "kuid": "b0bc8c927f2749378d118f6a81fd531b",
        "srcKUID": "acb4dda3b7364733bf9b33b40a92f2e9",
        "wType": "Image"
      }
    },
    "CopylblAmount0f5e634f326834b": {
      "__events__": {},
      "__info__": {
        "kuid": "h7fc617571774f779e45e22c26d9bd9f",
        "srcKUID": "i999c0357433404aae299f146e9dc5d8",
        "wType": "Label"
      }
    },
    "CopylblBill0ie152984939c48": {
      "__events__": {},
      "__info__": {
        "kuid": "c27017142d7e49f5bfce8edbd4ff8e72",
        "srcKUID": "jdb03c5913764f418acc0c17a3875381",
        "wType": "Label"
      }
    },
    "CopylblDueDate0e029bdbe7b5348": {
      "__events__": {},
      "__info__": {
        "kuid": "bef1329423ac481aa3f7a736779b57af",
        "srcKUID": "gfa9f42e9b784af781c8882b72375e31",
        "wType": "Label"
      },
      "i18n_text": "i18n.billPay.labelBillAmount"
    },
    "CopylblPayee0a0bb147492f34b": {
      "__events__": {},
      "__info__": {
        "kuid": "f4b7101a170d4563bc5e62c9bcf305e4",
        "srcKUID": "c4e8fefc770141cd93b642b635cfa60f",
        "wType": "Label"
      }
    },
    "CopylblPayee0bfdbf2c8c16a4d": {
      "__events__": {},
      "__info__": {
        "kuid": "da09d9e1320445c38285538ec6d0463e",
        "srcKUID": "fe83787d3f694cfeafaa80e02aa3b0c2",
        "wType": "Label"
      }
    },
    "FlxBillpayeeManagePayees": {
      "__events__": {},
      "__info__": {
        "kuid": "dfaa84a1abad4767a4c15fa3cce2529c",
        "srcKUID": "he1399fab0204aebb72028d352eaf4c4",
        "wType": "FlexContainer"
      },
      "top": {
        "Default": {
          "type": "string",
          "value": ""
        }
      }
    },
    "Search": {
      "__events__": {},
      "__info__": {
        "kuid": "ja96ce70fd1c4ecda873c9e667bf2706",
        "srcKUID": "b781cbe76bad4dba9d9a0ee5d83dc16e",
        "wType": "UserWidgetInstance"
      },
      "isVisible": true
    },
    "Search.btnConfirm": {
      "__events__": {},
      "__info__": {
        "kuid": "f3ddcfb6ed90462cb22af297f4d8dcae",
        "srcKUID": "e44df2ed87fc425886a5f482105b256a",
        "wType": "Button"
      }
    },
    "Search.flxClearBtn": {
      "__events__": {},
      "__info__": {
        "kuid": "cbb8f359f4f04173b78cd0f78ba9031f",
        "srcKUID": "gf1f09eb61b84988a3e0922a22ce62dd",
        "wType": "FlexContainer"
      },
      "width": {
        "Default": {
          "type": "string",
          "value": "7%"
        }
      }
    },
    "Search.flxtxtSearchandClearbtn": {
      "__events__": {},
      "__info__": {
        "kuid": "fc5d9dd830574bd18fea40e24ad3733f",
        "srcKUID": "fbbe2931faec4057a5841a7e8a9610ea",
        "wType": "FlexContainer"
      }
    },
    "Search.imgCross": {
      "__events__": {},
      "__info__": {
        "kuid": "dbe3f14ea88f450b8ee58db6634fb5d6",
        "srcKUID": "i851ed194e0c4b0aac71f1830a7f82ad",
        "wType": "Image"
      },
      "centerX": {
        "Default": {
          "type": "string",
          "value": "47%"
        }
      }
    },
    "Search.txtSearch": {
      "__events__": {},
      "__info__": {
        "kuid": "g45717991a524269889731260cf7be87",
        "srcKUID": "ab5ff5e4256e4851a75588ab71761c39",
        "wType": "TextField"
      }
    },
    "flxActions": {
      "__events__": {},
      "__info__": {
        "kuid": "g834f28c200d495a928908bb35db0ae4",
        "srcKUID": "i766a38b5b2346f18706fbe4d54fe5ae",
        "wType": "FlexContainer"
      }
    },
    "flxAmount": {
      "__events__": {},
      "__info__": {
        "kuid": "a96ba27a82cc410bb4825b9a55ca5af9",
        "srcKUID": "b77d29b6b57245f6b7b05ba969fd3c50",
        "wType": "FlexContainer"
      }
    },
    "flxBill": {
      "__events__": {},
      "__info__": {
        "kuid": "fa857be96b904b119d6237fcbaa0321c",
        "srcKUID": "j5f7964bd3e642dfb72373cea79cb219",
        "wType": "FlexContainer"
      }
    },
    "flxBillPayAllPayees": {
      "__events__": {},
      "__info__": {
        "kuid": "d433303ec8a14e02b195b66bfa1cc62d",
        "srcKUID": "b44b51c572c34fc7a02815ef4313efd1",
        "wType": "FlexContainer"
      }
    },
    "flxBillPayAllPayeesWrapper": {
      "__events__": {},
      "__info__": {
        "kuid": "g3b80d7fa5f44a62b9b32757fc6a8612",
        "srcKUID": "c6aa979dcc4e484eb4ae55a7f1853d43",
        "wType": "FlexContainer"
      }
    },
    "flxBillPayMangaePayeesWrapper": {
      "__events__": {},
      "__info__": {
        "kuid": "ife4570baec640979f18f46dcd0b850d",
        "srcKUID": "gc2937bcc62544099778f71beb118ba1",
        "wType": "FlexContainer"
      }
    },
    "flxBillPayScheduled": {
      "__events__": {},
      "__info__": {
        "kuid": "b6cb9e9490ba428fb2cd98321ef8fe03",
        "srcKUID": "d4d8ce0895d14d5d93262d281a1f39ae",
        "wType": "FlexContainer"
      }
    },
    "flxBillerName": {
      "__events__": {},
      "__info__": {
        "kuid": "e9b0b2aade064bc6b733fbb86dce1097",
        "srcKUID": "a6cc472c42c54ffd9135e2a913f82f90",
        "wType": "FlexContainer"
      }
    },
    "flxBillerNickname": {
      "__events__": {},
      "__info__": {
        "kuid": "fcbb954a6b8b4257b9b7a2e37714ca56",
        "srcKUID": "ge1ab0570618406e9a89e9d33606d587",
        "wType": "FlexContainer"
      }
    },
    "flxDate": {
      "__events__": {},
      "__info__": {
        "kuid": "bb279dbcc2c947aaa48a119d68787644",
        "srcKUID": "h4a84bc5e1854ff08625ec48a38bf8bd",
        "wType": "FlexContainer"
      }
    },
    "flxDropdown": {
      "__events__": {},
      "__info__": {
        "kuid": "g84e957419774b9b93272b2a4d2dcff8",
        "srcKUID": "c4e12669095e45d2bb2f3279decc13f0",
        "wType": "FlexContainer"
      }
    },
    "flxDropdownManage": {
      "__events__": {},
      "__info__": {
        "kuid": "he5b23e047b74bd8ae6adecd5f95a558",
        "srcKUID": "e3c08c9ea688467bb4947f8b139f916b",
        "wType": "FlexContainer"
      }
    },
    "flxHeader": {
      "__events__": {},
      "__info__": {
        "kuid": "d5a710dbd57240ab934c15b35ce231d3",
        "srcKUID": "f9ebfca390ba4b2e9c33c2023bfb74fe",
        "wType": "FlexContainer"
      }
    },
    "flxHorizontalLine": {
      "__events__": {},
      "__info__": {
        "kuid": "hf91be072b694c0dbc2bfc452e506a09",
        "srcKUID": "a7ad05dd2bb946c58ded17752df65dec",
        "wType": "FlexContainer"
      }
    },
    "flxHorizontalLine2": {
      "__events__": {},
      "__info__": {
        "kuid": "a1bf28e9513d4b5d85b7ab98df84b05d",
        "srcKUID": "fab71354680f4f0db6dc08f7e6879e45",
        "wType": "FlexContainer"
      }
    },
    "flxHorizontalLine3": {
      "__events__": {},
      "__info__": {
        "kuid": "fb9b3aa3cc434064934455fb8ef45bf0",
        "srcKUID": "d31fc00f78fa4ebaa52428c8ed38bf84",
        "wType": "FlexContainer"
      }
    },
    "flxImginfo": {
      "__events__": {},
      "__info__": {
        "kuid": "e697caba97e2443bb672a84b23a6d624",
        "srcKUID": "i7d715835baf4a9b97af13d205d32259",
        "wType": "FlexContainer"
      }
    },
    "flxLastPayment": {
      "__events__": {},
      "__info__": {
        "kuid": "f13a37119d24492cb764a35953b9cfa5",
        "srcKUID": "b8405c87f3a841f7aeba31ca550a457a",
        "wType": "FlexContainer"
      }
    },
    "flxNextBill": {
      "__events__": {},
      "__info__": {
        "kuid": "dc600d4d5a934dd9a0604004d3766e42",
        "srcKUID": "fdb05d7e41954f51994da2ed08fb29ba",
        "wType": "FlexContainer"
      }
    },
    "flxNoPayment": {
      "__events__": {},
      "__info__": {
        "kuid": "d695828dc9a54d2f973c13f47635733a",
        "srcKUID": "f5cbe02fbdbe4b6a9ba98027fe67a1f1",
        "wType": "FlexContainer"
      },
      "left": {
        "Default": {
          "type": "string",
          "value": "0dp"
        }
      },
      "top": {
        "Default": {
          "type": "string",
          "value": "0dp"
        }
      }
    },
    "flxPayFrom": {
      "__events__": {},
      "__info__": {
        "kuid": "a23660c032174fe28146757544451d20",
        "srcKUID": "f324090bd2ea4ccd962d4e312c2e523f",
        "wType": "FlexContainer"
      }
    },
    "flxPayee": {
      "__events__": {},
      "__info__": {
        "kuid": "a8d617a1258b4a519a7431aaf3ecac53",
        "srcKUID": "f0bac58fb355467b87e5890bbc713e14",
        "wType": "FlexContainer"
      }
    },
    "flxPayeeWrapper": {
      "__events__": {},
      "__info__": {
        "kuid": "bafd89916d654cd1ac8b7b80afc18dff",
        "srcKUID": "f9a8ef0959a94e818b24eca71768787e",
        "wType": "FlexContainer"
      }
    },
    "flxSchedulePayment": {
      "__events__": {
        "ide_onClick": "AS_FlexContainer_h157340439b843c9a13cf324da991d5e"
      },
      "__info__": {
        "kuid": "cd9f300d40da4fc582b3ed9054813037",
        "srcKUID": "e6fc4fa57b574680911b541a90a21ec4",
        "wType": "FlexContainer"
      }
    },
    "flxSearch": {
      "__events__": {
        "ide_onClick": "AS_FlexContainer_eeca1425129f4b568a977fce19d0d67e"
      },
      "__info__": {
        "kuid": "a7ef642fc6a24e9eac68e56bc92fc49e",
        "srcKUID": "d4ea78e00b134d53a4b5776580f68dce",
        "wType": "FlexContainer"
      },
      "right": {
        "Default": {
          "type": "string",
          "value": "20dp"
        }
      }
    },
    "flxStDate": {
      "__events__": {},
      "__info__": {
        "kuid": "b7900c61a7bc4f089f2dc1649582579f",
        "srcKUID": "f0ec97e2ce0d44fc8aba6217e3582bcc",
        "wType": "FlexContainer"
      }
    },
    "flxWrapper": {
      "__events__": {},
      "__info__": {
        "kuid": "j70407e59e3545c7bef8ed2875b30dd0",
        "srcKUID": "da40f45ec184474185c191eea92567f7",
        "wType": "FlexContainer"
      }
    },
    "flxWrapperManage": {
      "__events__": {},
      "__info__": {
        "kuid": "bb0ed95e93624314afed8832210d6b29",
        "srcKUID": "bc231ef992424a3c9e5d36e423c6f50b",
        "wType": "FlexContainer"
      }
    },
    "imgBill": {
      "__events__": {},
      "__info__": {
        "kuid": "b49f36f2e75f462ea66b91436d84f1b4",
        "srcKUID": "e12044caf687439e9434f8cf9804f9c0",
        "wType": "Image"
      }
    },
    "imgBillerSort": {
      "__events__": {},
      "__info__": {
        "kuid": "edac0a82223643d584ef9f142842910f",
        "srcKUID": "afa93bccb1124c91a67b6e3757aef6b0",
        "wType": "Image"
      }
    },
    "imgDropdown": {
      "__events__": {},
      "__info__": {
        "kuid": "aa7f27ed13da403ba27858f24ca46fb4",
        "srcKUID": "j5612a7e0c034f35b030c695414bcddd",
        "wType": "Image"
      }
    },
    "imgDropdownManage": {
      "__events__": {},
      "__info__": {
        "kuid": "ec3099ddfba94654a1ad6887ef900cfc",
        "srcKUID": "dac9f1bedacc41f1a0dd621f0e617fc4",
        "wType": "Image"
      }
    },
    "imgInfo": {
      "__events__": {},
      "__info__": {
        "kuid": "g278247684ec449cbe3528af60ec3978",
        "srcKUID": "ed3724bdd3394e958d96203e5f0e7edb",
        "wType": "Image"
      }
    },
    "imgNextBillSort": {
      "__events__": {},
      "__info__": {
        "kuid": "c1d3bd19c6f3420bbf597ebf9487d8c3",
        "srcKUID": "f67128cab3eb41ef86545a476b5678bd",
        "wType": "Image"
      }
    },
    "imgSearch": {
      "__events__": {},
      "__info__": {
        "kuid": "cf2b19006b034ce0ba9e6c3b2e5f77f4",
        "srcKUID": "ga6802f3f9e3499798368c6532716fcb",
        "wType": "Image"
      }
    },
    "imgSortDatee": {
      "__events__": {},
      "__info__": {
        "kuid": "c4a5d88d57da4328a2e515820b452129",
        "srcKUID": "hec25910d5cd4b11b5b7c767db2a816d",
        "wType": "Image"
      }
    },
    "imgSortLastPayment": {
      "__events__": {},
      "__info__": {
        "kuid": "bd2acfb93260482bb18fc5c6f2811d91",
        "srcKUID": "d1f235e964e445fb900e24e9b4351080",
        "wType": "Image"
      }
    },
    "imgSortPayee": {
      "__events__": {},
      "__info__": {
        "kuid": "ad9e946469b241c4b9e74670ba995f7e",
        "srcKUID": "j9db0cd3b5234eaea8afe6d607caf1df",
        "wType": "Image"
      }
    },
    "lblActions": {
      "__events__": {},
      "__info__": {
        "kuid": "hd661c3a83e6478cb580a22a94e8a3f3",
        "srcKUID": "acfe04347e844aafae70cf6ffd2ad462",
        "wType": "Label"
      }
    },
    "lblAmount": {
      "__events__": {},
      "__info__": {
        "kuid": "ia0595d485224fa692dab715517e9b7a",
        "srcKUID": "e7d8476cb3c048359e9b7816a8f2aa6a",
        "wType": "Label"
      }
    },
    "lblBill": {
      "__events__": {},
      "__info__": {
        "kuid": "a85f5bf491674348ac46e0e0e449ce6b",
        "srcKUID": "d4e290fc177c42209b36d92c2f7ab604",
        "wType": "Label"
      }
    },
    "lblBillerName": {
      "__events__": {},
      "__info__": {
        "kuid": "e309af3cadd14621bb6f41ab46aa023c",
        "srcKUID": "c1ce6b9ce70e4b00acda25f44dfbe137",
        "wType": "Label"
      }
    },
    "lblDueDate": {
      "__events__": {},
      "__info__": {
        "kuid": "ed4e3316d25444408a77ba22d955f7b9",
        "srcKUID": "h4ab3dee400042a6a42d1bcc20003ad7",
        "wType": "Label"
      }
    },
    "lblLastPayment": {
      "__events__": {},
      "__info__": {
        "kuid": "f05b18bee78e4c7bb980d3b39615c66f",
        "srcKUID": "ec68db3751a04ab6afdb6d71d78f6437",
        "wType": "Label"
      }
    },
    "lblPayFrom": {
      "__events__": {},
      "__info__": {
        "kuid": "d487fc737dd741b6b96338e5265a1e6e",
        "srcKUID": "a05f42d7789e4f8ca076aa923091ce93",
        "wType": "Label"
      },
      "i18n_text": "i18n.billPay.PayFrom"
    },
    "lblPayee": {
      "__events__": {},
      "__info__": {
        "kuid": "d92555c973004dedb5246634e2605d94",
        "srcKUID": "a8db968ee7d348d79636a5f7664a1fa2",
        "wType": "Label"
      }
    },
    "lblScheduleAPayment": {
      "__events__": {},
      "__info__": {
        "kuid": "b509770b042c41aca3bb26c1977ee60a",
        "srcKUID": "d1f3ad24570340389c45995fd3578509",
        "wType": "Label"
      }
    },
    "lblStDate": {
      "__events__": {},
      "__info__": {
        "kuid": "ddecf24cfdf9424ab8040d0bbb7d6d3e",
        "srcKUID": "bdec57dbd7ad40d38fcb745defeeddc5",
        "wType": "Label"
      }
    },
    "lblTransactions": {
      "__events__": {},
      "__info__": {
        "kuid": "i7b3b4f489184de8b37684adb85fc514",
        "srcKUID": "a5b0a8ff5276492389caceeef4b8ab89",
        "wType": "Label"
      }
    },
    "lblnextBill": {
      "__events__": {},
      "__info__": {
        "kuid": "ccf16dd4a2b8448584a66feb04ee3631",
        "srcKUID": "ad38fccf31364a79a418cdf7a0432581",
        "wType": "Label"
      }
    },
    "lstbxPayFrom": {
      "__events__": {},
      "__info__": {
        "kuid": "ab18d6e1945045d1b55d66903de8ef22",
        "srcKUID": "c77fc10e71504650a7dca43d42ee5620",
        "wType": "ListBox"
      }
    },
    "rtxNoPaymentMessage": {
      "__events__": {},
      "__info__": {
        "kuid": "f4c753f3a80a44d59d6901d5412a724d",
        "srcKUID": "g65773fc60424c1ca04bd760887eed29",
        "wType": "RichText"
      }
    },
    "segmentBillpay": {
      "__events__": {},
      "__info__": {
        "kuid": "fd7d7911790c4983bbb88a53ad37a9ba",
        "srcKUID": "f1fe3ab7f9814acfb57a0e123fa5326b",
        "wType": "Segment"
      },
      "autogrowMode": 1,
      "data": {
        "desktop": [
          {
            "btnRepeat": {
              "@class": "com.viz.ide.model.segment.SimpleTextSegmentData",
              "text": ""
            },
            "imgDropdown": {
              "@class": "com.viz.ide.model.segment.ImageSegmentData",
              "src": ""
            },
            "lblDate": {
              "@class": "com.viz.ide.model.segment.SimpleTextSegmentData",
              "text": ""
            },
            "lblSendTo": {
              "@class": "com.viz.ide.model.segment.SimpleTextSegmentData",
              "text": ""
            },
            "lblSeparator": {
              "@class": "com.viz.ide.model.segment.SimpleTextSegmentData",
              "text": ""
            },
            "lblSortAmount": {
              "@class": "com.viz.ide.model.segment.SimpleTextSegmentData",
              "text": ""
            },
            "lblSortBalance": {
              "@class": "com.viz.ide.model.segment.SimpleTextSegmentData",
              "text": ""
            }
          }
        ]
      },
      "height": {
        "Default": {
          "type": "ref",
          "value": "preferred"
        }
      },
      "left": {
        "Default": {
          "type": "string",
          "value": "0dp"
        }
      },
      "minHeight": {
        "Default": {
          "type": "string",
          "value": "500px"
        }
      }
    },
    "tableSubHeaderHistory": {
      "__events__": {},
      "__info__": {
        "kuid": "ha0a3cb3cd724621bc531e2de5a66ab6",
        "srcKUID": "d4024329db3d4d5692fc0c08c907950c",
        "wType": "UserWidgetInstance"
      },
      "autogrowMode": 0,
      "height": {
        "Default": {
          "type": "string",
          "value": "50dp"
        }
      }
    },
    "tableSubHeaderHistory.flxAmount": {
      "__events__": {},
      "__info__": {
        "kuid": "i411ea6e509e45d39f6181be7620fd64",
        "srcKUID": "g41d7492811142dfa7cea966b2ec8a25",
        "wType": "FlexContainer"
      }
    },
    "tableSubHeaderHistory.flxSendTo": {
      "__events__": {},
      "__info__": {
        "kuid": "d7f25e7b8f7a47b2b2cde842be77465c",
        "srcKUID": "id6e058098fb497ea672a4bbc8b95cdb",
        "wType": "FlexContainer"
      }
    },
    "tableSubHeaderHistory.flxSortDate": {
      "__events__": {},
      "__info__": {
        "kuid": "f5fe2a4cb8d54e8c9a6a39abb3ff5dba",
        "srcKUID": "bcfd8c0e3cb8473c8fed05843828ade9",
        "wType": "FlexContainer"
      }
    },
    "tableSubHeaderHistory.flxSortSixColumn": {
      "__events__": {},
      "__info__": {
        "kuid": "a01a25d642154a5aa5c6763c94869101",
        "srcKUID": "b633a47de7d24ce492a0f6e295aa2f57",
        "wType": "FlexContainer"
      },
      "centerY": {
        "Default": {
          "type": "string",
          "value": "50%"
        }
      },
      "top": {
        "Default": {
          "type": "string",
          "value": ""
        }
      }
    },
    "tableSubHeaderHistory.flxSortType": {
      "__events__": {},
      "__info__": {
        "kuid": "f9a65c119996423482e614d2cfbda57d",
        "srcKUID": "e0a0fe6f89164308825c3862dbbaec60",
        "wType": "FlexContainer"
      }
    },
    "tableSubHeaderHistory.flxStatus": {
      "__events__": {},
      "__info__": {
        "kuid": "ac705e0e14c54880ad8bb1e3f1ec9988",
        "srcKUID": "cca6f85d154a41fc9260ea08cc5cf6a7",
        "wType": "FlexContainer"
      }
    },
    "tableSubHeaderHistory.imgSortAmount": {
      "__events__": {},
      "__info__": {
        "kuid": "f2f0f8f8fd1e4d83996512bc1c63f3c3",
        "srcKUID": "j2f1145421ce416c942e214cd17c810a",
        "wType": "Image"
      }
    },
    "tableSubHeaderHistory.imgSortCategory": {
      "__events__": {},
      "__info__": {
        "kuid": "aa4598556d124502be8b601c8b0709a3",
        "srcKUID": "ee0ad9cd37204560ae57b90e4966b2a2",
        "wType": "Image"
      }
    },
    "tableSubHeaderHistory.imgSortDate": {
      "__events__": {},
      "__info__": {
        "kuid": "j4dada4d183c4cf4bce7ee5b94fee0aa",
        "srcKUID": "b0983a18d48646518a6e665f841aa3c1",
        "wType": "Image"
      }
    },
    "tableSubHeaderHistory.imgSortDescription": {
      "__events__": {},
      "__info__": {
        "kuid": "ad242c38758f43d6b3eeb2f343d6cda9",
        "srcKUID": "g13d3000317346418520586c470fec44",
        "wType": "Image"
      }
    },
    "tableSubHeaderHistory.imgSortType": {
      "__events__": {},
      "__info__": {
        "kuid": "i48745f0cec54e769533c5b6952ff14d",
        "srcKUID": "e9efb74b58b8406db51757ea26a5e4cd",
        "wType": "Image"
      }
    },
    "tableSubHeaderHistory.lblSortAmount": {
      "__events__": {},
      "__info__": {
        "kuid": "a00985732eb74a0e89dc69ca22b820a2",
        "srcKUID": "j4d75748eefe4522b09ca8590fa19a04",
        "wType": "Label"
      },
      "i18n_text": "i18n.transfers.amountlabel"
    },
    "tableSubHeaderHistory.lblSortBalance": {
      "__events__": {},
      "__info__": {
        "kuid": "d6f376b6177949ca84dab9d2c4b713d9",
        "srcKUID": "c2a61a22473c4abd857110e49f94a356",
        "wType": "Label"
      }
    },
    "tableSubHeaderHistory.lblSortDate": {
      "__events__": {},
      "__info__": {
        "kuid": "g5d125ae05724975a1a1d0b35645d637",
        "srcKUID": "f53f9c1a57b441b1894815475a092edf",
        "wType": "Label"
      }
    },
    "tableSubHeaderHistory.lblSortDescription": {
      "__events__": {},
      "__info__": {
        "kuid": "c297d21358cb4720a30eb0b6ae0a56d3",
        "srcKUID": "b612e1ee84f54ecc92f63a583e1548a5",
        "wType": "Label"
      }
    },
    "tableSubHeaderHistory.lblSortType": {
      "__events__": {},
      "__info__": {
        "kuid": "d3fbe3a8cfd741f2b73b954b10123ef8",
        "srcKUID": "f2a299cf8bcf4f2b91dbb9f69ebfd17a",
        "wType": "Label"
      }
    },
    "tableTabs": {
      "__events__": {},
      "__info__": {
        "kuid": "e58ccc1261fb495bb476f831e0452580",
        "srcKUID": "ib96585b184f4f1392a1aa5c52613489",
        "wType": "UserWidgetInstance"
      }
    },
    "tableTabs.BtnAll": {
      "__events__": {},
      "__info__": {
        "kuid": "ab8f5a3ca44e44cb81c9bd6981552349",
        "srcKUID": "d46e0339bef64c77b3cd79690aedf67c",
        "wType": "Button"
      }
    },
    "tableTabs.btnChecks": {
      "__events__": {},
      "__info__": {
        "kuid": "d1952744a0a148b1954d6ad778543aa9",
        "srcKUID": "dc39852921df4290869d83b9f2c6cf4b",
        "wType": "Button"
      }
    },
    "tableTabs.btnDeposits": {
      "__events__": {},
      "__info__": {
        "kuid": "e5db790eb1dd4c24991cba79df7fff77",
        "srcKUID": "be7d9739dd274a2fa829a971a27d9c14",
        "wType": "Button"
      }
    },
    "tableTabs.btnDummy": {
      "__events__": {},
      "__info__": {
        "kuid": "e7a8e23ad6904fea9124d8be246e2782",
        "srcKUID": "f53fd3cb249b456498453c406f474675",
        "wType": "Button"
      }
    },
    "tableTabs.btnLeft": {
      "__events__": {},
      "__info__": {
        "kuid": "eec57699204345cf9b742b0ea118019c",
        "srcKUID": "c1d54bba0dac44878ef5035a4e6701e7",
        "wType": "Button"
      }
    },
    "tableTabs.btnTransfers": {
      "__events__": {},
      "__info__": {
        "kuid": "cce2cd59a34c416b9947bb4dea687c08",
        "srcKUID": "f012920201084cb3b02efb3b142c23ac",
        "wType": "Button"
      }
    },
    "tableTabs.btnWithdraws": {
      "__events__": {},
      "__info__": {
        "kuid": "hd669535113947c88a78f8d2bdd59e74",
        "srcKUID": "cd4667eb6810429a98acbbe092639a27",
        "wType": "Button"
      }
    },
    "tableTabs.flxTabsChecking": {
      "__events__": {},
      "__info__": {
        "kuid": "cf761902126f43318c6b97e5779ad091",
        "srcKUID": "d18a8a05eb27440a936362753732727a",
        "wType": "FlexContainer"
      }
    },
    "tableView": {
      "__events__": {},
      "__info__": {
        "isRoot": true,
        "kuid": "fcebf86d0180433b987874a790ae40f6",
        "srcKUID": "j9e9890451fa485098e7039957cf12e3",
        "wType": "FlexContainer"
      },
      "autogrowMode": 1,
      "height": {
        "Default": {
          "type": "ref",
          "value": "preferred"
        }
      },
      "zIndex": {
        "Default": 2
      },
      "isVisible": true,
      "width": {
        "Default": {
          "type": "string",
          "value": "100%"
        }
      }
    }
  },
  "id": "tableView",
  "info": null,
  "isdatareferenced": false,
  "isvisible": true,
  "kuid": "a59265fc53c14a95954c44739ff781d5",
  "layouttype": 4,
  "masterType": 0,
  "name": "kony.ui.UserWidgetInstance",
  "parent": "flxBillPay",
  "pf": "frmBillPay",
  "snapgridsize": 10,
  "snaptogrid": true,
  "sourceUserWidget": "j9e9890451fa485098e7039957cf12e3",
  "wType": "UserWidgetInstance",
  "zindex": 2
}