{
  "DNDConfig": null,
  "__parentReadjusting__": false,
  "_height_": {
    "type": "string",
    "value": "100%"
  },
  "_left_": {
    "type": "string",
    "value": "27.38%"
  },
  "_margin_": [
    0,
    0,
    0,
    0
  ],
  "_orientation_": 6,
  "_padding_": [
    0,
    0,
    0,
    0
  ],
  "_percent_": true,
  "_skin_": "s24c92fc23b14f5484b693ee9b8a9b35",
  "_top_": {
    "type": "string",
    "value": "0dp"
  },
  "_width_": {
    "type": "string",
    "value": "21.29%"
  },
  "allboxes": [],
  "autogrowmode": 0,
  "canUpdateUI": true,
  "children": [
    "lblRequiredBy",
    "lblRequiredBy1"
  ],
  "clipbounds": true,
  "containerId": true,
  "containerweight": 100,
  "enablescrolling": true,
  "id": "flxColumn1",
  "info": null,
  "isvisible": true,
  "kuid": "a21c3b6e5688433487f342b59cb7fc77",
  "layouttype": 4,
  "name": "kony.ui.FlexContainer",
  "parent": "flxDetails",
  "pf": "segMyRequestsSelected",
  "snapgridsize": 10,
  "snaptogrid": true,
  "wType": "FlexContainer",
  "widgetalignment": 1,
  "zindex": 1
}