{
  "@class": "com.kony.gen.viz.model.component.KVizDateField",
  "DNDConfig": null,
  "Image": "calender.png",
  "__parentReadjusting__": false,
  "_data_": null,
  "_date_": [
    1,
    12,
    2017
  ],
  "_height_": {
    "type": "string",
    "value": "40dp"
  },
  "_left_": {
    "type": "string",
    "value": "10%"
  },
  "_margin_": [
    0,
    0,
    0,
    0
  ],
  "_padding_": [
    0,
    0,
    0,
    0
  ],
  "_skin_": "s18edb78e01047999569a49004e3048b",
  "_top_": {
    "type": "string",
    "value": "0dp"
  },
  "_width_": {
    "type": "string",
    "value": "80%"
  },
  "advview": "default",
  "calendaricon": "calbtn.png",
  "canUpdateUI": true,
  "containerweight": 100,
  "contentalignment": 4,
  "datecomponents": [
    1,
    12,
    2017
  ],
  "dateeditable": true,
  "dateformat": "dd/MM/yyyy",
  "day": 1,
  "daytextalignmentincell": 5,
  "desktopweb": {
    "calendarIcon": "calender.png"
  },
  "entereddate": "01/12/2017",
  "format": "dd/MM/yyyy",
  "formatteddate": "01/12/2017",
  "hidedaysheader": false,
  "hidemonthsheader": false,
  "hour": 0,
  "id": "clndrRequestMoneyRequiredDate",
  "info": null,
  "isvisible": true,
  "kuid": "b89b70b88bcc42b1979d4299f2f7e983",
  "luadate": [
    1,
    12,
    2017
  ],
  "minutes": 0,
  "month": 12,
  "name": "kony.ui.Calendar",
  "noofmonths": 1,
  "pagedate": "/2017",
  "parent": "flxRequestMoneyCalender",
  "pf": "userwidgetmodel",
  "seconds": 0,
  "selectdate": "//2017",
  "viewtype": "default",
  "wType": "Calendar",
  "widgetalignment": 5,
  "year": 2017,
  "zindex": 1
}