{
  "@class": "com.kony.gen.viz.model.component.KVizTextBox2",
  "DNDConfig": null,
  "__parentReadjusting__": false,
  "_height_": {
    "type": "string",
    "value": "40dp"
  },
  "_left_": {
    "type": "string",
    "value": "3.70%"
  },
  "_margin_": [
    0,
    0,
    0,
    0
  ],
  "_padding_": [
    4,
    0,
    0,
    0
  ],
  "_placeholder_": "",
  "_skin_": "sd91788aa8ad4f3ea57365241c5a4711",
  "_text_": "100.00",
  "_top_": {
    "type": "string",
    "value": "40dp"
  },
  "_width_": {
    "type": "string",
    "value": "46.34%"
  },
  "autocapitalize": "none",
  "autocomplete": false,
  "autocorrect": false,
  "autofilter": false,
  "canUpdateUI": true,
  "containerheight": "",
  "containerheightmode": 1,
  "containerweight": 100,
  "contentalignment": 4,
  "id": "tbxRequestMoneyAmount",
  "info": null,
  "isvisible": true,
  "keyboardtype": "A",
  "kuid": "i837ede6a9b440e98da1e71edac70983",
  "mode": "A",
  "name": "kony.ui.TextBox2",
  "parent": "flxRequestMoneyAmount",
  "pf": "userwidgetmodel",
  "securetextentry": false,
  "textinputmode": "A",
  "viewtype": "default",
  "wType": "TextField",
  "zindex": 1
}