{
  "@class": "com.kony.gen.viz.model.component.KVizButton",
  "DNDConfig": null,
  "__parentReadjusting__": false,
  "_height_": {
    "type": "ref",
    "value": "preferred"
  },
  "_margin_": [
    6,
    6,
    6,
    6
  ],
  "_padding_": [
    0,
    0,
    0,
    0
  ],
  "_skin_": "s264339940904f6b9d3e47b6fdc9e327",
  "_text_": "Button",
  "_top_": {
    "type": "string",
    "value": "3.2800000000000002%"
  },
  "_width_": {
    "type": "ref",
    "value": "preferred"
  },
  "canUpdateUI": true,
  "centerx": {
    "type": "string",
    "value": "50%"
  },
  "containerweight": 100,
  "contentalignment": 5,
  "desktopweb": {
    "psp": {
      "hoverSkin": "s0d853c8b5284c03a08be1232819c24b"
    }
  },
  "displaytext": true,
  "focusskin": "s264339940904f6b9d3e47b6fdc9e327",
  "id": "btnUseCVV",
  "info": null,
  "isvisible": true,
  "kuid": "c56dfd27ff054f6ea45dcdf57f52d407",
  "name": "kony.ui.Button",
  "parent": "resetusingOTP",
  "pf": "userwidgetmodel",
  "texti18n": "i18n.common.CVVOption",
  "tooltip": "Use The CVV Code Option",
  "wType": "Button",
  "zindex": 1
}