{
  "@class": "com.kony.gen.viz.model.component.KVizLabel",
  "DNDConfig": null,
  "__parentReadjusting__": false,
  "_height_": {
    "type": "ref",
    "value": "preferred"
  },
  "_margin_": [
    1,
    1,
    1,
    1
  ],
  "_padding_": [
    0,
    0,
    0,
    0
  ],
  "_skin_": "s2d800e3e18244b3b0795e5e5d6a0f77",
  "_text_": "Label",
  "_top_": {
    "type": "string",
    "value": "1.76%"
  },
  "_width_": {
    "type": "ref",
    "value": "preferred"
  },
  "_wrapping_": 2,
  "android": {
    "textStyle": {
      "letterSpacing": 0,
      "strikeThrough": false
    }
  },
  "canUpdateUI": true,
  "centerx": {
    "type": "string",
    "value": "50%"
  },
  "containerweight": 100,
  "contentalignment": 5,
  "id": "lblWrongOTP",
  "info": null,
  "ipad": {
    "psp": {
      "wrapping": 2
    }
  },
  "iphone": {
    "psp": {
      "wrapping": 2
    }
  },
  "isvisible": false,
  "kuid": "fc82541919bf43f6aa24805a2e1613c9",
  "name": "kony.ui.Label",
  "parent": "resetusingOTP",
  "pf": "userwidgetmodel",
  "texti18n": "i18n.login.incorrectOTP",
  "tooltip": "",
  "wType": "Label",
  "zindex": 1
}