{
  "DNDConfig": null,
  "__parentReadjusting__": false,
  "_height_": {
    "type": "string",
    "value": "50px"
  },
  "_left_": {
    "type": "string",
    "value": "0dp"
  },
  "_margin_": [
    0,
    0,
    0,
    0
  ],
  "_orientation_": 6,
  "_padding_": [
    0,
    0,
    0,
    0
  ],
  "_percent_": true,
  "_skin_": "s344174b66d24a22be7a954acfcdefc5",
  "_top_": {
    "type": "string",
    "value": "0dp"
  },
  "_width_": {
    "type": "string",
    "value": "100%"
  },
  "allboxes": [],
  "autogrowmode": 0,
  "canUpdateUI": true,
  "children": [
    "flxDropdown",
    "flxName",
    "flxPrimaryContact",
    "flxEditAction",
    "flxDeleteAction"
  ],
  "clipbounds": true,
  "containerId": true,
  "containerweight": 100,
  "enablescrolling": true,
  "id": "flxRow",
  "info": null,
  "isvisible": true,
  "kuid": "e68d14f778d54f648631feee41b0ff94",
  "layouttype": 3,
  "name": "kony.ui.FlexContainer",
  "parent": "flxManageReceipt",
  "pf": "segManageRecipientSelected",
  "snapgridsize": 10,
  "snaptogrid": true,
  "wType": "FlexContainer",
  "widgetalignment": 1,
  "zindex": 1
}