{
  "background_color": "ffffff00",
  "bg_type": "one",
  "border_color": "e8e9ebff",
  "border_radius": 3,
  "border_style": "custom",
  "border_type": 0,
  "border_width": 1,
  "isDefaultSkin": false,
  "kuid": "s2190c55dfd84368bcd1a57db7d249af",
  "wType": "FlexContainer"
}