{
  "background_color": "ffffffff",
  "bg_type": "one",
  "border_color": "000000ff",
  "border_style": "plain",
  "border_type": 0,
  "border_width": 0,
  "isDefaultSkin": false,
  "kuid": "sa7613300aee4ed6a2f9b2e21fc4d1a7",
  "wType": "FlexContainer"
}