{
  "android": {
    "background_color": "ffffffff",
    "bg_type": "one",
    "font_name": "Helvetica",
    "font_size": 36,
    "isForked": true
  },
  "background_color": "ffffffff",
  "bg_type": "one",
  "border_color": "3343abff",
  "border_radius": 2,
  "border_style": "custom",
  "border_type": 0,
  "border_width": 1,
  "desktopweb": {
    "background_color": "ffffffff",
    "bg_type": "one",
    "font_name": "Lato-Regular",
    "font_size": 125,
    "isForked": true
  },
  "font_color": "3343a8ff",
  "font_name": "Helvetica",
  "font_size": 125,
  "font_style": "normal",
  "font_weight": "normal",
  "ipad": {
    "background_color": "ffffffff",
    "bg_type": "one",
    "font_name": "Helvetica",
    "font_size": 54,
    "isForked": true
  },
  "iphone": {
    "background_color": "ffffffff",
    "bg_type": "one",
    "font_name": "Helvetica",
    "font_size": 54,
    "isForked": true
  },
  "isDefaultSkin": false,
  "kiosk": {
    "background_color": "ffffffff",
    "bg_type": "one",
    "font_name": "GenericMonospace",
    "font_size": 94,
    "isForked": true
  },
  "kuid": "s81d795e7c4d443192dbe7089ebc3a5b",
  "spaan": {
    "background_color": "ffffffff",
    "bg_type": "one",
    "font_name": "Lato-Regular",
    "font_size": 125,
    "isForked": true
  },
  "spaandroidtablet": {
    "background_color": "ffffffff",
    "bg_type": "one",
    "font_name": "Lato-Regular",
    "font_size": 125,
    "isForked": true
  },
  "spabb": {
    "background_color": "ffffffff",
    "bg_type": "one",
    "font_name": "Helvetica",
    "font_size": 125,
    "isForked": true
  },
  "spaip": {
    "background_color": "ffffffff",
    "bg_type": "one",
    "font_name": "Lato-Regular",
    "font_size": 125,
    "isForked": true
  },
  "spaipad": {
    "background_color": "ffffffff",
    "bg_type": "one",
    "font_name": "Lato-Regular",
    "font_size": 125,
    "isForked": true
  },
  "spawindowstablet": {
    "background_color": "ffffffff",
    "bg_type": "one",
    "font_name": "Helvetica",
    "font_size": 125,
    "isForked": true
  },
  "spawinphone8": {
    "background_color": "ffffffff",
    "bg_type": "one",
    "font_name": "Helvetica",
    "font_size": 125,
    "isForked": true
  },
  "tabrcandroid": {
    "background_color": "ffffffff",
    "bg_type": "one",
    "font_name": "Helvetica",
    "font_size": 89,
    "isForked": true
  },
  "wType": "Button",
  "watchos": {
    "background_color": "ffffffff",
    "bg_type": "one",
    "font_name": "Helvetica",
    "font_size": 54,
    "isForked": true
  },
  "windows8": {
    "background_color": "ffffffff",
    "bg_type": "one",
    "font_name": "GenericMonospace",
    "font_size": 37,
    "isForked": true
  },
  "winphone8": {
    "background_color": "ffffffff",
    "bg_type": "one",
    "font_name": "GenericMonospace",
    "font_size": 50,
    "isForked": true
  }
}