{
  "background_color": "d8d8d8ff",
  "bg_type": "one",
  "border_color": "000000ff",
  "border_style": "plain",
  "border_type": 0,
  "border_width": 0,
  "isDefaultSkin": false,
  "kuid": "s3d1afa09bdc40fcb2aecb8c341aad1a",
  "wType": "FlexContainer"
}