{
  "background_color": "f1f1f1ff",
  "bg_type": "one",
  "border_color": "4a90e200",
  "border_radius": 100,
  "border_style": "custom",
  "border_type": 0,
  "border_width": 1,
  "isDefaultSkin": false,
  "kuid": "s545e8894d124a4c8386c087818e4d1a",
  "wType": "FlexContainer"
}