{
  "android": {
    "background_color": "ffffffff",
    "bg_type": "one",
    "isForked": true
  },
  "background_color": "f6f6f6ff",
  "bg_type": "one",
  "border_color": "000000ff",
  "border_style": "plain",
  "border_type": 0,
  "border_width": 0,
  "desktopweb": {
    "background_color": "ffffffff",
    "bg_type": "one",
    "bottom_left_border_color": "000000ff",
    "bottom_left_border_style": "plain",
    "bottom_left_border_width": 0,
    "bottom_right_border_color": "e3e3e3ff",
    "bottom_right_border_style": "plain",
    "bottom_right_border_width": "1",
    "isForked": true,
    "top_left_border_color": "000000ff",
    "top_left_border_style": "plain",
    "top_left_border_width": 0,
    "top_right_border_color": "000000ff",
    "top_right_border_style": "plain",
    "top_right_border_width": 0
  },
  "ipad": {
    "background_color": "ffffffff",
    "bg_type": "one",
    "isForked": true
  },
  "iphone": {
    "background_color": "ffffffff",
    "bg_type": "one",
    "isForked": true
  },
  "isDefaultSkin": false,
  "kiosk": {
    "background_color": "ffffffff",
    "bg_type": "one",
    "isForked": true
  },
  "kuid": "s884a9dd49604ac3a3fc8e9855583a87",
  "spaan": {
    "background_color": "ffffffff",
    "bg_type": "one",
    "border_type": 0,
    "isForked": true
  },
  "spaandroidtablet": {
    "background_color": "ffffffff",
    "bg_type": "one",
    "border_type": 0,
    "isForked": true
  },
  "spabb": {
    "background_color": "ffffffff",
    "bg_type": "one",
    "border_type": 0,
    "isForked": true
  },
  "spaip": {
    "background_color": "ffffffff",
    "bg_type": "one",
    "border_type": 0,
    "isForked": true
  },
  "spaipad": {
    "background_color": "ffffffff",
    "bg_type": "one",
    "border_type": 0,
    "isForked": true
  },
  "spawindowstablet": {
    "background_color": "ffffffff",
    "bg_type": "one",
    "border_type": 0,
    "isForked": true
  },
  "spawinphone8": {
    "background_color": "ffffffff",
    "bg_type": "one",
    "border_type": 0,
    "isForked": true
  },
  "tabrcandroid": {
    "background_color": "ffffffff",
    "bg_type": "one",
    "isForked": true
  },
  "wType": "FlexContainer",
  "windows8": {
    "background_color": "ffffffff",
    "bg_type": "one",
    "isForked": true
  },
  "winphone8": {
    "background_color": "ffffffff",
    "bg_type": "one",
    "isForked": true
  }
}