{
  "background_color": "4a90e2ff",
  "bg_type": "one",
  "border_color": "4a90e200",
  "border_radius": 100,
  "border_style": "custom",
  "border_type": 0,
  "border_width": 1,
  "isDefaultSkin": false,
  "kuid": "s79ec35e35a04b5d9bd7efdcce9354bb",
  "wType": "FlexContainer"
}