{
  "background_color": "00000000",
  "bg_type": "one",
  "border_color": "000000ff",
  "border_style": "plain",
  "border_type": 0,
  "border_width": 0,
  "isDefaultSkin": false,
  "kuid": "sc4082c7623e4a20a81542a4a2a7f1d1",
  "wType": "FlexContainer"
}