{
  "background_color": "d3d3d3ff",
  "bg_type": "one",
  "border_color": "000000ff",
  "border_style": "plain",
  "border_type": 0,
  "border_width": 0,
  "isDefaultSkin": false,
  "kuid": "sa1e46c2d59a41af957cb4b0d8e1d646",
  "wType": "FlexContainer"
}