{
  "android": {
    "font_color": "72727200",
    "font_size": 0,
    "isForked": true
  },
  "background_color": "00000000",
  "bg_type": "one",
  "border_color": "424242ff",
  "border_style": "plain",
  "border_type": 0,
  "border_width": 0,
  "desktopweb": {
    "font_color": "72727200",
    "font_name": "Lato-Regular",
    "font_size": 0,
    "isForked": true
  },
  "fontSizeInPx": true,
  "font_color": "424242ff",
  "font_name": "Helvetica",
  "font_size": 125,
  "font_style": "normal",
  "font_weight": "normal",
  "ipad": {
    "font_color": "72727200",
    "font_size": 0,
    "isForked": true
  },
  "iphone": {
    "font_color": "72727200",
    "font_size": 0,
    "isForked": true
  },
  "isDefaultSkin": false,
  "kiosk": {
    "font_color": "72727200",
    "font_size": 0,
    "isForked": true
  },
  "kuid": "s67c3f0f91024ccd82d6c753054497fa",
  "spaan": {
    "font_color": "72727200",
    "font_size": 0,
    "isForked": true
  },
  "spaandroidtablet": {
    "font_color": "72727200",
    "font_size": 0,
    "isForked": true
  },
  "spabb": {
    "font_color": "72727200",
    "font_size": 0,
    "isForked": true
  },
  "spaip": {
    "font_color": "72727200",
    "font_size": 0,
    "isForked": true
  },
  "spaipad": {
    "font_color": "72727200",
    "font_size": 0,
    "isForked": true
  },
  "spawindowstablet": {
    "font_color": "72727200",
    "font_size": 0,
    "isForked": true
  },
  "spawinphone8": {
    "font_color": "72727200",
    "font_size": 0,
    "isForked": true
  },
  "tabrcandroid": {
    "font_color": "72727200",
    "font_size": 0,
    "isForked": true
  },
  "wType": "Label",
  "watchos": {
    "font_color": "72727200",
    "font_size": 0,
    "isForked": true
  },
  "windows8": {
    "font_color": "72727200",
    "font_size": 0,
    "isForked": true
  },
  "winphone8": {
    "font_color": "72727200",
    "font_size": 0,
    "isForked": true
  }
}