{
  "background_color": "7e7e7e",
  "bg_type": "one",
  "border_color": "ffffffff",
  "desktopweb": {
    "bottom_left_border_color": "ffffffff",
    "bottom_left_border_style": "plain",
    "bottom_right_border_color": "ffffffff",
    "bottom_right_border_style": "plain",
    "isForked": true,
    "shadow": {
      "br": 0,
      "color": "727272ff",
      "inner": true,
      "nm": 0,
      "x": 0,
      "y": 0
    },
    "top_left_border_color": "ffffffff",
    "top_left_border_style": "plain",
    "top_right_border_color": "ffffffff",
    "top_right_border_style": "plain"
  },
  "ipad": {
    "isForked": true,
    "shadow": {
      "br": 0,
      "color": "727272ff",
      "inner": true,
      "nm": 0,
      "x": 0,
      "y": 0
    }
  },
  "iphone": {
    "isForked": true,
    "shadow": {
      "br": 0,
      "color": "727272ff",
      "inner": true,
      "nm": 0,
      "x": 0,
      "y": 0
    }
  },
  "isDefaultSkin": false,
  "kuid": "s6db1bba3dfc4f32982dbd9a7e88d81b",
  "spaan": {
    "bottom_left_border_color": "ffffffff",
    "bottom_left_border_style": "plain",
    "bottom_right_border_color": "ffffffff",
    "bottom_right_border_style": "plain",
    "isForked": true,
    "shadow": {
      "br": 0,
      "color": "727272ff",
      "inner": true,
      "nm": 0,
      "x": 0,
      "y": 0
    },
    "top_left_border_color": "ffffffff",
    "top_left_border_style": "plain",
    "top_right_border_color": "ffffffff",
    "top_right_border_style": "plain"
  },
  "spaandroidtablet": {
    "bottom_left_border_color": "ffffffff",
    "bottom_left_border_style": "plain",
    "bottom_right_border_color": "ffffffff",
    "bottom_right_border_style": "plain",
    "isForked": true,
    "shadow": {
      "br": 0,
      "color": "727272ff",
      "inner": true,
      "nm": 0,
      "x": 0,
      "y": 0
    },
    "top_left_border_color": "ffffffff",
    "top_left_border_style": "plain",
    "top_right_border_color": "ffffffff",
    "top_right_border_style": "plain"
  },
  "spabb": {
    "bottom_left_border_color": "ffffffff",
    "bottom_left_border_style": "plain",
    "bottom_right_border_color": "ffffffff",
    "bottom_right_border_style": "plain",
    "isForked": true,
    "shadow": {
      "br": 0,
      "color": "727272ff",
      "inner": true,
      "nm": 0,
      "x": 0,
      "y": 0
    },
    "top_left_border_color": "ffffffff",
    "top_left_border_style": "plain",
    "top_right_border_color": "ffffffff",
    "top_right_border_style": "plain"
  },
  "spaip": {
    "bottom_left_border_color": "ffffffff",
    "bottom_left_border_style": "plain",
    "bottom_right_border_color": "ffffffff",
    "bottom_right_border_style": "plain",
    "isForked": true,
    "shadow": {
      "br": 0,
      "color": "727272ff",
      "inner": true,
      "nm": 0,
      "x": 0,
      "y": 0
    },
    "top_left_border_color": "ffffffff",
    "top_left_border_style": "plain",
    "top_right_border_color": "ffffffff",
    "top_right_border_style": "plain"
  },
  "spaipad": {
    "bottom_left_border_color": "ffffffff",
    "bottom_left_border_style": "plain",
    "bottom_right_border_color": "ffffffff",
    "bottom_right_border_style": "plain",
    "isForked": true,
    "shadow": {
      "br": 0,
      "color": "727272ff",
      "inner": true,
      "nm": 0,
      "x": 0,
      "y": 0
    },
    "top_left_border_color": "ffffffff",
    "top_left_border_style": "plain",
    "top_right_border_color": "ffffffff",
    "top_right_border_style": "plain"
  },
  "spawindowstablet": {
    "bottom_left_border_color": "ffffffff",
    "bottom_left_border_style": "plain",
    "bottom_right_border_color": "ffffffff",
    "bottom_right_border_style": "plain",
    "isForked": true,
    "shadow": {
      "br": 0,
      "color": "727272ff",
      "inner": true,
      "nm": 0,
      "x": 0,
      "y": 0
    },
    "top_left_border_color": "ffffffff",
    "top_left_border_style": "plain",
    "top_right_border_color": "ffffffff",
    "top_right_border_style": "plain"
  },
  "spawinphone8": {
    "bottom_left_border_color": "ffffffff",
    "bottom_left_border_style": "plain",
    "bottom_right_border_color": "ffffffff",
    "bottom_right_border_style": "plain",
    "isForked": true,
    "shadow": {
      "br": 0,
      "color": "727272ff",
      "inner": true,
      "nm": 0,
      "x": 0,
      "y": 0
    },
    "top_left_border_color": "ffffffff",
    "top_left_border_style": "plain",
    "top_right_border_color": "ffffffff",
    "top_right_border_style": "plain"
  },
  "wType": "Form"
}