{
  "background_color": "8ed174ff",
  "bg_type": "one",
  "border_color": "8ed174ff",
  "border_style": "rc",
  "border_type": 0,
  "border_width": 1,
  "isDefaultSkin": false,
  "kuid": "s8ddcd4f9fba42b485ae269bff083888",
  "wType": "FlexContainer"
}