{
  "background_color": "00000000",
  "bg_type": "one",
  "border_color": "ff0101ff",
  "border_radius": 3,
  "border_style": "custom",
  "border_type": 0,
  "border_width": 1,
  "isDefaultSkin": false,
  "kuid": "s6eebd27c1a54dfe827ca9a96605f367",
  "wType": "FlexContainer"
}