{
  "android": {
    "background_color": "3343a8ff",
    "bg_type": "one",
    "border_color": "3343a8ff",
    "border_radius": 2,
    "border_style": "custom",
    "border_type": 0,
    "border_width": 1,
    "font_size": 36,
    "isForked": true,
    "text_shadow": {
      "br": 0,
      "color": "000000ff",
      "nm": 0,
      "x": 0,
      "y": 0
    }
  },
  "background_color": "56a9ddff",
  "bg_type": "one",
  "border_color": "ffffffff",
  "border_style": "plain",
  "border_type": 0,
  "border_width": 0,
  "desktopweb": {
    "background_color": "3343a8ff",
    "bg_type": "one",
    "border_type": 0,
    "bottom_left_border_color": "3343a8ff",
    "bottom_left_border_radius": "2",
    "bottom_left_border_style": "rc",
    "bottom_left_border_width": "1",
    "bottom_right_border_color": "3343a8ff",
    "bottom_right_border_radius": "2",
    "bottom_right_border_style": "rc",
    "bottom_right_border_width": "1",
    "customCSS": "cursor:pointer !important;",
    "font_name": "Lato-Regular",
    "font_size": 125,
    "isCustomCSSEnabled": true,
    "isForked": true,
    "shadow": {
      "br": 0,
      "color": "000000ff",
      "inner": false,
      "nm": 0,
      "x": 0,
      "y": 0
    },
    "text_shadow": {
      "br": 0,
      "color": "000000ff",
      "nm": 0,
      "x": 0,
      "y": 0
    },
    "top_left_border_color": "3343a8ff",
    "top_left_border_radius": "2",
    "top_left_border_style": "rc",
    "top_left_border_width": "1",
    "top_right_border_color": "3343a8ff",
    "top_right_border_radius": "2",
    "top_right_border_style": "rc",
    "top_right_border_width": "1"
  },
  "fontSizeInPx": true,
  "font_color": "ffffffff",
  "font_name": "Helvetica",
  "font_size": 148,
  "font_style": "normal",
  "font_weight": "normal",
  "ipad": {
    "background_color": "3343a8ff",
    "bg_type": "one",
    "border_color": "3343a8ff",
    "border_radius": 2,
    "border_style": "custom",
    "border_type": 0,
    "border_width": 1,
    "font_size": 54,
    "isForked": true,
    "text_shadow": {
      "br": 0,
      "color": "000000ff",
      "nm": 0,
      "x": 0,
      "y": 0
    }
  },
  "iphone": {
    "background_color": "3343a8ff",
    "bg_type": "one",
    "border_color": "3343a8ff",
    "border_radius": 2,
    "border_style": "custom",
    "border_type": 0,
    "border_width": 1,
    "font_size": 54,
    "isForked": true,
    "text_shadow": {
      "br": 0,
      "color": "000000ff",
      "nm": 0,
      "x": 0,
      "y": 0
    }
  },
  "isDefaultSkin": false,
  "kiosk": {
    "background_color": "3343a8ff",
    "bg_type": "one",
    "border_color": "3343a8ff",
    "border_radius": 2,
    "border_style": "custom",
    "border_type": 0,
    "border_width": 1,
    "font_size": 94,
    "isForked": true
  },
  "kuid": "s21d5793ed074877ad7484bdabb3dd43",
  "spaan": {
    "background_color": "3343a8ff",
    "bg_type": "one",
    "border_type": 0,
    "bottom_left_border_color": "3343a8ff",
    "bottom_left_border_radius": "2",
    "bottom_left_border_style": "rc",
    "bottom_left_border_width": "1",
    "bottom_right_border_color": "3343a8ff",
    "bottom_right_border_radius": "2",
    "bottom_right_border_style": "rc",
    "bottom_right_border_width": "1",
    "font_name": "Lato-Regular",
    "font_size": 125,
    "isForked": true,
    "shadow": {
      "br": 0,
      "color": "000000ff",
      "inner": false,
      "nm": 0,
      "x": 0,
      "y": 0
    },
    "text_shadow": {
      "br": 0,
      "color": "000000ff",
      "nm": 0,
      "x": 0,
      "y": 0
    },
    "top_left_border_color": "3343a8ff",
    "top_left_border_radius": "2",
    "top_left_border_style": "rc",
    "top_left_border_width": "1",
    "top_right_border_color": "3343a8ff",
    "top_right_border_radius": "2",
    "top_right_border_style": "rc",
    "top_right_border_width": "1"
  },
  "spaandroidtablet": {
    "background_color": "3343a8ff",
    "bg_type": "one",
    "border_type": 0,
    "bottom_left_border_color": "3343a8ff",
    "bottom_left_border_radius": "2",
    "bottom_left_border_style": "rc",
    "bottom_left_border_width": "1",
    "bottom_right_border_color": "3343a8ff",
    "bottom_right_border_radius": "2",
    "bottom_right_border_style": "rc",
    "bottom_right_border_width": "1",
    "font_name": "Lato-Regular",
    "font_size": 125,
    "isForked": true,
    "shadow": {
      "br": 0,
      "color": "000000ff",
      "inner": false,
      "nm": 0,
      "x": 0,
      "y": 0
    },
    "text_shadow": {
      "br": 0,
      "color": "000000ff",
      "nm": 0,
      "x": 0,
      "y": 0
    },
    "top_left_border_color": "3343a8ff",
    "top_left_border_radius": "2",
    "top_left_border_style": "rc",
    "top_left_border_width": "1",
    "top_right_border_color": "3343a8ff",
    "top_right_border_radius": "2",
    "top_right_border_style": "rc",
    "top_right_border_width": "1"
  },
  "spabb": {
    "background_color": "3343a8ff",
    "bg_type": "one",
    "border_type": 0,
    "bottom_left_border_color": "3343a8ff",
    "bottom_left_border_radius": "2",
    "bottom_left_border_style": "rc",
    "bottom_left_border_width": "1",
    "bottom_right_border_color": "3343a8ff",
    "bottom_right_border_radius": "2",
    "bottom_right_border_style": "rc",
    "bottom_right_border_width": "1",
    "font_size": 125,
    "isForked": true,
    "shadow": {
      "br": 0,
      "color": "000000ff",
      "inner": false,
      "nm": 0,
      "x": 0,
      "y": 0
    },
    "text_shadow": {
      "br": 0,
      "color": "000000ff",
      "nm": 0,
      "x": 0,
      "y": 0
    },
    "top_left_border_color": "3343a8ff",
    "top_left_border_radius": "2",
    "top_left_border_style": "rc",
    "top_left_border_width": "1",
    "top_right_border_color": "3343a8ff",
    "top_right_border_radius": "2",
    "top_right_border_style": "rc",
    "top_right_border_width": "1"
  },
  "spaip": {
    "background_color": "3343a8ff",
    "bg_type": "one",
    "border_type": 0,
    "bottom_left_border_color": "3343a8ff",
    "bottom_left_border_radius": "2",
    "bottom_left_border_style": "rc",
    "bottom_left_border_width": "1",
    "bottom_right_border_color": "3343a8ff",
    "bottom_right_border_radius": "2",
    "bottom_right_border_style": "rc",
    "bottom_right_border_width": "1",
    "font_name": "Lato-Regular",
    "font_size": 125,
    "isForked": true,
    "shadow": {
      "br": 0,
      "color": "000000ff",
      "inner": false,
      "nm": 0,
      "x": 0,
      "y": 0
    },
    "text_shadow": {
      "br": 0,
      "color": "000000ff",
      "nm": 0,
      "x": 0,
      "y": 0
    },
    "top_left_border_color": "3343a8ff",
    "top_left_border_radius": "2",
    "top_left_border_style": "rc",
    "top_left_border_width": "1",
    "top_right_border_color": "3343a8ff",
    "top_right_border_radius": "2",
    "top_right_border_style": "rc",
    "top_right_border_width": "1"
  },
  "spaipad": {
    "background_color": "3343a8ff",
    "bg_type": "one",
    "border_type": 0,
    "bottom_left_border_color": "3343a8ff",
    "bottom_left_border_radius": "2",
    "bottom_left_border_style": "rc",
    "bottom_left_border_width": "1",
    "bottom_right_border_color": "3343a8ff",
    "bottom_right_border_radius": "2",
    "bottom_right_border_style": "rc",
    "bottom_right_border_width": "1",
    "font_name": "Lato-Regular",
    "font_size": 125,
    "isForked": true,
    "shadow": {
      "br": 0,
      "color": "000000ff",
      "inner": false,
      "nm": 0,
      "x": 0,
      "y": 0
    },
    "text_shadow": {
      "br": 0,
      "color": "000000ff",
      "nm": 0,
      "x": 0,
      "y": 0
    },
    "top_left_border_color": "3343a8ff",
    "top_left_border_radius": "2",
    "top_left_border_style": "rc",
    "top_left_border_width": "1",
    "top_right_border_color": "3343a8ff",
    "top_right_border_radius": "2",
    "top_right_border_style": "rc",
    "top_right_border_width": "1"
  },
  "spawindowstablet": {
    "background_color": "3343a8ff",
    "bg_type": "one",
    "border_type": 0,
    "bottom_left_border_color": "3343a8ff",
    "bottom_left_border_radius": "2",
    "bottom_left_border_style": "rc",
    "bottom_left_border_width": "1",
    "bottom_right_border_color": "3343a8ff",
    "bottom_right_border_radius": "2",
    "bottom_right_border_style": "rc",
    "bottom_right_border_width": "1",
    "font_size": 125,
    "isForked": true,
    "shadow": {
      "br": 0,
      "color": "000000ff",
      "inner": false,
      "nm": 0,
      "x": 0,
      "y": 0
    },
    "text_shadow": {
      "br": 0,
      "color": "000000ff",
      "nm": 0,
      "x": 0,
      "y": 0
    },
    "top_left_border_color": "3343a8ff",
    "top_left_border_radius": "2",
    "top_left_border_style": "rc",
    "top_left_border_width": "1",
    "top_right_border_color": "3343a8ff",
    "top_right_border_radius": "2",
    "top_right_border_style": "rc",
    "top_right_border_width": "1"
  },
  "spawinphone8": {
    "background_color": "3343a8ff",
    "bg_type": "one",
    "border_type": 0,
    "bottom_left_border_color": "3343a8ff",
    "bottom_left_border_radius": "2",
    "bottom_left_border_style": "rc",
    "bottom_left_border_width": "1",
    "bottom_right_border_color": "3343a8ff",
    "bottom_right_border_radius": "2",
    "bottom_right_border_style": "rc",
    "bottom_right_border_width": "1",
    "font_size": 125,
    "isForked": true,
    "shadow": {
      "br": 0,
      "color": "000000ff",
      "inner": false,
      "nm": 0,
      "x": 0,
      "y": 0
    },
    "text_shadow": {
      "br": 0,
      "color": "000000ff",
      "nm": 0,
      "x": 0,
      "y": 0
    },
    "top_left_border_color": "3343a8ff",
    "top_left_border_radius": "2",
    "top_left_border_style": "rc",
    "top_left_border_width": "1",
    "top_right_border_color": "3343a8ff",
    "top_right_border_radius": "2",
    "top_right_border_style": "rc",
    "top_right_border_width": "1"
  },
  "tabrcandroid": {
    "background_color": "3343a8ff",
    "bg_type": "one",
    "border_color": "3343a8ff",
    "border_radius": 2,
    "border_style": "custom",
    "border_type": 0,
    "border_width": 1,
    "font_size": 89,
    "isForked": true,
    "text_shadow": {
      "br": 0,
      "color": "000000ff",
      "nm": 0,
      "x": 0,
      "y": 0
    }
  },
  "wType": "Button",
  "watchos": {
    "background_color": "3343a8ff",
    "bg_type": "one",
    "font_size": 54,
    "isForked": true
  },
  "windows8": {
    "background_color": "3343a8ff",
    "bg_type": "one",
    "border_color": "3343a8ff",
    "border_radius": 2,
    "border_style": "custom",
    "border_type": 0,
    "border_width": 1,
    "font_size": 37,
    "isForked": true
  },
  "winphone8": {
    "background_color": "3343a8ff",
    "bg_type": "one",
    "border_color": "3343a8ff",
    "border_radius": 2,
    "border_style": "custom",
    "border_type": 0,
    "border_width": 1,
    "font_size": 50,
    "isForked": true
  }
}