{
  "background_color": "ffffffff",
  "bg_type": "one",
  "border_color": "ebe9ebff",
  "border_radius": 3,
  "border_style": "custom",
  "border_type": 0,
  "border_width": 1,
  "isDefaultSkin": false,
  "kuid": "s2a410da95484e0babd96658f735e736",
  "wType": "FlexContainer"
}