{
  "background_color": "d3d3d333",
  "bg_type": "one",
  "border_color": "000000ff",
  "border_style": "plain",
  "border_type": 0,
  "border_width": 0,
  "isDefaultSkin": false,
  "kuid": "s60f978a8c8b4b8bab959a06eeba4985",
  "wType": "FlexContainer"
}