{
  "background_color": "e3e3e300",
  "bg_type": "one",
  "border_color": "e3e3e3ff",
  "border_radius": 0,
  "border_style": "custom",
  "border_type": 0,
  "border_width": 1,
  "isDefaultSkin": false,
  "kuid": "s5b9b3b444c442ea9057493a50557287",
  "wType": "FlexContainer"
}