{
  "background_color": "b1b1b17f",
  "bg_type": "one",
  "border_color": "000000ff",
  "border_style": "plain",
  "border_type": 0,
  "border_width": 0,
  "isDefaultSkin": false,
  "kuid": "s910b3c7e0c842c89d06a8416ae270f8",
  "wType": "FlexContainer"
}