{
  "background_color": "ffffffff",
  "bg_type": "one",
  "border_color": "d3d3d399",
  "border_style": "plain",
  "border_type": 0,
  "border_width": 1,
  "isDefaultSkin": false,
  "kuid": "scc473680bbe4691b0bee5c8e6dc6101",
  "wType": "FlexContainer"
}