{
  "background_color": "f9f9f9ff",
  "bg_type": "one",
  "border_color": "72727233",
  "border_radius": 2,
  "border_style": "custom",
  "border_type": 0,
  "border_width": 1,
  "isDefaultSkin": false,
  "kuid": "s947118788ac4a0aa95f75961791ac4f",
  "wType": "FlexContainer"
}