{
  "background_color": "ffffffff",
  "bg_type": "one",
  "border_color": "f4f4f400",
  "border_radius": 5,
  "border_style": "custom",
  "border_type": 0,
  "border_width": 1,
  "isDefaultSkin": false,
  "kuid": "s0f922b988444a8e81bfe77f32d817f3",
  "wType": "FlexContainer"
}