{
  "android": {
    "background_color": "ffffffff",
    "bg_type": "one",
    "isForked": true
  },
  "background_color": "00000000",
  "bg_type": "one",
  "border_color": "979797ff",
  "border_radius": 3,
  "border_style": "custom",
  "border_type": 0,
  "border_width": 1,
  "desktopweb": {
    "background_color": "ffffffff",
    "bg_type": "one",
    "bottom_left_border_color": "979797ff",
    "bottom_left_border_style": "plain",
    "bottom_left_border_width": 1,
    "bottom_right_border_color": "979797ff",
    "bottom_right_border_style": "plain",
    "bottom_right_border_width": "0",
    "isCustomCSSEnabled": false,
    "isForked": true,
    "top_left_border_color": "979797ff",
    "top_left_border_style": "plain",
    "top_left_border_width": "0",
    "top_right_border_color": "979797ff",
    "top_right_border_style": "plain",
    "top_right_border_width": 1
  },
  "ipad": {
    "background_color": "ffffffff",
    "bg_type": "one",
    "isForked": true
  },
  "iphone": {
    "background_color": "ffffffff",
    "bg_type": "one",
    "isForked": true
  },
  "isDefaultSkin": false,
  "kiosk": {
    "background_color": "ffffffff",
    "bg_type": "one",
    "isForked": true
  },
  "kuid": "seb0b7d705ef464e97bd21c95ca2ad68",
  "spaan": {
    "background_color": "ffffffff",
    "bg_type": "one",
    "bottom_left_border_color": "979797ff",
    "bottom_left_border_style": "plain",
    "bottom_left_border_width": 1,
    "bottom_right_border_color": "979797ff",
    "bottom_right_border_style": "plain",
    "bottom_right_border_width": "0",
    "isCustomCSSEnabled": false,
    "isForked": true,
    "top_left_border_color": "979797ff",
    "top_left_border_style": "plain",
    "top_left_border_width": "0",
    "top_right_border_color": "979797ff",
    "top_right_border_style": "plain",
    "top_right_border_width": 1
  },
  "spaandroidtablet": {
    "background_color": "ffffffff",
    "bg_type": "one",
    "bottom_left_border_color": "979797ff",
    "bottom_left_border_style": "plain",
    "bottom_left_border_width": 1,
    "bottom_right_border_color": "979797ff",
    "bottom_right_border_style": "plain",
    "bottom_right_border_width": "0",
    "isCustomCSSEnabled": false,
    "isForked": true,
    "top_left_border_color": "979797ff",
    "top_left_border_style": "plain",
    "top_left_border_width": "0",
    "top_right_border_color": "979797ff",
    "top_right_border_style": "plain",
    "top_right_border_width": 1
  },
  "spabb": {
    "background_color": "ffffffff",
    "bg_type": "one",
    "bottom_left_border_color": "979797ff",
    "bottom_left_border_style": "plain",
    "bottom_left_border_width": 1,
    "bottom_right_border_color": "979797ff",
    "bottom_right_border_style": "plain",
    "bottom_right_border_width": "0",
    "isCustomCSSEnabled": false,
    "isForked": true,
    "top_left_border_color": "979797ff",
    "top_left_border_style": "plain",
    "top_left_border_width": "0",
    "top_right_border_color": "979797ff",
    "top_right_border_style": "plain",
    "top_right_border_width": 1
  },
  "spaip": {
    "background_color": "ffffffff",
    "bg_type": "one",
    "bottom_left_border_color": "979797ff",
    "bottom_left_border_style": "plain",
    "bottom_left_border_width": 1,
    "bottom_right_border_color": "979797ff",
    "bottom_right_border_style": "plain",
    "bottom_right_border_width": "0",
    "isCustomCSSEnabled": false,
    "isForked": true,
    "top_left_border_color": "979797ff",
    "top_left_border_style": "plain",
    "top_left_border_width": "0",
    "top_right_border_color": "979797ff",
    "top_right_border_style": "plain",
    "top_right_border_width": 1
  },
  "spaipad": {
    "background_color": "ffffffff",
    "bg_type": "one",
    "bottom_left_border_color": "979797ff",
    "bottom_left_border_style": "plain",
    "bottom_left_border_width": 1,
    "bottom_right_border_color": "979797ff",
    "bottom_right_border_style": "plain",
    "bottom_right_border_width": "0",
    "isCustomCSSEnabled": false,
    "isForked": true,
    "top_left_border_color": "979797ff",
    "top_left_border_style": "plain",
    "top_left_border_width": "0",
    "top_right_border_color": "979797ff",
    "top_right_border_style": "plain",
    "top_right_border_width": 1
  },
  "spawindowstablet": {
    "background_color": "ffffffff",
    "bg_type": "one",
    "bottom_left_border_color": "979797ff",
    "bottom_left_border_style": "plain",
    "bottom_left_border_width": 1,
    "bottom_right_border_color": "979797ff",
    "bottom_right_border_style": "plain",
    "bottom_right_border_width": "0",
    "isCustomCSSEnabled": false,
    "isForked": true,
    "top_left_border_color": "979797ff",
    "top_left_border_style": "plain",
    "top_left_border_width": "0",
    "top_right_border_color": "979797ff",
    "top_right_border_style": "plain",
    "top_right_border_width": 1
  },
  "spawinphone8": {
    "background_color": "ffffffff",
    "bg_type": "one",
    "bottom_left_border_color": "979797ff",
    "bottom_left_border_style": "plain",
    "bottom_left_border_width": 1,
    "bottom_right_border_color": "979797ff",
    "bottom_right_border_style": "plain",
    "bottom_right_border_width": "0",
    "isCustomCSSEnabled": false,
    "isForked": true,
    "top_left_border_color": "979797ff",
    "top_left_border_style": "plain",
    "top_left_border_width": "0",
    "top_right_border_color": "979797ff",
    "top_right_border_style": "plain",
    "top_right_border_width": 1
  },
  "tabrcandroid": {
    "background_color": "ffffffff",
    "bg_type": "one",
    "isForked": true
  },
  "wType": "FlexContainer",
  "windows8": {
    "background_color": "ffffffff",
    "bg_type": "one",
    "isForked": true
  },
  "winphone8": {
    "background_color": "ffffffff",
    "bg_type": "one",
    "isForked": true
  }
}