{
  "background_color": "ffffffff",
  "bg_type": "one",
  "border_color": "fbfbfbff",
  "border_style": "plain",
  "border_type": 0,
  "border_width": 0,
  "isDefaultSkin": false,
  "kuid": "sed244858a85439dae2db9ede58d9ec2",
  "wType": "FlexContainer"
}