{
  "background_color": "dadada66",
  "bg_type": "one",
  "border_color": "000000ff",
  "border_style": "plain",
  "border_type": 0,
  "border_width": 0,
  "isDefaultSkin": false,
  "kuid": "s8d093bbd4ef4256bb9cce77962755fa",
  "wType": "FlexContainer"
}