{
  "background_color": "4a90e27f",
  "bg_type": "one",
  "border_color": "000000ff",
  "border_style": "plain",
  "border_type": 0,
  "border_width": 0,
  "isDefaultSkin": false,
  "kuid": "se0af957948f4a9d8dea6aefc29cd04b",
  "wType": "FlexContainer"
}