{
  "background_color": "eeeeeeff",
  "bg_type": "one",
  "border_color": "000000ff",
  "border_style": "plain",
  "border_type": 0,
  "border_width": 0,
  "isDefaultSkin": false,
  "kuid": "s6621470736b499895b935a37b4c8899",
  "wType": "FlexContainer"
}