{
  "background_color": "f4f4f4ff",
  "bg_type": "one",
  "border_color": "00000000",
  "border_radius": 3,
  "border_style": "custom",
  "border_type": 0,
  "border_width": 1,
  "desktopweb": {
    "bottom_left_border_color": "00000000",
    "bottom_left_border_radius": "3",
    "bottom_left_border_style": "rc",
    "bottom_left_border_width": 1,
    "bottom_right_border_color": "00000000",
    "bottom_right_border_radius": "3",
    "bottom_right_border_style": "rc",
    "bottom_right_border_width": 1,
    "isForked": true,
    "shadow": {
      "br": 2,
      "color": "d9d9d9ff",
      "inner": false,
      "nm": 0,
      "x": 1,
      "y": 1
    },
    "top_left_border_color": "00000000",
    "top_left_border_radius": "3",
    "top_left_border_style": "rc",
    "top_left_border_width": 1,
    "top_right_border_color": "00000000",
    "top_right_border_radius": "3",
    "top_right_border_style": "rc",
    "top_right_border_width": 1
  },
  "ipad": {
    "isForked": true,
    "shadow": {
      "br": 2,
      "color": "d9d9d9ff",
      "inner": false,
      "nm": 0,
      "x": 1,
      "y": 1
    }
  },
  "iphone": {
    "isForked": true,
    "shadow": {
      "br": 2,
      "color": "d9d9d9ff",
      "inner": false,
      "nm": 0,
      "x": 1,
      "y": 1
    }
  },
  "isDefaultSkin": false,
  "kuid": "s5211a43d82e4c37a04245208757ad63",
  "spaan": {
    "bottom_left_border_color": "00000000",
    "bottom_left_border_radius": "3",
    "bottom_left_border_style": "rc",
    "bottom_left_border_width": 1,
    "bottom_right_border_color": "00000000",
    "bottom_right_border_radius": "3",
    "bottom_right_border_style": "rc",
    "bottom_right_border_width": 1,
    "isForked": true,
    "shadow": {
      "br": 2,
      "color": "d9d9d9ff",
      "inner": false,
      "nm": 0,
      "x": 1,
      "y": 1
    },
    "top_left_border_color": "00000000",
    "top_left_border_radius": "3",
    "top_left_border_style": "rc",
    "top_left_border_width": 1,
    "top_right_border_color": "00000000",
    "top_right_border_radius": "3",
    "top_right_border_style": "rc",
    "top_right_border_width": 1
  },
  "spaandroidtablet": {
    "bottom_left_border_color": "00000000",
    "bottom_left_border_radius": "3",
    "bottom_left_border_style": "rc",
    "bottom_left_border_width": 1,
    "bottom_right_border_color": "00000000",
    "bottom_right_border_radius": "3",
    "bottom_right_border_style": "rc",
    "bottom_right_border_width": 1,
    "isForked": true,
    "shadow": {
      "br": 2,
      "color": "d9d9d9ff",
      "inner": false,
      "nm": 0,
      "x": 1,
      "y": 1
    },
    "top_left_border_color": "00000000",
    "top_left_border_radius": "3",
    "top_left_border_style": "rc",
    "top_left_border_width": 1,
    "top_right_border_color": "00000000",
    "top_right_border_radius": "3",
    "top_right_border_style": "rc",
    "top_right_border_width": 1
  },
  "spabb": {
    "bottom_left_border_color": "00000000",
    "bottom_left_border_radius": "3",
    "bottom_left_border_style": "rc",
    "bottom_left_border_width": 1,
    "bottom_right_border_color": "00000000",
    "bottom_right_border_radius": "3",
    "bottom_right_border_style": "rc",
    "bottom_right_border_width": 1,
    "isForked": true,
    "shadow": {
      "br": 2,
      "color": "d9d9d9ff",
      "inner": false,
      "nm": 0,
      "x": 1,
      "y": 1
    },
    "top_left_border_color": "00000000",
    "top_left_border_radius": "3",
    "top_left_border_style": "rc",
    "top_left_border_width": 1,
    "top_right_border_color": "00000000",
    "top_right_border_radius": "3",
    "top_right_border_style": "rc",
    "top_right_border_width": 1
  },
  "spaip": {
    "bottom_left_border_color": "00000000",
    "bottom_left_border_radius": "3",
    "bottom_left_border_style": "rc",
    "bottom_left_border_width": 1,
    "bottom_right_border_color": "00000000",
    "bottom_right_border_radius": "3",
    "bottom_right_border_style": "rc",
    "bottom_right_border_width": 1,
    "isForked": true,
    "shadow": {
      "br": 2,
      "color": "d9d9d9ff",
      "inner": false,
      "nm": 0,
      "x": 1,
      "y": 1
    },
    "top_left_border_color": "00000000",
    "top_left_border_radius": "3",
    "top_left_border_style": "rc",
    "top_left_border_width": 1,
    "top_right_border_color": "00000000",
    "top_right_border_radius": "3",
    "top_right_border_style": "rc",
    "top_right_border_width": 1
  },
  "spaipad": {
    "bottom_left_border_color": "00000000",
    "bottom_left_border_radius": "3",
    "bottom_left_border_style": "rc",
    "bottom_left_border_width": 1,
    "bottom_right_border_color": "00000000",
    "bottom_right_border_radius": "3",
    "bottom_right_border_style": "rc",
    "bottom_right_border_width": 1,
    "isForked": true,
    "shadow": {
      "br": 2,
      "color": "d9d9d9ff",
      "inner": false,
      "nm": 0,
      "x": 1,
      "y": 1
    },
    "top_left_border_color": "00000000",
    "top_left_border_radius": "3",
    "top_left_border_style": "rc",
    "top_left_border_width": 1,
    "top_right_border_color": "00000000",
    "top_right_border_radius": "3",
    "top_right_border_style": "rc",
    "top_right_border_width": 1
  },
  "spawindowstablet": {
    "bottom_left_border_color": "00000000",
    "bottom_left_border_radius": "3",
    "bottom_left_border_style": "rc",
    "bottom_left_border_width": 1,
    "bottom_right_border_color": "00000000",
    "bottom_right_border_radius": "3",
    "bottom_right_border_style": "rc",
    "bottom_right_border_width": 1,
    "isForked": true,
    "shadow": {
      "br": 2,
      "color": "d9d9d9ff",
      "inner": false,
      "nm": 0,
      "x": 1,
      "y": 1
    },
    "top_left_border_color": "00000000",
    "top_left_border_radius": "3",
    "top_left_border_style": "rc",
    "top_left_border_width": 1,
    "top_right_border_color": "00000000",
    "top_right_border_radius": "3",
    "top_right_border_style": "rc",
    "top_right_border_width": 1
  },
  "spawinphone8": {
    "bottom_left_border_color": "00000000",
    "bottom_left_border_radius": "3",
    "bottom_left_border_style": "rc",
    "bottom_left_border_width": 1,
    "bottom_right_border_color": "00000000",
    "bottom_right_border_radius": "3",
    "bottom_right_border_style": "rc",
    "bottom_right_border_width": 1,
    "isForked": true,
    "shadow": {
      "br": 2,
      "color": "d9d9d9ff",
      "inner": false,
      "nm": 0,
      "x": 1,
      "y": 1
    },
    "top_left_border_color": "00000000",
    "top_left_border_radius": "3",
    "top_left_border_style": "rc",
    "top_left_border_width": 1,
    "top_right_border_color": "00000000",
    "top_right_border_radius": "3",
    "top_right_border_style": "rc",
    "top_right_border_width": 1
  },
  "wType": "FlexContainer"
}