{
  "background_color": "fbfbfbff",
  "bg_type": "one",
  "border_color": "fbfbfbff",
  "border_style": "plain",
  "border_type": 0,
  "border_width": 0,
  "isDefaultSkin": false,
  "kuid": "sa6a7dc72b7443769a93480fb7c82c2d",
  "wType": "FlexContainer"
}