{
  "background_color": "00000033",
  "bg_type": "one",
  "border_color": "000000ff",
  "border_style": "plain",
  "border_type": 0,
  "border_width": 0,
  "isDefaultSkin": false,
  "kuid": "sce587adcfc34c999824cb6240ecb4ac",
  "wType": "FlexContainer"
}