{
  "background_color": "ffffffff",
  "bg_type": "one",
  "border_color": "000000ff",
  "border_style": "plain",
  "border_type": 0,
  "border_width": 0,
  "desktopweb": {
    "border_type": 0,
    "bottom_left_border_color": "ffffff00",
    "bottom_left_border_radius": "0",
    "bottom_left_border_style": "rc",
    "bottom_left_border_width": "1",
    "bottom_right_border_color": "ffffff00",
    "bottom_right_border_radius": "0",
    "bottom_right_border_style": "rc",
    "bottom_right_border_width": "1",
    "isForked": true,
    "shadow": {
      "br": 0,
      "color": "d9d9d9ff",
      "inner": false,
      "nm": 0,
      "x": 0,
      "y": 0
    },
    "top_left_border_color": "ffffff00",
    "top_left_border_radius": "3",
    "top_left_border_style": "rc",
    "top_left_border_width": "1",
    "top_right_border_color": "ffffff00",
    "top_right_border_radius": "3",
    "top_right_border_style": "rc",
    "top_right_border_width": "1"
  },
  "ipad": {
    "isForked": true,
    "shadow": {
      "br": 0,
      "color": "d9d9d9ff",
      "inner": false,
      "nm": 0,
      "x": 0,
      "y": 0
    }
  },
  "iphone": {
    "isForked": true,
    "shadow": {
      "br": 0,
      "color": "d9d9d9ff",
      "inner": false,
      "nm": 0,
      "x": 0,
      "y": 0
    }
  },
  "isDefaultSkin": false,
  "kuid": "sc1e14fb6893425b9387062bb6ca23ed",
  "spaan": {
    "border_type": 0,
    "bottom_left_border_color": "ffffff00",
    "bottom_left_border_radius": "0",
    "bottom_left_border_style": "rc",
    "bottom_left_border_width": "1",
    "bottom_right_border_color": "ffffff00",
    "bottom_right_border_radius": "0",
    "bottom_right_border_style": "rc",
    "bottom_right_border_width": "1",
    "isForked": true,
    "shadow": {
      "br": 0,
      "color": "d9d9d9ff",
      "inner": false,
      "nm": 0,
      "x": 0,
      "y": 0
    },
    "top_left_border_color": "ffffff00",
    "top_left_border_radius": "3",
    "top_left_border_style": "rc",
    "top_left_border_width": "1",
    "top_right_border_color": "ffffff00",
    "top_right_border_radius": "3",
    "top_right_border_style": "rc",
    "top_right_border_width": "1"
  },
  "spaandroidtablet": {
    "border_type": 0,
    "bottom_left_border_color": "ffffff00",
    "bottom_left_border_radius": "0",
    "bottom_left_border_style": "rc",
    "bottom_left_border_width": "1",
    "bottom_right_border_color": "ffffff00",
    "bottom_right_border_radius": "0",
    "bottom_right_border_style": "rc",
    "bottom_right_border_width": "1",
    "isForked": true,
    "shadow": {
      "br": 0,
      "color": "d9d9d9ff",
      "inner": false,
      "nm": 0,
      "x": 0,
      "y": 0
    },
    "top_left_border_color": "ffffff00",
    "top_left_border_radius": "3",
    "top_left_border_style": "rc",
    "top_left_border_width": "1",
    "top_right_border_color": "ffffff00",
    "top_right_border_radius": "3",
    "top_right_border_style": "rc",
    "top_right_border_width": "1"
  },
  "spabb": {
    "border_type": 0,
    "bottom_left_border_color": "ffffff00",
    "bottom_left_border_radius": "0",
    "bottom_left_border_style": "rc",
    "bottom_left_border_width": "1",
    "bottom_right_border_color": "ffffff00",
    "bottom_right_border_radius": "0",
    "bottom_right_border_style": "rc",
    "bottom_right_border_width": "1",
    "isForked": true,
    "shadow": {
      "br": 0,
      "color": "d9d9d9ff",
      "inner": false,
      "nm": 0,
      "x": 0,
      "y": 0
    },
    "top_left_border_color": "ffffff00",
    "top_left_border_radius": "3",
    "top_left_border_style": "rc",
    "top_left_border_width": "1",
    "top_right_border_color": "ffffff00",
    "top_right_border_radius": "3",
    "top_right_border_style": "rc",
    "top_right_border_width": "1"
  },
  "spaip": {
    "border_type": 0,
    "bottom_left_border_color": "ffffff00",
    "bottom_left_border_radius": "0",
    "bottom_left_border_style": "rc",
    "bottom_left_border_width": "1",
    "bottom_right_border_color": "ffffff00",
    "bottom_right_border_radius": "0",
    "bottom_right_border_style": "rc",
    "bottom_right_border_width": "1",
    "isForked": true,
    "shadow": {
      "br": 0,
      "color": "d9d9d9ff",
      "inner": false,
      "nm": 0,
      "x": 0,
      "y": 0
    },
    "top_left_border_color": "ffffff00",
    "top_left_border_radius": "3",
    "top_left_border_style": "rc",
    "top_left_border_width": "1",
    "top_right_border_color": "ffffff00",
    "top_right_border_radius": "3",
    "top_right_border_style": "rc",
    "top_right_border_width": "1"
  },
  "spaipad": {
    "border_type": 0,
    "bottom_left_border_color": "ffffff00",
    "bottom_left_border_radius": "0",
    "bottom_left_border_style": "rc",
    "bottom_left_border_width": "1",
    "bottom_right_border_color": "ffffff00",
    "bottom_right_border_radius": "0",
    "bottom_right_border_style": "rc",
    "bottom_right_border_width": "1",
    "isForked": true,
    "shadow": {
      "br": 0,
      "color": "d9d9d9ff",
      "inner": false,
      "nm": 0,
      "x": 0,
      "y": 0
    },
    "top_left_border_color": "ffffff00",
    "top_left_border_radius": "3",
    "top_left_border_style": "rc",
    "top_left_border_width": "1",
    "top_right_border_color": "ffffff00",
    "top_right_border_radius": "3",
    "top_right_border_style": "rc",
    "top_right_border_width": "1"
  },
  "spawindowstablet": {
    "border_type": 0,
    "bottom_left_border_color": "ffffff00",
    "bottom_left_border_radius": "0",
    "bottom_left_border_style": "rc",
    "bottom_left_border_width": "1",
    "bottom_right_border_color": "ffffff00",
    "bottom_right_border_radius": "0",
    "bottom_right_border_style": "rc",
    "bottom_right_border_width": "1",
    "isForked": true,
    "shadow": {
      "br": 0,
      "color": "d9d9d9ff",
      "inner": false,
      "nm": 0,
      "x": 0,
      "y": 0
    },
    "top_left_border_color": "ffffff00",
    "top_left_border_radius": "3",
    "top_left_border_style": "rc",
    "top_left_border_width": "1",
    "top_right_border_color": "ffffff00",
    "top_right_border_radius": "3",
    "top_right_border_style": "rc",
    "top_right_border_width": "1"
  },
  "spawinphone8": {
    "border_type": 0,
    "bottom_left_border_color": "ffffff00",
    "bottom_left_border_radius": "0",
    "bottom_left_border_style": "rc",
    "bottom_left_border_width": "1",
    "bottom_right_border_color": "ffffff00",
    "bottom_right_border_radius": "0",
    "bottom_right_border_style": "rc",
    "bottom_right_border_width": "1",
    "isForked": true,
    "shadow": {
      "br": 0,
      "color": "d9d9d9ff",
      "inner": false,
      "nm": 0,
      "x": 0,
      "y": 0
    },
    "top_left_border_color": "ffffff00",
    "top_left_border_radius": "3",
    "top_left_border_style": "rc",
    "top_left_border_width": "1",
    "top_right_border_color": "ffffff00",
    "top_right_border_radius": "3",
    "top_right_border_style": "rc",
    "top_right_border_width": "1"
  },
  "wType": "FlexContainer"
}