{
  "background_color": "72727233",
  "bg_type": "one",
  "border_color": "000000ff",
  "border_style": "plain",
  "border_type": 0,
  "border_width": 0,
  "isDefaultSkin": false,
  "kuid": "s94ae3991da6448c866ebfb0a09ff767",
  "wType": "FlexContainer"
}