{
  "android": {
    "background_color": "f8f8f8ff",
    "bg_type": "one",
    "isForked": true
  },
  "background_color": "f8f8f8ff",
  "bg_type": "one",
  "border_color": "f8f8f8ff",
  "border_radius": 3,
  "border_style": "custom",
  "border_type": 0,
  "border_width": 1,
  "desktopweb": {
    "background_color": "f8f8f8ff",
    "bg_type": "one",
    "bottom_left_border_color": "f8f8f8ff",
    "bottom_left_border_style": "plain",
    "bottom_left_border_width": "0",
    "bottom_right_border_color": "f8f8f8ff",
    "bottom_right_border_style": "plain",
    "bottom_right_border_width": "0",
    "isForked": true,
    "top_left_border_color": "f8f8f8ff",
    "top_left_border_radius": "3",
    "top_left_border_style": "rc",
    "top_left_border_width": "1",
    "top_right_border_color": "f8f8f8ff",
    "top_right_border_radius": "3",
    "top_right_border_style": "rc",
    "top_right_border_width": "1"
  },
  "ipad": {
    "background_color": "f8f8f8ff",
    "bg_type": "one",
    "isForked": true
  },
  "iphone": {
    "background_color": "f8f8f8ff",
    "bg_type": "one",
    "isForked": true
  },
  "isDefaultSkin": false,
  "kiosk": {
    "background_color": "f8f8f8ff",
    "bg_type": "one",
    "isForked": true
  },
  "kuid": "sedd5570eb90485bbdd873a30eab68f6",
  "spaan": {
    "background_color": "f8f8f8ff",
    "bg_type": "one",
    "bottom_left_border_color": "f8f8f8ff",
    "bottom_left_border_style": "plain",
    "bottom_left_border_width": "0",
    "bottom_right_border_color": "f8f8f8ff",
    "bottom_right_border_style": "plain",
    "bottom_right_border_width": "0",
    "isForked": true,
    "top_left_border_color": "f8f8f8ff",
    "top_left_border_radius": "3",
    "top_left_border_style": "rc",
    "top_left_border_width": "1",
    "top_right_border_color": "f8f8f8ff",
    "top_right_border_radius": "3",
    "top_right_border_style": "rc",
    "top_right_border_width": "1"
  },
  "spaandroidtablet": {
    "background_color": "f8f8f8ff",
    "bg_type": "one",
    "bottom_left_border_color": "f8f8f8ff",
    "bottom_left_border_style": "plain",
    "bottom_left_border_width": "0",
    "bottom_right_border_color": "f8f8f8ff",
    "bottom_right_border_style": "plain",
    "bottom_right_border_width": "0",
    "isForked": true,
    "top_left_border_color": "f8f8f8ff",
    "top_left_border_radius": "3",
    "top_left_border_style": "rc",
    "top_left_border_width": "1",
    "top_right_border_color": "f8f8f8ff",
    "top_right_border_radius": "3",
    "top_right_border_style": "rc",
    "top_right_border_width": "1"
  },
  "spabb": {
    "background_color": "f8f8f8ff",
    "bg_type": "one",
    "bottom_left_border_color": "f8f8f8ff",
    "bottom_left_border_style": "plain",
    "bottom_left_border_width": "0",
    "bottom_right_border_color": "f8f8f8ff",
    "bottom_right_border_style": "plain",
    "bottom_right_border_width": "0",
    "isForked": true,
    "top_left_border_color": "f8f8f8ff",
    "top_left_border_radius": "3",
    "top_left_border_style": "rc",
    "top_left_border_width": "1",
    "top_right_border_color": "f8f8f8ff",
    "top_right_border_radius": "3",
    "top_right_border_style": "rc",
    "top_right_border_width": "1"
  },
  "spaip": {
    "background_color": "f8f8f8ff",
    "bg_type": "one",
    "bottom_left_border_color": "f8f8f8ff",
    "bottom_left_border_style": "plain",
    "bottom_left_border_width": "0",
    "bottom_right_border_color": "f8f8f8ff",
    "bottom_right_border_style": "plain",
    "bottom_right_border_width": "0",
    "isForked": true,
    "top_left_border_color": "f8f8f8ff",
    "top_left_border_radius": "3",
    "top_left_border_style": "rc",
    "top_left_border_width": "1",
    "top_right_border_color": "f8f8f8ff",
    "top_right_border_radius": "3",
    "top_right_border_style": "rc",
    "top_right_border_width": "1"
  },
  "spaipad": {
    "background_color": "f8f8f8ff",
    "bg_type": "one",
    "bottom_left_border_color": "f8f8f8ff",
    "bottom_left_border_style": "plain",
    "bottom_left_border_width": "0",
    "bottom_right_border_color": "f8f8f8ff",
    "bottom_right_border_style": "plain",
    "bottom_right_border_width": "0",
    "isForked": true,
    "top_left_border_color": "f8f8f8ff",
    "top_left_border_radius": "3",
    "top_left_border_style": "rc",
    "top_left_border_width": "1",
    "top_right_border_color": "f8f8f8ff",
    "top_right_border_radius": "3",
    "top_right_border_style": "rc",
    "top_right_border_width": "1"
  },
  "spawindowstablet": {
    "background_color": "f8f8f8ff",
    "bg_type": "one",
    "bottom_left_border_color": "f8f8f8ff",
    "bottom_left_border_style": "plain",
    "bottom_left_border_width": "0",
    "bottom_right_border_color": "f8f8f8ff",
    "bottom_right_border_style": "plain",
    "bottom_right_border_width": "0",
    "isForked": true,
    "top_left_border_color": "f8f8f8ff",
    "top_left_border_radius": "3",
    "top_left_border_style": "rc",
    "top_left_border_width": "1",
    "top_right_border_color": "f8f8f8ff",
    "top_right_border_radius": "3",
    "top_right_border_style": "rc",
    "top_right_border_width": "1"
  },
  "spawinphone8": {
    "background_color": "f8f8f8ff",
    "bg_type": "one",
    "bottom_left_border_color": "f8f8f8ff",
    "bottom_left_border_style": "plain",
    "bottom_left_border_width": "0",
    "bottom_right_border_color": "f8f8f8ff",
    "bottom_right_border_style": "plain",
    "bottom_right_border_width": "0",
    "isForked": true,
    "top_left_border_color": "f8f8f8ff",
    "top_left_border_radius": "3",
    "top_left_border_style": "rc",
    "top_left_border_width": "1",
    "top_right_border_color": "f8f8f8ff",
    "top_right_border_radius": "3",
    "top_right_border_style": "rc",
    "top_right_border_width": "1"
  },
  "tabrcandroid": {
    "background_color": "f8f8f8ff",
    "bg_type": "one",
    "isForked": true
  },
  "wType": "FlexContainer",
  "windows8": {
    "background_color": "f8f8f8ff",
    "bg_type": "one",
    "isForked": true
  },
  "winphone8": {
    "background_color": "f8f8f8ff",
    "bg_type": "one",
    "isForked": true
  }
}