{
  "background_color": "fbfbfbff",
  "bg_type": "one",
  "border_color": "9797977f",
  "border_style": "plain",
  "border_type": 0,
  "border_width": 1,
  "isDefaultSkin": false,
  "kuid": "s979f167a2f14ab6b3be3a665f803df0",
  "wType": "FlexContainer"
}