{
  "background_color": "fbfbfbff",
  "bg_type": "one",
  "border_color": "fbfbfb00",
  "border_radius": 3,
  "border_style": "custom",
  "border_type": 0,
  "border_width": 1,
  "desktopweb": {
    "bottom_left_border_color": "fbfbfb00",
    "bottom_left_border_style": "plain",
    "bottom_left_border_width": 1,
    "bottom_right_border_color": "fbfbfb00",
    "bottom_right_border_style": "plain",
    "bottom_right_border_width": 1,
    "isForked": true,
    "shadow": {
      "br": 2,
      "color": "fcfcfcff",
      "inner": false,
      "nm": 0,
      "x": 1,
      "y": 1
    },
    "top_left_border_color": "fbfbfb00",
    "top_left_border_style": "plain",
    "top_left_border_width": 1,
    "top_right_border_color": "fbfbfb00",
    "top_right_border_style": "plain",
    "top_right_border_width": 1
  },
  "ipad": {
    "isForked": true,
    "shadow": {
      "br": 2,
      "color": "fcfcfcff",
      "inner": false,
      "nm": 0,
      "x": 1,
      "y": 1
    }
  },
  "iphone": {
    "isForked": true,
    "shadow": {
      "br": 2,
      "color": "fcfcfcff",
      "inner": false,
      "nm": 0,
      "x": 1,
      "y": 1
    }
  },
  "isDefaultSkin": false,
  "kuid": "s059d2c7e9ef43d5b011fc3752c5fc0c",
  "spaan": {
    "bottom_left_border_color": "fbfbfb00",
    "bottom_left_border_style": "plain",
    "bottom_left_border_width": 1,
    "bottom_right_border_color": "fbfbfb00",
    "bottom_right_border_style": "plain",
    "bottom_right_border_width": 1,
    "isForked": true,
    "shadow": {
      "br": 2,
      "color": "fcfcfcff",
      "inner": false,
      "nm": 0,
      "x": 1,
      "y": 1
    },
    "top_left_border_color": "fbfbfb00",
    "top_left_border_style": "plain",
    "top_left_border_width": 1,
    "top_right_border_color": "fbfbfb00",
    "top_right_border_style": "plain",
    "top_right_border_width": 1
  },
  "spaandroidtablet": {
    "bottom_left_border_color": "fbfbfb00",
    "bottom_left_border_style": "plain",
    "bottom_left_border_width": 1,
    "bottom_right_border_color": "fbfbfb00",
    "bottom_right_border_style": "plain",
    "bottom_right_border_width": 1,
    "isForked": true,
    "shadow": {
      "br": 2,
      "color": "fcfcfcff",
      "inner": false,
      "nm": 0,
      "x": 1,
      "y": 1
    },
    "top_left_border_color": "fbfbfb00",
    "top_left_border_style": "plain",
    "top_left_border_width": 1,
    "top_right_border_color": "fbfbfb00",
    "top_right_border_style": "plain",
    "top_right_border_width": 1
  },
  "spabb": {
    "bottom_left_border_color": "fbfbfb00",
    "bottom_left_border_style": "plain",
    "bottom_left_border_width": 1,
    "bottom_right_border_color": "fbfbfb00",
    "bottom_right_border_style": "plain",
    "bottom_right_border_width": 1,
    "isForked": true,
    "shadow": {
      "br": 2,
      "color": "fcfcfcff",
      "inner": false,
      "nm": 0,
      "x": 1,
      "y": 1
    },
    "top_left_border_color": "fbfbfb00",
    "top_left_border_style": "plain",
    "top_left_border_width": 1,
    "top_right_border_color": "fbfbfb00",
    "top_right_border_style": "plain",
    "top_right_border_width": 1
  },
  "spaip": {
    "bottom_left_border_color": "fbfbfb00",
    "bottom_left_border_style": "plain",
    "bottom_left_border_width": 1,
    "bottom_right_border_color": "fbfbfb00",
    "bottom_right_border_style": "plain",
    "bottom_right_border_width": 1,
    "isForked": true,
    "shadow": {
      "br": 2,
      "color": "fcfcfcff",
      "inner": false,
      "nm": 0,
      "x": 1,
      "y": 1
    },
    "top_left_border_color": "fbfbfb00",
    "top_left_border_style": "plain",
    "top_left_border_width": 1,
    "top_right_border_color": "fbfbfb00",
    "top_right_border_style": "plain",
    "top_right_border_width": 1
  },
  "spaipad": {
    "bottom_left_border_color": "fbfbfb00",
    "bottom_left_border_style": "plain",
    "bottom_left_border_width": 1,
    "bottom_right_border_color": "fbfbfb00",
    "bottom_right_border_style": "plain",
    "bottom_right_border_width": 1,
    "isForked": true,
    "shadow": {
      "br": 2,
      "color": "fcfcfcff",
      "inner": false,
      "nm": 0,
      "x": 1,
      "y": 1
    },
    "top_left_border_color": "fbfbfb00",
    "top_left_border_style": "plain",
    "top_left_border_width": 1,
    "top_right_border_color": "fbfbfb00",
    "top_right_border_style": "plain",
    "top_right_border_width": 1
  },
  "spawindowstablet": {
    "bottom_left_border_color": "fbfbfb00",
    "bottom_left_border_style": "plain",
    "bottom_left_border_width": 1,
    "bottom_right_border_color": "fbfbfb00",
    "bottom_right_border_style": "plain",
    "bottom_right_border_width": 1,
    "isForked": true,
    "shadow": {
      "br": 2,
      "color": "fcfcfcff",
      "inner": false,
      "nm": 0,
      "x": 1,
      "y": 1
    },
    "top_left_border_color": "fbfbfb00",
    "top_left_border_style": "plain",
    "top_left_border_width": 1,
    "top_right_border_color": "fbfbfb00",
    "top_right_border_style": "plain",
    "top_right_border_width": 1
  },
  "spawinphone8": {
    "bottom_left_border_color": "fbfbfb00",
    "bottom_left_border_style": "plain",
    "bottom_left_border_width": 1,
    "bottom_right_border_color": "fbfbfb00",
    "bottom_right_border_style": "plain",
    "bottom_right_border_width": 1,
    "isForked": true,
    "shadow": {
      "br": 2,
      "color": "fcfcfcff",
      "inner": false,
      "nm": 0,
      "x": 1,
      "y": 1
    },
    "top_left_border_color": "fbfbfb00",
    "top_left_border_style": "plain",
    "top_left_border_width": 1,
    "top_right_border_color": "fbfbfb00",
    "top_right_border_style": "plain",
    "top_right_border_width": 1
  },
  "wType": "FlexContainer"
}