{
  "background_color": "ffffff00",
  "bg_type": "one",
  "border_color": "72727233",
  "border_style": "plain",
  "border_type": 0,
  "border_width": 1,
  "bottom_left_border_color": "4a90e2ff",
  "bottom_left_border_radius": "2",
  "bottom_left_border_style": "rc",
  "bottom_right_border_color": "4a90e2ff",
  "bottom_right_border_radius": "2",
  "bottom_right_border_style": "rc",
  "isDefaultSkin": false,
  "kuid": "sb47de83c29744d8bb776026d4e71a5c",
  "top_left_border_color": "4a90e2ff",
  "top_left_border_radius": "2",
  "top_left_border_style": "rc",
  "top_left_border_width": "1",
  "top_right_border_color": "4a90e2ff",
  "top_right_border_radius": "2",
  "top_right_border_style": "rc",
  "wType": "FlexContainer"
}