{
  "android": {
    "background_color": "9060b7ff",
    "bg_type": "one",
    "isForked": true
  },
  "background_color": "26d0ceff",
  "bg_type": "one",
  "border_color": "000000ff",
  "border_style": "plain",
  "border_type": 0,
  "border_width": 0,
  "desktopweb": {
    "background_color": "9060b7ff",
    "bg_type": "one",
    "border_type": 0,
    "bottom_left_border_color": "9060b7ff",
    "bottom_left_border_radius": "3",
    "bottom_left_border_style": "rc",
    "bottom_left_border_width": "1",
    "bottom_right_border_color": "9060b7ff",
    "bottom_right_border_radius": "3",
    "bottom_right_border_style": "rc",
    "bottom_right_border_width": "1",
    "isForked": true,
    "top_left_border_color": "9060b7ff",
    "top_left_border_radius": "3",
    "top_left_border_style": "rc",
    "top_left_border_width": "1",
    "top_right_border_color": "000000ff",
    "top_right_border_style": "plain",
    "top_right_border_width": 0
  },
  "ipad": {
    "background_color": "9060b7ff",
    "bg_type": "one",
    "isForked": true
  },
  "iphone": {
    "background_color": "9060b7ff",
    "bg_type": "one",
    "isForked": true
  },
  "isDefaultSkin": false,
  "kiosk": {
    "background_color": "9060b7ff",
    "bg_type": "one",
    "isForked": true
  },
  "kuid": "s65f8aa894ee417a9756bf7894b6fc6f",
  "spaan": {
    "background_color": "9060b7ff",
    "bg_type": "one",
    "border_type": 0,
    "bottom_left_border_color": "9060b7ff",
    "bottom_left_border_radius": "3",
    "bottom_left_border_style": "rc",
    "bottom_left_border_width": "1",
    "bottom_right_border_color": "9060b7ff",
    "bottom_right_border_radius": "3",
    "bottom_right_border_style": "rc",
    "bottom_right_border_width": "1",
    "isForked": true,
    "top_left_border_color": "9060b7ff",
    "top_left_border_radius": "3",
    "top_left_border_style": "rc",
    "top_left_border_width": "1",
    "top_right_border_color": "000000ff",
    "top_right_border_style": "plain",
    "top_right_border_width": 0
  },
  "spaandroidtablet": {
    "background_color": "9060b7ff",
    "bg_type": "one",
    "border_type": 0,
    "bottom_left_border_color": "9060b7ff",
    "bottom_left_border_radius": "3",
    "bottom_left_border_style": "rc",
    "bottom_left_border_width": "1",
    "bottom_right_border_color": "9060b7ff",
    "bottom_right_border_radius": "3",
    "bottom_right_border_style": "rc",
    "bottom_right_border_width": "1",
    "isForked": true,
    "top_left_border_color": "9060b7ff",
    "top_left_border_radius": "3",
    "top_left_border_style": "rc",
    "top_left_border_width": "1",
    "top_right_border_color": "000000ff",
    "top_right_border_style": "plain",
    "top_right_border_width": 0
  },
  "spabb": {
    "background_color": "9060b7ff",
    "bg_type": "one",
    "border_type": 0,
    "bottom_left_border_color": "9060b7ff",
    "bottom_left_border_radius": "3",
    "bottom_left_border_style": "rc",
    "bottom_left_border_width": "1",
    "bottom_right_border_color": "9060b7ff",
    "bottom_right_border_radius": "3",
    "bottom_right_border_style": "rc",
    "bottom_right_border_width": "1",
    "isForked": true,
    "top_left_border_color": "9060b7ff",
    "top_left_border_radius": "3",
    "top_left_border_style": "rc",
    "top_left_border_width": "1",
    "top_right_border_color": "000000ff",
    "top_right_border_style": "plain",
    "top_right_border_width": 0
  },
  "spaip": {
    "background_color": "9060b7ff",
    "bg_type": "one",
    "border_type": 0,
    "bottom_left_border_color": "9060b7ff",
    "bottom_left_border_radius": "3",
    "bottom_left_border_style": "rc",
    "bottom_left_border_width": "1",
    "bottom_right_border_color": "9060b7ff",
    "bottom_right_border_radius": "3",
    "bottom_right_border_style": "rc",
    "bottom_right_border_width": "1",
    "isForked": true,
    "top_left_border_color": "9060b7ff",
    "top_left_border_radius": "3",
    "top_left_border_style": "rc",
    "top_left_border_width": "1",
    "top_right_border_color": "000000ff",
    "top_right_border_style": "plain",
    "top_right_border_width": 0
  },
  "spaipad": {
    "background_color": "9060b7ff",
    "bg_type": "one",
    "border_type": 0,
    "bottom_left_border_color": "9060b7ff",
    "bottom_left_border_radius": "3",
    "bottom_left_border_style": "rc",
    "bottom_left_border_width": "1",
    "bottom_right_border_color": "9060b7ff",
    "bottom_right_border_radius": "3",
    "bottom_right_border_style": "rc",
    "bottom_right_border_width": "1",
    "isForked": true,
    "top_left_border_color": "9060b7ff",
    "top_left_border_radius": "3",
    "top_left_border_style": "rc",
    "top_left_border_width": "1",
    "top_right_border_color": "000000ff",
    "top_right_border_style": "plain",
    "top_right_border_width": 0
  },
  "spawindowstablet": {
    "background_color": "9060b7ff",
    "bg_type": "one",
    "border_type": 0,
    "bottom_left_border_color": "9060b7ff",
    "bottom_left_border_radius": "3",
    "bottom_left_border_style": "rc",
    "bottom_left_border_width": "1",
    "bottom_right_border_color": "9060b7ff",
    "bottom_right_border_radius": "3",
    "bottom_right_border_style": "rc",
    "bottom_right_border_width": "1",
    "isForked": true,
    "top_left_border_color": "9060b7ff",
    "top_left_border_radius": "3",
    "top_left_border_style": "rc",
    "top_left_border_width": "1",
    "top_right_border_color": "000000ff",
    "top_right_border_style": "plain",
    "top_right_border_width": 0
  },
  "spawinphone8": {
    "background_color": "9060b7ff",
    "bg_type": "one",
    "border_type": 0,
    "bottom_left_border_color": "9060b7ff",
    "bottom_left_border_radius": "3",
    "bottom_left_border_style": "rc",
    "bottom_left_border_width": "1",
    "bottom_right_border_color": "9060b7ff",
    "bottom_right_border_radius": "3",
    "bottom_right_border_style": "rc",
    "bottom_right_border_width": "1",
    "isForked": true,
    "top_left_border_color": "9060b7ff",
    "top_left_border_radius": "3",
    "top_left_border_style": "rc",
    "top_left_border_width": "1",
    "top_right_border_color": "000000ff",
    "top_right_border_style": "plain",
    "top_right_border_width": 0
  },
  "tabrcandroid": {
    "background_color": "9060b7ff",
    "bg_type": "one",
    "isForked": true
  },
  "wType": "FlexContainer",
  "windows8": {
    "background_color": "9060b7ff",
    "bg_type": "one",
    "isForked": true
  },
  "winphone8": {
    "background_color": "9060b7ff",
    "bg_type": "one",
    "isForked": true
  }
}