{
  "android": {
    "font_name": "Helvetica",
    "font_size": 29,
    "isForked": false
  },
  "background_color": "00000000",
  "bg_type": "one",
  "border_color": "424242ff",
  "border_style": "plain",
  "border_type": 0,
  "border_width": 0,
  "desktopweb": {
    "font_name": "GothamBook",
    "font_size": 133,
    "isForked": false
  },
  "fontSizeInPx": true,
  "font_color": "4f2683ff",
  "font_name": "Helvetica",
  "font_size": 133,
  "font_style": "normal",
  "font_weight": "normal",
  "ipad": {
    "font_name": "Helvetica",
    "font_size": 57,
    "isForked": false
  },
  "iphone": {
    "font_name": "Helvetica",
    "font_size": 57,
    "isForked": false
  },
  "isDefaultSkin": false,
  "kiosk": {
    "font_name": "GenericMonospace",
    "font_size": 100,
    "isForked": false
  },
  "kuid": "s504c760cba54588910241ad388c0377",
  "spaan": {
    "font_name": "Lato-Regular",
    "font_size": 133,
    "isForked": false
  },
  "spaandroidtablet": {
    "font_name": "Lato-Regular",
    "font_size": 133,
    "isForked": false
  },
  "spabb": {
    "font_name": "Helvetica",
    "font_size": 133,
    "isForked": false
  },
  "spaip": {
    "font_name": "Lato-Regular",
    "font_size": 133,
    "isForked": false
  },
  "spaipad": {
    "font_name": "Lato-Regular",
    "font_size": 133,
    "isForked": false
  },
  "spawindowstablet": {
    "font_name": "Helvetica",
    "font_size": 133,
    "isForked": false
  },
  "spawinphone8": {
    "font_name": "Helvetica",
    "font_size": 133,
    "isForked": false
  },
  "tabrcandroid": {
    "font_name": "Helvetica",
    "font_size": 95,
    "isForked": false
  },
  "wType": "Label",
  "watchos": {
    "font_name": "Helvetica",
    "font_size": 57,
    "isForked": false
  },
  "windows8": {
    "font_name": "GenericMonospace",
    "font_size": 39,
    "isForked": false
  },
  "winphone8": {
    "font_name": "GenericMonospace",
    "font_size": 53,
    "isForked": false
  }
}