{
  "android": {
    "font_size": 32,
    "isForked": false
  },
  "background_color": "00000000",
  "bg_type": "one",
  "border_color": "424242ff",
  "border_style": "plain",
  "border_type": 0,
  "border_width": 0,
  "desktopweb": {
    "font_name": "GothamBook",
    "font_size": 150,
    "isForked": false
  },
  "fontSizeInPx": true,
  "font_color": "666666ff",
  "font_name": "Helvetica",
  "font_size": 150,
  "font_style": "normal",
  "font_weight": "normal",
  "ipad": {
    "font_size": 64,
    "isForked": false
  },
  "iphone": {
    "font_size": 43,
    "isForked": false
  },
  "isDefaultSkin": false,
  "kiosk": {
    "font_size": 113,
    "isForked": false
  },
  "kuid": "s97cfa61c0fc4143b5eac3aee8eb0880",
  "spaan": {
    "font_size": 150,
    "isForked": false
  },
  "spaandroidtablet": {
    "font_size": 150,
    "isForked": false
  },
  "spabb": {
    "font_size": 150,
    "isForked": false
  },
  "spaip": {
    "font_size": 150,
    "isForked": false
  },
  "spaipad": {
    "font_name": "Lato-Regular",
    "font_size": 150,
    "isForked": false
  },
  "spawindowstablet": {
    "font_size": 150,
    "isForked": false
  },
  "spawinphone8": {
    "font_size": 150,
    "isForked": false
  },
  "tabrcandroid": {
    "font_size": 107,
    "isForked": false
  },
  "wType": "Label",
  "watchos": {
    "font_size": 64,
    "isForked": false
  },
  "windows8": {
    "font_size": 44,
    "isForked": false
  },
  "winphone8": {
    "font_size": 60,
    "isForked": false
  }
}