{
  "background_color": "d3d3d34c",
  "bg_type": "one",
  "border_color": "424242ff",
  "border_style": "plain",
  "border_type": 0,
  "border_width": 0,
  "font_color": "d3d3d333",
  "font_name": "Helvetica",
  "font_size": 215,
  "font_style": "normal",
  "font_weight": "normal",
  "isDefaultSkin": false,
  "kuid": "sa5e6f0b237d4bb6a08bd5ef2d62d2d2",
  "wType": "Label"
}