{
  "background_color": "4f268333",
  "bg_type": "one",
  "border_color": "979797ff",
  "border_style": "plain",
  "border_type": 0,
  "border_width": 0,
  "font_color": "42424200",
  "font_name": "Helvetica",
  "font_size": 215,
  "font_style": "normal",
  "font_weight": "normal",
  "isDefaultSkin": false,
  "kuid": "s3a65cb433604b9bbc12e07d006c288b",
  "wType": "Label"
}