{
  "android": {
    "font_size": 95,
    "isForked": false
  },
  "background_color": "00000000",
  "bg_type": "one",
  "border_color": "424242ff",
  "border_style": "plain",
  "border_type": 0,
  "border_width": 0,
  "desktopweb": {
    "font_name": "Lato-Regular",
    "font_size": 250,
    "isForked": false
  },
  "fontSizeInPx": true,
  "font_color": "424242ff",
  "font_name": "Helvetica",
  "font_size": 250,
  "font_style": "normal",
  "font_weight": "normal",
  "ipad": {
    "font_size": 143,
    "isForked": false
  },
  "iphone": {
    "font_size": 143,
    "isForked": false
  },
  "isDefaultSkin": false,
  "kiosk": {
    "font_size": 250,
    "isForked": false
  },
  "kuid": "sf559d8ef1734c73b6e91d934e0599f8",
  "spaan": {
    "font_size": 267,
    "isForked": false
  },
  "spaandroidtablet": {
    "font_size": 250,
    "isForked": false
  },
  "spabb": {
    "font_size": 308,
    "isForked": false
  },
  "spaip": {
    "font_size": 333,
    "isForked": false
  },
  "spaipad": {
    "font_size": 235,
    "isForked": false
  },
  "spawindowstablet": {
    "font_size": 235,
    "isForked": false
  },
  "spawinphone8": {
    "font_size": 333,
    "isForked": false
  },
  "tabrcandroid": {
    "font_size": 237,
    "isForked": false
  },
  "wType": "Label",
  "watchos": {
    "font_size": 143,
    "isForked": false
  },
  "windows8": {
    "font_size": 98,
    "isForked": false
  },
  "winphone8": {
    "font_size": 133,
    "isForked": false
  }
}