{
  "android": {
    "font_size": 83,
    "isForked": false
  },
  "background_color": "00000000",
  "bg_type": "one",
  "border_color": "424242ff",
  "border_style": "plain",
  "border_type": 0,
  "border_width": 0,
  "desktopweb": {
    "font_name": "Lato-Regular",
    "font_size": 292,
    "isForked": false
  },
  "fontSizeInPx": true,
  "font_color": "333333ff",
  "font_name": "Helvetica",
  "font_size": 292,
  "font_style": "normal",
  "font_weight": "normal",
  "ipad": {
    "font_size": 125,
    "isForked": false
  },
  "iphone": {
    "font_size": 125,
    "isForked": false
  },
  "isDefaultSkin": false,
  "kiosk": {
    "font_size": 219,
    "isForked": false
  },
  "kuid": "s2350cc1e7df4b1d9755bba6175db63f",
  "spaan": {
    "font_size": 292,
    "isForked": false
  },
  "spaandroidtablet": {
    "font_size": 292,
    "isForked": false
  },
  "spabb": {
    "font_size": 292,
    "isForked": false
  },
  "spaip": {
    "font_size": 292,
    "isForked": false
  },
  "spaipad": {
    "font_size": 292,
    "isForked": false
  },
  "spawindowstablet": {
    "font_size": 292,
    "isForked": false
  },
  "spawinphone8": {
    "font_size": 292,
    "isForked": false
  },
  "tabrcandroid": {
    "font_size": 207,
    "isForked": false
  },
  "wType": "Label",
  "watchos": {
    "font_size": 125,
    "isForked": false
  },
  "windows8": {
    "font_size": 85,
    "isForked": false
  },
  "winphone8": {
    "font_size": 117,
    "isForked": false
  }
}