{
  "background_color": "d8d8d833",
  "bg_type": "one",
  "border_color": "979797ff",
  "border_style": "plain",
  "border_type": 0,
  "border_width": 0,
  "font_color": "42424200",
  "font_name": "Helvetica",
  "font_size": 215,
  "font_style": "normal",
  "font_weight": "normal",
  "isDefaultSkin": false,
  "kuid": "s18a72af52d243adb05c4e2c0b20585a",
  "wType": "Label"
}