{
  "android": {
    "font_name": "Helvetica",
    "font_size": 67,
    "isForked": false
  },
  "background_color": "00000000",
  "bg_type": "one",
  "border_color": "424242ff",
  "border_style": "plain",
  "border_type": 0,
  "border_width": 0,
  "desktopweb": {
    "font_name": "Lato-Light",
    "font_size": 233,
    "isForked": false
  },
  "fontSizeInPx": true,
  "font_color": "424242ff",
  "font_name": "Helvetica",
  "font_size": 233,
  "font_style": "normal",
  "font_weight": "normal",
  "ipad": {
    "font_name": "Helvetica",
    "font_size": 100,
    "isForked": false
  },
  "iphone": {
    "font_name": "Helvetica",
    "font_size": 100,
    "isForked": false
  },
  "isDefaultSkin": false,
  "kiosk": {
    "font_name": "GenericMonospace",
    "font_size": 175,
    "isForked": false
  },
  "kuid": "s1905c5bb45f4e35ad57d03a7325b017",
  "spaan": {
    "font_name": "Lato-Regular",
    "font_size": 233,
    "isForked": false
  },
  "spaandroidtablet": {
    "font_name": "Lato-Regular",
    "font_size": 233,
    "isForked": false
  },
  "spabb": {
    "font_name": "Helvetica",
    "font_size": 233,
    "isForked": false
  },
  "spaip": {
    "font_name": "Lato-Regular",
    "font_size": 233,
    "isForked": false
  },
  "spaipad": {
    "font_name": "Lato-Regular",
    "font_size": 233,
    "isForked": false
  },
  "spawindowstablet": {
    "font_name": "Helvetica",
    "font_size": 233,
    "isForked": false
  },
  "spawinphone8": {
    "font_name": "Helvetica",
    "font_size": 233,
    "isForked": false
  },
  "tabrcandroid": {
    "font_name": "Helvetica",
    "font_size": 166,
    "isForked": false
  },
  "wType": "Label",
  "watchos": {
    "font_name": "Helvetica",
    "font_size": 100,
    "isForked": false
  },
  "windows8": {
    "font_name": "GenericMonospace",
    "font_size": 68,
    "isForked": false
  },
  "winphone8": {
    "font_name": "GenericMonospace",
    "font_size": 93,
    "isForked": false
  }
}