{
  "android": {
    "background_color": "ffffff00",
    "bg_type": "one",
    "isForked": true
  },
  "background_color": "ffffffff",
  "bg_type": "one",
  "border_color": "000000ff",
  "border_style": "plain",
  "border_type": 0,
  "border_width": 0,
  "desktopweb": {
    "background_color": "ffffff00",
    "bg_type": "one",
    "border_type": 0,
    "bottom_left_border_color": "d8d8d833",
    "bottom_left_border_style": "plain",
    "bottom_left_border_width": "0",
    "bottom_right_border_color": "d8d8d833",
    "bottom_right_border_style": "plain",
    "bottom_right_border_width": "0",
    "isForked": true,
    "shadow": {
      "br": 0,
      "color": "d9d9d9ff",
      "inner": false,
      "nm": 0,
      "x": 0,
      "y": 0
    },
    "top_left_border_color": "d8d8d833",
    "top_left_border_style": "plain",
    "top_left_border_width": "0",
    "top_right_border_color": "d8d8d833",
    "top_right_border_style": "plain",
    "top_right_border_width": "0"
  },
  "ipad": {
    "background_color": "ffffff00",
    "bg_type": "one",
    "isForked": true,
    "shadow": {
      "br": 0,
      "color": "d9d9d9ff",
      "inner": false,
      "nm": 0,
      "x": 0,
      "y": 0
    }
  },
  "iphone": {
    "background_color": "ffffff00",
    "bg_type": "one",
    "isForked": true,
    "shadow": {
      "br": 0,
      "color": "d9d9d9ff",
      "inner": false,
      "nm": 0,
      "x": 0,
      "y": 0
    }
  },
  "isDefaultSkin": false,
  "kiosk": {
    "background_color": "ffffff00",
    "bg_type": "one",
    "isForked": true
  },
  "kuid": "s69ca748868945f5a346b2f371a3acf5",
  "spaan": {
    "background_color": "ffffff00",
    "bg_type": "one",
    "border_type": 0,
    "bottom_left_border_color": "d8d8d833",
    "bottom_left_border_style": "plain",
    "bottom_left_border_width": "0",
    "bottom_right_border_color": "d8d8d833",
    "bottom_right_border_style": "plain",
    "bottom_right_border_width": "0",
    "isForked": true,
    "shadow": {
      "br": 0,
      "color": "d9d9d9ff",
      "inner": false,
      "nm": 0,
      "x": 0,
      "y": 0
    },
    "top_left_border_color": "d8d8d833",
    "top_left_border_style": "plain",
    "top_left_border_width": "0",
    "top_right_border_color": "d8d8d833",
    "top_right_border_style": "plain",
    "top_right_border_width": "0"
  },
  "spaandroidtablet": {
    "background_color": "ffffff00",
    "bg_type": "one",
    "border_type": 0,
    "bottom_left_border_color": "d8d8d833",
    "bottom_left_border_style": "plain",
    "bottom_left_border_width": "0",
    "bottom_right_border_color": "d8d8d833",
    "bottom_right_border_style": "plain",
    "bottom_right_border_width": "0",
    "isForked": true,
    "shadow": {
      "br": 0,
      "color": "d9d9d9ff",
      "inner": false,
      "nm": 0,
      "x": 0,
      "y": 0
    },
    "top_left_border_color": "d8d8d833",
    "top_left_border_style": "plain",
    "top_left_border_width": "0",
    "top_right_border_color": "d8d8d833",
    "top_right_border_style": "plain",
    "top_right_border_width": "0"
  },
  "spabb": {
    "background_color": "ffffff00",
    "bg_type": "one",
    "border_type": 0,
    "bottom_left_border_color": "d8d8d833",
    "bottom_left_border_style": "plain",
    "bottom_left_border_width": "0",
    "bottom_right_border_color": "d8d8d833",
    "bottom_right_border_style": "plain",
    "bottom_right_border_width": "0",
    "isForked": true,
    "shadow": {
      "br": 0,
      "color": "d9d9d9ff",
      "inner": false,
      "nm": 0,
      "x": 0,
      "y": 0
    },
    "top_left_border_color": "d8d8d833",
    "top_left_border_style": "plain",
    "top_left_border_width": "0",
    "top_right_border_color": "d8d8d833",
    "top_right_border_style": "plain",
    "top_right_border_width": "0"
  },
  "spaip": {
    "background_color": "ffffff00",
    "bg_type": "one",
    "border_type": 0,
    "bottom_left_border_color": "d8d8d833",
    "bottom_left_border_style": "plain",
    "bottom_left_border_width": "0",
    "bottom_right_border_color": "d8d8d833",
    "bottom_right_border_style": "plain",
    "bottom_right_border_width": "0",
    "isForked": true,
    "shadow": {
      "br": 0,
      "color": "d9d9d9ff",
      "inner": false,
      "nm": 0,
      "x": 0,
      "y": 0
    },
    "top_left_border_color": "d8d8d833",
    "top_left_border_style": "plain",
    "top_left_border_width": "0",
    "top_right_border_color": "d8d8d833",
    "top_right_border_style": "plain",
    "top_right_border_width": "0"
  },
  "spaipad": {
    "background_color": "ffffff00",
    "bg_type": "one",
    "border_type": 0,
    "bottom_left_border_color": "d8d8d833",
    "bottom_left_border_style": "plain",
    "bottom_left_border_width": "0",
    "bottom_right_border_color": "d8d8d833",
    "bottom_right_border_style": "plain",
    "bottom_right_border_width": "0",
    "isForked": true,
    "shadow": {
      "br": 0,
      "color": "d9d9d9ff",
      "inner": false,
      "nm": 0,
      "x": 0,
      "y": 0
    },
    "top_left_border_color": "d8d8d833",
    "top_left_border_style": "plain",
    "top_left_border_width": "0",
    "top_right_border_color": "d8d8d833",
    "top_right_border_style": "plain",
    "top_right_border_width": "0"
  },
  "spawindowstablet": {
    "background_color": "ffffff00",
    "bg_type": "one",
    "border_type": 0,
    "bottom_left_border_color": "d8d8d833",
    "bottom_left_border_style": "plain",
    "bottom_left_border_width": "0",
    "bottom_right_border_color": "d8d8d833",
    "bottom_right_border_style": "plain",
    "bottom_right_border_width": "0",
    "isForked": true,
    "shadow": {
      "br": 0,
      "color": "d9d9d9ff",
      "inner": false,
      "nm": 0,
      "x": 0,
      "y": 0
    },
    "top_left_border_color": "d8d8d833",
    "top_left_border_style": "plain",
    "top_left_border_width": "0",
    "top_right_border_color": "d8d8d833",
    "top_right_border_style": "plain",
    "top_right_border_width": "0"
  },
  "spawinphone8": {
    "background_color": "ffffff00",
    "bg_type": "one",
    "border_type": 0,
    "bottom_left_border_color": "d8d8d833",
    "bottom_left_border_style": "plain",
    "bottom_left_border_width": "0",
    "bottom_right_border_color": "d8d8d833",
    "bottom_right_border_style": "plain",
    "bottom_right_border_width": "0",
    "isForked": true,
    "shadow": {
      "br": 0,
      "color": "d9d9d9ff",
      "inner": false,
      "nm": 0,
      "x": 0,
      "y": 0
    },
    "top_left_border_color": "d8d8d833",
    "top_left_border_style": "plain",
    "top_left_border_width": "0",
    "top_right_border_color": "d8d8d833",
    "top_right_border_style": "plain",
    "top_right_border_width": "0"
  },
  "tabrcandroid": {
    "background_color": "ffffff00",
    "bg_type": "one",
    "isForked": true
  },
  "wType": "FlexContainer",
  "windows8": {
    "background_color": "ffffff00",
    "bg_type": "one",
    "isForked": true
  },
  "winphone8": {
    "background_color": "ffffff00",
    "bg_type": "one",
    "isForked": true
  }
}