{
  "android": {
    "font_name": "Helvetica",
    "font_size": 92,
    "isForked": false
  },
  "background_color": "ffffffff",
  "bg_type": "one",
  "border_color": "282828ff",
  "border_style": "plain",
  "border_type": 0,
  "border_width": 0,
  "desktopweb": {
    "font_name": "Lato-Regular",
    "font_size": 92,
    "isForked": false
  },
  "fontSizeInPx": false,
  "font_color": "424242ff",
  "font_name": "Helvetica",
  "font_size": 92,
  "font_style": "normal",
  "font_weight": "normal",
  "ipad": {
    "font_name": "Helvetica",
    "font_size": 92,
    "isForked": false
  },
  "iphone": {
    "font_name": "Helvetica",
    "font_size": 92,
    "isForked": false
  },
  "isDefaultSkin": false,
  "kiosk": {
    "font_name": "GenericMonospace",
    "font_size": 92,
    "isForked": false
  },
  "kuid": "s36e24d5506e4052a0e67255f8c23c0b",
  "spaan": {
    "font_name": "Lato-Regular",
    "font_size": 92,
    "isForked": false
  },
  "spaandroidtablet": {
    "font_name": "Lato-Regular",
    "font_size": 92,
    "isForked": false
  },
  "spabb": {
    "font_name": "Helvetica",
    "font_size": 92,
    "isForked": false
  },
  "spaip": {
    "font_name": "Lato-Regular",
    "font_size": 92,
    "isForked": false
  },
  "spaipad": {
    "font_name": "Lato-Regular",
    "font_size": 92,
    "isForked": false
  },
  "spawindowstablet": {
    "font_name": "Helvetica",
    "font_size": 92,
    "isForked": false
  },
  "spawinphone8": {
    "font_name": "Helvetica",
    "font_size": 92,
    "isForked": false
  },
  "tabrcandroid": {
    "font_name": "Helvetica",
    "font_size": 92,
    "isForked": false
  },
  "wType": "TextField",
  "watchos": {
    "font_name": "Helvetica",
    "font_size": 92,
    "isForked": false
  },
  "windows8": {
    "font_name": "GenericMonospace",
    "font_size": 92,
    "isForked": false
  },
  "winphone8": {
    "font_name": "GenericMonospace",
    "font_size": 92,
    "isForked": false
  }
}