{
  "background_color": "167efcff",
  "bg_type": "one",
  "border_color": "000000ff",
  "border_style": "plain",
  "border_type": 0,
  "border_width": 0,
  "font_color": "000000ff",
  "font_name": "Helvetica",
  "font_size": 118,
  "font_style": "normal",
  "font_weight": "normal",
  "ipad": {
    "isForked": true
  },
  "iphone": {
    "isForked": true
  },
  "isDefaultSkin": true,
  "kuid": "sbbb3684a64649ac8911618e2528bada",
  "wType": "Slider"
}