{
  "@class": "com.kony.gen.viz.model.component.KVizUserWidget",
  "DNDConfig": null,
  "__parentReadjusting__": false,
  "_children_": [],
  "_height_": "50dp",
  "_left_": "0dp",
  "_margin_": [
    0,
    0,
    0,
    0
  ],
  "_orientation_": 1,
  "_padding_": [
    0,
    0,
    0,
    0
  ],
  "_percent_": true,
  "_render_": true,
  "_skin_": "s2ce93a13331476c8dd4bdd20e9a2e14",
  "_top_": "0dp",
  "_width_": "100%",
  "areflexpropsreferenced": false,
  "autogrowmode": 0,
  "canUpdateUI": true,
  "clipbounds": true,
  "containerweight": 0,
  "dataDiffs": {
    "breadcrumb": {
      "__events__": {},
      "__info__": {
        "isRoot": true,
        "kuid": "fe7f869422f74b7f80ff4eadc9fff058",
        "srcKUID": "jdbd779e0c7743739197ebb17ae3c27e",
        "wType": "FlexContainer"
      }
    },
    "btnBreadcrumb1": {
      "__events__": {},
      "__info__": {
        "kuid": "fdf6d86c7dfe40ceb39d837576753c9f",
        "srcKUID": "j8c10426f5ad4cc5abe5b3dafa2dbb1c",
        "wType": "Button"
      }
    },
    "btnBreadcrumb2": {
      "__events__": {},
      "__info__": {
        "kuid": "gb4e5932f3264485b5b9d33bec72790d",
        "srcKUID": "e8107b226c2b40cf90a9a46174bc7f1d",
        "wType": "Button"
      }
    },
    "flxBottomBorder": {
      "__events__": {},
      "__info__": {
        "kuid": "d2ada773ab8b404db179f505ed86d7dc",
        "srcKUID": "i0ec1627a998464aade04cd886ef46aa",
        "wType": "FlexContainer"
      }
    },
    "flxBreadcrumbcontainer": {
      "__events__": {},
      "__info__": {
        "kuid": "cc0adeda63314cec98a37c541ae1faff",
        "srcKUID": "j0c7057677fd4a26b82f7fa59cdd360e",
        "wType": "FlexContainer"
      }
    },
    "flxTopBorder": {
      "__events__": {},
      "__info__": {
        "kuid": "g4b6d02f43614f0dbb8087fbdeaf9e5b",
        "srcKUID": "bb6bda1822574264b7678002ffe888d6",
        "wType": "FlexContainer"
      }
    },
    "imgBreadcrumb": {
      "__events__": {},
      "__info__": {
        "kuid": "da1b86c493eb4ebcbe96c2fb63ff77e2",
        "srcKUID": "f5a4304fad2f41a3b5b783c4326dfc7f",
        "wType": "Image"
      }
    },
    "imgBreadcrumb2": {
      "__events__": {},
      "__info__": {
        "kuid": "i1534d7fede6489885f3d7db6abc601c",
        "srcKUID": "ec657451494941c9970301e279e7bf1a",
        "wType": "Image"
      }
    },
    "lblBreadcrumb2": {
      "__events__": {},
      "__info__": {
        "kuid": "a099bb9087d94c54aa49fcaa58e20f72",
        "srcKUID": "c087aea595bb4c9fa3e64e58b7e245f9",
        "wType": "Label"
      }
    },
    "lblBreadcrumb3": {
      "__events__": {},
      "__info__": {
        "kuid": "e6e47d3278a44e079e72e126ce167d5c",
        "srcKUID": "ec107db8650a4c9db78a5676ab665c29",
        "wType": "Label"
      }
    }
  },
  "id": "breadcrumb",
  "info": null,
  "isdatareferenced": false,
  "isvisible": true,
  "kuid": "fe7f869422f74b7f80ff4eadc9fff058",
  "layouttype": 2,
  "masterType": 0,
  "name": "kony.ui.UserWidgetInstance",
  "parent": "flxMain",
  "pf": "frmTransfers",
  "snaptogrid": true,
  "sourceUserWidget": "jdbd779e0c7743739197ebb17ae3c27e",
  "wType": "UserWidgetInstance"
}