{
  "DNDConfig": null,
  "__parentReadjusting__": false,
  "_height_": {
    "type": "ref",
    "value": "preferred"
  },
  "_left_": {
    "type": "string",
    "value": "0dp"
  },
  "_margin_": [
    0,
    0,
    0,
    0
  ],
  "_orientation_": 6,
  "_padding_": [
    0,
    0,
    0,
    0
  ],
  "_percent_": true,
  "_skin_": "s5a5f3773b7b479c935720bf16debe36",
  "_top_": {
    "type": "string",
    "value": "0dp"
  },
  "_width_": {
    "type": "string",
    "value": "100%"
  },
  "allboxes": [],
  "autogrowmode": 1,
  "canUpdateUI": true,
  "children": [
    "flxEditAccount"
  ],
  "clipbounds": false,
  "containerweight": 100,
  "enablescrolling": true,
  "id": "Editaccount",
  "info": null,
  "isvisible": true,
  "kuid": "d7f78152c6f0481ab9d780c12f4d56b2",
  "layouttype": 4,
  "name": "kony.ui.FlexContainer",
  "parent": "userwidgetmodel",
  "pf": "userwidgetmodel",
  "snapgridsize": 10,
  "snaptogrid": true,
  "vizProps": {
    "hidewidgethierarchy": false
  },
  "wType": "FlexContainer",
  "widgetalignment": 1
}