{
  "@class": "com.kony.gen.viz.model.component.KVizButton",
  "DNDConfig": null,
  "__parentReadjusting__": false,
  "_height_": {
    "type": "ref",
    "value": "preferred"
  },
  "_left_": {
    "type": "string",
    "value": "15.05%"
  },
  "_margin_": [
    6,
    6,
    6,
    6
  ],
  "_padding_": [
    0,
    0,
    0,
    0
  ],
  "_skin_": "sdb9d18f726a491390c0de98860b057a",
  "_text_": "BACK TO DETAILS",
  "_width_": {
    "type": "ref",
    "value": "preferred"
  },
  "canUpdateUI": true,
  "centery": {
    "type": "string",
    "value": "50%"
  },
  "containerweight": 100,
  "contentalignment": 5,
  "disabledSkins": {
    "focusSkin": "sf44d06ca8224832827ea7fdff757013"
  },
  "displaytext": true,
  "id": "btnBackToDetails",
  "info": null,
  "isvisible": true,
  "kuid": "g97e8acd3b774e5887c8f5cc19924723",
  "name": "kony.ui.Button",
  "parent": "flxBack",
  "pf": "userwidgetmodel",
  "tooltip": "Back To Details",
  "wType": "Button",
  "zindex": 1
}