{
  "DNDConfig": null,
  "__parentReadjusting__": false,
  "_height_": {
    "type": "string",
    "value": "100dp"
  },
  "_left_": {
    "type": "string",
    "value": "100dp"
  },
  "_margin_": [
    0,
    0,
    0,
    0
  ],
  "_orientation_": 6,
  "_padding_": [
    0,
    0,
    0,
    0
  ],
  "_percent_": true,
  "_skin_": "s24c92fc23b14f5484b693ee9b8a9b35",
  "_top_": {
    "type": "string",
    "value": "0dp"
  },
  "_width_": {
    "type": "string",
    "value": "66.67%"
  },
  "allboxes": [],
  "autogrowmode": 0,
  "canUpdateUI": true,
  "children": [
    "lblBranchName",
    "lblBranchAddressOneLine",
    "lblBranchAddress2",
    "lblOpen",
    "lblClosed",
    "imgGo"
  ],
  "clipbounds": true,
  "containerweight": 100,
  "enablescrolling": true,
  "id": "flxBranchAddressDetails",
  "info": null,
  "isvisible": true,
  "kuid": "c1a28e37e06a489aa464df8e9a0f0ce4",
  "layouttype": 2,
  "name": "kony.ui.FlexContainer",
  "parent": "flxLocationDetails",
  "pf": "userwidgetmodel",
  "snapgridsize": 10,
  "snaptogrid": true,
  "wType": "FlexContainer",
  "widgetalignment": 1,
  "zindex": 1
}