{
  "DNDConfig": null,
  "__parentReadjusting__": false,
  "_height_": {
    "type": "string",
    "value": "127px"
  },
  "_left_": {
    "type": "string",
    "value": "88dp"
  },
  "_margin_": [
    0,
    0,
    0,
    0
  ],
  "_orientation_": 6,
  "_padding_": [
    0,
    0,
    0,
    0
  ],
  "_percent_": true,
  "_skin_": "s24c92fc23b14f5484b693ee9b8a9b35",
  "_top_": {
    "type": "string",
    "value": "183dp"
  },
  "_width_": {
    "type": "string",
    "value": "300px"
  },
  "allboxes": [],
  "autogrowmode": 0,
  "canUpdateUI": true,
  "children": [
    "flxLocationDetails",
    "imgToolTip"
  ],
  "clipbounds": true,
  "containerweight": 100,
  "enablescrolling": true,
  "id": "flxDistanceDetails",
  "info": null,
  "isvisible": false,
  "kuid": "b16176331ea54663b0e142975bbd05b4",
  "layouttype": 2,
  "name": "kony.ui.FlexContainer",
  "parent": "flxMap",
  "pf": "userwidgetmodel",
  "snapgridsize": 10,
  "snaptogrid": true,
  "wType": "FlexContainer",
  "widgetalignment": 1,
  "zindex": 2
}