{
  "DNDConfig": null,
  "__parentReadjusting__": false,
  "_height_": {
    "type": "string",
    "value": "14dp"
  },
  "_left_": {
    "type": "string",
    "value": "5.78%"
  },
  "_margin_": [
    0,
    0,
    0,
    0
  ],
  "_orientation_": 6,
  "_padding_": [
    0,
    0,
    0,
    0
  ],
  "_percent_": true,
  "_skin_": "s24c92fc23b14f5484b693ee9b8a9b35",
  "_top_": {
    "type": "string",
    "value": "15px"
  },
  "_width_": {
    "type": "string",
    "value": "90%"
  },
  "allboxes": [],
  "autogrowmode": 0,
  "canUpdateUI": true,
  "children": [
    "imgService4",
    "lblService4"
  ],
  "clipbounds": true,
  "containerweight": 100,
  "enablescrolling": true,
  "id": "flxService4",
  "info": null,
  "isvisible": true,
  "kuid": "ab42d5c188944dcfa8641af9f92d25d0",
  "layouttype": 3,
  "name": "kony.ui.FlexContainer",
  "parent": "flxServicesAvailable",
  "pf": "userwidgetmodel",
  "snapgridsize": 10,
  "snaptogrid": true,
  "wType": "FlexContainer",
  "widgetalignment": 1,
  "zindex": 1
}