{
  "DNDConfig": null,
  "__parentReadjusting__": false,
  "_height_": {
    "type": "string",
    "value": "30dp"
  },
  "_left_": {
    "type": "string",
    "value": "3.95%"
  },
  "_margin_": [
    0,
    0,
    0,
    0
  ],
  "_orientation_": 6,
  "_padding_": [
    0,
    0,
    0,
    0
  ],
  "_percent_": true,
  "_skin_": "s24c92fc23b14f5484b693ee9b8a9b35",
  "_top_": {
    "type": "string",
    "value": "80dp"
  },
  "_width_": {
    "type": "string",
    "value": "91.90%"
  },
  "allboxes": [],
  "autogrowmode": 0,
  "canUpdateUI": true,
  "children": [
    "flxDistances"
  ],
  "clipbounds": true,
  "containerweight": 100,
  "enablescrolling": true,
  "id": "flxSlider",
  "info": null,
  "isvisible": true,
  "kuid": "fc851557716144ea8adfd5c79d9f7c3e",
  "layouttype": 2,
  "name": "kony.ui.FlexContainer",
  "parent": "flxNearMe",
  "pf": "userwidgetmodel",
  "snapgridsize": 10,
  "snaptogrid": true,
  "wType": "FlexContainer",
  "widgetalignment": 1,
  "zindex": 2
}