{
  "DNDConfig": null,
  "__parentReadjusting__": false,
  "_height_": {
    "type": "string",
    "value": "650px"
  },
  "_left_": {
    "type": "string",
    "value": "0dp"
  },
  "_margin_": [
    0,
    0,
    0,
    0
  ],
  "_orientation_": 6,
  "_padding_": [
    0,
    0,
    0,
    0
  ],
  "_percent_": true,
  "_skin_": "s24c92fc23b14f5484b693ee9b8a9b35",
  "_top_": {
    "type": "string",
    "value": "0dp"
  },
  "_width_": {
    "type": "string",
    "value": "100%"
  },
  "allboxes": [],
  "autogrowmode": 0,
  "canUpdateUI": true,
  "children": [
    "flxViewsAndFiltersHeader",
    "flxNearMe",
    "flxOption1",
    "flxOption2",
    "flxOption3",
    "flxOption4",
    "flxOption5",
    "flxOptions",
    "flxViewsAndFiltersButtons"
  ],
  "clipbounds": true,
  "containerweight": 100,
  "enablescrolling": true,
  "id": "flxViewsAndFilters",
  "info": null,
  "isvisible": false,
  "kuid": "aad12ccb978f413a9be9246519d0c710",
  "layouttype": 4,
  "name": "kony.ui.FlexContainer",
  "parent": "flxLeft",
  "pf": "userwidgetmodel",
  "snapgridsize": 10,
  "snaptogrid": true,
  "wType": "FlexContainer",
  "widgetalignment": 1,
  "zindex": 2
}