{
  "@class": "com.kony.gen.viz.model.component.KVizImage2",
  "DNDConfig": null,
  "__parentReadjusting__": false,
  "_base64_": null,
  "_height_": {
    "type": "string",
    "value": "120dp"
  },
  "_left_": {
    "type": "string",
    "value": "2.88%"
  },
  "_margin_": [
    0,
    0,
    0,
    0
  ],
  "_padding_": [
    0,
    0,
    0,
    0
  ],
  "_skin_": "s78a5f26c9f14cec9ebed1bb46098f80",
  "_src_": "bank_img_rounded.png",
  "_top_": {
    "type": "string",
    "value": "20dp"
  },
  "_width_": {
    "type": "string",
    "value": "120dp"
  },
  "canUpdateUI": true,
  "containerweight": 100,
  "context": {
    "channel": "desktop",
    "formID": "uwu38e8dcc86d64d6b8b79d9cb09b91c35",
    "platform": "desktopweb",
    "templateType": "userwidgets",
    "topLevelBox": null
  },
  "id": "imgBankImage",
  "imagescalemode": 1,
  "info": null,
  "invokedProperty": "src",
  "isvisible": false,
  "kuid": "feba77214b0a4f28be8e95246a024ad0",
  "name": "kony.ui.Image2",
  "parent": "flxBranchNameAndAddress",
  "pf": "userwidgetmodel",
  "srcType": 1,
  "wType": "Image",
  "widgetalignment": 5,
  "zindex": 1
}