{
  "@class": "com.kony.gen.viz.model.container.KVizSegment2",
  "DNDConfig": null,
  "__parentReadjusting__": false,
  "_data_": [
    {},
    {},
    {}
  ],
  "_height_": {
    "type": "ref",
    "value": "preferred"
  },
  "_indicator_": "none",
  "_left_": {
    "type": "string",
    "value": "0dp"
  },
  "_margin_": [
    0,
    0,
    0,
    0
  ],
  "_orientation_": 2,
  "_padding_": [
    0,
    0,
    0,
    0
  ],
  "_top_": {
    "type": "string",
    "value": "5dp"
  },
  "_width_": {
    "type": "string",
    "value": "100%"
  },
  "autogrowmode": 1,
  "canUpdateUI": true,
  "containerweight": 100,
  "counter": "06",
  "desktop": {
    "_data_": [
      {
        "lblTimingsMondayKey": {
          "@class": "com.viz.ide.model.segment.SimpleTextSegmentData",
          "text": "Mon:"
        },
        "lblTimingsMondayValue": {
          "@class": "com.viz.ide.model.segment.SimpleTextSegmentData",
          "text": "10:00am to 6:00pm"
        }
      },
      {
        "lblTimingsMondayKey": {
          "@class": "com.viz.ide.model.segment.SimpleTextSegmentData",
          "text": "Tue:"
        },
        "lblTimingsMondayValue": {
          "@class": "com.viz.ide.model.segment.SimpleTextSegmentData",
          "text": "10:00am to 6:00pm"
        }
      },
      {
        "lblTimingsMondayKey": {
          "@class": "com.viz.ide.model.segment.SimpleTextSegmentData",
          "text": "Wed:"
        },
        "lblTimingsMondayValue": {
          "@class": "com.viz.ide.model.segment.SimpleTextSegmentData",
          "text": "10:00am to 6:00pm"
        }
      },
      {
        "lblTimingsMondayKey": {
          "@class": "com.viz.ide.model.segment.SimpleTextSegmentData",
          "text": "Thu:"
        },
        "lblTimingsMondayValue": {
          "@class": "com.viz.ide.model.segment.SimpleTextSegmentData",
          "text": "10:00am to 6:00pm"
        }
      },
      {
        "lblTimingsMondayKey": {
          "@class": "com.viz.ide.model.segment.SimpleTextSegmentData",
          "text": "Fri:"
        },
        "lblTimingsMondayValue": {
          "@class": "com.viz.ide.model.segment.SimpleTextSegmentData",
          "text": "10:00am to 6:00pm"
        }
      },
      {
        "lblTimingsMondayKey": {
          "@class": "com.viz.ide.model.segment.SimpleTextSegmentData",
          "text": "Sat:"
        },
        "lblTimingsMondayValue": {
          "@class": "com.viz.ide.model.segment.SimpleTextSegmentData",
          "text": "9:00am to 3:00pm"
        }
      },
      {
        "lblTimingsMondayKey": {
          "@class": "com.viz.ide.model.segment.SimpleTextSegmentData",
          "text": "Sat:"
        },
        "lblTimingsMondayValue": {
          "@class": "com.viz.ide.model.segment.SimpleTextSegmentData",
          "text": "9:00am to 3:00pm"
        }
      }
    ],
    "rowTemplateId": "f9cded5b8d724589a73d41ea3f2bfb65",
    "rowtemplate": "flxTimingsMonday",
    "widgetdatamap": {
      "flxTimingsMonday": "flxTimingsMonday",
      "flxTimingsMondayKey": "flxTimingsMondayKey",
      "flxTimingsMondayValue": "flxTimingsMondayValue",
      "lblTimingsColon1": "lblTimingsColon1",
      "lblTimingsMondayKey": "lblTimingsMondayKey",
      "lblTimingsMondayValue": "lblTimingsMondayValue"
    }
  },
  "focusedindex": null,
  "focuseditem": null,
  "groupcells": false,
  "hasSections": false,
  "id": "segDayAndTime",
  "info": null,
  "ipad": {
    "psp": {
      "indicator": "rowselect"
    }
  },
  "iphone": {
    "psp": {
      "indicator": "rowselect"
    }
  },
  "isvisible": true,
  "kuid": "eaabe33c41c9499db68f891be85c496c",
  "masterdata": {},
  "name": "kony.ui.SegmentedUI2",
  "needpageindicator": true,
  "pageoffdotimage": "pageoffdot.png",
  "pageondotimage": "pageondot.png",
  "paginationconfig": {
    "position": "bottom"
  },
  "parent": "flxBranchTimings",
  "pf": "userwidgetmodel",
  "retainselection": false,
  "rowcounter": 6,
  "rowfocusskin": "s9f69e977910472eb44c62ae28c41fe1",
  "rowskin": "scf5f90f6ac04976ab88b2a4f7153285",
  "rowtemplate": null,
  "screenlevelwidget": false,
  "seccounter": 0,
  "sectionheaderskin": "sdc4ff4ed1584272be2ae69045dfb29d",
  "selectedRows": null,
  "selectedState": false,
  "selectedindex": null,
  "selectedindices": null,
  "selecteditems": null,
  "selectedsectionindex": 0,
  "selectionbehavior": "default",
  "separatorcolor": "64646400",
  "separatorrequired": false,
  "separatorthickness": 1,
  "showscrollbars": false,
  "viewtype": "tableview",
  "wType": "Segment",
  "widgetalignment": 5,
  "widgetdatamap": {
    "flxTimingsMonday": "flxTimingsMonday",
    "flxTimingsMondayKey": "flxTimingsMondayKey",
    "flxTimingsMondayValue": "flxTimingsMondayValue",
    "lblTimingsColon1": "lblTimingsColon1",
    "lblTimingsMondayKey": "lblTimingsMondayKey",
    "lblTimingsMondayValue": "lblTimingsMondayValue"
  },
  "zindex": 1
}