{
  "@class": "com.kony.gen.viz.model.container.KVizSegment2",
  "DNDConfig": null,
  "__parentReadjusting__": false,
  "_data_": [
    {},
    {},
    {}
  ],
  "_height_": {
    "type": "ref",
    "value": "preferred"
  },
  "_indicator_": "none",
  "_left_": {
    "type": "string",
    "value": "0dp"
  },
  "_margin_": [
    0,
    0,
    0,
    0
  ],
  "_orientation_": 2,
  "_padding_": [
    0,
    0,
    0,
    0
  ],
  "_top_": {
    "type": "string",
    "value": "0dp"
  },
  "_width_": {
    "type": "string",
    "value": "100%"
  },
  "autogrowmode": 1,
  "canUpdateUI": true,
  "containerweight": 100,
  "counter": "00",
  "desktop": {
    "_data_": [
      {
        "imgCheckBox": {
          "@class": "com.viz.ide.model.segment.ImageSegmentData",
          "src": "unchecked_box.png"
        },
        "lblOption": {
          "@class": "com.viz.ide.model.segment.SimpleTextSegmentData",
          "text": "qwdqd"
        },
        "lblSepartor": {
          "@class": "com.viz.ide.model.segment.SimpleTextSegmentData",
          "text": "qwdwqerq"
        }
      }
    ],
    "rowTemplateId": "c83572d6e5864945826128e2eea50854",
    "rowtemplate": "flxOption",
    "selectionBehaviorConfig": {
      "imageIdentifier": "imgCheckBox",
      "selectedStateImage": "checked_box.png",
      "unselectedStateImage": "unchecked_box.png"
    },
    "widgetdatamap": {
      "Label0f4e70d5022ce42": "Label0f4e70d5022ce42",
      "flxOption": "flxOption",
      "imgCheckBox": "imgCheckBox",
      "lblOption": "lblOption"
    }
  },
  "focusedindex": null,
  "focuseditem": null,
  "groupcells": false,
  "hasSections": false,
  "id": "segViewsAndFilters",
  "info": null,
  "ipad": {
    "psp": {
      "indicator": "rowselect"
    }
  },
  "iphone": {
    "psp": {
      "indicator": "rowselect"
    }
  },
  "isvisible": true,
  "kuid": "ad8022acd6704df4b5aa2dd8ebd4f025",
  "masterdata": {},
  "name": "kony.ui.SegmentedUI2",
  "needpageindicator": true,
  "pageoffdotimage": "pageoffdot.png",
  "pageondotimage": "pageondot.png",
  "paginationconfig": {
    "position": "bottom"
  },
  "parent": "flxOptions",
  "pf": "userwidgetmodel",
  "retainselection": false,
  "rowcounter": 0,
  "rowfocusskin": "s9f69e977910472eb44c62ae28c41fe1",
  "rowskin": "scf5f90f6ac04976ab88b2a4f7153285",
  "rowtemplate": "flxOption",
  "screenlevelwidget": false,
  "seccounter": 0,
  "sectionheaderskin": "sdc4ff4ed1584272be2ae69045dfb29d",
  "selectedRows": null,
  "selectedState": false,
  "selectedindex": null,
  "selectedindices": null,
  "selecteditems": null,
  "selectedsectionindex": 0,
  "selectimage": "checked_box.png",
  "selectionbehavior": "multiselect",
  "selectionbehaviorconfig": {},
  "selectionindicator": "imgCheckBox",
  "separatorcolor": "64646400",
  "separatorrequired": false,
  "separatorthickness": 1,
  "showscrollbars": false,
  "unselectimage": "unchecked_box.png",
  "viewtype": "tableview",
  "wType": "Segment",
  "widgetalignment": 5,
  "widgetdatamap": {
    "Label0f4e70d5022ce42": "Label0f4e70d5022ce42",
    "flxOption": "flxOption",
    "imgCheckBox": "imgCheckBox",
    "lblOption": "lblOption"
  },
  "zindex": 1
}