{
  "DNDConfig": null,
  "_height_": {
    "type": "string",
    "value": "102px"
  },
  "_margin_": [
    0,
    0,
    0,
    0
  ],
  "_orientation_": 6,
  "_padding_": [
    0,
    0,
    0,
    0
  ],
  "_percent_": true,
  "_skin_": "sd889fdd715146e8a9f5e62b2940da1d",
  "allboxes": [],
  "autogrowmode": 0,
  "canUpdateUI": true,
  "children": [
    "lblDate",
    "lblSeparator",
    "rtxDescription"
  ],
  "clipbounds": true,
  "containerId": true,
  "containerweight": 100,
  "controllerInfo": {
    "default": {
      "channel": "desktop",
      "name": "flxAccountLandingDetailsMyMessagesController"
    }
  },
  "desktopweb": {
    "psp": {
      "hoverSkin": "s30912bce9e54127990b9da19a636851"
    }
  },
  "enablescrolling": true,
  "friendlyName": "",
  "id": "flxAccountLandingDetailsMyMessages",
  "info": null,
  "isTemplate": true,
  "isvisible": true,
  "kuid": "e642e3f286ab4e3e993a2dd0a5a7ca3c",
  "layouttype": 2,
  "name": "kony.ui.FlexContainer",
  "parent": "segAccountLandingDetailsMyMessages",
  "pf": "segAccountLandingDetailsMyMessages",
  "snapgridsize": 10,
  "snaptogrid": true,
  "wType": "FlexContainer",
  "widgetalignment": 1
}