{
  "@class": "com.kony.gen.viz.model.container.KVizScrollFlexForm",
  "DNDConfig": null,
  "_margin_": [
    0,
    0,
    0,
    0
  ],
  "_orientation_": 1,
  "_padding_": [
    0,
    0,
    0,
    0
  ],
  "_percent_": true,
  "_skin_": "s99b3f6f2a7945729e24fa28dad3d3f2",
  "_title_": null,
  "addWidgetsdone": false,
  "allboxes": [],
  "canUpdateUI": true,
  "canvasWidth": 396,
  "children": [
    "flxAccountLandingDetailsMyMessages"
  ],
  "containerId": true,
  "containerweight": 100,
  "currentLocale": "default",
  "device": "desktopweb",
  "displayorientation": 3,
  "enabledforidletimeout": false,
  "id": "segAccountLandingDetailsMyMessages",
  "info": null,
  "initdone": false,
  "inputaccessoryviewtype": 4,
  "intransitionconfig": {
    "formTransition": "None"
  },
  "isvisible": true,
  "kuid": "f33fa8648efd43a9b4617968dd37834e",
  "name": "kony.ui.Form2",
  "needappmenu": true,
  "outtransitionconfig": {
    "formTransition": "None"
  },
  "paddinginpixel": false,
  "platform": "desktopweb",
  "prevDevice": "desktopweb",
  "prevPlatform": "desktopweb",
  "retainscrollposition": false,
  "shellCSS": "desktop",
  "titleBarSkin": "sd8fe6b3a3444934a1036dae787d8313",
  "titlebar": true,
  "type": 3,
  "wType": "Form"
}