{
  "@class": "com.kony.gen.viz.model.component.KVizButton",
  "DNDConfig": null,
  "__parentReadjusting__": false,
  "_height_": {
    "type": "string",
    "value": "25dp"
  },
  "_left_": {
    "type": "string",
    "value": "0px"
  },
  "_margin_": [
    6,
    6,
    6,
    6
  ],
  "_padding_": [
    0,
    0,
    0,
    0
  ],
  "_skin_": "s41199c8c0df41048cbf47d26a9026d5",
  "_text_": "REQUEST",
  "_top_": {
    "type": "string",
    "value": "13dp"
  },
  "_width_": {
    "type": "ref",
    "value": "preferred"
  },
  "canUpdateUI": true,
  "containerId": true,
  "containerweight": 100,
  "contentalignment": 5,
  "disabledSkins": {
    "focusSkin": "sf44d06ca8224832827ea7fdff757013"
  },
  "displaytext": true,
  "id": "btnRequest",
  "ide_onClick": "AS_Button_d1dd18489eab4a788c2588949b040ffa",
  "info": null,
  "isvisible": false,
  "kuid": "e4407a43992845d3b1f41ddadb8de6e6",
  "name": "kony.ui.Button",
  "parent": "flxRequestAction",
  "pf": "segSendRequest",
  "wType": "Button",
  "zindex": 1
}