{
  "DNDConfig": null,
  "__parentReadjusting__": false,
  "_height_": {
    "type": "ref",
    "value": "preferred"
  },
  "_left_": {
    "type": "string",
    "value": "9.40%"
  },
  "_margin_": [
    0,
    0,
    0,
    0
  ],
  "_orientation_": 6,
  "_padding_": [
    0,
    0,
    0,
    0
  ],
  "_percent_": true,
  "_skin_": "s24c92fc23b14f5484b693ee9b8a9b35",
  "_top_": {
    "type": "string",
    "value": "43dp"
  },
  "_width_": {
    "type": "string",
    "value": "50.53%"
  },
  "allboxes": [],
  "autogrowmode": 1,
  "canUpdateUI": true,
  "children": [
    "flxDetailsRow1",
    "flxDetailsRow2",
    "flxDetailsRow3",
    "flxDetailsRow4",
    "flxDetailsRow5",
    "flxDetailsRow6"
  ],
  "clipbounds": true,
  "containerId": true,
  "containerweight": 100,
  "enablescrolling": true,
  "id": "flxCardDetails",
  "info": null,
  "isvisible": true,
  "kuid": "a71c0fa38cf04799b501928a08105faf",
  "layouttype": 4,
  "name": "kony.ui.FlexContainer",
  "parent": "flxMyCards",
  "pf": "segTravelNotificationsExpanded",
  "snapgridsize": 10,
  "snaptogrid": true,
  "wType": "FlexContainer",
  "widgetalignment": 1,
  "zindex": 1
}