{
  "DNDConfig": null,
  "__parentReadjusting__": false,
  "_bottom_": {
    "type": "string",
    "value": "20dp"
  },
  "_height_": {
    "type": "ref",
    "value": "preferred"
  },
  "_left_": {
    "type": "string",
    "value": "184dp"
  },
  "_margin_": [
    0,
    0,
    0,
    0
  ],
  "_orientation_": 6,
  "_padding_": [
    0,
    0,
    0,
    0
  ],
  "_percent_": true,
  "_right_": {
    "type": "string",
    "value": "0dp"
  },
  "_skin_": "s24c92fc23b14f5484b693ee9b8a9b35",
  "_top_": {
    "type": "string",
    "value": "0dp"
  },
  "_width_": {
    "type": "ref",
    "value": "preferred"
  },
  "allboxes": [],
  "autogrowmode": 1,
  "canUpdateUI": true,
  "children": [
    "rtxValueA"
  ],
  "clipbounds": true,
  "containerId": true,
  "containerweight": 100,
  "enablescrolling": true,
  "id": "flxCards",
  "info": null,
  "iscustomlayout": false,
  "isvisible": true,
  "kuid": "c1172080fbc1419da0206ae58577e451",
  "layouttype": 4,
  "name": "kony.ui.FlexContainer",
  "parent": "flxDetailsRow6",
  "pf": "segTravelNotificationsExpanded",
  "retaincontentalignment": false,
  "retainflexpositionproperties": false,
  "snapgridsize": 10,
  "snaptogrid": true,
  "wType": "FlexContainer",
  "widgetalignment": 1
}