{
  "DNDConfig": null,
  "__parentReadjusting__": false,
  "_height_": {
    "type": "ref",
    "value": "preferred"
  },
  "_left_": {
    "type": "number",
    "value": "0"
  },
  "_margin_": [
    0,
    0,
    0,
    0
  ],
  "_orientation_": 6,
  "_padding_": [
    0,
    0,
    0,
    0
  ],
  "_percent_": true,
  "_skin_": "s24c92fc23b14f5484b693ee9b8a9b35",
  "_top_": {
    "type": "string",
    "value": "20px"
  },
  "_width_": {
    "type": "string",
    "value": "100%"
  },
  "allboxes": [],
  "autogrowmode": 1,
  "canUpdateUI": true,
  "children": [
    "lblKey5",
    "rtxValue5"
  ],
  "clipbounds": true,
  "containerId": true,
  "containerweight": 100,
  "enablescrolling": true,
  "id": "flxDetailsRow5",
  "info": null,
  "isvisible": true,
  "kuid": "e56089631e4c4983a4a88aa5998520f7",
  "layouttype": 2,
  "name": "kony.ui.FlexContainer",
  "parent": "flxCardDetails",
  "pf": "segTravelNotificationsExpanded",
  "snapgridsize": 10,
  "snaptogrid": true,
  "wType": "FlexContainer",
  "widgetalignment": 1,
  "zindex": 1
}