{
  "@class": "com.kony.gen.viz.model.component.KVizButton",
  "DNDConfig": null,
  "__parentReadjusting__": false,
  "_height_": {
    "type": "string",
    "value": "100%"
  },
  "_left_": {
    "type": "string",
    "value": "0dp"
  },
  "_margin_": [
    6,
    6,
    6,
    6
  ],
  "_padding_": [
    2,
    0,
    2,
    0
  ],
  "_skin_": "sa60b81658b5497aac2e10b244c830c2",
  "_text_": "ALL",
  "_width_": {
    "type": "ref",
    "value": "preferred"
  },
  "canUpdateUI": true,
  "centery": {
    "type": "string",
    "value": "50%"
  },
  "containerweight": 100,
  "contentalignment": 5,
  "desktopweb": {
    "psp": {
      "hoverSkin": "s14e5f4459414366a95c5a71c1f39486"
    }
  },
  "disabledSkins": {
    "focusSkin": "sf44d06ca8224832827ea7fdff757013"
  },
  "displaytext": true,
  "id": "btnAllLoan",
  "info": null,
  "isvisible": true,
  "kuid": "fd5e64271ff44f0488c524316027bd64",
  "name": "kony.ui.Button",
  "paddinginpixel": false,
  "parent": "flxTabsLoan",
  "pf": "userwidgetmodel",
  "tooltip": "All",
  "wType": "Button",
  "zindex": 1
}