{
  "@class": "com.kony.gen.viz.model.component.KVizButton",
  "DNDConfig": null,
  "__parentReadjusting__": false,
  "_height_": {
    "type": "string",
    "value": "100%"
  },
  "_left_": {
    "type": "string",
    "value": "27dp"
  },
  "_margin_": [
    6,
    6,
    6,
    6
  ],
  "_padding_": [
    0,
    0,
    0,
    0
  ],
  "_skin_": "s3681a7211a345fba79d7013af78ba93",
  "_text_": "SEARCH",
  "_top_": {
    "type": "string",
    "value": "0dp"
  },
  "_width_": {
    "type": "string",
    "value": "40%"
  },
  "canUpdateUI": true,
  "containerweight": 100,
  "contentalignment": 5,
  "desktopweb": {
    "psp": {
      "hoverSkin": "s81054b5e2b74f17a5261991df565427"
    }
  },
  "disabledSkins": {},
  "displaytext": true,
  "focusskin": "s81054b5e2b74f17a5261991df565427",
  "id": "btnSearch",
  "info": null,
  "isvisible": true,
  "kuid": "d1dfe298620e4acf8f8179c303e4c23c",
  "name": "kony.ui.Button",
  "parent": "flxActions",
  "pf": "userwidgetmodel",
  "tooltip": "Search",
  "wType": "Button",
  "zindex": 1
}