{
  "@class": "com.kony.gen.viz.model.component.KVizImage2",
  "DNDConfig": null,
  "__parentReadjusting__": false,
  "_base64_": null,
  "_height_": {
    "type": "string",
    "value": "24dp"
  },
  "_margin_": [
    0,
    0,
    0,
    0
  ],
  "_padding_": [
    0,
    0,
    0,
    0
  ],
  "_skin_": "s78a5f26c9f14cec9ebed1bb46098f80",
  "_src_": "pagination_back_inactive.png",
  "_width_": {
    "type": "string",
    "value": "24dp"
  },
  "canUpdateUI": true,
  "centerx": {
    "type": "string",
    "value": "50%"
  },
  "centery": {
    "type": "string",
    "value": "50%"
  },
  "containerweight": 100,
  "context": {
    "channel": "desktop",
    "formID": "uwu9a76cbfda804693ad6f231f09338179",
    "platform": "desktopweb",
    "templateType": "userwidgets",
    "topLevelBox": null
  },
  "id": "imgPaginationPrevious",
  "imagescalemode": 1,
  "imagewhiledownloading": "img_transparent.png",
  "info": null,
  "isvisible": true,
  "kuid": "g3507e89da86488796b0205aefb53f28",
  "name": "kony.ui.Image2",
  "parent": "flxPaginationPrevious",
  "pf": "userwidgetmodel",
  "srcType": 1,
  "tooltip": "Previous",
  "wType": "Image",
  "widgetalignment": 5,
  "zindex": 1
}