{
  "@class": "com.kony.gen.viz.model.component.KVizImage2",
  "DNDConfig": null,
  "__parentReadjusting__": false,
  "_base64_": null,
  "_height_": {
    "type": "string",
    "value": "15dp"
  },
  "_left_": {
    "type": "string",
    "value": "5dp"
  },
  "_margin_": [
    0,
    0,
    0,
    0
  ],
  "_padding_": [
    0,
    0,
    0,
    0
  ],
  "_skin_": "s78a5f26c9f14cec9ebed1bb46098f80",
  "_src_": "sorting_next.png",
  "_width_": {
    "type": "string",
    "value": "12dp"
  },
  "canUpdateUI": true,
  "centery": {
    "type": "string",
    "value": "50%"
  },
  "containerweight": 100,
  "context": {
    "channel": "desktop",
    "formID": "uwu9a76cbfda804693ad6f231f09338179",
    "platform": "desktopweb",
    "templateType": "userwidgets",
    "topLevelBox": null
  },
  "id": "imgSortDate",
  "imagescalemode": 1,
  "imagewhiledownloading": "img_transparent.png",
  "info": null,
  "invokedProperty": "src",
  "isvisible": false,
  "kuid": "a4a2c930272c4f33a7055c05793f78fb",
  "name": "kony.ui.Image2",
  "parent": "flxSortDate",
  "pf": "userwidgetmodel",
  "srcType": 1,
  "tooltip": "Sort By Date",
  "wType": "Image",
  "widgetalignment": 5,
  "zindex": 1
}