{
  "@class": "com.kony.gen.viz.model.component.KVizImage2",
  "DNDConfig": null,
  "__parentReadjusting__": false,
  "_base64_": null,
  "_height_": {
    "type": "string",
    "value": "15dp"
  },
  "_margin_": [
    0,
    0,
    0,
    0
  ],
  "_padding_": [
    0,
    0,
    0,
    0
  ],
  "_right_": {
    "type": "string",
    "value": "27dp"
  },
  "_skin_": "s78a5f26c9f14cec9ebed1bb46098f80",
  "_src_": "sorting.png",
  "_width_": {
    "type": "string",
    "value": "12dp"
  },
  "canUpdateUI": true,
  "centery": {
    "type": "string",
    "value": "50%"
  },
  "containerweight": 100,
  "context": {
    "channel": "desktop",
    "formID": "uwu9a76cbfda804693ad6f231f09338179",
    "platform": "desktopweb",
    "templateType": "userwidgets",
    "topLevelBox": null
  },
  "id": "imgSortAmount",
  "imagescalemode": 1,
  "imagewhiledownloading": "img_transparent.png",
  "info": null,
  "invokedProperty": "src",
  "isvisible": true,
  "kuid": "e4e8bf3ae2cc4707852d499474a15352",
  "name": "kony.ui.Image2",
  "parent": "flxSortAmount",
  "pf": "userwidgetmodel",
  "srcType": 1,
  "tooltip": "Sort By Amount",
  "wType": "Image",
  "widgetalignment": 5,
  "zindex": 1
}