{
  "@class": "com.kony.gen.viz.model.component.KVizListBox",
  "DNDConfig": null,
  "__parentReadjusting__": false,
  "_height_": {
    "type": "string",
    "value": "40dp"
  },
  "_left_": {
    "type": "string",
    "value": "30dp"
  },
  "_margin_": [
    0,
    0,
    0,
    0
  ],
  "_padding_": [
    2,
    0,
    0,
    0
  ],
  "_skin_": "s8dc220d2379477bb1363dc81d9ecf61",
  "_top_": {
    "type": "string",
    "value": "7dp"
  },
  "_width_": {
    "type": "string",
    "value": "90%"
  },
  "canUpdateUI": true,
  "containerweight": 100,
  "contentalignment": 4,
  "context": {
    "channel": "desktop",
    "formID": "uwu9a76cbfda804693ad6f231f09338179",
    "platform": "desktopweb",
    "templateType": "userwidgets",
    "topLevelBox": null
  },
  "groupcells": false,
  "id": "lstbxTimePeriod",
  "info": null,
  "isvisible": true,
  "kiosk": {
    "psp": {
      "toolTip": "Time Period"
    }
  },
  "kuid": "a7e22b9365f647f3899aaeafbc3fd81e",
  "masterdata": [],
  "name": "kony.ui.ListBox",
  "paddinginpixel": false,
  "parent": "flxSearchExp",
  "pf": "userwidgetmodel",
  "selectedkeys": null,
  "selectedkeyvalue": null,
  "selectedkeyvalues": null,
  "size": 18,
  "viewconfig": {
    "toggleViewConfig": {
      "viewStyle": 0
    }
  },
  "viewtype": 0,
  "wType": "ListBox",
  "zindex": 1
}