{
  "@class": "com.kony.gen.viz.model.component.KVizImage2",
  "DNDConfig": null,
  "__parentReadjusting__": false,
  "_base64_": null,
  "_height_": {
    "type": "string",
    "value": "32px"
  },
  "_left_": {
    "type": "string",
    "value": "567px"
  },
  "_margin_": [
    0,
    0,
    0,
    0
  ],
  "_padding_": [
    0,
    0,
    0,
    0
  ],
  "_skin_": "s78a5f26c9f14cec9ebed1bb46098f80",
  "_src_": "selecetd_search.png",
  "_top_": {
    "type": "string",
    "value": "22px"
  },
  "_width_": {
    "type": "string",
    "value": "22px"
  },
  "canUpdateUI": true,
  "containerweight": 100,
  "context": {
    "channel": "desktop",
    "formID": "uwu9a76cbfda804693ad6f231f09338179",
    "platform": "desktopweb",
    "templateType": "userwidgets",
    "topLevelBox": null
  },
  "id": "searchImg",
  "imagescalemode": 1,
  "info": null,
  "iscustomlayout": false,
  "isvisible": false,
  "kuid": "ga98866003024ce08f94dadca2e77f64",
  "name": "kony.ui.Image2",
  "parent": "flxAdvancedSearch",
  "pf": "userwidgetmodel",
  "retaincontentalignment": false,
  "retainflexpositionproperties": false,
  "srcType": 1,
  "wType": "Image",
  "widgetalignment": 5,
  "zindex": 1
}