{
  "@class": "com.kony.gen.viz.model.container.KVizSegment2",
  "DNDConfig": null,
  "__parentReadjusting__": false,
  "_data_": [
    {},
    {},
    {}
  ],
  "_height_": {
    "type": "ref",
    "value": "preferred"
  },
  "_indicator_": "none",
  "_left_": {
    "type": "string",
    "value": "0dp"
  },
  "_margin_": [
    0,
    0,
    0,
    0
  ],
  "_orientation_": 2,
  "_padding_": [
    0,
    0,
    0,
    0
  ],
  "_top_": {
    "type": "string",
    "value": "0dp"
  },
  "_width_": {
    "type": "string",
    "value": "100%"
  },
  "autogrowmode": 1,
  "canUpdateUI": true,
  "containerweight": 100,
  "counter": "111",
  "desktop": {
    "_data_": [],
    "rowTemplateId": "df7eada892a641b38a57fd60b23c9c59",
    "rowtemplate": "flxSegTransactionRowSelected",
    "sectionHeaderTemplateId": "e353bbba136b4dd58c30c5575dc313e6",
    "sectionheadertemplate": "flxSegTransactionHeader",
    "selectionBehaviorConfig": null,
    "widgetdatamap": {
      "btnDisputeTransaction": "btnDisputeTransaction",
      "btnEditRule": "btnEditRule",
      "btnPrint": "btnPrint",
      "flxActions": "flxActions",
      "flxActionsWrapper": "flxActionsWrapper",
      "flxAmount": "flxAmount",
      "flxBalance": "flxBalance",
      "flxCategory": "flxCategory",
      "flxDate": "flxDate",
      "flxDescription": "flxDescription",
      "flxDetail": "flxDetail",
      "flxDetailData": "flxDetailData",
      "flxDetailHeader": "flxDetailHeader",
      "flxDropdown": "flxDropdown",
      "flxIdentifier": "flxIdentifier",
      "flxInformation": "flxInformation",
      "flxLeft": "flxLeft",
      "flxMemo": "flxMemo",
      "flxRememberCategory": "flxRememberCategory",
      "flxRight": "flxRight",
      "flxSegTransactionHeader": "flxSegTransactionHeader",
      "flxSegTransactionRowSavings": "flxSegTransactionRowSavings",
      "flxSegTransactionRowSelected": "flxSegTransactionRowSelected",
      "flxSegTransactionRowWrapper": "flxSegTransactionRowWrapper",
      "flxSelectedRowWrapper": "flxSelectedRowWrapper",
      "flxToData": "flxToData",
      "flxToHeader": "flxToHeader",
      "flxType": "flxType",
      "flxTypeData": "flxTypeData",
      "flxTypeHeader": "flxTypeHeader",
      "flxWithdrawalAmountData": "flxWithdrawalAmountData",
      "flxWithdrawalAmountHeader": "flxWithdrawalAmountHeader",
      "flxWrapper": "flxWrapper",
      "imgCategoryDropdown": "imgCategoryDropdown",
      "imgDropdown": "imgDropdown",
      "imgRememberCategory": "imgRememberCategory",
      "imgType": "imgType",
      "lblAmount": "lblAmount",
      "lblBalance": "lblBalance",
      "lblCategory": "lblCategory",
      "lblDate": "lblDate",
      "lblDescription": "lblDescription",
      "lblIdentifier": "lblIdentifier",
      "lblRememberCategory": "lblRememberCategory",
      "lblSeparator": "lblSeparator",
      "lblSeparator2": "lblSeparator2",
      "lblSeparatorActions": "lblSeparatorActions",
      "lblSeparatorDetailData": "lblSeparatorDetailData",
      "lblSeparatorDetailHeader": "lblSeparatorDetailHeader",
      "lblToTitle": "lblToTitle",
      "lblToValue": "lblToValue",
      "lblTransactionHeader": "lblTransactionHeader",
      "lblTypeTitle": "lblTypeTitle",
      "lblTypeValue": "lblTypeValue",
      "lblWithdrawalAmountTitle": "lblWithdrawalAmountTitle",
      "lblWithdrawalAmountValue": "lblWithdrawalAmountValue",
      "txtMemo": "txtMemo"
    }
  },
  "focusedindex": null,
  "focuseditem": null,
  "groupcells": false,
  "hasSections": true,
  "id": "segTransactions",
  "info": null,
  "ipad": {
    "psp": {
      "indicator": "rowselect"
    }
  },
  "iphone": {
    "psp": {
      "indicator": "rowselect"
    }
  },
  "isvisible": true,
  "kuid": "a5e5fe21996b4dd6bdeaf49e82ef2908",
  "masterdata": {},
  "mobile": {
    "rowTemplateId": null,
    "rowtemplate": null,
    "sectionHeaderTemplateId": null
  },
  "name": "kony.ui.SegmentedUI2",
  "needpageindicator": true,
  "pageoffdotimage": "pageoffdot.png",
  "pageondotimage": "pageondot.png",
  "paginationconfig": {
    "position": "bottom",
    "vdistance": 1
  },
  "parent": "flxSegmentContainer",
  "pf": "userwidgetmodel",
  "retainselection": false,
  "rowcounter": 11,
  "rowfocusskin": "s9f69e977910472eb44c62ae28c41fe1",
  "rowskin": "s76d2ce1ed0442cf8ec1d5e836e4a361",
  "rowtemplate": "flxSegTransactionRowSelected",
  "screenlevelwidget": false,
  "seccounter": 1,
  "sectionheaderskin": "sdc4ff4ed1584272be2ae69045dfb29d",
  "sectionheadertemplate": "flxSegTransactionHeader",
  "selectedRows": null,
  "selectedState": false,
  "selectedindex": null,
  "selectedindices": null,
  "selecteditems": null,
  "selectedsectionindex": 0,
  "selectionbehavior": "default",
  "separatorrequired": false,
  "showscrollbars": false,
  "swipeContext": {
    "currentPage": 0,
    "imageWidth": 1400,
    "widthRatio": 0
  },
  "viewtype": "tableview",
  "wType": "Segment",
  "widgetalignment": 5,
  "widgetdatamap": {
    "btnDisputeTransaction": "btnDisputeTransaction",
    "btnEditRule": "btnEditRule",
    "btnPrint": "btnPrint",
    "flxActions": "flxActions",
    "flxActionsWrapper": "flxActionsWrapper",
    "flxAmount": "flxAmount",
    "flxBalance": "flxBalance",
    "flxCategory": "flxCategory",
    "flxDate": "flxDate",
    "flxDescription": "flxDescription",
    "flxDetail": "flxDetail",
    "flxDetailData": "flxDetailData",
    "flxDetailHeader": "flxDetailHeader",
    "flxDropdown": "flxDropdown",
    "flxIdentifier": "flxIdentifier",
    "flxInformation": "flxInformation",
    "flxLeft": "flxLeft",
    "flxMemo": "flxMemo",
    "flxRememberCategory": "flxRememberCategory",
    "flxRight": "flxRight",
    "flxSegTransactionHeader": "flxSegTransactionHeader",
    "flxSegTransactionRowSavings": "flxSegTransactionRowSavings",
    "flxSegTransactionRowSelected": "flxSegTransactionRowSelected",
    "flxSegTransactionRowWrapper": "flxSegTransactionRowWrapper",
    "flxSelectedRowWrapper": "flxSelectedRowWrapper",
    "flxToData": "flxToData",
    "flxToHeader": "flxToHeader",
    "flxType": "flxType",
    "flxTypeData": "flxTypeData",
    "flxTypeHeader": "flxTypeHeader",
    "flxWithdrawalAmountData": "flxWithdrawalAmountData",
    "flxWithdrawalAmountHeader": "flxWithdrawalAmountHeader",
    "flxWrapper": "flxWrapper",
    "imgCategoryDropdown": "imgCategoryDropdown",
    "imgDropdown": "imgDropdown",
    "imgRememberCategory": "imgRememberCategory",
    "imgType": "imgType",
    "lblAmount": "lblAmount",
    "lblBalance": "lblBalance",
    "lblCategory": "lblCategory",
    "lblDate": "lblDate",
    "lblDescription": "lblDescription",
    "lblIdentifier": "lblIdentifier",
    "lblRememberCategory": "lblRememberCategory",
    "lblSeparator": "lblSeparator",
    "lblSeparator2": "lblSeparator2",
    "lblSeparatorActions": "lblSeparatorActions",
    "lblSeparatorDetailData": "lblSeparatorDetailData",
    "lblSeparatorDetailHeader": "lblSeparatorDetailHeader",
    "lblToTitle": "lblToTitle",
    "lblToValue": "lblToValue",
    "lblTransactionHeader": "lblTransactionHeader",
    "lblTypeTitle": "lblTypeTitle",
    "lblTypeValue": "lblTypeValue",
    "lblWithdrawalAmountTitle": "lblWithdrawalAmountTitle",
    "lblWithdrawalAmountValue": "lblWithdrawalAmountValue",
    "txtMemo": "txtMemo"
  },
  "widgetskin": "sa8f4f29552948d3bb61e66a507ee2a9",
  "zindex": 1
}