{
  "@class": "com.kony.gen.viz.model.component.KVizTextBox2",
  "DNDConfig": null,
  "__parentReadjusting__": false,
  "_height_": {
    "type": "string",
    "value": "40dp"
  },
  "_left_": {
    "type": "string",
    "value": "5dp"
  },
  "_margin_": [
    0,
    0,
    0,
    0
  ],
  "_padding_": [
    3,
    0,
    0,
    0
  ],
  "_placeholder_": "$",
  "_skin_": "sedb69895bd443bc829b5908cf1f9fbf",
  "_text_": "",
  "_top_": {
    "type": "string",
    "value": "0dp"
  },
  "_width_": {
    "type": "string",
    "value": "40%"
  },
  "autocapitalize": "none",
  "autocomplete": false,
  "autocorrect": false,
  "autofilter": false,
  "canUpdateUI": true,
  "containerheight": "",
  "containerheightmode": 1,
  "containerweight": 100,
  "contentalignment": 4,
  "focusskin": "s80a8c5539a441ee9b9b49917cc45cc2",
  "id": "txtAmountRangeTo",
  "info": null,
  "isvisible": true,
  "keyboardtype": "A",
  "kiosk": {
    "psp": {
      "toolTip": "To"
    }
  },
  "kuid": "b68c1001346f49409e3bf2f68d814fb4",
  "mode": "A",
  "name": "kony.ui.TextBox2",
  "parent": "flxByAmountRange",
  "pf": "userwidgetmodel",
  "securetextentry": false,
  "textinputmode": "A",
  "viewtype": "default",
  "wType": "TextField",
  "zindex": 1
}