{
  "@class": "com.kony.gen.viz.model.component.KVizTextBox2",
  "DNDConfig": null,
  "__parentReadjusting__": false,
  "_height_": {
    "type": "string",
    "value": "41px"
  },
  "_left_": {
    "type": "string",
    "value": "0dp"
  },
  "_margin_": [
    0,
    0,
    0,
    0
  ],
  "_padding_": [
    3,
    0,
    0,
    0
  ],
  "_placeholder_": "Search for keyword, amount, date",
  "_skin_": "s437a8dc5f954628acf27a3bc90d7eb3",
  "_text_": "",
  "_top_": {
    "type": "string",
    "value": "17px"
  },
  "_width_": {
    "type": "string",
    "value": "593px"
  },
  "autocapitalize": "none",
  "autocomplete": false,
  "autocorrect": false,
  "autofilter": false,
  "canUpdateUI": true,
  "containerheight": "",
  "containerheightmode": 1,
  "containerweight": 100,
  "contentalignment": 4,
  "focusskin": "sb59456915b541878aed15b094f4fa92",
  "id": "txtFieldSearch",
  "info": null,
  "iscustomlayout": false,
  "isvisible": false,
  "keyboardtype": "A",
  "kuid": "a13df25992e94440bdb9657b90faa0ba",
  "mode": "A",
  "name": "kony.ui.TextBox2",
  "parent": "flxAdvancedSearch",
  "pf": "userwidgetmodel",
  "placeholderskin": "s627da8ae4254e009caa7c3409ddda38",
  "retaincontentalignment": false,
  "retainflexpositionproperties": false,
  "securetextentry": false,
  "textinputmode": "A",
  "tooltip": "",
  "viewtype": "default",
  "wType": "TextField",
  "zindex": 1
}