{
  "DNDConfig": null,
  "__parentReadjusting__": false,
  "_height_": {
    "type": "string",
    "value": "61dp"
  },
  "_left_": {
    "type": "string",
    "value": "0dp"
  },
  "_margin_": [
    0,
    0,
    0,
    0
  ],
  "_orientation_": 6,
  "_padding_": [
    0,
    0,
    0,
    0
  ],
  "_percent_": true,
  "_skin_": "s344174b66d24a22be7a954acfcdefc5",
  "_top_": {
    "type": "string",
    "value": "0dp"
  },
  "_width_": {
    "type": "string",
    "value": "100%"
  },
  "allboxes": [],
  "autogrowmode": 0,
  "canUpdateUI": true,
  "children": [
    "flxSortSixColumn",
    "flxShadow"
  ],
  "clipbounds": true,
  "containerweight": 100,
  "enablescrolling": true,
  "id": "tableSortSavings",
  "info": null,
  "isvisible": true,
  "kuid": "f595db6060db4ed09783133c1edbc2b2",
  "layouttype": 4,
  "name": "kony.ui.FlexContainer",
  "parent": "userwidgetmodel",
  "pf": "userwidgetmodel",
  "snapgridsize": 10,
  "snaptogrid": true,
  "vizProps": {
    "hidewidgethierarchy": false
  },
  "wType": "FlexContainer",
  "widgetalignment": 1
}