{
  "@class": "com.kony.gen.viz.model.component.KVizLabel",
  "DNDConfig": null,
  "__parentReadjusting__": false,
  "_height_": {
    "type": "ref",
    "value": "preferred"
  },
  "_left_": {
    "type": "string",
    "value": "30dp"
  },
  "_margin_": [
    1,
    1,
    1,
    1
  ],
  "_padding_": [
    0,
    0,
    0,
    0
  ],
  "_skin_": "s18d3552bc4143569a7c5aef6bd5eaa1",
  "_text_": "Are you sure you want to cancel this transaction?",
  "_top_": {
    "type": "string",
    "value": "73dp"
  },
  "_width_": {
    "type": "ref",
    "value": "preferred"
  },
  "_wrapping_": 2,
  "android": {
    "textStyle": {
      "letterSpacing": 0,
      "strikeThrough": false
    }
  },
  "canUpdateUI": true,
  "containerweight": 100,
  "contentalignment": 4,
  "id": "lblPopupMessage",
  "info": null,
  "ipad": {
    "psp": {
      "wrapping": 2
    }
  },
  "iphone": {
    "psp": {
      "wrapping": 2
    }
  },
  "isvisible": true,
  "kuid": "e93dd9dd17a94998b2d5fdb3e0a3c94b",
  "name": "kony.ui.Label",
  "parent": "CustomFeedbackPopup",
  "pf": "userwidgetmodel",
  "texti18n": "i18n.CustomerFeedback.HelpUsImproveOurServices",
  "tooltip": "",
  "wType": "Label",
  "zindex": 1
}