{
  "DNDConfig": null,
  "__parentReadjusting__": false,
  "_height_": {
    "type": "string",
    "value": "60dp"
  },
  "_left_": "0dp",
  "_margin_": [
    0,
    0,
    0,
    0
  ],
  "_orientation_": 6,
  "_padding_": [
    0,
    0,
    0,
    0
  ],
  "_percent_": true,
  "_skin_": "s6154a8d88924d52b83d18049f1b57bb",
  "_top_": "0dp",
  "_width_": {
    "type": "string",
    "value": "100%"
  },
  "allboxes": [],
  "autogrowmode": 0,
  "canUpdateUI": true,
  "children": [
    "Label0f096014aba6449"
  ],
  "clipbounds": true,
  "containerweight": 100,
  "enablescrolling": true,
  "id": "FlexContainer0g935848f422c4d",
  "info": null,
  "isvisible": true,
  "kuid": "j927e8be8e9f49a185aa5ff751fb68b6",
  "layouttype": 2,
  "name": "kony.ui.FlexContainer",
  "parent": "FlxAccountDetailsKA",
  "pf": "userwidgetmodel",
  "snapgridsize": 10,
  "snaptogrid": true,
  "wType": "FlexContainer",
  "widgetalignment": 1,
  "zindex": 1
}