{
  "@class": "com.kony.gen.viz.model.container.KVizSegment2",
  "DNDConfig": null,
  "__parentReadjusting__": false,
  "_data_": [
    {},
    {},
    {}
  ],
  "_height_": {
    "type": "ref",
    "value": "preferred"
  },
  "_indicator_": "none",
  "_left_": {
    "type": "string",
    "value": "0dp"
  },
  "_margin_": [
    0,
    0,
    0,
    0
  ],
  "_orientation_": 2,
  "_padding_": [
    0,
    0,
    0,
    0
  ],
  "_top_": {
    "type": "string",
    "value": "0dp"
  },
  "_width_": {
    "type": "string",
    "value": "100%"
  },
  "autogrowmode": 1,
  "canUpdateUI": true,
  "containerweight": 100,
  "counter": "05",
  "desktop": {
    "_data_": [
      {
        "lblSeparator": {
          "@class": "com.viz.ide.model.segment.SimpleTextSegmentData",
          "text": ""
        },
        "lblUsers": {
          "@class": "com.viz.ide.model.segment.SimpleTextSegmentData",
          "text": "Label"
        }
      },
      {
        "lblSeparator": {
          "@class": "com.viz.ide.model.segment.SimpleTextSegmentData",
          "text": ""
        },
        "lblUsers": {
          "@class": "com.viz.ide.model.segment.SimpleTextSegmentData",
          "text": "Label"
        }
      },
      {
        "lblSeparator": {
          "@class": "com.viz.ide.model.segment.SimpleTextSegmentData",
          "text": ""
        },
        "lblUsers": {
          "@class": "com.viz.ide.model.segment.SimpleTextSegmentData",
          "text": "Label"
        }
      },
      {
        "lblSeparator": {
          "@class": "com.viz.ide.model.segment.SimpleTextSegmentData",
          "text": ""
        },
        "lblUsers": {
          "@class": "com.viz.ide.model.segment.SimpleTextSegmentData",
          "text": "Label"
        }
      },
      {
        "lblSeparator": {
          "@class": "com.viz.ide.model.segment.SimpleTextSegmentData",
          "text": ""
        },
        "lblUsers": {
          "@class": "com.viz.ide.model.segment.SimpleTextSegmentData",
          "text": "Label"
        }
      },
      {
        "lblSeparator": {
          "@class": "com.viz.ide.model.segment.SimpleTextSegmentData",
          "text": ""
        },
        "lblUsers": {
          "@class": "com.viz.ide.model.segment.SimpleTextSegmentData",
          "text": "Label"
        }
      }
    ],
    "rowTemplateId": "b4ebc11f7e75423ab5eb10bbc49cfffd",
    "rowtemplate": "flxAccountTypes",
    "widgetdatamap": {
      "flxAccountTypes": "flxAccountTypes",
      "lblSeparator": "lblSeparator",
      "lblUsers": "lblUsers"
    }
  },
  "focusedindex": null,
  "focuseditem": null,
  "groupcells": false,
  "hasSections": false,
  "id": "segAccountTypes",
  "info": null,
  "ipad": {
    "psp": {
      "indicator": "rowselect"
    }
  },
  "iphone": {
    "psp": {
      "indicator": "rowselect"
    }
  },
  "isvisible": true,
  "kuid": "da506f87c91a463f825684d8d6f9dd31",
  "masterdata": {},
  "maxheight": {
    "type": "string",
    "value": "250dp"
  },
  "name": "kony.ui.SegmentedUI2",
  "needpageindicator": true,
  "pageoffdotimage": "pageoffdot.png",
  "pageondotimage": "pageondot.png",
  "paginationconfig": {
    "position": "bottom"
  },
  "parent": "flxAccountTypesSegment",
  "pf": "userwidgetmodel",
  "retainselection": false,
  "rowcounter": 5,
  "rowfocusskin": "s9f69e977910472eb44c62ae28c41fe1",
  "rowskin": "s9af6c24730f47f58bba296f13990645",
  "rowtemplate": null,
  "screenlevelwidget": false,
  "seccounter": 0,
  "sectionheaderskin": "sdc4ff4ed1584272be2ae69045dfb29d",
  "selectedRows": null,
  "selectedState": false,
  "selectedindex": null,
  "selectedindices": null,
  "selecteditems": null,
  "selectedsectionindex": 0,
  "selectionbehavior": "default",
  "separatorcolor": "dedede32",
  "separatorrequired": true,
  "showscrollbars": false,
  "viewtype": "tableview",
  "wType": "Segment",
  "widgetalignment": 5,
  "widgetdatamap": {
    "flxAccountTypes": "flxAccountTypes",
    "lblSeparator": "lblSeparator",
    "lblUsers": "lblUsers"
  },
  "widgetskin": "sc5aa1b15ab641cbb9aaf50f0e44d2d3",
  "zindex": 1
}