{
  "@class": "com.kony.gen.viz.model.component.KVizLabel",
  "DNDConfig": null,
  "__parentReadjusting__": false,
  "_height_": {
    "type": "ref",
    "value": "preferred"
  },
  "_left_": {
    "type": "string",
    "value": "137dp"
  },
  "_margin_": [
    1,
    1,
    1,
    1
  ],
  "_padding_": [
    0,
    0,
    0,
    0
  ],
  "_skin_": "s5a44260adaa468bbbf8132a9d43e031",
  "_text_": "",
  "_top_": {
    "type": "string",
    "value": "3.85%"
  },
  "_width_": {
    "type": "ref",
    "value": "preferred"
  },
  "_wrapping_": 2,
  "android": {
    "textStyle": {
      "letterSpacing": 0,
      "strikeThrough": false
    }
  },
  "canUpdateUI": true,
  "containerweight": 100,
  "contentalignment": 4,
  "id": "lblResendOtp",
  "info": null,
  "ipad": {
    "psp": {
      "wrapping": 2
    }
  },
  "iphone": {
    "psp": {
      "wrapping": 2
    }
  },
  "isvisible": false,
  "kuid": "afa6c381e4984139a024cce23a6173ae",
  "name": "kony.ui.Label",
  "parent": "ResetOrEnrollP",
  "pf": "userwidgetmodel",
  "texti18n": "i18n.login.ResendOtp",
  "tooltip": "",
  "wType": "Label",
  "zindex": 1
}