{
  "@class": "com.kony.gen.viz.model.component.KVizLabel",
  "DNDConfig": null,
  "__parentReadjusting__": false,
  "_height_": {
    "type": "ref",
    "value": "preferred"
  },
  "_margin_": [
    1,
    1,
    1,
    1
  ],
  "_padding_": [
    0,
    0,
    0,
    0
  ],
  "_skin_": "s91f117e14f34e9993fd49cf32901f12",
  "_text_": "",
  "_top_": {
    "type": "string",
    "value": "2.46%"
  },
  "_width_": {
    "type": "string",
    "value": "80%"
  },
  "_wrapping_": 2,
  "android": {
    "textStyle": {
      "letterSpacing": 0,
      "strikeThrough": false
    }
  },
  "canUpdateUI": true,
  "centerx": {
    "type": "string",
    "value": "50%"
  },
  "containerweight": 100,
  "contentalignment": 5,
  "id": "lblResetPassword",
  "info": null,
  "ipad": {
    "psp": {
      "wrapping": 2
    }
  },
  "iphone": {
    "psp": {
      "wrapping": 2
    }
  },
  "isvisible": true,
  "kuid": "3f5b83119df24a189f7fc54b74287432",
  "name": "kony.ui.Label",
  "paddinginpixel": false,
  "parent": "ResetOrEnrollP",
  "pf": "userwidgetmodel",
  "texti18n": "i18n.login.ResetPassword",
  "tooltip": "",
  "wType": "Label",
  "zindex": 1
}