{
  "@class": "com.kony.gen.viz.model.component.KVizRichText",
  "DNDConfig": null,
  "__parentReadjusting__": false,
  "_height_": {
    "type": "ref",
    "value": "preferred"
  },
  "_left_": {
    "type": "string",
    "value": "152dp"
  },
  "_margin_": [
    0,
    0,
    0,
    0
  ],
  "_padding_": [
    1,
    0,
    1,
    0
  ],
  "_skin_": "s5259bb2dbfd4eae92e344c77370b7b6",
  "_text_": "",
  "_top_": {
    "type": "string",
    "value": "0dp"
  },
  "_width_": {
    "type": "string",
    "value": "55%"
  },
  "_wrapping_": 2,
  "canUpdateUI": true,
  "centerx": {
    "type": "string",
    "value": "50%"
  },
  "containerweight": 100,
  "contentalignment": 5,
  "id": "rtxEnterCVV",
  "info": null,
  "isvisible": true,
  "kuid": "c0af2b8b340b4ddb9bbce40dc1811848",
  "name": "kony.ui.RichText",
  "paddinginpixel": false,
  "parent": "ResetOrEnrollP",
  "pf": "userwidgetmodel",
  "texti18n": "i18n.login.EnterCvvCodeInfo",
  "wType": "RichText",
  "widgetalignment": 5,
  "zindex": 1
}