{
  "@class": "com.kony.gen.viz.model.component.KVizLabel",
  "DNDConfig": null,
  "__parentReadjusting__": false,
  "_height_": {
    "type": "ref",
    "value": "preferred"
  },
  "_left_": {
    "type": "string",
    "value": "5%"
  },
  "_margin_": [
    1,
    1,
    1,
    1
  ],
  "_padding_": [
    0,
    0,
    0,
    0
  ],
  "_skin_": "s7c5481167ef4f8dbefb3f332c9b7aca",
  "_text_": "Label",
  "_top_": {
    "type": "string",
    "value": "25dp"
  },
  "_width_": {
    "type": "ref",
    "value": "preferred"
  },
  "_wrapping_": 2,
  "android": {
    "textStyle": {
      "letterSpacing": 0,
      "strikeThrough": false
    }
  },
  "canUpdateUI": true,
  "containerweight": 100,
  "contentalignment": 4,
  "id": "Label0f96e5b8496f040",
  "info": null,
  "ipad": {
    "psp": {
      "wrapping": 2
    }
  },
  "iphone": {
    "psp": {
      "wrapping": 2
    }
  },
  "isvisible": true,
  "kuid": "d4d045d9f0eb433fa3a01c1c7981615d",
  "name": "kony.ui.Label",
  "parent": "flxMain",
  "pf": "userwidgetmodel",
  "texti18n": "i18n.transfers.verifyCredentials",
  "tooltip": "",
  "wType": "Label",
  "zindex": 1
}