{
  "DNDConfig": null,
  "__parentReadjusting__": false,
  "_height_": {
    "type": "string",
    "value": "46dp"
  },
  "_margin_": [
    0,
    0,
    0,
    0
  ],
  "_orientation_": 6,
  "_padding_": [
    0,
    0,
    0,
    0
  ],
  "_percent_": true,
  "_skin_": "s9bdf03b6bd44eae8b6fa0cd52bb1713",
  "_top_": {
    "type": "string",
    "value": "7.92%"
  },
  "_width_": {
    "type": "string",
    "value": "85%"
  },
  "allboxes": [],
  "autogrowmode": 0,
  "canUpdateUI": true,
  "centerx": {
    "type": "string",
    "value": "50%"
  },
  "children": [
    "imgValidPassword",
    "tbxNewPassword"
  ],
  "clipbounds": true,
  "containerweight": 100,
  "enablescrolling": true,
  "id": "flxNewPassword",
  "info": null,
  "isvisible": true,
  "kuid": "387af75e4ed4400b9b2743d24c20d803",
  "layouttype": 2,
  "name": "kony.ui.FlexContainer",
  "parent": "newpasswordsettingP",
  "pf": "userwidgetmodel",
  "snapgridsize": 10,
  "snaptogrid": true,
  "wType": "FlexContainer",
  "widgetalignment": 1,
  "zindex": 1
}