{
  "@class": "com.kony.gen.viz.model.component.KVizButton",
  "DNDConfig": null,
  "__parentReadjusting__": false,
  "_height_": {
    "type": "string",
    "value": "50px"
  },
  "_left_": {
    "type": "string",
    "value": "64%"
  },
  "_margin_": [
    6,
    6,
    6,
    6
  ],
  "_padding_": [
    0,
    0,
    0,
    0
  ],
  "_skin_": "s3681a7211a345fba79d7013af78ba93",
  "_text_": "ADD ACCOUNT",
  "_top_": {
    "type": "string",
    "value": "0px"
  },
  "_width_": {
    "type": "string",
    "value": "32.40%"
  },
  "canUpdateUI": true,
  "containerweight": 100,
  "contentalignment": 5,
  "desktopweb": {
    "psp": {
      "hoverSkin": "s3681a7211a345fba79d7013af78ba93"
    }
  },
  "displaytext": true,
  "focusskin": "s3681a7211a345fba79d7013af78ba93",
  "id": "btnIntAddAccountKA",
  "info": null,
  "isvisible": true,
  "kuid": "b42d503418eb408fa4f2961b65ba6b78",
  "name": "kony.ui.Button",
  "parent": "flxIntAddOrCancelKA",
  "pf": "userwidgetmodel",
  "wType": "Button",
  "zindex": 1,
  "tooltip": "Add Account"
}