{
  "DNDConfig": null,
  "__parentReadjusting__": false,
  "_height_": {
    "type": "string",
    "value": "60px"
  },
  "_left_": {
    "type": "string",
    "value": "0dp"
  },
  "_margin_": [
    0,
    0,
    0,
    0
  ],
  "_orientation_": 6,
  "_padding_": [
    0,
    0,
    0,
    0
  ],
  "_percent_": true,
  "_skin_": "s0cfca675e9f4cf7927ba30cc87b643d",
  "_top_": {
    "type": "string",
    "value": "0dp"
  },
  "_width_": {
    "type": "string",
    "value": "100%"
  },
  "allboxes": [],
  "autogrowmode": 0,
  "canUpdateUI": true,
  "children": [
    "btnDomesticAccountKA",
    "btnInternationalAccountKA",
    "btnDummyKA"
  ],
  "clipbounds": true,
  "containerweight": 100,
  "enablescrolling": true,
  "id": "flxTabsKA",
  "info": null,
  "isvisible": false,
  "kuid": "j905565acece4e5bb55a094ceef7c786",
  "layouttype": 3,
  "name": "kony.ui.FlexContainer",
  "parent": "flxMainDesktopKA",
  "pf": "userwidgetmodel",
  "snapgridsize": "10",
  "snaptogrid": true,
  "wType": "FlexContainer",
  "widgetalignment": 1,
  "zindex": 1
}