{
  "DNDConfig": null,
  "__parentReadjusting__": false,
  "_height_": {
    "type": "string",
    "value": "40dp"
  },
  "_left_": {
    "type": "string",
    "value": "0dp"
  },
  "_margin_": [
    0,
    0,
    0,
    0
  ],
  "_orientation_": 6,
  "_padding_": [
    0,
    0,
    0,
    0
  ],
  "_percent_": true,
  "_skin_": "s24c92fc23b14f5484b693ee9b8a9b35",
  "_top_": {
    "type": "string",
    "value": "0dp"
  },
  "_width_": {
    "type": "string",
    "value": "92%"
  },
  "allboxes": [],
  "autogrowmode": 0,
  "canUpdateUI": true,
  "children": [
    "CopyflxPayee0g1766db8a5a746",
    "CopyflxPayee0geacd45d25de4f",
    "CopyflxDate0e9f719bff5034e",
    "CopyflxBill0a0a4340e41b14e",
    "CopyflxAmount0ae769f7c9d2b48"
  ],
  "clipbounds": true,
  "containerweight": 100,
  "enablescrolling": true,
  "id": "CopyflxWrapper0c8518602c5f44f",
  "info": null,
  "isvisible": true,
  "kuid": "a8282960b5854d058246f610f97782c1",
  "layouttype": 2,
  "name": "kony.ui.FlexContainer",
  "parent": "CopyflxBillPayAllPayeesWrapper0f4d4d2e32a7e4d",
  "pf": "userwidgetmodel",
  "snapgridsize": 10,
  "snaptogrid": true,
  "wType": "FlexContainer",
  "widgetalignment": 1,
  "zindex": 1
}