{
  "@class": "com.kony.gen.viz.model.component.KVizLabel",
  "DNDConfig": null,
  "__parentReadjusting__": false,
  "_height_": {
    "type": "ref",
    "value": "preferred"
  },
  "_left_": "0dp",
  "_margin_": [
    1,
    1,
    1,
    1
  ],
  "_padding_": [
    0,
    0,
    0,
    0
  ],
  "_skin_": "saba7a95163a455f8f2f131435e16122",
  "_text_": "Label",
  "_top_": "0dp",
  "_width_": {
    "type": "ref",
    "value": "preferred"
  },
  "_wrapping_": 2,
  "android": {
    "textStyle": {
      "letterSpacing": 0,
      "strikeThrough": false
    }
  },
  "canUpdateUI": true,
  "containerweight": 100,
  "contentalignment": 4,
  "id": "lblScheduleAPayment",
  "info": null,
  "ipad": {
    "psp": {
      "wrapping": 2
    }
  },
  "iphone": {
    "psp": {
      "wrapping": 2
    }
  },
  "isvisible": true,
  "kuid": "d1f3ad24570340389c45995fd3578509",
  "name": "kony.ui.Label",
  "parent": "flxSchedulePayment",
  "pf": "userwidgetmodel",
  "texti18n": "i18n.billPay.ScheduleAPayment",
  "tooltip": "Schedule a Payment",
  "wType": "Label",
  "zindex": 1
}