{
  "@class": "com.kony.gen.viz.model.component.KVizUserWidget",
  "DNDConfig": null,
  "__parentReadjusting__": false,
  "_children_": [],
  "_height_": {
    "type": "string",
    "value": "40dp"
  },
  "_left_": {
    "type": "string",
    "value": "0dp"
  },
  "_margin_": [
    0,
    0,
    0,
    0
  ],
  "_orientation_": 1,
  "_padding_": [
    0,
    0,
    0,
    0
  ],
  "_percent_": true,
  "_render_": true,
  "_skin_": "s344174b66d24a22be7a954acfcdefc5",
  "_top_": {
    "type": "string",
    "value": "0dp"
  },
  "_width_": {
    "type": "string",
    "value": "100%"
  },
  "areflexpropsreferenced": false,
  "canUpdateUI": true,
  "clipbounds": true,
  "containerweight": 0,
  "dataDiffs": {
    "flxAmount": {
      "__events__": {},
      "__info__": {
        "kuid": "g41d7492811142dfa7cea966b2ec8a25",
        "srcKUID": "a8de5ed0849442149be49bea288e6510",
        "wType": "FlexContainer"
      }
    },
    "flxSendTo": {
      "__events__": {},
      "__info__": {
        "kuid": "id6e058098fb497ea672a4bbc8b95cdb",
        "srcKUID": "f81ece72406048cea4c266ef1081e269",
        "wType": "FlexContainer"
      }
    },
    "flxSortDate": {
      "__events__": {},
      "__info__": {
        "kuid": "bcfd8c0e3cb8473c8fed05843828ade9",
        "srcKUID": "ec698a0e69a649088f30a239779d1fec",
        "wType": "FlexContainer"
      }
    },
    "flxSortSixColumn": {
      "__events__": {},
      "__info__": {
        "kuid": "b633a47de7d24ce492a0f6e295aa2f57",
        "srcKUID": "d27b022c80c742ee8be48d70bc273b72",
        "wType": "FlexContainer"
      }
    },
    "flxSortType": {
      "__events__": {},
      "__info__": {
        "kuid": "e0a0fe6f89164308825c3862dbbaec60",
        "srcKUID": "e5b56988538745a184b51de36c19e8c5",
        "wType": "FlexContainer"
      }
    },
    "flxStatus": {
      "__events__": {},
      "__info__": {
        "kuid": "cca6f85d154a41fc9260ea08cc5cf6a7",
        "srcKUID": "ad4d77cd64344bd791802673bc7b9408",
        "wType": "FlexContainer"
      }
    },
    "imgSortAmount": {
      "__events__": {},
      "__info__": {
        "kuid": "j2f1145421ce416c942e214cd17c810a",
        "srcKUID": "ib18c936b0084bc0949a532f57d90088",
        "wType": "Image"
      },
      "height": {
        "type": "string",
        "value": "15dp"
      },
      "src": "sorting.png",
      "width": {
        "type": "string",
        "value": "12dp"
      }
    },
    "imgSortCategory": {
      "__events__": {},
      "__info__": {
        "kuid": "ee0ad9cd37204560ae57b90e4966b2a2",
        "srcKUID": "eb1fb746407d4973bca8cd3366fd276d",
        "wType": "Image"
      },
      "src": "sorting.png"
    },
    "imgSortDate": {
      "__events__": {},
      "__info__": {
        "kuid": "b0983a18d48646518a6e665f841aa3c1",
        "srcKUID": "b8ff258c50bc4cd2aeec9ded9d5af8ff",
        "wType": "Image"
      },
      "src": "sortingfinal.png"
    },
    "imgSortDescription": {
      "__events__": {},
      "__info__": {
        "kuid": "g13d3000317346418520586c470fec44",
        "srcKUID": "b0c560211cb84a95b5ac2f098c604abf",
        "wType": "Image"
      },
      "src": "sorting.png"
    },
    "imgSortType": {
      "__events__": {},
      "__info__": {
        "kuid": "e9efb74b58b8406db51757ea26a5e4cd",
        "srcKUID": "ge888f82dac04c4184280830e2d3715a",
        "wType": "Image"
      },
      "src": "sorting.png"
    },
    "lblSortAmount": {
      "__events__": {},
      "__info__": {
        "kuid": "j4d75748eefe4522b09ca8590fa19a04",
        "srcKUID": "ca50ca0505a84198bc679afd0e94a75f",
        "wType": "Label"
      }
    },
    "lblSortBalance": {
      "__events__": {},
      "__info__": {
        "kuid": "c2a61a22473c4abd857110e49f94a356",
        "srcKUID": "cac8f950f78241e59feb8a2d6c436ece",
        "wType": "Label"
      }
    },
    "lblSortDate": {
      "__events__": {},
      "__info__": {
        "kuid": "f53f9c1a57b441b1894815475a092edf",
        "srcKUID": "f5278ab4343a459c90ff989e89761733",
        "wType": "Label"
      }
    },
    "lblSortDescription": {
      "__events__": {},
      "__info__": {
        "kuid": "b612e1ee84f54ecc92f63a583e1548a5",
        "srcKUID": "jf5b2fd52be741c0b2526bb3d5c3a83f",
        "wType": "Label"
      }
    },
    "lblSortType": {
      "__events__": {},
      "__info__": {
        "kuid": "f2a299cf8bcf4f2b91dbb9f69ebfd17a",
        "srcKUID": "b456e3fa717d4709928f572577646006",
        "wType": "Label"
      }
    },
    "tableSubHeaderHistory": {
      "__events__": {},
      "__info__": {
        "isRoot": true,
        "kuid": "d4024329db3d4d5692fc0c08c907950c",
        "srcKUID": "a15d51de44be4fd5a7d5bd01961d4aa7",
        "wType": "FlexContainer"
      }
    }
  },
  "id": "tableSubHeaderHistory",
  "info": null,
  "isdatareferenced": false,
  "isvisible": true,
  "kuid": "d4024329db3d4d5692fc0c08c907950c",
  "layouttype": 2,
  "masterType": 0,
  "name": "kony.ui.UserWidgetInstance",
  "parent": "tableView",
  "pf": "userwidgetmodel",
  "snaptogrid": true,
  "sourceUserWidget": "a15d51de44be4fd5a7d5bd01961d4aa7",
  "wType": "UserWidgetInstance",
  "zindex": 1
}