{
  "@class": "com.kony.gen.viz.model.component.KVizUserWidget",
  "DNDConfig": null,
  "__parentReadjusting__": false,
  "_children_": [],
  "_height_": {
    "type": "string",
    "value": "103px"
  },
  "_left_": {
    "type": "string",
    "value": "0dp"
  },
  "_margin_": [
    0,
    0,
    0,
    0
  ],
  "_orientation_": 1,
  "_padding_": [
    0,
    0,
    0,
    0
  ],
  "_percent_": true,
  "_render_": true,
  "_skin_": "s4b3bfcb27c14526bcdce6dec3972d8d",
  "_top_": {
    "type": "string",
    "value": "150dp"
  },
  "_width_": {
    "type": "string",
    "value": "100%"
  },
  "areflexpropsreferenced": false,
  "canUpdateUI": true,
  "clipbounds": true,
  "containerweight": 0,
  "dataDiffs": {
    "btnConfirm": {
      "__events__": {},
      "__info__": {
        "kuid": "ec03a2b3992e459182aec106ee592211",
        "srcKUID": "e841f0a4782e4ad282404ac65697d647",
        "wType": "Button"
      },
      "i18n_text": "i18n.ViewStatements.BackToAccountDetails",
      "width": {
        "Default": {
          "type": "string",
          "value": "21.41%"
        }
      }
    },
    "btnModify": {
      "__events__": {},
      "__info__": {
        "kuid": "dd25782c73fd49379ba8b8369e14af40",
        "srcKUID": "d220a02ff97c465fa95cac434b14a7dc",
        "wType": "Button"
      },
      "centerY": {
        "Default": {
          "type": "string",
          "value": "50%"
        }
      },
      "i18n_text": "i18n.ViewStatements.GoToAccountSummary",
      "right": {
        "Default": {
          "type": "string",
          "value": "25.18%"
        }
      },
      "width": {
        "Default": {
          "type": "string",
          "value": "21.41%"
        }
      }
    },
    "confirmButtons": {
      "__events__": {},
      "__info__": {
        "isRoot": true,
        "kuid": "hb83a2b504ed41d6adced17f6ef19600",
        "srcKUID": "e37051a0e09d4dcd8f9d063444bbc573",
        "wType": "FlexContainer"
      },
      "isVisible": false,
      "top": {
        "Default": {
          "type": "string",
          "value": "150dp"
        }
      }
    },
    "flxHorizontalLine": {
      "__events__": {},
      "__info__": {
        "kuid": "eb14d42939d842b8a79b940402b2d1f8",
        "srcKUID": "a004b77d0b8c49ae965588d8b36dc70f",
        "wType": "FlexContainer"
      }
    }
  },
  "id": "confirmButtons",
  "info": null,
  "isdatareferenced": false,
  "isvisible": false,
  "kuid": "hb83a2b504ed41d6adced17f6ef19600",
  "layouttype": 2,
  "masterType": 0,
  "name": "kony.ui.UserWidgetInstance",
  "parent": "flxMain",
  "pf": "userwidgetmodel",
  "snapgridsize": 10,
  "snaptogrid": true,
  "sourceUserWidget": "e37051a0e09d4dcd8f9d063444bbc573",
  "wType": "UserWidgetInstance"
}