{
  "@class": "com.kony.gen.viz.model.component.KVizListBox",
  "DNDConfig": null,
  "__parentReadjusting__": false,
  "_height_": {
    "type": "string",
    "value": "40dp"
  },
  "_left_": {
    "type": "string",
    "value": "32%"
  },
  "_margin_": [
    0,
    0,
    0,
    0
  ],
  "_padding_": [
    2,
    0,
    1,
    0
  ],
  "_skin_": "s3bdd2043a464718a1f91154954f20e8",
  "_top_": {
    "type": "string",
    "value": "40dp"
  },
  "_width_": {
    "type": "string",
    "value": "23%"
  },
  "canUpdateUI": true,
  "containerweight": 100,
  "contentalignment": 4,
  "context": {
    "channel": "desktop",
    "formID": "uwe067ffb91c174481bcad7f69452c637b",
    "platform": "desktopweb",
    "templateType": "userwidgets",
    "topLevelBox": null
  },
  "groupcells": false,
  "id": "lstSelectType",
  "info": null,
  "isvisible": true,
  "kuid": "jc15c7b876fd46d5b33ef1542c234fe8",
  "masterdata": [],
  "name": "kony.ui.ListBox",
  "parent": "flxSelectReasonForDispute",
  "pf": "userwidgetmodel",
  "selectedkeys": null,
  "selectedkeyvalue": null,
  "selectedkeyvalues": null,
  "size": 18,
  "viewconfig": {
    "toggleViewConfig": {
      "viewStyle": 0
    }
  },
  "viewtype": 0,
  "wType": "ListBox",
  "zindex": 5
}