{
  "@class": "com.kony.gen.viz.model.component.KVizButton",
  "DNDConfig": null,
  "__parentReadjusting__": false,
  "_height_": {
    "type": "string",
    "value": "100%"
  },
  "_left_": {
    "type": "string",
    "value": "0dp"
  },
  "_margin_": [
    6,
    6,
    6,
    6
  ],
  "_padding_": [
    2,
    0,
    2,
    0
  ],
  "_skin_": "s691cbbc573349d5ba1da3a566d2f584",
  "_text_": "DELETED MESSAGES",
  "_width_": {
    "type": "ref",
    "value": "preferred"
  },
  "canUpdateUI": true,
  "centery": {
    "type": "string",
    "value": "50%"
  },
  "containerweight": 100,
  "contentalignment": 5,
  "disabledSkins": {
    "focusSkin": "sf44d06ca8224832827ea7fdff757013"
  },
  "displaytext": true,
  "id": "btnDeletedMessages",
  "info": null,
  "isvisible": true,
  "kuid": "ee99a50d820b479e88d78186da836813",
  "name": "kony.ui.Button",
  "paddinginpixel": false,
  "parent": "flxTabs",
  "pf": "userwidgetmodel",
  "tooltip": "Deleted Messages",
  "wType": "Button",
  "zindex": 1
}