{
  "@class": "com.kony.gen.viz.model.component.KVizButton",
  "DNDConfig": null,
  "__markedForDelete__": true,
  "__parentReadjusting__": false,
  "_height_": {
    "type": "ref",
    "value": "preferred"
  },
  "_left_": {
    "type": "string",
    "value": "0dp"
  },
  "_margin_": [
    6,
    6,
    6,
    6
  ],
  "_padding_": [
    0,
    0,
    0,
    0
  ],
  "_skin_": "s21cd11a212e42e693216fd3a82ed65a",
  "_text_": "PAY BILL",
  "_top_": {
    "type": "string",
    "value": "40dp"
  },
  "_width_": {
    "type": "ref",
    "value": "preferred"
  },
  "canUpdateUI": true,
  "containerweight": 100,
  "contentalignment": 5,
  "disabledSkins": {
    "focusSkin": "sf44d06ca8224832827ea7fdff757013"
  },
  "displaytext": true,
  "id": "btnNotificationAction",
  "info": null,
  "isvisible": true,
  "kuid": "iedc02c243474907a668e485f8844430",
  "name": "kony.ui.Button",
  "parent": "flxData",
  "pf": "userwidgetmodel",
  "wType": "Button",
  "zindex": 1,
  "texti18n": "i18n.Pay.PayBills",
  "tooltip": "Pay Bills"
}