{
  "@class": "com.kony.gen.viz.model.component.KVizButton",
  "DNDConfig": null,
  "__parentReadjusting__": false,
  "_height_": {
    "type": "string",
    "value": "100%"
  },
  "_left_": {
    "type": "string",
    "value": "0dp"
  },
  "_margin_": [
    6,
    6,
    6,
    6
  ],
  "_padding_": [
    2,
    0,
    2,
    0
  ],
  "_skin_": "sa60b81658b5497aac2e10b244c830c2",
  "_text_": "ALERTS (8)",
  "_width_": {
    "type": "ref",
    "value": "preferred"
  },
  "canUpdateUI": true,
  "centery": {
    "type": "string",
    "value": "50%"
  },
  "containerweight": 100,
  "contentalignment": 4,
  "disabledSkins": {
    "focusSkin": "sf44d06ca8224832827ea7fdff757013"
  },
  "displaytext": true,
  "id": "btnNotifications",
  "ide_onClick": "AS_Button_e3323eeced5847fbab8fbfd23f60ada6",
  "info": null,
  "isvisible": true,
  "kuid": "d5a1b52306024a089ff4a26141ca6d72",
  "name": "kony.ui.Button",
  "paddinginpixel": false,
  "parent": "flxTabs",
  "pf": "userwidgetmodel",
  "tooltip": "Alerts",
  "wType": "Button",
  "zindex": 1
}