{
  "@class": "com.kony.gen.viz.model.component.KVizButton",
  "DNDConfig": null,
  "__parentReadjusting__": false,
  "_height_": {
    "type": "string",
    "value": "40dp"
  },
  "_left_": {
    "type": "string",
    "value": "46.88%"
  },
  "_margin_": [
    6,
    6,
    6,
    6
  ],
  "_padding_": [
    0,
    0,
    0,
    0
  ],
  "_skin_": "s5dbba5b9dac4f33998dc76f09b4e9d4",
  "_text_": "Restore",
  "_top_": {
    "type": "string",
    "value": "20dp"
  },
  "_width_": {
    "type": "string",
    "value": "23.15%"
  },
  "canUpdateUI": true,
  "containerweight": 100,
  "contentalignment": 5,
  "disabledSkins": {
    "focusSkin": "sf44d06ca8224832827ea7fdff757013"
  },
  "displaytext": true,
  "id": "btnRestore",
  "info": null,
  "isvisible": true,
  "kuid": "aa61cbf3c01b4c55b730794a4338ebe9",
  "name": "kony.ui.Button",
  "parent": "flxDeletedMessagesBottom",
  "pf": "userwidgetmodel",
  "wType": "Button",
  "zindex": 1,
  "texti18n": "i18n.NotificationsAndMessages.Restore",
  "tooltip": "Restore"
}