{
  "@class": "com.kony.gen.viz.model.component.KVizButton",
  "DNDConfig": null,
  "__parentReadjusting__": false,
  "_height_": {
    "type": "string",
    "value": "40dp"
  },
  "_left_": {
    "type": "string",
    "value": "0dp"
  },
  "_margin_": [
    6,
    6,
    6,
    6
  ],
  "_padding_": [
    0,
    0,
    0,
    0
  ],
  "_skin_": "s5dbba5b9dac4f33998dc76f09b4e9d4",
  "_text_": "Go",
  "_width_": {
    "type": "string",
    "value": "60dp"
  },
  "canUpdateUI": true,
  "centery": {
    "type": "string",
    "value": "50%"
  },
  "containerweight": 100,
  "contentalignment": 5,
  "disabledSkins": {
    "focusSkin": "sf44d06ca8224832827ea7fdff757013"
  },
  "displaytext": true,
  "id": "btnSearchmod",
  "info": null,
  "isvisible": false,
  "kuid": "ccff9722fd5045babf0457c19f8acd25",
  "name": "kony.ui.Button",
  "parent": "flxSearch",
  "pf": "userwidgetmodel",
  "wType": "Button",
  "zindex": 1
}