{
  "DNDConfig": null,
  "__parentReadjusting__": false,
  "_height_": {
    "type": "string",
    "value": "50dp"
  },
  "_left_": {
    "type": "string",
    "value": "5dp"
  },
  "_margin_": [
    0,
    0,
    0,
    0
  ],
  "_orientation_": 6,
  "_padding_": [
    0,
    0,
    0,
    0
  ],
  "_percent_": true,
  "_skin_": "s24c92fc23b14f5484b693ee9b8a9b35",
  "_top_": {
    "type": "string",
    "value": "15dp"
  },
  "_width_": {
    "type": "string",
    "value": "50px"
  },
  "allboxes": [],
  "autogrowmode": 0,
  "canUpdateUI": true,
  "children": [
    "imgAttachmentBLue"
  ],
  "clipbounds": true,
  "containerweight": 100,
  "enablescrolling": true,
  "id": "flxImageAttachment",
  "info": null,
  "isvisible": false,
  "kuid": "h83cb7ff84ad4717b475642eac4b17e4",
  "layouttype": 2,
  "name": "kony.ui.FlexContainer",
  "parent": "flxSendMessage",
  "pf": "userwidgetmodel",
  "snapgridsize": 10,
  "snaptogrid": true,
  "wType": "FlexContainer",
  "widgetalignment": 1,
  "zindex": 1,
  "desktopweb": {
    "psp": {
      "hoverSkin": "s3e0ac30f9774278a868cb7c73908a76"
    }
  }
}