{
  "DNDConfig": null,
  "__parentReadjusting__": false,
  "_height_": {
    "type": "string",
    "value": "430dp"
  },
  "_left_": {
    "type": "string",
    "value": "0dp"
  },
  "_margin_": [
    0,
    0,
    0,
    0
  ],
  "_orientation_": 6,
  "_padding_": [
    0,
    0,
    0,
    0
  ],
  "_percent_": true,
  "_skin_": "sba5a7627a5d4fa3befc93e669f0f2b0",
  "_top_": {
    "type": "string",
    "value": "0dp"
  },
  "_width_": {
    "type": "string",
    "value": "100%"
  },
  "allboxes": [],
  "allowhorizontalbounce": false,
  "allowverticalbounce": true,
  "bounces": true,
  "canUpdateUI": true,
  "children": [
    "segMessages",
    "flxMessagesSeparator",
    "flxReply"
  ],
  "clipbounds": true,
  "containerweight": 100,
  "decelerat": false,
  "dragg": false,
  "enablescrolling": true,
  "horizontalscrollindicator": true,
  "id": "flxMainMessages",
  "info": null,
  "isvisible": true,
  "kuid": "ece82d4363ab4992b54da45ff4709c12",
  "layouttype": 4,
  "name": "kony.ui.FlexScrollContainer",
  "pagingenabled": false,
  "parent": "flxRightMessages",
  "pf": "userwidgetmodel",
  "scrolldirection": 2,
  "snapgridsize": 10,
  "snaptogrid": true,
  "track": false,
  "verticalscrollindicator": true,
  "vizProps": {},
  "wType": "FlexScrollContainer",
  "widgetalignment": 1,
  "zindex": 1
}