{
  "DNDConfig": null,
  "__parentReadjusting__": false,
  "_height_": {
    "type": "string",
    "value": "589dp"
  },
  "_left_": {
    "type": "string",
    "value": "42.20%"
  },
  "_margin_": [
    0,
    0,
    0,
    0
  ],
  "_orientation_": 6,
  "_padding_": [
    0,
    0,
    0,
    0
  ],
  "_percent_": true,
  "_skin_": "s24c92fc23b14f5484b693ee9b8a9b35",
  "_top_": {
    "type": "string",
    "value": "111dp"
  },
  "_width_": {
    "type": "string",
    "value": "57.60%"
  },
  "allboxes": [],
  "autogrowmode": 0,
  "canUpdateUI": true,
  "children": [
    "flxNewMessagesHeader",
    "flxMainNewMessage",
    "flxSendSeparator",
    "flxSendNewMessage"
  ],
  "clipbounds": true,
  "containerweight": 100,
  "enablescrolling": true,
  "id": "flxNewMessage",
  "info": null,
  "isvisible": false,
  "kuid": "f0f75ef1a2f3466ea0ecbee3f36fa5d2",
  "layouttype": 4,
  "name": "kony.ui.FlexContainer",
  "parent": "NotficationsAndMessages",
  "pf": "userwidgetmodel",
  "snapgridsize": 10,
  "snaptogrid": true,
  "wType": "FlexContainer",
  "widgetalignment": 1,
  "zindex": 1
}