{
  "DNDConfig": null,
  "__markedForDelete__": true,
  "__parentReadjusting__": false,
  "_height_": {
    "type": "string",
    "value": "589dp"
  },
  "_left_": {
    "type": "string",
    "value": "42.30%"
  },
  "_margin_": [
    0,
    0,
    0,
    0
  ],
  "_orientation_": 6,
  "_padding_": [
    0,
    0,
    0,
    0
  ],
  "_percent_": true,
  "_skin_": "s24c92fc23b14f5484b693ee9b8a9b35",
  "_top_": {
    "type": "string",
    "value": "110dp"
  },
  "_width_": {
    "type": "string",
    "value": "57.60%"
  },
  "allboxes": [],
  "autogrowmode": 0,
  "canUpdateUI": true,
  "children": [
    "flxNotificationHeader",
    "flxRightNotificationsWrapper"
  ],
  "clipbounds": true,
  "containerweight": 100,
  "enablescrolling": true,
  "id": "flxRightNotifications",
  "info": null,
  "isvisible": true,
  "kuid": "e1401fa45dab40198e27bb40888eec7a",
  "layouttype": 2,
  "name": "kony.ui.FlexContainer",
  "parent": "NotficationsAndMessages",
  "pf": "userwidgetmodel",
  "snapgridsize": 10,
  "snaptogrid": true,
  "wType": "FlexContainer",
  "widgetalignment": 1,
  "zindex": 1
}