{
  "@class": "com.kony.gen.viz.model.container.KVizSegment2",
  "DNDConfig": null,
  "__parentReadjusting__": false,
  "_data_": [
    {},
    {},
    {}
  ],
  "_height_": {
    "type": "ref",
    "value": "preferred"
  },
  "_indicator_": "none",
  "_left_": {
    "type": "string",
    "value": "0px"
  },
  "_margin_": [
    0,
    0,
    0,
    0
  ],
  "_orientation_": 2,
  "_padding_": [
    0,
    0,
    0,
    0
  ],
  "_top_": {
    "type": "string",
    "value": "0dp"
  },
  "_width_": {
    "type": "string",
    "value": "100%"
  },
  "autogrowmode": 1,
  "canUpdateUI": true,
  "containerweight": 100,
  "counter": "02",
  "desktop": {
    "_data_": [
      {
        "imgDownloadAttachment1": {
          "@class": "com.viz.ide.model.segment.ImageSegmentData",
          "src": "download_blue.png"
        },
        "imgDownloadAttachment2": {
          "@class": "com.viz.ide.model.segment.ImageSegmentData",
          "src": ""
        },
        "imgDownloadAttachment3": {
          "@class": "com.viz.ide.model.segment.ImageSegmentData",
          "src": ""
        },
        "imgDownloadAttachment4": {
          "@class": "com.viz.ide.model.segment.ImageSegmentData",
          "src": ""
        },
        "imgDownloadAttachment5": {
          "@class": "com.viz.ide.model.segment.ImageSegmentData",
          "src": ""
        },
        "imgPDF1": {
          "@class": "com.viz.ide.model.segment.ImageSegmentData",
          "src": "pdf_image.png"
        },
        "imgPDF2": {
          "@class": "com.viz.ide.model.segment.ImageSegmentData",
          "src": ""
        },
        "imgPDF3": {
          "@class": "com.viz.ide.model.segment.ImageSegmentData",
          "src": ""
        },
        "imgPDF4": {
          "@class": "com.viz.ide.model.segment.ImageSegmentData",
          "src": ""
        },
        "imgPDF5": {
          "@class": "com.viz.ide.model.segment.ImageSegmentData",
          "src": ""
        },
        "imgRemoveAttachment1": {
          "@class": "com.viz.ide.model.segment.ImageSegmentData",
          "src": ""
        },
        "imgRemoveAttachment2": {
          "@class": "com.viz.ide.model.segment.ImageSegmentData",
          "src": ""
        },
        "imgRemoveAttachment3": {
          "@class": "com.viz.ide.model.segment.ImageSegmentData",
          "src": ""
        },
        "imgRemoveAttachment4": {
          "@class": "com.viz.ide.model.segment.ImageSegmentData",
          "src": ""
        },
        "imgRemoveAttachment5": {
          "@class": "com.viz.ide.model.segment.ImageSegmentData",
          "src": ""
        },
        "imgToolTip": {
          "@class": "com.viz.ide.model.segment.ImageSegmentData",
          "src": ""
        },
        "imgUser": {
          "@class": "com.viz.ide.model.segment.ImageSegmentData",
          "src": "to_konybank_acc.png"
        },
        "lblDate": {
          "@class": "com.viz.ide.model.segment.SimpleTextSegmentData",
          "text": "07/05/2017, 6:10 am"
        },
        "lblDocName1": {
          "@class": "com.viz.ide.model.segment.SimpleTextSegmentData",
          "text": "pdf"
        },
        "lblDocName2": {
          "@class": "com.viz.ide.model.segment.SimpleTextSegmentData",
          "text": ""
        },
        "lblDocName3": {
          "@class": "com.viz.ide.model.segment.SimpleTextSegmentData",
          "text": ""
        },
        "lblDocName4": {
          "@class": "com.viz.ide.model.segment.SimpleTextSegmentData",
          "text": ""
        },
        "lblDocName5": {
          "@class": "com.viz.ide.model.segment.SimpleTextSegmentData",
          "text": ""
        },
        "lblDummy": {
          "@class": "com.viz.ide.model.segment.SimpleTextSegmentData",
          "text": ""
        },
        "lblShowAll": {
          "@class": "com.viz.ide.model.segment.SimpleTextSegmentData",
          "text": ""
        },
        "lblSize1": {
          "@class": "com.viz.ide.model.segment.SimpleTextSegmentData",
          "text": "jknhkj"
        },
        "lblSize2": {
          "@class": "com.viz.ide.model.segment.SimpleTextSegmentData",
          "text": ""
        },
        "lblSize3": {
          "@class": "com.viz.ide.model.segment.SimpleTextSegmentData",
          "text": ""
        },
        "lblSize4": {
          "@class": "com.viz.ide.model.segment.SimpleTextSegmentData",
          "text": ""
        },
        "lblSize5": {
          "@class": "com.viz.ide.model.segment.SimpleTextSegmentData",
          "text": ""
        },
        "lblUser": {
          "@class": "com.viz.ide.model.segment.SimpleTextSegmentData",
          "text": "Kony_Bank"
        },
        "rtxMessage": {
          "@class": "com.viz.ide.model.segment.SimpleTextSegmentData",
          "text": "Hi! You are our priviledged customer."
        }
      },
      {
        "imgDownloadAttachment1": {
          "@class": "com.viz.ide.model.segment.ImageSegmentData",
          "src": ""
        },
        "imgDownloadAttachment2": {
          "@class": "com.viz.ide.model.segment.ImageSegmentData",
          "src": ""
        },
        "imgDownloadAttachment3": {
          "@class": "com.viz.ide.model.segment.ImageSegmentData",
          "src": ""
        },
        "imgDownloadAttachment4": {
          "@class": "com.viz.ide.model.segment.ImageSegmentData",
          "src": ""
        },
        "imgDownloadAttachment5": {
          "@class": "com.viz.ide.model.segment.ImageSegmentData",
          "src": ""
        },
        "imgPDF1": {
          "@class": "com.viz.ide.model.segment.ImageSegmentData",
          "src": ""
        },
        "imgPDF2": {
          "@class": "com.viz.ide.model.segment.ImageSegmentData",
          "src": ""
        },
        "imgPDF3": {
          "@class": "com.viz.ide.model.segment.ImageSegmentData",
          "src": ""
        },
        "imgPDF4": {
          "@class": "com.viz.ide.model.segment.ImageSegmentData",
          "src": ""
        },
        "imgPDF5": {
          "@class": "com.viz.ide.model.segment.ImageSegmentData",
          "src": ""
        },
        "imgRemoveAttachment1": {
          "@class": "com.viz.ide.model.segment.ImageSegmentData",
          "src": ""
        },
        "imgRemoveAttachment2": {
          "@class": "com.viz.ide.model.segment.ImageSegmentData",
          "src": ""
        },
        "imgRemoveAttachment3": {
          "@class": "com.viz.ide.model.segment.ImageSegmentData",
          "src": ""
        },
        "imgRemoveAttachment4": {
          "@class": "com.viz.ide.model.segment.ImageSegmentData",
          "src": ""
        },
        "imgRemoveAttachment5": {
          "@class": "com.viz.ide.model.segment.ImageSegmentData",
          "src": ""
        },
        "imgToolTip": {
          "@class": "com.viz.ide.model.segment.ImageSegmentData",
          "src": ""
        },
        "imgUser": {
          "@class": "com.viz.ide.model.segment.ImageSegmentData",
          "src": "to_konybank_acc.png"
        },
        "lblDate": {
          "@class": "com.viz.ide.model.segment.SimpleTextSegmentData",
          "text": "07/05/2017, 6:10 am"
        },
        "lblDocName1": {
          "@class": "com.viz.ide.model.segment.SimpleTextSegmentData",
          "text": ""
        },
        "lblDocName2": {
          "@class": "com.viz.ide.model.segment.SimpleTextSegmentData",
          "text": ""
        },
        "lblDocName3": {
          "@class": "com.viz.ide.model.segment.SimpleTextSegmentData",
          "text": ""
        },
        "lblDocName4": {
          "@class": "com.viz.ide.model.segment.SimpleTextSegmentData",
          "text": ""
        },
        "lblDocName5": {
          "@class": "com.viz.ide.model.segment.SimpleTextSegmentData",
          "text": ""
        },
        "lblDummy": {
          "@class": "com.viz.ide.model.segment.SimpleTextSegmentData",
          "text": ""
        },
        "lblShowAll": {
          "@class": "com.viz.ide.model.segment.SimpleTextSegmentData",
          "text": ""
        },
        "lblSize1": {
          "@class": "com.viz.ide.model.segment.SimpleTextSegmentData",
          "text": ""
        },
        "lblSize2": {
          "@class": "com.viz.ide.model.segment.SimpleTextSegmentData",
          "text": ""
        },
        "lblSize3": {
          "@class": "com.viz.ide.model.segment.SimpleTextSegmentData",
          "text": ""
        },
        "lblSize4": {
          "@class": "com.viz.ide.model.segment.SimpleTextSegmentData",
          "text": ""
        },
        "lblSize5": {
          "@class": "com.viz.ide.model.segment.SimpleTextSegmentData",
          "text": ""
        },
        "lblUser": {
          "@class": "com.viz.ide.model.segment.SimpleTextSegmentData",
          "text": "Kony_Bank"
        },
        "rtxMessage": {
          "@class": "com.viz.ide.model.segment.SimpleTextSegmentData",
          "text": "Hi! You are our priviledged customer. Renew your account by simply\nClickable link to be provided here.Hi! You are our priviledged customer. Renew your account by simply\nClickable link to be provided here."
        }
      },
      {
        "imgDownloadAttachment1": {
          "@class": "com.viz.ide.model.segment.ImageSegmentData",
          "src": ""
        },
        "imgDownloadAttachment2": {
          "@class": "com.viz.ide.model.segment.ImageSegmentData",
          "src": ""
        },
        "imgDownloadAttachment3": {
          "@class": "com.viz.ide.model.segment.ImageSegmentData",
          "src": ""
        },
        "imgDownloadAttachment4": {
          "@class": "com.viz.ide.model.segment.ImageSegmentData",
          "src": ""
        },
        "imgDownloadAttachment5": {
          "@class": "com.viz.ide.model.segment.ImageSegmentData",
          "src": ""
        },
        "imgPDF1": {
          "@class": "com.viz.ide.model.segment.ImageSegmentData",
          "src": ""
        },
        "imgPDF2": {
          "@class": "com.viz.ide.model.segment.ImageSegmentData",
          "src": ""
        },
        "imgPDF3": {
          "@class": "com.viz.ide.model.segment.ImageSegmentData",
          "src": ""
        },
        "imgPDF4": {
          "@class": "com.viz.ide.model.segment.ImageSegmentData",
          "src": ""
        },
        "imgPDF5": {
          "@class": "com.viz.ide.model.segment.ImageSegmentData",
          "src": ""
        },
        "imgRemoveAttachment1": {
          "@class": "com.viz.ide.model.segment.ImageSegmentData",
          "src": ""
        },
        "imgRemoveAttachment2": {
          "@class": "com.viz.ide.model.segment.ImageSegmentData",
          "src": ""
        },
        "imgRemoveAttachment3": {
          "@class": "com.viz.ide.model.segment.ImageSegmentData",
          "src": ""
        },
        "imgRemoveAttachment4": {
          "@class": "com.viz.ide.model.segment.ImageSegmentData",
          "src": ""
        },
        "imgRemoveAttachment5": {
          "@class": "com.viz.ide.model.segment.ImageSegmentData",
          "src": ""
        },
        "imgToolTip": {
          "@class": "com.viz.ide.model.segment.ImageSegmentData",
          "src": ""
        },
        "imgUser": {
          "@class": "com.viz.ide.model.segment.ImageSegmentData",
          "src": "to_konybank_acc.png"
        },
        "lblDate": {
          "@class": "com.viz.ide.model.segment.SimpleTextSegmentData",
          "text": "07/05/2017, 6:10 am"
        },
        "lblDocName1": {
          "@class": "com.viz.ide.model.segment.SimpleTextSegmentData",
          "text": ""
        },
        "lblDocName2": {
          "@class": "com.viz.ide.model.segment.SimpleTextSegmentData",
          "text": ""
        },
        "lblDocName3": {
          "@class": "com.viz.ide.model.segment.SimpleTextSegmentData",
          "text": ""
        },
        "lblDocName4": {
          "@class": "com.viz.ide.model.segment.SimpleTextSegmentData",
          "text": ""
        },
        "lblDocName5": {
          "@class": "com.viz.ide.model.segment.SimpleTextSegmentData",
          "text": ""
        },
        "lblDummy": {
          "@class": "com.viz.ide.model.segment.SimpleTextSegmentData",
          "text": ""
        },
        "lblShowAll": {
          "@class": "com.viz.ide.model.segment.SimpleTextSegmentData",
          "text": ""
        },
        "lblSize1": {
          "@class": "com.viz.ide.model.segment.SimpleTextSegmentData",
          "text": ""
        },
        "lblSize2": {
          "@class": "com.viz.ide.model.segment.SimpleTextSegmentData",
          "text": ""
        },
        "lblSize3": {
          "@class": "com.viz.ide.model.segment.SimpleTextSegmentData",
          "text": ""
        },
        "lblSize4": {
          "@class": "com.viz.ide.model.segment.SimpleTextSegmentData",
          "text": ""
        },
        "lblSize5": {
          "@class": "com.viz.ide.model.segment.SimpleTextSegmentData",
          "text": ""
        },
        "lblUser": {
          "@class": "com.viz.ide.model.segment.SimpleTextSegmentData",
          "text": "Kony_Bank"
        },
        "rtxMessage": {
          "@class": "com.viz.ide.model.segment.SimpleTextSegmentData",
          "text": "Hi! You are our priviledged customer. Renew your account by simply\nClickable link to be provided here.Hi! You are our priviledged customer. Renew your account by simply\nClickable link to be provided here."
        }
      }
    ],
    "rowTemplateId": "ded88bcf0d3a4c9f99866e6c231c6a83",
    "rowtemplate": "FlexContainer0a4e6042fbcb045",
    "widgetdatamap": {
      "flxMessage": "flxMessage",
      "flxMessagesLeft": "flxMessagesLeft",
      "imgUser": "imgUser",
      "lblDate": "lblDate",
      "lblUser": "lblUser",
      "rtxMessage": "rtxMessage"
    }
  },
  "focusedindex": null,
  "focuseditem": null,
  "groupcells": false,
  "hasSections": false,
  "id": "segMessages",
  "info": null,
  "ipad": {
    "psp": {
      "indicator": "rowselect"
    }
  },
  "iphone": {
    "psp": {
      "indicator": "rowselect"
    }
  },
  "isvisible": false,
  "kuid": "addc3c51fd1742ee8a1f73c73c5424fb",
  "masterdata": {},
  "minheight": {
    "type": "string",
    "value": "100dp"
  },
  "name": "kony.ui.SegmentedUI2",
  "needpageindicator": true,
  "pageoffdotimage": "pageoffdot.png",
  "pageondotimage": "pageondot.png",
  "paginationconfig": {
    "position": "bottom"
  },
  "parent": "flxMainMessages",
  "pf": "userwidgetmodel",
  "retainselection": false,
  "rowcounter": 2,
  "rowfocusskin": "s9f69e977910472eb44c62ae28c41fe1",
  "rowskin": "scf5f90f6ac04976ab88b2a4f7153285",
  "rowtemplate": "FlexContainer0a4e6042fbcb045",
  "screenlevelwidget": false,
  "seccounter": 0,
  "sectionheaderskin": "sdc4ff4ed1584272be2ae69045dfb29d",
  "selectedRows": null,
  "selectedState": false,
  "selectedindex": null,
  "selectedindices": null,
  "selecteditems": null,
  "selectedsectionindex": 0,
  "selectionbehavior": "default",
  "separatorrequired": false,
  "showscrollbars": false,
  "viewtype": "tableview",
  "wType": "Segment",
  "widgetalignment": 5,
  "widgetdatamap": {
    "flxMessage": "flxMessage",
    "flxMessagesLeft": "flxMessagesLeft",
    "imgUser": "imgUser",
    "lblDate": "lblDate",
    "lblUser": "lblUser",
    "rtxMessage": "rtxMessage"
  },
  "zindex": 1
}