{
  "BusinessControllerConfig": {
    "BusinessControllerClass": "EnrollModule/BusinessControllers/BusinessController",
    "CommandHandler": [
      {
        "CommandHandler": "EnrollModule/BusinessControllers/createNewUser_CommandHandler",
        "CommandId": "com.kony.enroll.createNewUser"
      },
      {
        "CommandHandler": "EnrollModule/BusinessControllers/VerifyUserisalreadyEnrolled_CommandHandler",
        "CommandId": "com.kony.enroll.VerifyUserisalreadyEnrolled"
      },
      {
        "CommandHandler": "EnrollModule/BusinessControllers/GetCardListForEnrollment_CommandHandler",
        "CommandId": "com.kony.enroll.getCardListForEnrollment"
      },
      {
        "CommandHandler": "AuthModule/BusinessControllers/requestOTP_CommandHandler",
        "CommandId": "com.kony.auth.requestOTP"
      },
      {
        "CommandHandler": "AuthModule/BusinessControllers/verifyCVV_CommandHandler",
        "CommandId": "com.kony.auth.verifyCVV"
      },
      {
        "CommandHandler": "AuthModule/BusinessControllers/getPasswordPolicies_CommandHandler",
        "CommandId": "com.kony.enroll.getPasswordPolicies"
      },
      {
        "CommandHandler": "AuthModule/BusinessControllers/validateOTP_CommandHandler",
        "CommandId": "com.kony.auth.validateOTP"
      },
      {
        "CommandHandler": "AuthModule/BusinessControllers/resetPassword_CommandHandler",
        "CommandId": "com.kony.auth.resetPassword"
      },
      {
        "CommandHandler": "EnrollModule/BusinessControllers/GetSecurityQuestions_CommandHandler",
        "CommandId": "com.kony.enroll.getSecurityQuestions"
      },
      {
        "CommandHandler": "EnrollModule/BusinessControllers/SaveUserSecurityAnswers_CommandHandler",
        "CommandId": "com.kony.enroll.saveUserSecurityAnswers"
      }
    ]
  },
  "Forms": {
    "desktop": {
      "frmEnrollNow": {
        "Controller": "AuthModule/frmEnrollNowController",
        "ControllerExtensions": [],
        "FormController": "kony.mvc.MDAFormController",
        "FormName": "AuthModule/frmEnrollNow",
        "friendlyName": "frmEnrollNow"
      }
    }
  },
  "ModuleName": "EnrollModule",
  "PresentationControllerConfig": {
    "Default": {
      "PresentationControllerClass": "EnrollModule/PresentationControllers/PresentationController",
      "PresentationExtensions": [
        "EnrollModule/PresentationControllers/PresentationController_Extn"
      ]
    }
  }
}