{
  "DNDConfig": null,
  "__parentReadjusting__": false,
  "_height_": {
    "type": "string",
    "value": "80dp"
  },
  "_left_": {
    "type": "string",
    "value": "8%"
  },
  "_margin_": [
    0,
    0,
    0,
    0
  ],
  "_orientation_": 6,
  "_padding_": [
    0,
    0,
    0,
    0
  ],
  "_percent_": true,
  "_skin_": "s24c92fc23b14f5484b693ee9b8a9b35",
  "_top_": {
    "type": "string",
    "value": "0dp"
  },
  "_width_": {
    "type": "string",
    "value": "92%"
  },
  "allboxes": [],
  "autogrowmode": 0,
  "canUpdateUI": true,
  "children": [
    "flxNotes",
    "flxRecurrenceNumber",
    "flxFrequency",
    "flxCancelSeries"
  ],
  "clipbounds": true,
  "containerId": true,
  "containerweight": 100,
  "enablescrolling": true,
  "id": "flxRow2",
  "info": null,
  "isvisible": true,
  "kuid": "c0057bf6d095423db741d287250ee5ad",
  "layouttype": 2,
  "name": "kony.ui.FlexContainer",
  "parent": "flxBottom",
  "pf": "segBillPayScheduledSelected",
  "snapgridsize": 10,
  "snaptogrid": true,
  "wType": "FlexContainer",
  "widgetalignment": 1,
  "zindex": 1
}