{
  "@class": "com.kony.gen.viz.model.component.KVizLabel",
  "DNDConfig": null,
  "__parentReadjusting__": false,
  "_bottom_": {
    "type": "string",
    "value": "2%"
  },
  "_height_": {
    "type": "string",
    "value": "1px"
  },
  "_margin_": [
    1,
    1,
    1,
    1
  ],
  "_padding_": [
    0,
    0,
    0,
    0
  ],
  "_skin_": "s6d03e4149764f9ba44ea8e97ff10698",
  "_text_": "",
  "_width_": {
    "type": "string",
    "value": "100%"
  },
  "_wrapping_": 2,
  "android": {
    "textStyle": {
      "letterSpacing": 0,
      "strikeThrough": false
    }
  },
  "canUpdateUI": true,
  "centerx": {
    "type": "string",
    "value": "50%"
  },
  "containerId": true,
  "containerweight": 100,
  "contentalignment": 4,
  "id": "lblSeperatorone",
  "info": null,
  "ipad": {
    "psp": {
      "wrapping": 2
    }
  },
  "iphone": {
    "psp": {
      "wrapping": 2
    }
  },
  "isvisible": true,
  "kuid": "d51d4f9674d04574ad289f996d07ab78",
  "name": "kony.ui.Label",
  "parent": "flxBottom",
  "pf": "segBillPayScheduledSelected",
  "tooltip": "",
  "wType": "Label",
  "zindex": 1,
  "_top_": {
    "type": "string",
    "value": "15dp"
  }
}