{
  "@class": "com.kony.gen.viz.model.component.KVizLabel",
  "DNDConfig": null,
  "__markedForDelete__": true,
  "__parentReadjusting__": false,
  "_bottom_": {
    "type": "string",
    "value": "2%"
  },
  "_height_": {
    "type": "string",
    "value": "1px"
  },
  "_left_": {
    "type": "string",
    "value": "8%"
  },
  "_margin_": [
    1,
    1,
    1,
    1
  ],
  "_padding_": [
    0,
    0,
    0,
    0
  ],
  "_skin_": "s6d03e4149764f9ba44ea8e97ff10698",
  "_text_": "",
  "_width_": {
    "type": "string",
    "value": "90%"
  },
  "_wrapping_": 2,
  "android": {
    "textStyle": {
      "letterSpacing": 0,
      "strikeThrough": false
    }
  },
  "canUpdateUI": true,
  "containerId": true,
  "containerweight": 100,
  "contentalignment": 4,
  "id": "lblSeparator",
  "info": null,
  "ipad": {
    "psp": {
      "wrapping": 2
    }
  },
  "iphone": {
    "psp": {
      "wrapping": 2
    }
  },
  "isvisible": true,
  "kuid": "cd99b25544ce4e409ceb9bfe88e1d268",
  "name": "kony.ui.Label",
  "parent": "flxMain",
  "pf": "segBillPayScheduledSelected",
  "tooltip": "",
  "wType": "Label",
  "zindex": 1
}