{
  "DNDConfig": null,
  "__parentReadjusting__": false,
  "_height_": {
    "type": "string",
    "value": "17px"
  },
  "_left_": {
    "type": "string",
    "value": "10dp"
  },
  "_margin_": [
    0,
    0,
    0,
    0
  ],
  "_orientation_": 6,
  "_padding_": [
    0,
    0,
    0,
    0
  ],
  "_percent_": true,
  "_skin_": "s24c92fc23b14f5484b693ee9b8a9b35",
  "_width_": {
    "type": "string",
    "value": "24px"
  },
  "allboxes": [],
  "autogrowmode": 0,
  "canUpdateUI": true,
  "centery": {
    "type": "string",
    "value": "50%"
  },
  "children": [
    "imgCategoryDropdown"
  ],
  "clipbounds": true,
  "containerweight": 100,
  "enablescrolling": true,
  "id": "flxCategoryImage",
  "info": null,
  "isvisible": true,
  "kuid": "a6f6a1417a404058895eaa23c80b2af1",
  "layouttype": 2,
  "name": "kony.ui.FlexContainer",
  "parent": "flxCategory",
  "pf": "segTransactionsRowSavings",
  "snapgridsize": 10,
  "snaptogrid": true,
  "wType": "FlexContainer",
  "widgetalignment": 1,
  "zindex": 1
}