{
  "DNDConfig": null,
  "__parentReadjusting__": false,
  "_height_": {
    "type": "string",
    "value": "25px"
  },
  "_left_": {
    "type": "string",
    "value": "71dp"
  },
  "_margin_": [
    0,
    0,
    0,
    0
  ],
  "_orientation_": 6,
  "_padding_": [
    0,
    0,
    0,
    0
  ],
  "_percent_": true,
  "_skin_": "s24c92fc23b14f5484b693ee9b8a9b35",
  "_width_": {
    "type": "string",
    "value": "25px"
  },
  "allboxes": [],
  "autogrowmode": 0,
  "canUpdateUI": true,
  "centery": {
    "type": "string",
    "value": "50%"
  },
  "children": [
    "imgType",
    "imgTypeIcon"
  ],
  "clipbounds": true,
  "containerId": true,
  "containerweight": 100,
  "enablescrolling": true,
  "id": "flxTypeImage",
  "info": null,
  "isvisible": false,
  "kuid": "i09eff114eda4d398f41bcf0a35fe960",
  "layouttype": 2,
  "name": "kony.ui.FlexContainer",
  "parent": "flxType",
  "pf": "segTransactionsRowSavings",
  "snapgridsize": 10,
  "snaptogrid": true,
  "wType": "FlexContainer",
  "widgetalignment": 1,
  "zindex": 1
}