{
  "@class": "com.kony.gen.viz.model.component.KVizImage2",
  "DNDConfig": null,
  "__parentReadjusting__": false,
  "_base64_": null,
  "_height_": {
    "type": "string",
    "value": "16dp"
  },
  "_left_": {
    "type": "string",
    "value": "8dp"
  },
  "_margin_": [
    0,
    0,
    0,
    0
  ],
  "_padding_": [
    0,
    0,
    0,
    0
  ],
  "_skin_": "s78a5f26c9f14cec9ebed1bb46098f80",
  "_src_": "error_yellow.png",
  "_top_": {
    "type": "string",
    "value": "12dp"
  },
  "_width_": {
    "type": "string",
    "value": "16dp"
  },
  "canUpdateUI": true,
  "containerId": true,
  "containerweight": 100,
  "context": {
    "channel": "desktop",
    "formID": "segTransactionsRowSavings",
    "templateType": "segments",
    "topLevelBox": null
  },
  "id": "imgWarning",
  "imagescalemode": 1,
  "info": null,
  "invokedProperty": "src",
  "iscustomlayout": false,
  "isvisible": false,
  "kuid": "c8633c51420c454cb12a994ef45b8256",
  "name": "kony.ui.Image2",
  "parent": "flxDate",
  "pf": "segTransactionsRowSavings",
  "retaincontentalignment": false,
  "retainflexpositionproperties": false,
  "srcType": 1,
  "wType": "Image",
  "widgetalignment": 5,
  "zindex": 1
}