{
  "@class": "com.kony.gen.viz.model.component.KVizButton",
  "DNDConfig": null,
  "__parentReadjusting__": false,
  "_height_": {
    "type": "string",
    "value": "50dp"
  },
  "_left_": {
    "type": "string",
    "value": "69.12%"
  },
  "_margin_": [
    6,
    6,
    6,
    6
  ],
  "_padding_": [
    0,
    0,
    0,
    0
  ],
  "_skin_": "s5dbba5b9dac4f33998dc76f09b4e9d4",
  "_text_": "ACCOUNT SUMMARY",
  "_top_": {
    "type": "string",
    "value": "20dp"
  },
  "_width_": {
    "type": "string",
    "value": "28.96%"
  },
  "canUpdateUI": true,
  "containerweight": 100,
  "contentalignment": 5,
  "disabledSkins": {
    "focusSkin": "sf44d06ca8224832827ea7fdff757013"
  },
  "displaytext": true,
  "id": "btnAccountSummary",
  "info": null,
  "isvisible": true,
  "kuid": "cbb82dc82ff5427d811c41b9f51224a1",
  "name": "kony.ui.Button",
  "parent": "flxAcknowledgementButtons",
  "pf": "userwidgetmodel",
  "tooltip": "PROCEED",
  "wType": "Button",
  "zindex": 1
}