{
  "@class": "com.kony.gen.viz.model.container.KVizForm",
  "DNDConfig": null,
  "_margin_": [
    0,
    0,
    0,
    0
  ],
  "_orientation_": 1,
  "_padding_": [
    0,
    0,
    0,
    0
  ],
  "_percent_": true,
  "_skin_": "s7204077b0944689be58354a2c5a162f",
  "_title_": null,
  "addWidgetsdone": false,
  "allboxes": [],
  "canUpdateUI": true,
  "canvasWidth": 794,
  "children": [
    "Acknowledgment"
  ],
  "containerweight": 100,
  "currentLocale": "default",
  "device": "desktopweb",
  "displayorientation": 3,
  "enabledforidletimeout": false,
  "id": "userwidgetmodel",
  "info": null,
  "initdone": false,
  "inputaccessoryviewtype": 4,
  "intransitionconfig": {
    "formTransition": "None"
  },
  "iscustomlayout": false,
  "isvisible": true,
  "kuid": "u56dd779533f49b086ebafeb45001d73",
  "layouttype": 2,
  "masterType": 0,
  "name": "kony.ui.Form2",
  "needappmenu": true,
  "outtransitionconfig": {
    "formTransition": "None"
  },
  "paddinginpixel": false,
  "platform": "desktopweb",
  "prevDevice": "iPhoneX",
  "prevPlatform": "iphone",
  "retaincontentalignment": false,
  "retainflexpositionproperties": false,
  "retainscrollposition": false,
  "shellCSS": "desktop",
  "titlebar": true,
  "type": 3,
  "wType": "Form"
}