{
  "@class": "com.kony.gen.viz.model.component.KVizButton",
  "DNDConfig": null,
  "__parentReadjusting__": false,
  "_height_": {
    "type": "ref",
    "value": "preferred"
  },
  "_margin_": [
    6,
    6,
    6,
    6
  ],
  "_padding_": [
    0,
    0,
    0,
    0
  ],
  "_right_": {
    "type": "string",
    "value": "2.29%"
  },
  "_skin_": "s41199c8c0df41048cbf47d26a9026d5",
  "_text_": "ADD NEW NUMBER",
  "_top_": {
    "type": "string",
    "value": "0dp"
  },
  "_width_": {
    "type": "ref",
    "value": "preferred"
  },
  "canUpdateUI": true,
  "centery": {
    "type": "string",
    "value": "50%"
  },
  "containerweight": 100,
  "contentalignment": 5,
  "disabledSkins": {
    "focusSkin": "sf44d06ca8224832827ea7fdff757013"
  },
  "displaytext": true,
  "focusskin": null,
  "id": "btnAddNewNumber",
  "info": null,
  "isvisible": true,
  "kuid": "a5279cb92db34cf0925dae758ccc4f7b",
  "name": "kony.ui.Button",
  "parent": "flxPhoneNumbersHeading",
  "pf": "userwidgetmodel",
  "texti18n": "i18n.ProfileManagement.AddNewPhoneNumber",
  "tooltip": "Add new Phone Number",
  "wType": "Button",
  "zindex": 1,
  "desktopweb": {
    "psp": {
      "hoverSkin": "s4ab212c902a4d0e9f9fa3a409737fa5"
    }
  }
}