{
  "@class": "com.kony.gen.viz.model.component.KVizButton",
  "DNDConfig": null,
  "__parentReadjusting__": false,
  "_height_": {
    "type": "string",
    "value": "50dp"
  },
  "_left_": {
    "type": "string",
    "value": "38.07%"
  },
  "_margin_": [
    6,
    6,
    6,
    6
  ],
  "_padding_": [
    0,
    0,
    0,
    0
  ],
  "_skin_": "scc3e7758fe74d65a88ed8d86f568269",
  "_text_": "BACK",
  "_top_": {
    "type": "string",
    "value": "20dp"
  },
  "_width_": {
    "type": "string",
    "value": "29.47%"
  },
  "canUpdateUI": true,
  "containerweight": 100,
  "contentalignment": 5,
  "disabledSkins": {
    "focusSkin": "saefaf3143da4aabb5f35a6f3fb4e38c"
  },
  "displaytext": true,
  "id": "btnBackAnswerSecurityQuestions",
  "info": null,
  "isvisible": true,
  "kuid": "e6997875aeb741409ad67a05bfebbc4a",
  "name": "kony.ui.Button",
  "parent": "flxAnswerSecurityQuestionsButtons",
  "pf": "userwidgetmodel",
  "texti18n": "i18n.ProfileManagement.BACK",
  "tooltip": "Back",
  "wType": "Button",
  "zindex": 1,
  "desktopweb": {
    "psp": {
      "hoverSkin": "s4c88ea5040649419fa0156d555105d0"
    }
  }
}