{
  "@class": "com.kony.gen.viz.model.component.KVizButton",
  "DNDConfig": null,
  "__parentReadjusting__": false,
  "_bottom_": {
    "type": "number",
    "value": "20"
  },
  "_height_": {
    "type": "string",
    "value": "50dp"
  },
  "_left_": {
    "type": "string",
    "value": "68.12%"
  },
  "_margin_": [
    6,
    6,
    6,
    6
  ],
  "_padding_": [
    0,
    0,
    0,
    0
  ],
  "_skin_": "sb387ebf08b649c99164e8bfb3dc80c8",
  "_text_": "SAVE",
  "_width_": {
    "type": "string",
    "value": "29.47%"
  },
  "canUpdateUI": true,
  "containerweight": 100,
  "contentalignment": 5,
  "disabledSkins": {
    "focusSkin": "sf44d06ca8224832827ea7fdff757013"
  },
  "displaytext": true,
  "id": "btnEditPhoneNumberSave",
  "info": null,
  "isvisible": true,
  "kuid": "f821c86c3e624bbeae26e67e4fdf0eb0",
  "name": "kony.ui.Button",
  "parent": "flxEditPhoneNumberButtons",
  "pf": "userwidgetmodel",
  "texti18n": "i18n.ProfileManagement.Save",
  "tooltip": "Save",
  "wType": "Button",
  "zindex": 1,
  "desktopweb": {
    "psp": {
      "hoverSkin": "s1adc431d69b4514a216da86d642889f"
    }
  }
}