{
  "@class": "com.kony.gen.viz.model.component.KVizButton",
  "DNDConfig": null,
  "__parentReadjusting__": false,
  "_height_": {
    "type": "string",
    "value": "50dp"
  },
  "_margin_": [
    6,
    6,
    6,
    6
  ],
  "_padding_": [
    0,
    0,
    0,
    0
  ],
  "_right_": {
    "type": "string",
    "value": "2.18%"
  },
  "_skin_": "sdb9d18f726a491390c0de98860b057a",
  "_text_": "EDIT",
  "_width_": {
    "type": "ref",
    "value": "preferred"
  },
  "canUpdateUI": true,
  "centery": {
    "type": "string",
    "value": "50%"
  },
  "containerweight": 100,
  "contentalignment": 5,
  "disabledSkins": {
    "focusSkin": "sf44d06ca8224832827ea7fdff757013"
  },
  "displaytext": true,
  "focusskin": null,
  "id": "btnUsernameEdit",
  "info": null,
  "isvisible": true,
  "kuid": "cec9deb2ec1848ba9320a21655b4c2ff",
  "name": "kony.ui.Button",
  "parent": "flxUsernameRow",
  "pf": "userwidgetmodel",
  "texti18n": "i18n.billPay.Edit",
  "tooltip": "EDIT",
  "wType": "Button",
  "zindex": 1
}