{
  "@class": "com.kony.gen.viz.model.component.KVizButton",
  "DNDConfig": null,
  "__parentReadjusting__": false,
  "_height_": {
    "type": "string",
    "value": "50dp"
  },
  "_left_": {
    "type": "string",
    "value": "69.12%"
  },
  "_margin_": [
    6,
    6,
    6,
    6
  ],
  "_padding_": [
    0,
    0,
    0,
    0
  ],
  "_skin_": "s21b6f4322ef4701bf2d1e9b4a8b4383",
  "_text_": "PROCEED",
  "_top_": {
    "type": "string",
    "value": "20dp"
  },
  "_width_": {
    "type": "string",
    "value": "29.47%"
  },
  "canUpdateUI": true,
  "containerweight": 100,
  "contentalignment": 5,
  "disabledSkins": {
    "focusSkin": "saefaf3143da4aabb5f35a6f3fb4e38c"
  },
  "displaytext": true,
  "id": "btnUsernameVerificationProceed",
  "info": null,
  "isvisible": true,
  "kuid": "g275d87125704bc2a42698fa1bd2d569",
  "name": "kony.ui.Button",
  "parent": "flxUsernameVerificationButtons",
  "pf": "userwidgetmodel",
  "texti18n": "i18n.common.proceed",
  "tooltip": "Proceed",
  "wType": "Button",
  "zindex": 1,
  "desktopweb": {
    "psp": {
      "hoverSkin": "s1adc431d69b4514a216da86d642889f"
    }
  }
}