{
  "@class": "com.kony.gen.viz.model.component.KVizImage2",
  "DNDConfig": null,
  "__parentReadjusting__": false,
  "_base64_": null,
  "_height_": {
    "type": "string",
    "value": "40dp"
  },
  "_left_": {
    "type": "string",
    "value": "16dp"
  },
  "_margin_": [
    0,
    0,
    0,
    0
  ],
  "_padding_": [
    0,
    0,
    0,
    0
  ],
  "_skin_": "s78a5f26c9f14cec9ebed1bb46098f80",
  "_src_": "error_yellow.png",
  "_width_": {
    "type": "string",
    "value": "3.30%"
  },
  "canUpdateUI": true,
  "centery": {
    "type": "string",
    "value": "50%"
  },
  "containerweight": 100,
  "context": {
    "channel": "desktop",
    "formID": "uwu886471e9ec64dfabf9345f176339ccd",
    "platform": "desktopweb",
    "templateType": "userwidgets",
    "topLevelBox": null
  },
  "id": "CopyimgWarning0d045e22dc1104f",
  "imagescalemode": 1,
  "imagewhiledownloading": "img_transparent.png",
  "info": null,
  "invokedProperty": "src",
  "isvisible": true,
  "kuid": "c6d5ba1a5a244d59ab0feb837fe8ccae",
  "name": "kony.ui.Image2",
  "parent": "flxWarning",
  "pf": "userwidgetmodel",
  "srcType": 1,
  "tooltip": "info",
  "wType": "Image",
  "widgetalignment": 5,
  "zindex": 1
}