{
  "DNDConfig": null,
  "__parentReadjusting__": false,
  "_height_": {
    "type": "string",
    "value": "40dp"
  },
  "_left_": {
    "type": "string",
    "value": "0dp"
  },
  "_margin_": [
    0,
    0,
    0,
    0
  ],
  "_orientation_": 6,
  "_padding_": [
    0,
    0,
    0,
    0
  ],
  "_percent_": true,
  "_skin_": "s85276800c964d0eb854a1bf18b1828b",
  "_top_": {
    "type": "string",
    "value": "0dp"
  },
  "_width_": {
    "type": "string",
    "value": "100%"
  },
  "allboxes": [],
  "autogrowmode": 0,
  "canUpdateUI": true,
  "children": [
    "imgAlerts",
    "lblAlerts",
    "flxAlertsCollapse"
  ],
  "clipbounds": true,
  "containerweight": 100,
  "enablescrolling": true,
  "id": "flxAlerts",
  "info": null,
  "isvisible": true,
  "kuid": "i6ac0a93a1c84a40a20f66b2946a6af9",
  "layouttype": 2,
  "name": "kony.ui.FlexContainer",
  "parent": "flxMenuWrapper",
  "pf": "userwidgetmodel",
  "snapgridsize": 10,
  "snaptogrid": true,
  "wType": "FlexContainer",
  "widgetalignment": 1,
  "zindex": 1,
  "desktopweb": {
    "psp": {
      "hoverSkin": "sad0e770874f4021acce356bfa3df076"
    }
  }
}