{
  "DNDConfig": null,
  "__parentReadjusting__": false,
  "_height_": {
    "type": "string",
    "value": "50px"
  },
  "_left_": {
    "type": "string",
    "value": "19.70%"
  },
  "_margin_": [
    0,
    0,
    0,
    0
  ],
  "_orientation_": 6,
  "_padding_": [
    0,
    0,
    0,
    0
  ],
  "_percent_": true,
  "_skin_": "s5f47d3d23644a0995e185bc89f4e056",
  "_top_": {
    "type": "string",
    "value": "120dp"
  },
  "_width_": {
    "type": "string",
    "value": "690dp"
  },
  "allboxes": [],
  "autogrowmode": 0,
  "canUpdateUI": true,
  "children": [
    "imgPrimaryNumberexists",
    "lblPrimaryNumberexists"
  ],
  "clipbounds": true,
  "containerweight": 100,
  "enablescrolling": true,
  "id": "flxAnotherprimaryNumberExists",
  "info": null,
  "isvisible": true,
  "kuid": "g4e33ea85f21484589c33dec47971881",
  "layouttype": 2,
  "name": "kony.ui.FlexContainer",
  "parent": "flxNewEmailId",
  "pf": "userwidgetmodel",
  "snapgridsize": 10,
  "snaptogrid": true,
  "wType": "FlexContainer",
  "widgetalignment": 1,
  "zindex": 1
}