{
  "DNDConfig": null,
  "__parentReadjusting__": false,
  "_height_": {
    "type": "string",
    "value": "25dp"
  },
  "_left_": {
    "type": "string",
    "value": "1dp"
  },
  "_margin_": [
    0,
    0,
    0,
    0
  ],
  "_orientation_": 6,
  "_padding_": [
    0,
    0,
    0,
    0
  ],
  "_percent_": true,
  "_skin_": "s680c9bafb594fe4bfa388d84acc43b2",
  "_width_": {
    "type": "string",
    "value": "25dp"
  },
  "allboxes": [],
  "autogrowmode": 0,
  "canUpdateUI": true,
  "centery": {
    "type": "string",
    "value": "50%"
  },
  "children": [
    "lblCheckBoxChannel2"
  ],
  "clipbounds": true,
  "containerweight": 100,
  "enablescrolling": true,
  "id": "flxChannel2",
  "info": null,
  "isvisible": true,
  "kuid": "jc616fa2484a4eacabc7a5f60d72a578",
  "layouttype": 2,
  "name": "kony.ui.FlexContainer",
  "parent": "flxEmailAlert",
  "pf": "userwidgetmodel",
  "snapgridsize": 10,
  "snaptogrid": true,
  "wType": "FlexContainer",
  "widgetalignment": 1,
  "zindex": 1
}