{
  "DNDConfig": null,
  "__parentReadjusting__": false,
  "_height_": {
    "type": "ref",
    "value": "preferred"
  },
  "_left_": {
    "type": "string",
    "value": "2.29%"
  },
  "_margin_": [
    0,
    0,
    0,
    0
  ],
  "_orientation_": 6,
  "_padding_": [
    0,
    0,
    0,
    0
  ],
  "_percent_": true,
  "_skin_": "s24c92fc23b14f5484b693ee9b8a9b35",
  "_top_": {
    "type": "string",
    "value": "2dp"
  },
  "_width_": {
    "type": "string",
    "value": "20%"
  },
  "allboxes": [],
  "autogrowmode": 1,
  "canUpdateUI": true,
  "children": [
    "lblEmailForReceive"
  ],
  "clipbounds": true,
  "containerweight": 100,
  "enablescrolling": true,
  "id": "flxEmailForReceive",
  "info": null,
  "isvisible": true,
  "kuid": "j422a685a9db4357a285f0b2d6f13f1c",
  "layouttype": 2,
  "name": "kony.ui.FlexContainer",
  "parent": "flxEmailForReceiving",
  "pf": "userwidgetmodel",
  "snapgridsize": 10,
  "snaptogrid": true,
  "wType": "FlexContainer",
  "widgetalignment": 1,
  "zindex": 1
}