{
  "DNDConfig": null,
  "__parentReadjusting__": false,
  "_height_": {
    "type": "string",
    "value": "52dp"
  },
  "_left_": {
    "type": "string",
    "value": "7.37%"
  },
  "_margin_": [
    0,
    0,
    0,
    0
  ],
  "_orientation_": 6,
  "_padding_": [
    0,
    0,
    0,
    0
  ],
  "_percent_": true,
  "_skin_": "scc2774b4e4a4154a91ef50a36c5fe42",
  "_top_": {
    "type": "string",
    "value": "10dp"
  },
  "_width_": {
    "type": "string",
    "value": "85%"
  },
  "allboxes": [],
  "autogrowmode": 0,
  "canUpdateUI": true,
  "children": [
    "imgErrorEditSecuritySettings",
    "lblErrorSecuritySettings"
  ],
  "clipbounds": true,
  "containerweight": 100,
  "enablescrolling": true,
  "id": "flxErrorEditSecuritySettings",
  "info": null,
  "isvisible": false,
  "kuid": "f399772d3ef54815a106c86aa9510eb6",
  "layouttype": 2,
  "name": "kony.ui.FlexContainer",
  "parent": "flxEditSecuritySettingsWrapper",
  "pf": "userwidgetmodel",
  "snapgridsize": 10,
  "snaptogrid": true,
  "wType": "FlexContainer",
  "widgetalignment": 1,
  "zindex": 1
}