{
  "DNDConfig": null,
  "__parentReadjusting__": false,
  "_bottom_": {
    "type": "number",
    "value": "0"
  },
  "_height_": {
    "type": "string",
    "value": "700dp"
  },
  "_left_": "0dp",
  "_margin_": [
    0,
    0,
    0,
    0
  ],
  "_orientation_": 6,
  "_padding_": [
    0,
    0,
    0,
    0
  ],
  "_percent_": true,
  "_skin_": "sba5a7627a5d4fa3befc93e669f0f2b0",
  "_top_": {
    "type": "string",
    "value": "50dp"
  },
  "_width_": {
    "type": "string",
    "value": "23.92%"
  },
  "allboxes": [],
  "allowhorizontalbounce": false,
  "allowverticalbounce": true,
  "bounces": true,
  "canUpdateUI": true,
  "children": [
    "flxProfileSettings",
    "flxProfileSettingsSubMenu",
    "flxSecuritySettings",
    "flxSecuritySettingsSubMenu",
    "flxAccountSettings",
    "flxAccountSettingsSubMenu",
    "flxAlerts",
    "flxAlertsSubMenu"
  ],
  "clipbounds": true,
  "containerweight": 100,
  "decelerat": false,
  "dragg": false,
  "enablescrolling": true,
  "horizontalscrollindicator": true,
  "id": "flxMenuWrapper",
  "info": null,
  "isvisible": true,
  "kuid": "cd60cac3fa69488c9420894ad368bf83",
  "layouttype": 4,
  "minheight": {
    "type": "number",
    "value": "650"
  },
  "name": "kony.ui.FlexScrollContainer",
  "pagingenabled": false,
  "parent": "settings",
  "pf": "userwidgetmodel",
  "scrolldirection": 2,
  "snapgridsize": 10,
  "snaptogrid": true,
  "track": false,
  "verticalscrollindicator": true,
  "wType": "FlexScrollContainer",
  "widgetalignment": 1,
  "zindex": 1
}