{
  "DNDConfig": null,
  "__parentReadjusting__": false,
  "_height_": {
    "type": "string",
    "value": "220dp"
  },
  "_left_": {
    "type": "string",
    "value": "0dp"
  },
  "_margin_": [
    0,
    0,
    0,
    0
  ],
  "_orientation_": 6,
  "_padding_": [
    0,
    0,
    0,
    0
  ],
  "_percent_": true,
  "_skin_": "s24c92fc23b14f5484b693ee9b8a9b35",
  "_top_": {
    "type": "string",
    "value": "0dp"
  },
  "_width_": {
    "type": "string",
    "value": "21.90%"
  },
  "allboxes": [],
  "canUpdateUI": true,
  "children": [
    "flxProfileImage",
    "btnAddPhoto"
  ],
  "clipbounds": true,
  "containerweight": 100,
  "enablescrolling": true,
  "id": "flxProfileImageWrapper",
  "info": null,
  "isvisible": true,
  "kuid": "c6d5130ed71646e682985d67e881b779",
  "layouttype": 2,
  "name": "kony.ui.FlexContainer",
  "parent": "flxPersonalDetailsBody",
  "pf": "userwidgetmodel",
  "snapgridsize": 10,
  "snaptogrid": true,
  "wType": "FlexContainer",
  "widgetalignment": 1,
  "zindex": 1
}