{
  "DNDConfig": null,
  "__parentReadjusting__": false,
  "_height_": {
    "type": "string",
    "value": "100%"
  },
  "_left_": {
    "type": "string",
    "value": "25%"
  },
  "_margin_": [
    0,
    0,
    0,
    0
  ],
  "_orientation_": 6,
  "_padding_": [
    0,
    0,
    0,
    0
  ],
  "_percent_": true,
  "_skin_": "s24c92fc23b14f5484b693ee9b8a9b35",
  "_top_": {
    "type": "string",
    "value": "0dp"
  },
  "_width_": {
    "type": "string",
    "value": "100%"
  },
  "allboxes": [],
  "autogrowmode": 0,
  "canUpdateUI": true,
  "children": [
    "imgPasswordDot1",
    "imgPasswordDot2",
    "imgPasswordDot3",
    "imgPasswordDot4",
    "imgPasswordDot5",
    "imgPasswordDot6",
    "imgPasswordDot7",
    "imgPasswordDot8"
  ],
  "clipbounds": true,
  "containerweight": 100,
  "enablescrolling": true,
  "id": "flxPasswordImage",
  "info": null,
  "isvisible": true,
  "kuid": "bdab884423b74044a84a127c572db425",
  "layouttype": 3,
  "name": "kony.ui.FlexContainer",
  "parent": "flxPasswordRow",
  "pf": "userwidgetmodel",
  "snapgridsize": 10,
  "snaptogrid": true,
  "wType": "FlexContainer",
  "widgetalignment": 1,
  "zindex": 1
}