{
  "DNDConfig": null,
  "__parentReadjusting__": false,
  "_height_": {
    "type": "string",
    "value": "13dp"
  },
  "_left_": {
    "type": "string",
    "value": "23.60%"
  },
  "_margin_": [
    0,
    0,
    0,
    0
  ],
  "_orientation_": 6,
  "_padding_": [
    0,
    0,
    0,
    0
  ],
  "_percent_": true,
  "_skin_": "scbd4cac3526468089bf3013adff0549",
  "_top_": {
    "type": "string",
    "value": "25dp"
  },
  "_width_": {
    "type": "string",
    "value": "13dp"
  },
  "allboxes": [],
  "autogrowmode": 0,
  "canUpdateUI": true,
  "children": [
    "imgRadioBtnUS"
  ],
  "clipbounds": true,
  "containerweight": 100,
  "enablescrolling": true,
  "id": "flxRadioBtnUS",
  "info": null,
  "isvisible": false,
  "kuid": "h5ab37a043bc44af90281fd01b7e36cf",
  "layouttype": 2,
  "name": "kony.ui.FlexContainer",
  "parent": "flxPhoneNumber",
  "pf": "userwidgetmodel",
  "snapgridsize": 10,
  "snaptogrid": true,
  "wType": "FlexContainer",
  "widgetalignment": 1,
  "zindex": 1
}