{
  "DNDConfig": null,
  "__parentReadjusting__": false,
  "_height_": {
    "type": "string",
    "value": "169px"
  },
  "_left_": {
    "type": "string",
    "value": "2.29%"
  },
  "_margin_": [
    0,
    0,
    0,
    0
  ],
  "_orientation_": 6,
  "_padding_": [
    0,
    0,
    0,
    0
  ],
  "_percent_": true,
  "_skin_": "s90a3d6a0e234d9685e7d1b8013cf2a2",
  "_top_": {
    "type": "string",
    "value": "20dp"
  },
  "_width_": {
    "type": "string",
    "value": "95.18%"
  },
  "allboxes": [],
  "autogrowmode": 0,
  "canUpdateUI": true,
  "children": [
    "imgWarningresetquestions",
    "flxWarningContentsreset"
  ],
  "clipbounds": true,
  "containerweight": 100,
  "enablescrolling": true,
  "id": "flxSecuritySettingsResetQuestionsWarning",
  "info": null,
  "isvisible": false,
  "kuid": "afe84154af6c465c9bedd374ae59646e",
  "layouttype": 2,
  "name": "kony.ui.FlexContainer",
  "parent": "flxEditSecuritySettingsWrapper",
  "pf": "userwidgetmodel",
  "snapgridsize": 10,
  "snaptogrid": true,
  "wType": "FlexContainer",
  "widgetalignment": 1,
  "zindex": 1
}