{
  "DNDConfig": null,
  "__parentReadjusting__": false,
  "_height_": {
    "type": "string",
    "value": "168dp"
  },
  "_left_": {
    "type": "string",
    "value": "0dp"
  },
  "_margin_": [
    0,
    0,
    0,
    0
  ],
  "_orientation_": 6,
  "_padding_": [
    0,
    0,
    0,
    0
  ],
  "_percent_": true,
  "_skin_": "s68cde8c1c40436989962f3559a757ac",
  "_top_": {
    "type": "string",
    "value": "0dp"
  },
  "_width_": {
    "type": "string",
    "value": "100%"
  },
  "allboxes": [],
  "autogrowmode": 0,
  "canUpdateUI": true,
  "children": [
    "FlxImgPhone",
    "flxSeparator",
    "lblSendingOTP",
    "lblSendingOTPMessage",
    "flxOTPtextbox"
  ],
  "clipbounds": true,
  "containerweight": 100,
  "enablescrolling": true,
  "id": "flxSecuritySettingVerificationBody",
  "info": null,
  "isvisible": true,
  "kuid": "gea2412fb58c481ba295c1474a6d3100",
  "layouttype": 2,
  "name": "kony.ui.FlexContainer",
  "parent": "flxSecuritySettingVerificationWrapper",
  "pf": "userwidgetmodel",
  "snapgridsize": 10,
  "snaptogrid": true,
  "wType": "FlexContainer",
  "widgetalignment": 1,
  "zindex": 1
}