{
  "DNDConfig": null,
  "__parentReadjusting__": false,
  "_height_": {
    "type": "string",
    "value": "40dp"
  },
  "_left_": {
    "type": "string",
    "value": "0dp"
  },
  "_margin_": [
    0,
    0,
    0,
    0
  ],
  "_orientation_": 6,
  "_padding_": [
    0,
    0,
    0,
    0
  ],
  "_percent_": true,
  "_skin_": "s83b05b9a5a04f0cb23757b7102dab99",
  "_top_": {
    "type": "string",
    "value": "0dp"
  },
  "_width_": {
    "type": "string",
    "value": "100%"
  },
  "allboxes": [],
  "autogrowmode": 0,
  "canUpdateUI": true,
  "children": [
    "imgIndicatorTransactionAndPaymentsAlerts",
    "lblTransactionAndPaymentsAlerts"
  ],
  "clipbounds": true,
  "containerweight": 100,
  "enablescrolling": true,
  "id": "flxTransactionAndPaymentsAlerts",
  "info": null,
  "isvisible": false,
  "kuid": "hd3d08dab95b4a8a9fbda238cd7d56a3",
  "layouttype": 2,
  "name": "kony.ui.FlexContainer",
  "parent": "flxAlertsSubMenu",
  "pf": "userwidgetmodel",
  "snapgridsize": 10,
  "snaptogrid": true,
  "wType": "FlexContainer",
  "widgetalignment": 1,
  "zindex": 1
}