{
  "DNDConfig": null,
  "__parentReadjusting__": false,
  "_height_": {
    "type": "string",
    "value": "1dp"
  },
  "_left_": {
    "type": "string",
    "value": "0dp"
  },
  "_margin_": [
    0,
    0,
    0,
    0
  ],
  "_orientation_": 6,
  "_padding_": [
    0,
    0,
    0,
    0
  ],
  "_percent_": true,
  "_skin_": "s675138f05944d80a7d3d0efb79b258e",
  "_top_": {
    "type": "string",
    "value": "0dp"
  },
  "_width_": {
    "type": "string",
    "value": "100%"
  },
  "allboxes": [],
  "autogrowmode": 0,
  "canUpdateUI": true,
  "children": [],
  "clipbounds": true,
  "containerweight": 100,
  "enablescrolling": true,
  "id": "flxUsernameVerificationButtonseperator",
  "info": null,
  "isvisible": true,
  "kuid": "d3353a2fd00148fa863d3ca4e6339bdd",
  "layouttype": 2,
  "name": "kony.ui.FlexContainer",
  "parent": "flxUsernameVerificationButtons",
  "pf": "userwidgetmodel",
  "snapgridsize": 10,
  "snaptogrid": true,
  "wType": "FlexContainer",
  "widgetalignment": 1,
  "zindex": 1
}