{
  "@class": "com.kony.gen.viz.model.component.KVizImage2",
  "DNDConfig": null,
  "__parentReadjusting__": false,
  "_base64_": null,
  "_height_": {
    "type": "string",
    "value": "27dp"
  },
  "_left_": {
    "type": "string",
    "value": "2%"
  },
  "_margin_": [
    0,
    0,
    0,
    0
  ],
  "_padding_": [
    0,
    0,
    0,
    0
  ],
  "_skin_": "s78a5f26c9f14cec9ebed1bb46098f80",
  "_src_": "info.png",
  "_top_": {
    "type": "string",
    "value": "0px"
  },
  "_width_": {
    "type": "string",
    "value": "27dp"
  },
  "canUpdateUI": true,
  "centery": {
    "type": "string",
    "value": "50%"
  },
  "containerweight": 100,
  "context": {
    "channel": "desktop",
    "formID": "uwu886471e9ec64dfabf9345f176339ccd",
    "platform": "desktopweb",
    "templateType": "userwidgets",
    "topLevelBox": null
  },
  "id": "imgPrimaryNumberexists",
  "imagescalemode": 1,
  "imagewhiledownloading": "img_transparent.png",
  "info": null,
  "invokedProperty": "src",
  "isvisible": true,
  "kuid": "ab344033a114409ab731a301f7f230c8",
  "name": "kony.ui.Image2",
  "parent": "flxAnotherprimaryNumberExists",
  "pf": "userwidgetmodel",
  "srcType": 1,
  "tooltip": "info",
  "wType": "Image",
  "widgetalignment": 5,
  "zindex": 1
}