{
  "@class": "com.kony.gen.viz.model.component.KVizImage2",
  "DNDConfig": null,
  "__parentReadjusting__": false,
  "_base64_": null,
  "_height_": {
    "type": "string",
    "value": "20dp"
  },
  "_left_": {
    "type": "string",
    "value": "0dp"
  },
  "_margin_": [
    0,
    0,
    0,
    0
  ],
  "_padding_": [
    0,
    0,
    0,
    0
  ],
  "_skin_": "s78a5f26c9f14cec9ebed1bb46098f80",
  "_src_": "unchecked_box.png",
  "_top_": {
    "type": "string",
    "value": "0px"
  },
  "_width_": {
    "type": "string",
    "value": "20dp"
  },
  "canUpdateUI": true,
  "containerweight": 100,
  "context": {
    "channel": "desktop",
    "formID": "uwu886471e9ec64dfabf9345f176339ccd",
    "platform": "desktopweb",
    "templateType": "userwidgets",
    "topLevelBox": null
  },
  "id": "imgTCContentsCheckbox",
  "imagescalemode": 1,
  "info": null,
  "invokedProperty": "src",
  "isvisible": true,
  "kuid": "aec49cba8d8c45d48e97e11d99f9d430",
  "name": "kony.ui.Image2",
  "parent": "flxTCContentsCheckbox",
  "pf": "userwidgetmodel",
  "srcType": 1,
  "tooltip": "checkbox",
  "wType": "Image",
  "widgetalignment": 5,
  "zindex": 1
}