{
  "@class": "com.kony.gen.viz.model.component.KVizLabel",
  "DNDConfig": null,
  "__parentReadjusting__": false,
  "_height_": {
    "type": "ref",
    "value": "preferred"
  },
  "_left_": {
    "type": "string",
    "value": "0dp"
  },
  "_margin_": [
    1,
    1,
    1,
    1
  ],
  "_padding_": [
    0,
    0,
    0,
    0
  ],
  "_skin_": "s10a0c62c2af4452bd7132e27e8f5a49",
  "_text_": "Answer :",
  "_top_": {
    "type": "string",
    "value": "77dp"
  },
  "_width_": {
    "type": "ref",
    "value": "preferred"
  },
  "_wrapping_": 2,
  "android": {
    "textStyle": {
      "letterSpacing": 0,
      "strikeThrough": false
    }
  },
  "canUpdateUI": true,
  "containerweight": 100,
  "contentalignment": 4,
  "id": "lblAnswers1",
  "info": null,
  "ipad": {
    "psp": {
      "wrapping": 2
    }
  },
  "iphone": {
    "psp": {
      "wrapping": 2
    }
  },
  "isvisible": true,
  "kuid": "ff1fe4b7bafd49b5970696aa1065f376",
  "name": "kony.ui.Label",
  "parent": "flxAnswerSecurityQuestionsQASet1",
  "pf": "userwidgetmodel",
  "tooltip": "",
  "wType": "Label",
  "zindex": 1
}