{
  "@class": "com.kony.gen.viz.model.component.KVizLabel",
  "DNDConfig": null,
  "__parentReadjusting__": false,
  "_height_": {
    "type": "ref",
    "value": "preferred"
  },
  "_left_": {
    "type": "string",
    "value": "2.29%"
  },
  "_margin_": [
    1,
    1,
    1,
    1
  ],
  "_padding_": [
    0,
    0,
    0,
    0
  ],
  "_skin_": "s0b241293fbc4b8e99db4fd5e9405f9d",
  "_text_": "ANSWER SECURITY QUESTIONS",
  "_width_": {
    "type": "ref",
    "value": "preferred"
  },
  "_wrapping_": 2,
  "android": {
    "textStyle": {
      "letterSpacing": 0,
      "strikeThrough": false
    }
  },
  "canUpdateUI": true,
  "centery": {
    "type": "string",
    "value": "50%"
  },
  "containerweight": 100,
  "contentalignment": 4,
  "id": "lblAnswerSecurityQuestionsHeader",
  "info": null,
  "ipad": {
    "psp": {
      "wrapping": 2
    }
  },
  "iphone": {
    "psp": {
      "wrapping": 2
    }
  },
  "isvisible": true,
  "kuid": "j7693ea8d90243a285213d545cdc7af3",
  "name": "kony.ui.Label",
  "parent": "flxAnswerSecurityQuestionsMainHeader",
  "pf": "userwidgetmodel",
  "texti18n": "i18n.ProfileManagement.AnswerSecurityQuestions",
  "tooltip": "",
  "wType": "Label",
  "zindex": 1
}