{
  "@class": "com.kony.gen.viz.model.component.KVizLabel",
  "DNDConfig": null,
  "__parentReadjusting__": false,
  "_height_": {
    "type": "ref",
    "value": "preferred"
  },
  "_left_": {
    "type": "string",
    "value": "1.08%"
  },
  "_margin_": [
    1,
    1,
    1,
    1
  ],
  "_padding_": [
    0,
    0,
    0,
    0
  ],
  "_skin_": "scb4c8be66284fa6aef6f84d70b5c73f",
  "_text_": "Cannot have any spaces within.",
  "_top_": {
    "type": "string",
    "value": "0dp"
  },
  "_width_": {
    "type": "ref",
    "value": "preferred"
  },
  "_wrapping_": 2,
  "android": {
    "textStyle": {
      "letterSpacing": 0,
      "strikeThrough": false
    }
  },
  "canUpdateUI": true,
  "centery": {
    "type": "string",
    "value": "50.00%"
  },
  "containerweight": 100,
  "contentalignment": 4,
  "id": "lblEditPasswordRule3",
  "info": null,
  "ipad": {
    "psp": {
      "wrapping": 2
    }
  },
  "iphone": {
    "psp": {
      "wrapping": 2
    }
  },
  "isvisible": true,
  "kuid": "d0575a115a624bcca9e1875640060c0b",
  "name": "kony.ui.Label",
  "parent": "flxEditPasswordRule3",
  "pf": "userwidgetmodel",
  "texti18n": "i18n.ProfileManagement.specialcharacters",
  "tooltip": "",
  "wType": "Label",
  "zindex": 1
}