{
  "@class": "com.kony.gen.viz.model.component.KVizLabel",
  "DNDConfig": null,
  "__parentReadjusting__": false,
  "_height_": {
    "type": "ref",
    "value": "preferred"
  },
  "_left_": {
    "type": "string",
    "value": "1.08%"
  },
  "_margin_": [
    1,
    1,
    1,
    1
  ],
  "_padding_": [
    0,
    0,
    0,
    0
  ],
  "_skin_": "scb4c8be66284fa6aef6f84d70b5c73f",
  "_text_": "For security reasons do not use your account number, password,  SSN or Birth date.",
  "_top_": {
    "type": "string",
    "value": "0dp"
  },
  "_width_": {
    "type": "ref",
    "value": "preferred"
  },
  "_wrapping_": 2,
  "android": {
    "textStyle": {
      "letterSpacing": 0,
      "strikeThrough": false
    }
  },
  "canUpdateUI": true,
  "centery": {
    "type": "string",
    "value": "50.00%"
  },
  "containerweight": 100,
  "contentalignment": 4,
  "id": "lblEditPasswordRule5",
  "info": null,
  "ipad": {
    "psp": {
      "wrapping": 2
    }
  },
  "iphone": {
    "psp": {
      "wrapping": 2
    }
  },
  "isvisible": true,
  "kuid": "e97abec96139455082a3c1d59a8f7d4d",
  "name": "kony.ui.Label",
  "parent": "flxEditPasswordRule5",
  "pf": "userwidgetmodel",
  "texti18n": "i18n.ProfileManagement.notSameAsUsername",
  "tooltip": "",
  "wType": "Label",
  "zindex": 1
}