{
  "@class": "com.kony.gen.viz.model.component.KVizLabel",
  "DNDConfig": null,
  "__parentReadjusting__": false,
  "_height_": {
    "type": "ref",
    "value": "preferred"
  },
  "_left_": {
    "type": "string",
    "value": "70dp"
  },
  "_margin_": [
    1,
    1,
    1,
    1
  ],
  "_padding_": [
    0,
    0,
    0,
    0
  ],
  "_skin_": "s10e8b1e874b43f8b3545d6a1375c8b5",
  "_text_": "Page level/transaction level errors appear here.",
  "_width_": {
    "type": "string",
    "value": "85%"
  },
  "_wrapping_": 2,
  "android": {
    "textStyle": {
      "letterSpacing": 0,
      "strikeThrough": false
    }
  },
  "canUpdateUI": true,
  "centery": {
    "type": "string",
    "value": "50%"
  },
  "containerweight": 100,
  "contentalignment": 4,
  "id": "lblInfoTxt",
  "info": null,
  "ipad": {
    "psp": {
      "wrapping": 2
    }
  },
  "iphone": {
    "psp": {
      "wrapping": 2
    }
  },
  "isvisible": true,
  "kuid": "d94fbac342de486c848f9f3d6530000d",
  "name": "kony.ui.Label",
  "parent": "flxInfoAddAddress",
  "pf": "userwidgetmodel",
  "texti18n": "i18n.ProfileManagement.AnotherPrimaryAddressExists",
  "tooltip": "",
  "wType": "Label",
  "zindex": 1
}