{
  "@class": "com.kony.gen.viz.model.component.KVizLabel",
  "DNDConfig": null,
  "__parentReadjusting__": false,
  "_height_": {
    "type": "ref",
    "value": "preferred"
  },
  "_left_": {
    "type": "string",
    "value": "0dp"
  },
  "_margin_": [
    1,
    1,
    1,
    1
  ],
  "_padding_": [
    0,
    0,
    0,
    0
  ],
  "_skin_": "sd58e7dec3cf45cfb721a7ac97d2837a",
  "_text_": "Here are the rules for changing the name:",
  "_top_": {
    "type": "string",
    "value": "18dp"
  },
  "_width_": {
    "type": "ref",
    "value": "preferred"
  },
  "_wrapping_": 2,
  "android": {
    "textStyle": {
      "letterSpacing": 0,
      "strikeThrough": false
    }
  },
  "canUpdateUI": true,
  "containerweight": 100,
  "contentalignment": 4,
  "id": "lblRules2",
  "info": null,
  "ipad": {
    "psp": {
      "wrapping": 2
    }
  },
  "iphone": {
    "psp": {
      "wrapping": 2
    }
  },
  "isvisible": true,
  "kuid": "caa11c5f29794591b34ee58048f8cbc2",
  "name": "kony.ui.Label",
  "parent": "flxRulesForNameChanging2",
  "pf": "userwidgetmodel",
  "texti18n": "i18n.ProfileManagement.Herearetherules",
  "tooltip": "",
  "wType": "Label",
  "zindex": 1
}