{
  "@class": "com.kony.gen.viz.model.component.KVizLabel",
  "DNDConfig": null,
  "__parentReadjusting__": false,
  "_height_": {
    "type": "ref",
    "value": "preferred"
  },
  "_left_": {
    "type": "string",
    "value": "16.71%"
  },
  "_margin_": [
    1,
    1,
    1,
    1
  ],
  "_padding_": [
    0,
    0,
    0,
    0
  ],
  "_skin_": "s18d3552bc4143569a7c5aef6bd5eaa1",
  "_text_": "Sending you the OTP",
  "_top_": {
    "type": "string",
    "value": "20dp"
  },
  "_width_": {
    "type": "ref",
    "value": "preferred"
  },
  "_wrapping_": 2,
  "android": {
    "textStyle": {
      "letterSpacing": 0,
      "strikeThrough": false
    }
  },
  "canUpdateUI": true,
  "containerweight": 100,
  "contentalignment": 4,
  "id": "lblSendingOTP",
  "info": null,
  "ipad": {
    "psp": {
      "wrapping": 2
    }
  },
  "iphone": {
    "psp": {
      "wrapping": 2
    }
  },
  "isvisible": true,
  "kuid": "e474e5b0f3b7438c9e531dce7ce10b86",
  "name": "kony.ui.Label",
  "parent": "flxSecuritySettingVerificationBody",
  "pf": "userwidgetmodel",
  "texti18n": "i18n.ProfileManagement.SendingYouTheOtp",
  "tooltip": "",
  "wType": "Label",
  "zindex": 1
}