{
  "@class": "com.kony.gen.viz.model.component.KVizLabel",
  "DNDConfig": null,
  "__parentReadjusting__": false,
  "_height_": {
    "type": "ref",
    "value": "preferred"
  },
  "_left_": {
    "type": "string",
    "value": "0%"
  },
  "_margin_": [
    1,
    1,
    1,
    1
  ],
  "_padding_": [
    0,
    0,
    0,
    0
  ],
  "_skin_": "scb4c8be66284fa6aef6f84d70b5c73f",
  "_text_": "We may ask you to answer these questions when we detect a change in your activity, like when you log in from a new device,  or make an usual transaction.",
  "_top_": {
    "type": "number",
    "value": "6"
  },
  "_width_": {
    "type": "string",
    "value": "92.71%"
  },
  "_wrapping_": 2,
  "android": {
    "textStyle": {
      "letterSpacing": 0,
      "strikeThrough": false
    }
  },
  "canUpdateUI": true,
  "containerweight": 100,
  "contentalignment": 4,
  "id": "lblWarningText2",
  "info": null,
  "ipad": {
    "psp": {
      "wrapping": 2
    }
  },
  "iphone": {
    "psp": {
      "wrapping": 2
    }
  },
  "isvisible": true,
  "kuid": "b1b2f324b11043ce95ab70be4e2ecf57",
  "name": "kony.ui.Label",
  "parent": "flxWarningContents",
  "pf": "userwidgetmodel",
  "texti18n": "i18n.ProfileManagement.WeMayAskYou",
  "tooltip": "",
  "wType": "Label",
  "zindex": 1
}