{
  "@class": "com.kony.gen.viz.model.container.KVizSegment2",
  "DNDConfig": null,
  "__parentReadjusting__": false,
  "_data_": [
    {},
    {},
    {}
  ],
  "_height_": {
    "type": "ref",
    "value": "preferred"
  },
  "_indicator_": "none",
  "_left_": {
    "type": "string",
    "value": "0dp"
  },
  "_margin_": [
    0,
    0,
    0,
    0
  ],
  "_orientation_": 2,
  "_padding_": [
    0,
    0,
    0,
    0
  ],
  "_top_": {
    "type": "string",
    "value": "0dp"
  },
  "_width_": {
    "type": "string",
    "value": "100%"
  },
  "autogrowmode": 1,
  "canUpdateUI": true,
  "containerweight": 100,
  "counter": "01",
  "desktop": {
    "_data_": [
      {
        "btnDelete": {
          "@class": "com.viz.ide.model.segment.SimpleTextSegmentData",
          "text": "DELETE"
        },
        "btnEdit": {
          "@class": "com.viz.ide.model.segment.SimpleTextSegmentData",
          "text": "EDIT"
        },
        "imgInfo": {
          "@class": "com.viz.ide.model.segment.ImageSegmentData",
          "src": "info_grey.png"
        },
        "lblEmail": {
          "@class": "com.viz.ide.model.segment.SimpleTextSegmentData",
          "text": "EMAIL ID"
        },
        "lblEmailId": {
          "@class": "com.viz.ide.model.segment.SimpleTextSegmentData",
          "text": "John_Bailey@gmail.com"
        },
        "lblPrimary": {
          "@class": "com.viz.ide.model.segment.SimpleTextSegmentData",
          "text": "Primary"
        }
      },
      {
        "btnDelete": {
          "@class": "com.viz.ide.model.segment.SimpleTextSegmentData",
          "text": "DELETE"
        },
        "btnEdit": {
          "@class": "com.viz.ide.model.segment.SimpleTextSegmentData",
          "text": "EDIT"
        },
        "imgInfo": {
          "@class": "com.viz.ide.model.segment.ImageSegmentData",
          "src": "info_grey.png"
        },
        "lblEmail": {
          "@class": "com.viz.ide.model.segment.SimpleTextSegmentData",
          "text": "EMAIL ID"
        },
        "lblEmailId": {
          "@class": "com.viz.ide.model.segment.SimpleTextSegmentData",
          "text": "John_Bailey@gmail.com"
        },
        "lblPrimary": {
          "@class": "com.viz.ide.model.segment.SimpleTextSegmentData",
          "text": "Primary"
        }
      }
    ],
    "rowTemplateId": "f9c67f983dde4bab87369981dc6b59f5",
    "rowtemplate": "flxProfileManagementEmail",
    "widgetdatamap": {
      "btnDelete": "btnDelete",
      "btnEdit": "btnEdit",
      "flxDeleteAction": "flxDeleteAction",
      "flxEdit": "flxEdit",
      "flxEmail": "flxEmail",
      "flxEmailId": "flxEmailId",
      "flxPrimary": "flxPrimary",
      "flxProfileManagementEmail": "flxProfileManagementEmail",
      "flxRow": "flxRow",
      "flxSeperator": "flxSeperator",
      "flxSeperatorActions": "flxSeperatorActions",
      "imgInfo": "imgInfo",
      "lblEmail": "lblEmail",
      "lblEmailId": "lblEmailId",
      "lblPrimary": "lblPrimary"
    }
  },
  "focusedindex": null,
  "focuseditem": null,
  "groupcells": false,
  "hasSections": false,
  "id": "segEmailIds",
  "info": null,
  "ipad": {
    "psp": {
      "indicator": "rowselect"
    }
  },
  "iphone": {
    "psp": {
      "indicator": "rowselect"
    }
  },
  "isvisible": true,
  "kuid": "dea19b847b654f86a549ff39119ccecd",
  "masterdata": {},
  "mobile": {
    "rowTemplateId": null,
    "rowtemplate": null,
    "sectionHeaderTemplateId": null
  },
  "name": "kony.ui.SegmentedUI2",
  "needpageindicator": true,
  "pageoffdotimage": "pageoffdot.png",
  "pageondotimage": "pageondot.png",
  "paginationconfig": {
    "position": "bottom"
  },
  "parent": "flxEmailWrapper",
  "pf": "userwidgetmodel",
  "retainselection": false,
  "rowcounter": 1,
  "rowfocusskin": "s9f69e977910472eb44c62ae28c41fe1",
  "rowskin": "scf5f90f6ac04976ab88b2a4f7153285",
  "rowtemplate": "flxProfileManagementEmail",
  "screenlevelwidget": false,
  "seccounter": 0,
  "sectionheaderskin": "sdc4ff4ed1584272be2ae69045dfb29d",
  "selectedRows": null,
  "selectedState": false,
  "selectedindex": null,
  "selectedindices": null,
  "selecteditems": null,
  "selectedsectionindex": 0,
  "selectionbehavior": "default",
  "separatorrequired": false,
  "separatorthickness": 0,
  "showscrollbars": false,
  "viewtype": "tableview",
  "wType": "Segment",
  "widgetalignment": 5,
  "widgetdatamap": {
    "btnDelete": "btnDelete",
    "btnEdit": "btnEdit",
    "flxDeleteAction": "flxDeleteAction",
    "flxEdit": "flxEdit",
    "flxEmail": "flxEmail",
    "flxEmailId": "flxEmailId",
    "flxPrimary": "flxPrimary",
    "flxProfileManagementEmail": "flxProfileManagementEmail",
    "flxRow": "flxRow",
    "flxSeperator": "flxSeperator",
    "flxSeperatorActions": "flxSeperatorActions",
    "imgInfo": "imgInfo",
    "lblEmail": "lblEmail",
    "lblEmailId": "lblEmailId",
    "lblPrimary": "lblPrimary"
  },
  "zindex": 1
}