{
  "@class": "com.kony.gen.viz.model.component.KVizTextBox2",
  "DNDConfig": null,
  "__parentReadjusting__": false,
  "_height_": {
    "type": "string",
    "value": "40dp"
  },
  "_left_": {
    "type": "string",
    "value": "15.78%"
  },
  "_margin_": [
    0,
    0,
    0,
    0
  ],
  "_padding_": [
    3,
    0,
    0,
    0
  ],
  "_placeholder_": "Type your answer here.",
  "_skin_": "saf81d7c9f3544f4890963da89a43ff3",
  "_text_": "",
  "_top_": {
    "type": "string",
    "value": "67dp"
  },
  "_width_": {
    "type": "string",
    "value": "67.60%"
  },
  "autocapitalize": "none",
  "autocomplete": false,
  "autocorrect": false,
  "autofilter": false,
  "canUpdateUI": true,
  "containerheight": "",
  "containerheightmode": 1,
  "containerweight": 100,
  "contentalignment": 4,
  "id": "tbxAnswer4",
  "info": null,
  "isvisible": true,
  "keyboardtype": "A",
  "kuid": "d58f68367d9f4e758dc20d5bfc26087b",
  "mode": "A",
  "name": "kony.ui.TextBox2",
  "parent": "flxSecurityQASet4",
  "pf": "userwidgetmodel",
  "securetextentry": false,
  "textinputmode": "A",
  "viewtype": "default",
  "wType": "TextField",
  "zindex": 1
}