{
  "@class": "com.kony.gen.viz.model.component.KVizTextBox2",
  "DNDConfig": null,
  "__parentReadjusting__": false,
  "_height_": {
    "type": "string",
    "value": "40dp"
  },
  "_left_": {
    "type": "string",
    "value": "23.62%"
  },
  "_margin_": [
    0,
    0,
    0,
    0
  ],
  "_padding_": [
    3,
    0,
    0,
    0
  ],
  "_placeholder_": "Phone Number",
  "_skin_": "sd91788aa8ad4f3ea57365241c5a4711",
  "_text_": "(512) 123-9999",
  "_top_": {
    "type": "string",
    "value": "80px"
  },
  "_width_": {
    "type": "string",
    "value": "43.81%"
  },
  "autocapitalize": "none",
  "autocomplete": false,
  "autocorrect": false,
  "autofilter": false,
  "canUpdateUI": true,
  "containerheight": "",
  "containerheightmode": 1,
  "containerweight": 100,
  "contentalignment": 4,
  "id": "tbxAddPhoneNumber",
  "info": null,
  "isvisible": true,
  "keyboardtype": "A",
  "kiosk": {
    "psp": {
      "toolTip": "Search Keywords such as Name, Bank, Account Type etc..."
    }
  },
  "kuid": "b7bd868340fe414e80f189e384b57a62",
  "mode": "A",
  "name": "kony.ui.TextBox2",
  "parent": "flxAddPhoneNumber",
  "pf": "userwidgetmodel",
  "securetextentry": false,
  "textinputmode": "A",
  "viewtype": "default",
  "wType": "TextField",
  "zindex": 1
}