{
  "@class": "com.kony.gen.viz.model.component.KVizTextBox2",
  "DNDConfig": null,
  "__parentReadjusting__": false,
  "_height_": {
    "type": "string",
    "value": "46dp"
  },
  "_left_": {
    "type": "string",
    "value": "0%"
  },
  "_margin_": [
    0,
    0,
    0,
    0
  ],
  "_padding_": [
    3,
    0,
    0,
    0
  ],
  "_placeholder_": "ENTER OTP",
  "_skin_": "sa8b0e74bf1c4e51ba184e3c8b168b7e",
  "_text_": "",
  "_top_": {
    "type": "string",
    "value": "0dp"
  },
  "_width_": {
    "type": "string",
    "value": "100%"
  },
  "autocapitalize": "none",
  "autocomplete": false,
  "autocorrect": false,
  "autofilter": false,
  "canUpdateUI": true,
  "containerheight": "",
  "containerheightmode": 1,
  "containerweight": 100,
  "contentalignment": 4,
  "id": "tbxUsernameVerificationAnswerSecurityQuestions",
  "info": null,
  "isvisible": true,
  "keyboardtype": "A",
  "kuid": "ccff707fea9e45bb985f922f49b4d6ce",
  "mode": "A",
  "name": "kony.ui.TextBox2",
  "parent": "flxUsernameVerificationAnswerSecurityQuestions",
  "pf": "userwidgetmodel",
  "securetextentry": false,
  "textinputmode": "A",
  "viewtype": "default",
  "wType": "TextField",
  "zindex": 1
}