{
  "@class": "com.kony.gen.viz.model.component.KVizUserWidget",
  "DNDConfig": null,
  "__parentReadjusting__": false,
  "_bottom_": {
    "type": "string",
    "value": ""
  },
  "_children_": [],
  "_height_": {
    "type": "string",
    "value": "103px"
  },
  "_left_": {
    "type": "string",
    "value": "0dp"
  },
  "_margin_": [
    0,
    0,
    0,
    0
  ],
  "_orientation_": 1,
  "_padding_": [
    0,
    0,
    0,
    0
  ],
  "_percent_": true,
  "_render_": true,
  "_skin_": "s4b3bfcb27c14526bcdce6dec3972d8d",
  "_top_": {
    "type": "string",
    "value": "30dp"
  },
  "_width_": {
    "type": "string",
    "value": "100%"
  },
  "areflexpropsreferenced": false,
  "autogrowmode": 0,
  "canUpdateUI": true,
  "centery": {
    "type": "string",
    "value": ""
  },
  "clipbounds": true,
  "containerweight": 0,
  "dataDiffs": {
    "btnCancel": {
      "__events__": {},
      "__info__": {
        "kuid": "c69dd70537134dca91d79ecfae2ab801",
        "srcKUID": "fe63955edbd24a4ea6b8cae6b9dc4e9d",
        "wType": "Button"
      }
    },
    "btnConfirm": {
      "__events__": {},
      "__info__": {
        "kuid": "id4ed79fda4946d7b788005be824b480",
        "srcKUID": "fce03529e50d441ea6385939a861c275",
        "wType": "Button"
      }
    },
    "btnModify": {
      "__events__": {},
      "__info__": {
        "kuid": "ib356fc7a2664bdfa2d82ba1e6d9bf5a",
        "srcKUID": "b0db2b5c6b0b4deb89afff129dc620f7",
        "wType": "Button"
      }
    },
    "confirmButtons": {
      "__events__": {},
      "__info__": {
        "isRoot": true,
        "kuid": "a17a72f78afc4a32b9a48a1f6dd53162",
        "srcKUID": "ddfb5a99e80b4d01b3e3abf4c1af4adc",
        "wType": "FlexContainer"
      },
      "autogrowMode": {
        "Default": 0
      },
      "bottom": {
        "Default": {
          "type": "string",
          "value": ""
        }
      },
      "centerY": {
        "Default": {
          "type": "string",
          "value": ""
        }
      },
      "height": {
        "Default": {
          "type": "string",
          "value": "103px"
        }
      },
      "isVisible": true,
      "left": {
        "Default": {
          "type": "string",
          "value": "0dp"
        }
      },
      "top": {
        "Default": {
          "type": "string",
          "value": "30dp"
        }
      },
      "zIndex": {
        "Default": 1
      }
    },
    "flxHorizontalLine": {
      "__events__": {},
      "__info__": {
        "kuid": "daa090bb00594a999e8dd106a8d4f9ec",
        "srcKUID": "ac533aa67f084f63ae00d6834110ffa8",
        "wType": "FlexContainer"
      }
    }
  },
  "id": "confirmButtons",
  "info": null,
  "isdatareferenced": false,
  "isvisible": true,
  "kuid": "46405f5ce2fc4e9288872a67ffedc4e6",
  "layouttype": 2,
  "masterType": 0,
  "name": "kony.ui.UserWidgetInstance",
  "parent": "flxMain",
  "pf": "userwidgetmodel",
  "snaptogrid": true,
  "sourceUserWidget": "ddfb5a99e80b4d01b3e3abf4c1af4adc",
  "wType": "UserWidgetInstance",
  "zindex": 1
}