{
  "@class": "com.kony.gen.viz.model.component.KVizUserWidget",
  "DNDConfig": null,
  "__parentReadjusting__": false,
  "_children_": [],
  "_height_": {
    "type": "ref",
    "value": "preferred"
  },
  "_left_": {
    "type": "string",
    "value": "0dp"
  },
  "_margin_": [
    0,
    0,
    0,
    0
  ],
  "_orientation_": 1,
  "_padding_": [
    0,
    0,
    0,
    0
  ],
  "_percent_": true,
  "_render_": true,
  "_skin_": "s24c92fc23b14f5484b693ee9b8a9b35",
  "_top_": {
    "type": "string",
    "value": "30dp"
  },
  "_width_": {
    "type": "string",
    "value": "100%"
  },
  "areflexpropsreferenced": false,
  "autogrowmode": 1,
  "canUpdateUI": true,
  "clipbounds": true,
  "containerweight": 0,
  "dataDiffs": {
    "flxContainer": {
      "__events__": {},
      "__info__": {
        "kuid": "e028deccdbcd4205994ec664d8273ef3",
        "srcKUID": "f13dc08cac9b42cf84a6cd0eb46e5de8",
        "wType": "FlexContainer"
      }
    },
    "flxKey": {
      "__events__": {},
      "__info__": {
        "kuid": "d3d267b58ad54ea5ba4c0a5b6e3d1b82",
        "srcKUID": "d4492c719df94445a861e97f34dc4949",
        "wType": "FlexContainer"
      }
    },
    "flxValue": {
      "__events__": {},
      "__info__": {
        "kuid": "a058dc5d249940b095daaf4689719315",
        "srcKUID": "b141325e5e9048519b71af002cfee26a",
        "wType": "FlexContainer"
      }
    },
    "keyValue": {
      "__events__": {},
      "__info__": {
        "isRoot": true,
        "kuid": "j8284e70e30b483598b7260302881982",
        "srcKUID": "cc43b83fad51498eaee44e391076b1e1",
        "wType": "FlexContainer"
      },
      "autogrowMode": 1,
      "height": {
        "Default": {
          "type": "ref",
          "value": "preferred"
        }
      },
      "left": {
        "Default": {
          "type": "string",
          "value": "0dp"
        }
      },
      "top": {
        "Default": {
          "type": "string",
          "value": "30dp"
        }
      },
      "zIndex": {
        "Default": 5
      }
    },
    "lblColon": {
      "__events__": {},
      "__info__": {
        "kuid": "g6a424524d5e4f21b7b5b6316ce0e6c2",
        "srcKUID": "c1b15d6a704e4365be1c4ff0a75c3f55",
        "wType": "Label"
      }
    },
    "lblKey": {
      "__events__": {},
      "__info__": {
        "kuid": "c07f66d6e9a045388605ebe992b3399e",
        "srcKUID": "daa1384a75084c57b8a708d751b05837",
        "wType": "Label"
      },
      "i18n_text": "i18n.accounts.routingNumber"
    },
    "lblValue": {
      "__events__": {},
      "__info__": {
        "kuid": "f41ba9cf3ab540fd9ec24f64d78cf29f",
        "srcKUID": "had7006a19c947e7ae413b191f0cc841",
        "wType": "Label"
      },
      "text": "2345 3456 5678 6789"
    },
    "flxInfo": {
      "__events__": {},
      "__info__": {
        "kuid": "i1a1592208a846878a0f99bbeacfe023",
        "srcKUID": "e95f6b8ffb5f415db6652af917c31c62",
        "wType": "FlexContainer"
      }
    },
    "imgWhatIsSSN": {
      "__events__": {},
      "__info__": {
        "kuid": "d8b25e1cf40a449598a27c71f313a872",
        "srcKUID": "f54ec2da1e9d451d9345687646b48cc3",
        "wType": "Image"
      }
    }
  },
  "id": "keyValueRoutingNumber",
  "info": null,
  "isdatareferenced": false,
  "isvisible": true,
  "kuid": "g5fac4670c1840f6a7ff7aea344b3941",
  "layouttype": 2,
  "masterType": 0,
  "name": "kony.ui.UserWidgetInstance",
  "parent": "flxMain",
  "pf": "userwidgetmodel",
  "snaptogrid": true,
  "sourceUserWidget": "cc43b83fad51498eaee44e391076b1e1",
  "wType": "UserWidgetInstance",
  "zindex": 5
}