{
  "@class": "com.kony.gen.viz.model.component.KVizUserWidget",
  "DNDConfig": null,
  "__parentReadjusting__": false,
  "_children_": [],
  "_height_": {
    "type": "ref",
    "value": "preferred"
  },
  "_left_": {
    "type": "string",
    "value": "0dp"
  },
  "_margin_": [
    0,
    0,
    0,
    0
  ],
  "_orientation_": 1,
  "_padding_": [
    0,
    0,
    0,
    0
  ],
  "_percent_": true,
  "_render_": true,
  "_skin_": "s24c92fc23b14f5484b693ee9b8a9b35",
  "_top_": {
    "type": "string",
    "value": "30dp"
  },
  "_width_": {
    "type": "string",
    "value": "100%"
  },
  "areflexpropsreferenced": false,
  "autogrowmode": 1,
  "canUpdateUI": true,
  "clipbounds": true,
  "containerweight": 0,
  "dataDiffs": {
    "flxContainer": {
      "__events__": {},
      "__info__": {
        "kuid": "d1571b44b2784eedb7e7935427fda840",
        "srcKUID": "f13dc08cac9b42cf84a6cd0eb46e5de8",
        "wType": "FlexContainer"
      }
    },
    "flxKey": {
      "__events__": {},
      "__info__": {
        "kuid": "he5904cc80124f4497e795e561055b03",
        "srcKUID": "d4492c719df94445a861e97f34dc4949",
        "wType": "FlexContainer"
      }
    },
    "flxValue": {
      "__events__": {},
      "__info__": {
        "kuid": "b4110976647f4b378d88aa133e0187bd",
        "srcKUID": "b141325e5e9048519b71af002cfee26a",
        "wType": "FlexContainer"
      }
    },
    "keyValue": {
      "__events__": {},
      "__info__": {
        "isRoot": true,
        "kuid": "j6a71a2c33f3470aa0dcbe2c1ad7b3d8",
        "srcKUID": "cc43b83fad51498eaee44e391076b1e1",
        "wType": "FlexContainer"
      },
      "autogrowMode": 1,
      "height": {
        "Default": {
          "type": "ref",
          "value": "preferred"
        }
      },
      "left": {
        "Default": {
          "type": "string",
          "value": "0dp"
        }
      },
      "top": {
        "Default": {
          "type": "string",
          "value": "30dp"
        }
      },
      "zIndex": {
        "Default": 5
      }
    },
    "lblColon": {
      "__events__": {},
      "__info__": {
        "kuid": "e857a4e72f574bdf98bfe99848b9251a",
        "srcKUID": "c1b15d6a704e4365be1c4ff0a75c3f55",
        "wType": "Label"
      }
    },
    "lblKey": {
      "__events__": {},
      "__info__": {
        "kuid": "i4c0053e0b084e51b4a862ee7657ded7",
        "srcKUID": "daa1384a75084c57b8a708d751b05837",
        "wType": "Label"
      },
      "i18n_text": "i18n.AddInternal.lblBeneficiaryNameKA",
      "width": {
        "Default": {
          "type": "string",
          "value": "80%"
        }
      }
    },
    "lblValue": {
      "__events__": {},
      "__info__": {
        "kuid": "j248fb9d8f934312b23c7149863f9d34",
        "srcKUID": "had7006a19c947e7ae413b191f0cc841",
        "wType": "Label"
      },
      "text": "John Bailey"
    },
    "flxInfo": {
      "__events__": {},
      "__info__": {
        "kuid": "ab89a37495f24793925db2b4cddc4f57",
        "srcKUID": "e95f6b8ffb5f415db6652af917c31c62",
        "wType": "FlexContainer"
      }
    },
    "imgWhatIsSSN": {
      "__events__": {},
      "__info__": {
        "kuid": "d92f1ad94b324210a78bc529fb7fdc06",
        "srcKUID": "f54ec2da1e9d451d9345687646b48cc3",
        "wType": "Image"
      }
    }
  },
  "id": "keyValueBenificiaryName",
  "info": null,
  "isdatareferenced": false,
  "isvisible": true,
  "kuid": "2757a58421984b6d94ee6a54bc45ab53",
  "layouttype": 2,
  "masterType": 0,
  "name": "kony.ui.UserWidgetInstance",
  "parent": "flxMain",
  "pf": "userwidgetmodel",
  "snaptogrid": true,
  "sourceUserWidget": "cc43b83fad51498eaee44e391076b1e1",
  "wType": "UserWidgetInstance",
  "zindex": 5
}