{
  "@class": "com.kony.gen.viz.model.component.KVizUserWidget",
  "DNDConfig": null,
  "__parentReadjusting__": false,
  "_children_": [],
  "_height_": {
    "type": "string",
    "value": "150dp"
  },
  "_left_": {
    "type": "string",
    "value": "0dp"
  },
  "_margin_": [
    0,
    0,
    0,
    0
  ],
  "_orientation_": 1,
  "_padding_": [
    0,
    0,
    0,
    0
  ],
  "_percent_": true,
  "_render_": true,
  "_skin_": "s5e4481a3c944709a3f40dd22558173a",
  "_top_": {
    "type": "string",
    "value": "0dp"
  },
  "_width_": {
    "type": "string",
    "value": "1366dp"
  },
  "areflexpropsreferenced": false,
  "autogrowmode": 0,
  "canUpdateUI": true,
  "centerx": {
    "type": "string",
    "value": "50%"
  },
  "clipbounds": true,
  "containerweight": 0,
  "dataDiffs": {
    "btnContactUs": {
      "__events__": {},
      "__info__": {
        "kuid": "fcc41248e50c4a2a85165860e6462143",
        "srcKUID": "c47b0c9af1b84e63aa01af59eb52124a",
        "wType": "Button"
      }
    },
    "btnFaqs": {
      "__events__": {},
      "__info__": {
        "kuid": "d837dd1d3337442dbb413f3d46729037",
        "srcKUID": "ced702d00bc5426892e4632faec9df5d",
        "wType": "Button"
      }
    },
    "btnLocateUs": {
      "__events__": {},
      "__info__": {
        "kuid": "b1c3a90ef0f54ec78d5e022282510231",
        "srcKUID": "i52587cdcb68471f9e389671ddc5f138",
        "wType": "Button"
      }
    },
    "btnNMLS": {
      "__events__": {},
      "__info__": {
        "kuid": "b483b393b94541f59c63da1c34f04a96",
        "srcKUID": "dd794b8c9b8948de910093e93695d9da",
        "wType": "Button"
      }
    },
    "btnPrivacy": {
      "__events__": {},
      "__info__": {
        "kuid": "da0d1285a8594889ae7dcbd0ec1e0403",
        "srcKUID": "c3810888a2304c409e04db4cd519b8ee",
        "wType": "Button"
      }
    },
    "btnPrivacyNote": {
      "__events__": {},
      "__info__": {
        "kuid": "ab7b908dd13848fe89b98268daea9114",
        "srcKUID": "ffe6d34ddebe42abb2fa3fa994d8578f",
        "wType": "Button"
      }
    },
    "btnRouting": {
      "__events__": {},
      "__info__": {
        "kuid": "f7ee89ee60f14771b31808e0b865dd8c",
        "srcKUID": "c0ef76fac81742ff9d56ebd42f636563",
        "wType": "Button"
      }
    },
    "btnTermsAndConditions": {
      "__events__": {},
      "__info__": {
        "kuid": "eb755841109a4c4ea21f8fbef2ca3489",
        "srcKUID": "baf7c8f817b34b618b7e1f148f49770a",
        "wType": "Button"
      }
    },
    "customfooter": {
      "__events__": {},
      "__info__": {
        "isRoot": true,
        "kuid": "fdd4ab8cffd848cf8a44b0d4f8d0f20f",
        "srcKUID": "a142e816812a4b5b80f84484dcef7232",
        "wType": "FlexContainer"
      },
      "centerX": {
        "Default": {
          "type": "string",
          "value": "50%"
        }
      },
      "width": {
        "Default": {
          "type": "string",
          "value": "1366dp"
        }
      },
      "zIndex": {
        "Default": 2
      }
    },
    "flxFooterMenu": {
      "__events__": {},
      "__info__": {
        "kuid": "ja042280ba9d41379a7acc3a431f37ec",
        "srcKUID": "e6b5bc6faf00428680c4dedfe25a0b9a",
        "wType": "FlexContainer"
      },
      "centerX": {
        "Default": {
          "type": "string",
          "value": "50%"
        }
      },
      "left": {
        "Default": {
          "type": "string",
          "value": ""
        }
      },
      "width": {
        "Default": {
          "type": "string",
          "value": "1200dp"
        }
      }
    },
    "flxVBar1": {
      "__events__": {},
      "__info__": {
        "kuid": "b633a6e98c0f44e0b71e060c3bbc8141",
        "srcKUID": "f31fd58a22cc496a93899a924cf2927d",
        "wType": "FlexContainer"
      }
    },
    "flxVBar2": {
      "__events__": {},
      "__info__": {
        "kuid": "b6b8c490ff754dfbabffedc6a63b4f36",
        "srcKUID": "j39a662286e64bbc9be78a96bb491e27",
        "wType": "FlexContainer"
      }
    },
    "flxVBar3": {
      "__events__": {},
      "__info__": {
        "kuid": "d32bce05226c42458ec393ca3773c6cf",
        "srcKUID": "a6990ffd77914b8e8757540cb40cad1a",
        "wType": "FlexContainer"
      }
    },
    "flxVBar4": {
      "__events__": {},
      "__info__": {
        "kuid": "f87f1c604fb049e19f4669d98ad6f2f6",
        "srcKUID": "e75f96d248634147afa5b6848252df6e",
        "wType": "FlexContainer"
      }
    },
    "imgFooterIconOne": {
      "__events__": {},
      "__info__": {
        "kuid": "dbe252e93b214471bc071ce5c7704214",
        "srcKUID": "f2305e3d65bb448e9d68f5608421f28a",
        "wType": "Image"
      }
    },
    "imgFooterIconThree": {
      "__events__": {},
      "__info__": {
        "kuid": "a031e29251724c019eff73d46d866438",
        "srcKUID": "hc27193bc4d14f24b60f03ac3c2bddb7",
        "wType": "Image"
      }
    },
    "imgFooterIconTwo": {
      "__events__": {},
      "__info__": {
        "kuid": "jc739721e3ba4a65b7978a8b88912e29",
        "srcKUID": "cf67ed169e364ace9f62b5aa10dcf1d8",
        "wType": "Image"
      }
    },
    "lblCopyright": {
      "__events__": {},
      "__info__": {
        "kuid": "fadc5e20c09748f6b09f9b87215e5c34",
        "srcKUID": "a696ff4e198a4124810242908deae798",
        "wType": "Label"
      },
      "centerX": {
        "Default": {
          "type": "string",
          "value": ""
        }
      },
      "left": {
        "Default": {
          "type": "string",
          "value": "83px"
        }
      },
      "width": {
        "Default": {
          "type": "string",
          "value": "60%"
        }
      }
    },
    "lblImgText": {
      "__events__": {},
      "__info__": {
        "kuid": "f0acd9a5daa044e885c8484682df02ba",
        "srcKUID": "c7ccba35746440ed997e9d567978ec4d",
        "wType": "Label"
      }
    }
  },
  "id": "customfooter",
  "info": null,
  "isdatareferenced": false,
  "isvisible": true,
  "kuid": "f498416f09cb489f8831ed96e2bd81ec",
  "layouttype": 2,
  "masterType": 0,
  "name": "kony.ui.UserWidgetInstance",
  "parent": "flxfootercontainer",
  "pf": "frmAddInternalAccount",
  "snaptogrid": true,
  "sourceUserWidget": "a142e816812a4b5b80f84484dcef7232",
  "wType": "UserWidgetInstance",
  "zindex": 2
}