{
  "@class": "com.kony.gen.viz.model.component.KVizUserWidget",
  "DNDConfig": null,
  "__parentReadjusting__": false,
  "_children_": [],
  "_height_": {
    "type": "string",
    "value": "121px"
  },
  "_left_": {
    "type": "string",
    "value": "0dp"
  },
  "_margin_": [
    0,
    0,
    0,
    0
  ],
  "_orientation_": 1,
  "_padding_": [
    0,
    0,
    0,
    0
  ],
  "_percent_": true,
  "_render_": true,
  "_skin_": "s08469efda4a4826a2c833ec32b9f5e5",
  "_top_": {
    "type": "string",
    "value": "0dp"
  },
  "_width_": {
    "type": "string",
    "value": "100%"
  },
  "areflexpropsreferenced": false,
  "autogrowmode": 0,
  "canUpdateUI": true,
  "clipbounds": false,
  "containerweight": 0,
  "dataDiffs": {
    "CopyflxHamburgerBack0f9d52b864a8c4e": {
      "__events__": {},
      "__info__": {
        "kuid": "ha39074836e941efafa9f90029fae8d2",
        "srcKUID": "e54748b344d245529c0ccb38cd8d1fcb",
        "wType": "FlexContainer"
      }
    },
    "CopyflxUserDetails0b35eb5be884043": {
      "__events__": {},
      "__info__": {
        "kuid": "c245a363bec54763a5dca83e18b4ea3c",
        "srcKUID": "b692716bd51e422ead7f111a1bfbe5cb",
        "wType": "FlexContainer"
      }
    },
    "CopyflxVerticalSeperator0dbd20466efa64b": {
      "__events__": {},
      "__info__": {
        "kuid": "h14ec4552e6d427c9ec7da413c7e479a",
        "srcKUID": "d06f368d0065481d81dc512212fd2b95",
        "wType": "FlexContainer"
      }
    },
    "FlexContainer0e2898aa93bca45": {
      "__events__": {},
      "__info__": {
        "kuid": "i7d9d60106fe4a88b9ad865f34f8a2e4",
        "srcKUID": "f85d68fc07dd44c2938e507df0fe87fc",
        "wType": "FlexContainer"
      }
    },
    "Label0e243933e8fa34e": {
      "__events__": {},
      "__info__": {
        "kuid": "c14ccd26c60d42689d5cd362cefebf34",
        "srcKUID": "e4ac7c6df45f47999b2250e0bcb58bcb",
        "wType": "Label"
      },
      "i18n_text": "i18n.AccountsDetails.Loggedinas"
    },
    "customhamburger": {
      "__events__": {},
      "__info__": {
        "kuid": "bef330e0a0b74f90998acef812d69d07",
        "srcKUID": "dea66199c9fd433fab636de553a6116f",
        "wType": "UserWidgetInstance"
      }
    },
    "customhamburger.CopyflxMyAccounts0b54df1795b674c": {
      "__events__": {},
      "__info__": {
        "kuid": "iaaeb95d3c73490b98e19f6e593875f4",
        "srcKUID": "dc4c58f3d34b49b6a828fb1092938fd9",
        "wType": "FlexContainer"
      }
    },
    "customhamburger.CopyflxMyAccounts0d2a58860676d43": {
      "__events__": {},
      "__info__": {
        "kuid": "f92ceca63f52452495705e94062e0b2f",
        "srcKUID": "ic7b9b97e0a34ff9a3bb27ee8e7dc13f",
        "wType": "FlexContainer"
      }
    },
    "customhamburger.CopyflxMyAccounts0f8a8e9530ccc43": {
      "__events__": {},
      "__info__": {
        "kuid": "b880253c3574429fa85550381e11f2ca",
        "srcKUID": "bbe7100a7f7940d39db5b7b1de5a774e",
        "wType": "FlexContainer"
      }
    },
    "customhamburger.CopyflxMyAccounts0fb3509ebda8a4d": {
      "__events__": {},
      "__info__": {
        "kuid": "d79600fe744549889b5035f3eb7d7529",
        "srcKUID": "d9cef119e5a942c9b89b4e9733af8f59",
        "wType": "FlexContainer"
      }
    },
    "customhamburger.CopyflxSeperator0ab6ff437e8524e": {
      "__events__": {},
      "__info__": {
        "kuid": "dcb862402c8d45c9b13ca030b9138694",
        "srcKUID": "ca4dec9fb13344e8a9eaab7c89b68088",
        "wType": "FlexContainer"
      }
    },
    "customhamburger.CopyflxSeperator0acb2897e84374f": {
      "__events__": {},
      "__info__": {
        "kuid": "i1b482ec69424fa5962ccca4ccda643e",
        "srcKUID": "h931230261a14f28817596d7d2bbfee2",
        "wType": "FlexContainer"
      }
    },
    "customhamburger.CopyflxSeperator0bd0b5a0f50074d": {
      "__events__": {},
      "__info__": {
        "kuid": "a80629e8a77e411fb6899560d2f69375",
        "srcKUID": "b8213949527b424f92c6600b3e792ecc",
        "wType": "FlexContainer"
      }
    },
    "customhamburger.CopyflxSeperator0c1fe53523f5e44": {
      "__events__": {},
      "__info__": {
        "kuid": "j5822bc3592c42528dc28a1dedf1b9fd",
        "srcKUID": "ffdae6459d5d450c9b5a5df56704081e",
        "wType": "FlexContainer"
      }
    },
    "customhamburger.CopyflxSeperator0d1cf533b0a1e41": {
      "__events__": {},
      "__info__": {
        "kuid": "dfe66debc8694c8589053df25cce7f2d",
        "srcKUID": "fef29e5fb0c4475aaea53717a412f37c",
        "wType": "FlexContainer"
      }
    },
    "customhamburger.CopyflxSeperator0dd0dea943f174f": {
      "__events__": {},
      "__info__": {
        "kuid": "b3f59dfe77bd4d4493edd835f3d76390",
        "srcKUID": "j5306d2984814d9d93c24f84d7db8ba7",
        "wType": "FlexContainer"
      }
    },
    "customhamburger.CopyflxSeperator0dfe0994effc642": {
      "__events__": {},
      "__info__": {
        "kuid": "h7baeb712e7b4f02ac753d87d8e4c805",
        "srcKUID": "c7eb127bdde140e382ab0f3726c08d48",
        "wType": "FlexContainer"
      }
    },
    "customhamburger.CopyflxSeperator0e0b844b2206d42": {
      "__events__": {},
      "__info__": {
        "kuid": "ba0a16addd23454cac1901eda05c6468",
        "srcKUID": "d407d1c0e2b74a5c8858107d1963ab91",
        "wType": "FlexContainer"
      }
    },
    "customhamburger.CopyflxSeperator0e26671ec477148": {
      "__events__": {},
      "__info__": {
        "kuid": "a03d47bb8f76465fb1096ad9c5cd2bdf",
        "srcKUID": "e67fd2e22af044b486baf8def557575c",
        "wType": "FlexContainer"
      }
    },
    "customhamburger.CopyflxSeperator0ef41d1ef612f4a": {
      "__events__": {},
      "__info__": {
        "kuid": "hd338d093774456ab51ba0e0bdafac96",
        "srcKUID": "adeb509fbec84150b31a2aa4a215fb19",
        "wType": "FlexContainer"
      }
    },
    "customhamburger.CopyflxSeperator0f0efd703f4a84e": {
      "__events__": {},
      "__info__": {
        "kuid": "b53a0178b7be42d1be1065deb4511c43",
        "srcKUID": "jc0b907adf1f4e1ea39d354fc2e41d23",
        "wType": "FlexContainer"
      }
    },
    "customhamburger.CopyflxSeperator0f546de30843d4a": {
      "__events__": {},
      "__info__": {
        "kuid": "d517fce8648d42459c29d19edca3fa2a",
        "srcKUID": "b2e0303156ee4279b58a400c45658cbe",
        "wType": "FlexContainer"
      }
    },
    "customhamburger.CopyflxSeperator0f697b8a8bbcf46": {
      "__events__": {},
      "__info__": {
        "kuid": "c6f621a461d242e3921e749b3966c9d8",
        "srcKUID": "d7122805ba3b40f493b7d79f749c5c1f",
        "wType": "FlexContainer"
      }
    },
    "customhamburger.CopyflxSeperator0f7229c978c5c47": {
      "__events__": {},
      "__info__": {
        "kuid": "c04bd180d87245e6ac6a6413991eee2e",
        "srcKUID": "a87745dcb66b4f4c83b0725af5c1251b",
        "wType": "FlexContainer"
      }
    },
    "customhamburger.CopyflxSeperator0f85cfae3ca0048": {
      "__events__": {},
      "__info__": {
        "kuid": "b6e30deee0294a8287f52ffe3d48f5b3",
        "srcKUID": "dc99871787d24ab28840acb5727529ca",
        "wType": "FlexContainer"
      }
    },
    "customhamburger.CopyflxSeperator0h8ae88a56a9d41": {
      "__events__": {},
      "__info__": {
        "kuid": "i7504856bb9741e2a4b0c8edca23f910",
        "srcKUID": "e98fbb42ce4f4cd892d9d78a174599bc",
        "wType": "FlexContainer"
      }
    },
    "customhamburger.CopyflxSeperator0ha67bcc4ced74d": {
      "__events__": {},
      "__info__": {
        "kuid": "e5eec6967e7046eba712083aa88f2854",
        "srcKUID": "eb357a4d0a5444ce9fe205a0d44588f7",
        "wType": "FlexContainer"
      }
    },
    "customhamburger.CopyflxSeperator0i4d31af56d2d40": {
      "__events__": {},
      "__info__": {
        "kuid": "a0c3bf3da0ce4a26940e92a1d99f3564",
        "srcKUID": "f3f4b62efb0a4dd8bf89e2d38860cfd7",
        "wType": "FlexContainer"
      }
    },
    "customhamburger.CopyflxSeperator0i8b9bac42bb244": {
      "__events__": {},
      "__info__": {
        "kuid": "h38d02573bd84376970c8d0af6d53683",
        "srcKUID": "b27ca988af24429ba3da202b454cc21f",
        "wType": "FlexContainer"
      }
    },
    "customhamburger.CopyflxSeperator0ic8245f6992940": {
      "__events__": {},
      "__info__": {
        "kuid": "i15bb650086b4896a0aa108afffb0754",
        "srcKUID": "c5d2e87b7ed14dd09de6d49220565196",
        "wType": "FlexContainer"
      }
    },
    "customhamburger.CopyflxSeperator0j3213d9f303b41": {
      "__events__": {},
      "__info__": {
        "kuid": "ca6305025e364d1ab6c5a782527f78cf",
        "srcKUID": "fe9c8dd71102415db76f64c461560080",
        "wType": "FlexContainer"
      }
    },
    "customhamburger.CopyflxSeperator0jc2b704f97fa4d": {
      "__events__": {},
      "__info__": {
        "kuid": "h8e6485d96db4f04b0b71b55434729b5",
        "srcKUID": "d0c5fd0e52bf405ab3a5b62910c15dfc",
        "wType": "FlexContainer"
      }
    },
    "customhamburger.CopylblAddPayee0b508c1c7ac1342": {
      "__events__": {},
      "__info__": {
        "kuid": "gc6ea46c50da4c4fbe18a8abf16a9658",
        "srcKUID": "gecce85ab70e458f8184668a61d2a72a",
        "wType": "Label"
      }
    },
    "customhamburger.CopylblAddPayee0bee2cf73d22b4d": {
      "__events__": {},
      "__info__": {
        "kuid": "g0923bcce2084d7a8893206349a5161f",
        "srcKUID": "e21a4f39e45c4ea4b684e82952e0da1f",
        "wType": "Label"
      }
    },
    "customhamburger.CopylblAddPayee0g70cc090ed6245": {
      "__events__": {},
      "__info__": {
        "kuid": "bfbb533bd2d246f69bc0c9de5003b81c",
        "srcKUID": "f6dfffbbcd7d48ac80ff2d95331aeef0",
        "wType": "Label"
      }
    },
    "customhamburger.CopylblBillPay0a6bc0b0a48dd4b": {
      "__events__": {},
      "__info__": {
        "kuid": "e2d126c906c9426ba40244cd42aeed1a",
        "srcKUID": "iece97379dcf4992bd7afc5f0ac6ed8a",
        "wType": "Label"
      }
    },
    "customhamburger.CopylblBillPay0e8e9903a20a440": {
      "__events__": {},
      "__info__": {
        "kuid": "f22eb3d70ecd4740a21f3686cceb4eb3",
        "srcKUID": "i5c72f4c617e4a9fa18d6460cc8c41cb",
        "wType": "Label"
      }
    },
    "customhamburger.CopylblBillPay0eda6178b407a4e": {
      "__events__": {},
      "__info__": {
        "kuid": "dd27d45966a549549b36ad54fc1c9db2",
        "srcKUID": "b5f49ce65f43422e8ba064d0383c8b60",
        "wType": "Label"
      }
    },
    "customhamburger.CopylblBillPayHistory0b38a2ee4fe0d47": {
      "__events__": {},
      "__info__": {
        "kuid": "j42c435f575544269cbd6584e70d7c9e",
        "srcKUID": "hbc213bb8f7a4233b1396cd4bdabbaa3",
        "wType": "Label"
      }
    },
    "customhamburger.CopylblBillPayHistory0gc07c297701741": {
      "__events__": {},
      "__info__": {
        "kuid": "da7c38b81b5b40cfbdc50a20e4e434a9",
        "srcKUID": "cb22b1482ffc4bfb95ecec9f6a141fab",
        "wType": "Label"
      }
    },
    "customhamburger.CopylblMyAccounts0c708334cd15c43": {
      "__events__": {},
      "__info__": {
        "kuid": "ac54f21416644b7caacc4d8d0100170d",
        "srcKUID": "dc2cbfc36e79444ab78448553e873210",
        "wType": "Label"
      }
    },
    "customhamburger.CopylblMyAccounts0cbb159605a3b44": {
      "__events__": {},
      "__info__": {
        "kuid": "ib3bb40846ec41d9879192883aa76fbc",
        "srcKUID": "afec2e14a4a3441b95c42cc142db3bf2",
        "wType": "Label"
      }
    },
    "customhamburger.CopylblMyAccounts0d0f2bf7fe79545": {
      "__events__": {},
      "__info__": {
        "kuid": "i50f3f989b674535bc23e8060f54e181",
        "srcKUID": "c6f86a1de73246a09b5c79361693bc21",
        "wType": "Label"
      }
    },
    "customhamburger.CopylblMyAccounts0hc2685e27c2c44": {
      "__events__": {},
      "__info__": {
        "kuid": "f3894690c3c142d482c43d25f7017573",
        "srcKUID": "faab113b9bf8424580d0e0812fa98971",
        "wType": "Label"
      }
    },
    "customhamburger.CopylblMyAccounts0i08ff33ddccd42": {
      "__events__": {},
      "__info__": {
        "kuid": "ea5c9661d8a44a16b9f3b23e28d6bb67",
        "srcKUID": "a42c5516493c41799b8383460faa4847",
        "wType": "Label"
      }
    },
    "customhamburger.CopylblMyPayee0dcb9e690692a4f": {
      "__events__": {},
      "__info__": {
        "kuid": "bc916ebcbecc4779aa077c0a0ce4cefa",
        "srcKUID": "bed01243f6a547179d4bf810e22191f0",
        "wType": "Label"
      }
    },
    "customhamburger.CopylblMyPayee0e33403d7890441": {
      "__events__": {},
      "__info__": {
        "kuid": "a3608b305c3a4a259aacc4363ada8b8f",
        "srcKUID": "bce63faed54a4d5f8189fb31de9e3ee7",
        "wType": "Label"
      }
    },
    "customhamburger.CopylblMyPayee0i8f11a9bf3734f": {
      "__events__": {},
      "__info__": {
        "kuid": "c8c1042251ec4103b7c9b84b7f147e7d",
        "srcKUID": "b43285cfc5b14a5ba8ac5b1edff46d10",
        "wType": "Label"
      }
    },
    "customhamburger.CopylblPayABill0d56ffee2b48f4c": {
      "__events__": {},
      "__info__": {
        "kuid": "be4c063fca774599b6142f82576bc6f1",
        "srcKUID": "a37d5172e5d04c99a7b381dbdb0c1f0e",
        "wType": "Label"
      }
    },
    "customhamburger.CopylblPayABill0g84c7aa6fce048": {
      "__events__": {},
      "__info__": {
        "kuid": "gca4e4b592e0437b89f8438399982cd8",
        "srcKUID": "e68c07ae9fae4911aa7ec55b76ac1d9e",
        "wType": "Label"
      }
    },
    "customhamburger.CopylblPayABill0h56a2d285cea46": {
      "__events__": {},
      "__info__": {
        "kuid": "bd5076c010f64736a27155d946635bc5",
        "srcKUID": "ade9130b3841494c9f59781a7587c3e1",
        "wType": "Label"
      }
    },
    "customhamburger.FlexContainer0a82014659b0e48": {
      "__events__": {},
      "__info__": {
        "kuid": "jb8a9e4d689f4d11822171171a45a906",
        "srcKUID": "h7ad82c8fb9b437486ad6c4d49320ce2",
        "wType": "FlexContainer"
      }
    },
    "customhamburger.flxAboutUs": {
      "__events__": {},
      "__info__": {
        "kuid": "g21e158b4e384edf8e68f72494d5f1a2",
        "srcKUID": "cca79f5d16b045408f311a815ae6b289",
        "wType": "FlexContainer"
      }
    },
    "customhamburger.flxAboutUsCollapse": {
      "__events__": {},
      "__info__": {
        "kuid": "g13dd2ce644e4de1b4904a2dd3914950",
        "srcKUID": "e41d16cfc04e458693670ae7e87e34aa",
        "wType": "FlexContainer"
      }
    },
    "customhamburger.flxAboutUsSubMenu": {
      "__events__": {},
      "__info__": {
        "kuid": "f8e5b61ce2d2451c8bdbedec7092375f",
        "srcKUID": "ad066a23a8cd41e983c434b90da35923",
        "wType": "FlexContainer"
      }
    },
    "customhamburger.flxAccountSettings": {
      "__events__": {},
      "__info__": {
        "kuid": "c60dc37bf2964f8cab7f981947779189",
        "srcKUID": "g69da15184e04d089b0f58da40a7157e",
        "wType": "FlexContainer"
      }
    },
    "customhamburger.flxAccountsCollapse": {
      "__events__": {},
      "__info__": {
        "kuid": "eb596c87d7b24830a1536d3920e71868",
        "srcKUID": "e0af0f6ab9614020b7fc5e89406a63dc",
        "wType": "FlexContainer"
      }
    },
    "customhamburger.flxAccountsMenu": {
      "__events__": {},
      "__info__": {
        "kuid": "c3367097fc674b949bcb58143124d32a",
        "srcKUID": "cf43ccc491384cce8e692bf0c7b73f90",
        "wType": "FlexContainer"
      }
    },
    "customhamburger.flxAccountsSubMenu": {
      "__events__": {},
      "__info__": {
        "kuid": "bbeb28aaae674b68956bb465f5190641",
        "srcKUID": "dc00eecfa1d34328ba4230f17db49066",
        "wType": "FlexContainer"
      }
    },
    "customhamburger.flxAddKonyAccounts": {
      "__events__": {},
      "__info__": {
        "kuid": "d0c7f8a5a23349f49b37390d5f78d144",
        "srcKUID": "i7907247783340e6bd2e6d28ef1b46ee",
        "wType": "FlexContainer"
      }
    },
    "customhamburger.flxAddNonKonyAccounts": {
      "__events__": {},
      "__info__": {
        "kuid": "b77ba495e8294e8d80db865f8244cae7",
        "srcKUID": "ic3031f46db3438a903562f1278ef9cc",
        "wType": "FlexContainer"
      }
    },
    "customhamburger.flxAddPayee": {
      "__events__": {},
      "__info__": {
        "kuid": "ibcfe0cbbf694593a993648ddec8a42c",
        "srcKUID": "aefd502a752f424387ac0e1a7d6cee42",
        "wType": "FlexContainer"
      }
    },
    "customhamburger.flxAddRecipient": {
      "__events__": {},
      "__info__": {
        "kuid": "g5e251a8cef74459a65ed602b1712b07",
        "srcKUID": "cfec2a2a551a45d188b7bf6c9954c85d",
        "wType": "FlexContainer"
      }
    },
    "customhamburger.flxAddRecipients": {
      "__events__": {},
      "__info__": {
        "kuid": "f6326efb8ec5434dad232e90902edae5",
        "srcKUID": "f96d8995e54f407cb41a20dbef08e36f",
        "wType": "FlexContainer"
      }
    },
    "customhamburger.flxAlerts": {
      "__events__": {},
      "__info__": {
        "kuid": "d3708bec4e224914a452f478c3cb81fd",
        "srcKUID": "habdea8c510a4db183a6c1d319dc26cf",
        "wType": "FlexContainer"
      }
    },
    "customhamburger.flxAlertsAndMessages": {
      "__events__": {},
      "__info__": {
        "kuid": "edb0a71c2d4e474bbd043fd9fc270264",
        "srcKUID": "a6047045dc8a45488e4434ae31a9d04e",
        "wType": "FlexContainer"
      }
    },
    "customhamburger.flxAlertsAndMessagesCollapse": {
      "__events__": {},
      "__info__": {
        "kuid": "c17574be5bed4fd29792c8360a467970",
        "srcKUID": "b5b47f89075c4e738fdfbe5afa6a27a2",
        "wType": "FlexContainer"
      }
    },
    "customhamburger.flxAlertsAndMessagesSeperator": {
      "__events__": {},
      "__info__": {
        "kuid": "j689b8e08a594763b86d47bd5bba7180",
        "srcKUID": "g5f28c8fa61149299a48ec5562c1c35b",
        "wType": "FlexContainer"
      }
    },
    "customhamburger.flxAlertsAndMessagesSubMenu": {
      "__events__": {},
      "__info__": {
        "kuid": "f0e0aac125f7451083d8fba45943dbd0",
        "srcKUID": "ec498bbee2a54caf825c1cc57f8c0f46",
        "wType": "FlexContainer"
      }
    },
    "customhamburger.flxBillPay": {
      "__events__": {},
      "__info__": {
        "kuid": "fb603571bd7a407ea1ee2488d762485e",
        "srcKUID": "bafa4dff778347ac84a9f492a0e5dff1",
        "wType": "FlexContainer"
      }
    },
    "customhamburger.flxBillPayCollapse": {
      "__events__": {},
      "__info__": {
        "kuid": "a5f61a9aa7c84d82a2a5928c86907fc9",
        "srcKUID": "a0dcaee0ed354e579861b6fe542d4093",
        "wType": "FlexContainer"
      }
    },
    "customhamburger.flxBillPayHistory": {
      "__events__": {},
      "__info__": {
        "kuid": "f0e11a96327a466ca80925c16d522653",
        "srcKUID": "f62b8e2cab074c0c9fa00cc1d81c39d0",
        "wType": "FlexContainer"
      }
    },
    "customhamburger.flxBillPaySubMenu": {
      "__events__": {},
      "__info__": {
        "kuid": "bec529d3da384d9ca5d421d5bf8fd998",
        "srcKUID": "ea568784be934341979a1fd5e490e2cb",
        "wType": "FlexContainer"
      }
    },
    "customhamburger.flxClose": {
      "__events__": {},
      "__info__": {
        "kuid": "ad52ab3a02af4765b2276fec26e4e7d2",
        "srcKUID": "c66fd7f3bd2c4e6e8f7bd01e6287550e",
        "wType": "FlexContainer"
      }
    },
    "customhamburger.flxCollapseTransfers": {
      "__events__": {},
      "__info__": {
        "kuid": "d6a5dda6c5fd403e8211db3ca2642803",
        "srcKUID": "h384e8dc0bd24e29af85efafe7e025fc",
        "wType": "FlexContainer"
      }
    },
    "customhamburger.flxContactUs": {
      "__events__": {},
      "__info__": {
        "kuid": "g8df33a5cfd046b697f2b2a9b1f694f2",
        "srcKUID": "abf11674e0d94d85a1fe50e46f4c51bc",
        "wType": "FlexContainer"
      }
    },
    "customhamburger.flxExternalAccounts": {
      "__events__": {},
      "__info__": {
        "kuid": "e57974b38526425b9b8f66b8b95ce3f7",
        "srcKUID": "abc9ac58f56e4fb493c8d1f1bff47b24",
        "wType": "FlexContainer"
      }
    },
    "customhamburger.flxFaq": {
      "__events__": {},
      "__info__": {
        "kuid": "b29e49e73e894b8eaf05efbbd395bcbd",
        "srcKUID": "h28703eed887497abf8a3f907abdbc2e",
        "wType": "FlexContainer"
      }
    },
    "customhamburger.flxHamburgerHeader": {
      "__events__": {},
      "__info__": {
        "kuid": "cba7bbd7f0ef4f8ba9e41aee7d8c5233",
        "srcKUID": "h465700017fe4781975045dab9ed41c5",
        "wType": "FlexContainer"
      }
    },
    "customhamburger.flxHistory": {
      "__events__": {},
      "__info__": {
        "kuid": "h71fa999efec4d2ab73a769e2720df7f",
        "srcKUID": "af822cb01fd549e09ae70f7a5caf134d",
        "wType": "FlexContainer"
      }
    },
    "customhamburger.flxLocateUs": {
      "__events__": {},
      "__info__": {
        "kuid": "cc8efb58874f4e558e478d33ce40e16e",
        "srcKUID": "g85f2c9a423e42a58e10e8686c1fba74",
        "wType": "FlexContainer"
      }
    },
    "customhamburger.flxLogout": {
      "__events__": {},
      "__info__": {
        "kuid": "a3a93b202a014358836172d6282189ab",
        "srcKUID": "c9904c20e8a5464285e846a22514783d",
        "wType": "FlexContainer"
      }
    },
    "customhamburger.flxMenu": {
      "__events__": {},
      "__info__": {
        "kuid": "cdf99ecbe7aa4deba47aa6750092105a",
        "srcKUID": "i1c684442e854218bc2c08f78c55f971",
        "wType": "FlexContainer"
      }
    },
    "customhamburger.flxMenuWrapper": {
      "__events__": {},
      "__info__": {
        "kuid": "fb6dfee1509e4aeb82364d668e63ae83",
        "srcKUID": "ad010d1f868d49eea330fb84586cbd46",
        "wType": "FlexScrollContainer"
      }
    },
    "customhamburger.flxMessages": {
      "__events__": {},
      "__info__": {
        "kuid": "f684a9f0463a420a8013aa2e0cf95113",
        "srcKUID": "a8c136feada044d8aae02c45642a3aef",
        "wType": "FlexContainer"
      }
    },
    "customhamburger.flxMyAccounts": {
      "__events__": {},
      "__info__": {
        "kuid": "ib37ee6203c7490fb77b30adc1665139",
        "srcKUID": "f7379b95da4148de8bad2885b68ce3c6",
        "wType": "FlexContainer"
      }
    },
    "customhamburger.flxMyPayeeList": {
      "__events__": {},
      "__info__": {
        "kuid": "d67ed5f5af15495b956fc4647a523bfd",
        "srcKUID": "j0ff9253248645ff8612f1090fabea1b",
        "wType": "FlexContainer"
      }
    },
    "customhamburger.flxMyRecipients": {
      "__events__": {},
      "__info__": {
        "kuid": "b0992a7ce3804648956546ca5c6bdf15",
        "srcKUID": "gc5138a3b6ed40e5a8d376d8900322ac",
        "wType": "FlexContainer"
      }
    },
    "customhamburger.flxNewMessages": {
      "__events__": {},
      "__info__": {
        "kuid": "e01fc07344144e63888d82f67215bea0",
        "srcKUID": "bfad3abb96b54f6687ec8d8ae08b8a89",
        "wType": "FlexContainer"
      }
    },
    "customhamburger.flxPayABill": {
      "__events__": {},
      "__info__": {
        "kuid": "a089acf17af744d9a6ac7d32703fa663",
        "srcKUID": "cabc5ae19734442ca472692f76360a26",
        "wType": "FlexContainer"
      }
    },
    "customhamburger.flxPayAPerson": {
      "__events__": {},
      "__info__": {
        "kuid": "i3ab03bad84644c9b474eb407855bc16",
        "srcKUID": "c3c34d9fdac2420fb3cf01ada4338616",
        "wType": "FlexContainer"
      }
    },
    "customhamburger.flxPayAPersonCollapse": {
      "__events__": {},
      "__info__": {
        "kuid": "i3575abdae0644adaccb7ad7b969993e",
        "srcKUID": "f0eb0c0751d7408db1c234c07637bb8f",
        "wType": "FlexContainer"
      }
    },
    "customhamburger.flxPayAPersonSubMenu": {
      "__events__": {},
      "__info__": {
        "kuid": "ae7058e53cf94ccf9e33f8a1a9966cd8",
        "srcKUID": "aeb2426f276a4cdc8c73046302e57323",
        "wType": "FlexContainer"
      }
    },
    "customhamburger.flxPrivacyPolicy": {
      "__events__": {},
      "__info__": {
        "kuid": "b661022a56e14fb58a5027f33779c631",
        "srcKUID": "e53f0d53bf524807b19900124ae5e5cc",
        "wType": "FlexContainer"
      }
    },
    "customhamburger.flxProfileManagement": {
      "__events__": {},
      "__info__": {
        "kuid": "eb301ac8e380453faf76c1c589aa2966",
        "srcKUID": "c4c99abbdc854639a275f0d1966f9d2a",
        "wType": "FlexContainer"
      }
    },
    "customhamburger.flxProfileManagementCollapse": {
      "__events__": {},
      "__info__": {
        "kuid": "f39a1929c51c4e5c8aa61f3cc7242017",
        "srcKUID": "e3074e95c1584c26b3c00839871a8ec1",
        "wType": "FlexContainer"
      }
    },
    "customhamburger.flxProfileManagementSubMenu": {
      "__events__": {},
      "__info__": {
        "kuid": "dffffc3637a748b2a9ad9ce563a3f000",
        "srcKUID": "dedf5323b4f04d9bb0857acaba413ed2",
        "wType": "FlexContainer"
      }
    },
    "customhamburger.flxProfileSettings": {
      "__events__": {},
      "__info__": {
        "kuid": "b48b41fb707e4a798068578bc85fa9b3",
        "srcKUID": "c9e266a61e794666abaa382a1974bd50",
        "wType": "FlexContainer"
      }
    },
    "customhamburger.flxSecuritySettings": {
      "__events__": {},
      "__info__": {
        "kuid": "ebc79f64e5254475b6366de559b2b38e",
        "srcKUID": "h35c8ab7f8114eb883dbe77eb239d5bc",
        "wType": "FlexContainer"
      }
    },
    "customhamburger.flxSendRequest": {
      "__events__": {},
      "__info__": {
        "kuid": "e01dc8ad9f1c469e94ed2cd387b904d3",
        "srcKUID": "d977218b05dc49ada933fde699153602",
        "wType": "FlexContainer"
      }
    },
    "customhamburger.flxSeperator10": {
      "__events__": {},
      "__info__": {
        "kuid": "a076d5b04f6f4744a7b367f62e161c1d",
        "srcKUID": "f9bfa4fca0dd4125be7663cbecdaaee0",
        "wType": "FlexContainer"
      }
    },
    "customhamburger.flxSeperator11": {
      "__events__": {},
      "__info__": {
        "kuid": "b3a8f8213398459793763ce986926250",
        "srcKUID": "f0e6a5bf00e24b55a131b00e736ad0f1",
        "wType": "FlexContainer"
      }
    },
    "customhamburger.flxSeperator12": {
      "__events__": {},
      "__info__": {
        "kuid": "fdb8ef87c82b464084615cf7bb76b7d2",
        "srcKUID": "c0ad725976704507a8aa1b268bc97087",
        "wType": "FlexContainer"
      }
    },
    "customhamburger.flxSeperator13": {
      "__events__": {},
      "__info__": {
        "kuid": "b42ce8cc9243436ebd22c392540c72e9",
        "srcKUID": "j636db10e4604851913f33aee409ae48",
        "wType": "FlexContainer"
      }
    },
    "customhamburger.flxSeperator14": {
      "__events__": {},
      "__info__": {
        "kuid": "bc82d7d6a141445ea7519eb3dfb736d5",
        "srcKUID": "f671f1951bbd44bcbaea3b445e3c6c3b",
        "wType": "FlexContainer"
      }
    },
    "customhamburger.flxSeperator15": {
      "__events__": {},
      "__info__": {
        "kuid": "e22434338f984e98aeaa1dc5369ac5e7",
        "srcKUID": "j11be2166fc34b419da967d077f32299",
        "wType": "FlexContainer"
      }
    },
    "customhamburger.flxSeperator16": {
      "__events__": {},
      "__info__": {
        "kuid": "e03c73141a3540e99410a54b561f8214",
        "srcKUID": "if0c694e156a4703b7545e789492c020",
        "wType": "FlexContainer"
      }
    },
    "customhamburger.flxSeperator17": {
      "__events__": {},
      "__info__": {
        "kuid": "c1b06f9f5db640499c93f44e2c4fe36b",
        "srcKUID": "b50f7b34350e4dec8af632653ab083c5",
        "wType": "FlexContainer"
      }
    },
    "customhamburger.flxSeperator18": {
      "__events__": {},
      "__info__": {
        "kuid": "eb159ff9d1ed46e491cb1d45d3a8e8c9",
        "srcKUID": "dccbe42cfb7b4494b0ef8aa3c4f6be41",
        "wType": "FlexContainer"
      }
    },
    "customhamburger.flxSeperator2": {
      "__events__": {},
      "__info__": {
        "kuid": "f20d898f8748454ead183e447f3a1e6a",
        "srcKUID": "c80156f4b587452bb66f7eeceecaf50a",
        "wType": "FlexContainer"
      }
    },
    "customhamburger.flxSeperator3": {
      "__events__": {},
      "__info__": {
        "kuid": "d75088dbc78b427f8b32ca3069b54742",
        "srcKUID": "b6518efe46a64f52901e8c3d65c11ce9",
        "wType": "FlexContainer"
      }
    },
    "customhamburger.flxSeperator4": {
      "__events__": {},
      "__info__": {
        "kuid": "c95d08ada133418d91f3ceb84ba8f1de",
        "srcKUID": "cc2eee43aa8a45d08bf13a5e5718afcd",
        "wType": "FlexContainer"
      }
    },
    "customhamburger.flxSeperator5": {
      "__events__": {},
      "__info__": {
        "kuid": "a579da5d374045aa949ef95a7db5ee6b",
        "srcKUID": "c8c3ef97147f40f2865efb0cb670d50b",
        "wType": "FlexContainer"
      }
    },
    "customhamburger.flxSeperator6": {
      "__events__": {},
      "__info__": {
        "kuid": "b90e6b3a4cb343f49fc99523e0dcfe90",
        "srcKUID": "jdcc06ffd6c140b09d7a452d4412adef",
        "wType": "FlexContainer"
      }
    },
    "customhamburger.flxSeperator7": {
      "__events__": {},
      "__info__": {
        "kuid": "b3ace61a88544d4588666674351285fd",
        "srcKUID": "ga22cbc58a634b6fb13935ed90d0aced",
        "wType": "FlexContainer"
      }
    },
    "customhamburger.flxSeperator8": {
      "__events__": {},
      "__info__": {
        "kuid": "dc5fa05857724bfba10cfbc8be28378b",
        "srcKUID": "c7558fdf51bf47fe824b91a07cf6b714",
        "wType": "FlexContainer"
      }
    },
    "customhamburger.flxSeperator9": {
      "__events__": {},
      "__info__": {
        "kuid": "a0e0dfb430b54c7e967d5ff22c63b578",
        "srcKUID": "b122e6579708465082812c6e7068d7f6",
        "wType": "FlexContainer"
      }
    },
    "customhamburger.flxSeperatorAlerts": {
      "__events__": {},
      "__info__": {
        "kuid": "f6d06f4ce7bb4579aad630d571668dc8",
        "srcKUID": "b2fe1d61dbc64712ad4e576fb2bd332f",
        "wType": "FlexContainer"
      }
    },
    "customhamburger.flxSeperatorMessages": {
      "__events__": {},
      "__info__": {
        "kuid": "f2956f50d0fd43b1861cb0e249515afb",
        "srcKUID": "c5a23363d5df48049106898aa405a723",
        "wType": "FlexContainer"
      }
    },
    "customhamburger.flxSeperatorNewMessage": {
      "__events__": {},
      "__info__": {
        "kuid": "c90c603a23084696ac661940ccac986d",
        "srcKUID": "c929fa4f76ed416185ce33e12111609d",
        "wType": "FlexContainer"
      }
    },
    "customhamburger.flxStatements": {
      "__events__": {},
      "__info__": {
        "kuid": "g096148425f9497697d62659e6d31a29",
        "srcKUID": "ec5c71318c634e3bbef275710fed3bdf",
        "wType": "FlexContainer"
      }
    },
    "customhamburger.flxTerms": {
      "__events__": {},
      "__info__": {
        "kuid": "b979c74415d54614b9d9d1047f75f75d",
        "srcKUID": "a3d4d9ba1e264ec2a3de4b87bc4d7aa3",
        "wType": "FlexContainer"
      }
    },
    "customhamburger.flxTransferHistory": {
      "__events__": {},
      "__info__": {
        "kuid": "i4cdd3b678c14a068bfa214cd2c8227a",
        "srcKUID": "ib9de73a2bf246eeb639fa215853db61",
        "wType": "FlexContainer"
      }
    },
    "customhamburger.flxTransfers": {
      "__events__": {},
      "__info__": {
        "kuid": "b93d385418e94030b6f406e08212b54f",
        "srcKUID": "jc0266e969b0495d868043c84bcc2ab8",
        "wType": "FlexContainer"
      }
    },
    "customhamburger.flxTransfersMoney": {
      "__events__": {},
      "__info__": {
        "kuid": "je8fed838236408cb214743de0f99673",
        "srcKUID": "jf6d2609ea48459e90552691ca5777fe",
        "wType": "FlexContainer"
      }
    },
    "customhamburger.flxTransfersSubMenu": {
      "__events__": {},
      "__info__": {
        "kuid": "e130496943174ad19ee118848b845812",
        "srcKUID": "fbf8ca4f00d34558966f6061a5087f14",
        "wType": "FlexContainer"
      }
    },
    "customhamburger.flxWireTransfer": {
      "__events__": {},
      "__info__": {
        "kuid": "j7c061f4f18c4d5c81c7d0e343af2f34",
        "srcKUID": "aae2b1dec0f44ac0ae2c1e3063ff7ba4",
        "wType": "FlexContainer"
      }
    },
    "customhamburger.flxWireTransferCollapse": {
      "__events__": {},
      "__info__": {
        "kuid": "c94413df5e28424d88eb4e9bafb1c429",
        "srcKUID": "bfc055b1e7c542d1bfa1c23419d834be",
        "wType": "FlexContainer"
      }
    },
    "customhamburger.flxWireTransferHistory": {
      "__events__": {},
      "__info__": {
        "kuid": "cb0664c3c052405297606ab0f1629782",
        "srcKUID": "dffd4d61c8a144d4be8f8449855f4c6a",
        "wType": "FlexContainer"
      }
    },
    "customhamburger.flxWireTransferMakeTransfer": {
      "__events__": {},
      "__info__": {
        "kuid": "bc090395b3084999a9f90a53a09b4c77",
        "srcKUID": "f7a63b1bb18644bdbb1f0a7d1c1fc108",
        "wType": "FlexContainer"
      }
    },
    "customhamburger.flxWireTransferMyRecipients": {
      "__events__": {},
      "__info__": {
        "kuid": "b3914943b8544281b979b47e3f603a51",
        "srcKUID": "ic7afce86593464b830c20b7eaaa7000",
        "wType": "FlexContainer"
      }
    },
    "customhamburger.flxWireTransferSubMenu": {
      "__events__": {},
      "__info__": {
        "kuid": "ba8baf3567714fa3b6f6033a46d7daba",
        "srcKUID": "c1b6035a15254cd380f2d7f0bccc1a35",
        "wType": "FlexContainer"
      }
    },
    "customhamburger.flxWireTransfersAddRecipient": {
      "__events__": {},
      "__info__": {
        "kuid": "a1e928d2bcdb4397b9ff7694ddbcf8bd",
        "srcKUID": "d8d7ecb1da3b431b8a8f09ecfd49dfb4",
        "wType": "FlexContainer"
      }
    },
    "customhamburger.imgAboutUs": {
      "__events__": {},
      "__info__": {
        "kuid": "b80d66e7ab2847f0a9bd77eae3df222e",
        "srcKUID": "aedf72df6b6646e4b0541f118b852737",
        "wType": "Image"
      }
    },
    "customhamburger.imgAboutUsCollapse": {
      "__events__": {},
      "__info__": {
        "kuid": "db4c5fc821a14c218aa19e9500c0b68a",
        "srcKUID": "j47f6cdfaec144f1bc183fc1ee131f6f",
        "wType": "Image"
      }
    },
    "customhamburger.imgAccounts": {
      "__events__": {},
      "__info__": {
        "kuid": "afadcfb3179745d7a79bef170dfb981d",
        "srcKUID": "b12cdc793bce49a48965b40e1599be38",
        "wType": "Image"
      }
    },
    "customhamburger.imgAlertsAndMessages": {
      "__events__": {},
      "__info__": {
        "kuid": "e9c583fe657b4db78d363dd8c7502419",
        "srcKUID": "j15a94b7920346d4bc2ad8031f893737",
        "wType": "Image"
      }
    },
    "customhamburger.imgAlertsAndMessagesCollapse": {
      "__events__": {},
      "__info__": {
        "kuid": "c3e6f85e47ed4a7b8a3a4986dc7ef50a",
        "srcKUID": "aca93ef7e22940b2934c21108b51accd",
        "wType": "Image"
      }
    },
    "customhamburger.imgBillBay": {
      "__events__": {},
      "__info__": {
        "kuid": "dc02425ca7ba4ed6be77020c7f813767",
        "srcKUID": "d9d417ef42e34752838998db97365d9f",
        "wType": "Image"
      }
    },
    "customhamburger.imgBillPayCollapse": {
      "__events__": {},
      "__info__": {
        "kuid": "bcd0a109bc0c4b7b947624b63b221edc",
        "srcKUID": "e2c091a5a06b4bd99605cb431850b92a",
        "wType": "Image"
      }
    },
    "customhamburger.imgClose": {
      "__events__": {},
      "__info__": {
        "kuid": "c9a03138428c47cbb5d3d1510b09bb30",
        "srcKUID": "b16e44ed01844172894d7476bf054a4e",
        "wType": "Image"
      }
    },
    "customhamburger.imgCollapseAccounts": {
      "__events__": {},
      "__info__": {
        "kuid": "e34ac9f01777420ba2a4c704dd566e37",
        "srcKUID": "cc9717fdf0ce469aa167f4b79dc1f439",
        "wType": "Image"
      }
    },
    "customhamburger.imgCollapseTransfers": {
      "__events__": {},
      "__info__": {
        "kuid": "ba2a8ca7abba496eaa9c26cfa76d1312",
        "srcKUID": "g8ac7330ba6a4fcc94c6de0c85163b0a",
        "wType": "Image"
      }
    },
    "customhamburger.imgKony": {
      "__events__": {},
      "__info__": {
        "kuid": "g8fcc41d92db45908912543550372440",
        "srcKUID": "e51c8a8198184739b48a18c3fbc65273",
        "wType": "Image"
      }
    },
    "customhamburger.imgLogout": {
      "__events__": {},
      "__info__": {
        "kuid": "e3c9f9e613e04f51a134cae4bde82b86",
        "srcKUID": "g8c77dbeed3b43038e912f34fbe614fd",
        "wType": "Image"
      }
    },
    "customhamburger.imgPayAPerson": {
      "__events__": {},
      "__info__": {
        "kuid": "a0c54d60a71747a8ae8b11553d222b30",
        "srcKUID": "c40e76c18b114f96a40918df9e984c72",
        "wType": "Image"
      }
    },
    "customhamburger.imgPayAPersonCollapse": {
      "__events__": {},
      "__info__": {
        "kuid": "e595380f68a547f29885383d1ace6d17",
        "srcKUID": "d4487e371bca4c0ab4fed6a829640f23",
        "wType": "Image"
      }
    },
    "customhamburger.imgProfileManagement": {
      "__events__": {},
      "__info__": {
        "kuid": "j2b2028870544af0aee72ffd25ff0271",
        "srcKUID": "c256c4de888b46eda952c16c301a26e6",
        "wType": "Image"
      }
    },
    "customhamburger.imgProfileManagementCollapse": {
      "__events__": {},
      "__info__": {
        "kuid": "ccb3438ce7a34ddc8ad148840eaaa73d",
        "srcKUID": "cc11b10b955f4de8ac2e1f5349683cdc",
        "wType": "Image"
      }
    },
    "customhamburger.imgTransfers": {
      "__events__": {},
      "__info__": {
        "kuid": "h0be1b25f70449f181fbd6bd1f7b77b8",
        "srcKUID": "f226bd307bf34f2a8645072816db1907",
        "wType": "Image"
      }
    },
    "customhamburger.imgWireTransfer": {
      "__events__": {},
      "__info__": {
        "kuid": "bffe81383aca4d0aacfcdf320a0bae44",
        "srcKUID": "d1eaae0c6e784ef3b1eace4495b3f8f7",
        "wType": "Image"
      }
    },
    "customhamburger.imgWireTransferCollapse": {
      "__events__": {},
      "__info__": {
        "kuid": "dde907a795fc48649bef37435b5f61fc",
        "srcKUID": "j64b6a202cfa4080a0cb2b9e0c591e00",
        "wType": "Image"
      }
    },
    "customhamburger.lblAboutUs": {
      "__events__": {},
      "__info__": {
        "kuid": "a1c08f0eff5343988a289e9438c29a04",
        "srcKUID": "i493eec7d326462f92313816d7ae5961",
        "wType": "Label"
      }
    },
    "customhamburger.lblAccounts": {
      "__events__": {},
      "__info__": {
        "kuid": "d50e8c10502249b89c81be8fbb88df8a",
        "srcKUID": "aed697189cee47098907b5f830c7134b",
        "wType": "Label"
      }
    },
    "customhamburger.lblAddKonyAccounts": {
      "__events__": {},
      "__info__": {
        "kuid": "bf6a415d032946eca014c02dd4e18f95",
        "srcKUID": "ff5d216a556e426ea0485d1305d1cdfc",
        "wType": "Label"
      }
    },
    "customhamburger.lblAddNonKonyAccounts": {
      "__events__": {},
      "__info__": {
        "kuid": "c002585af1364612ac2aa8687c32ecf1",
        "srcKUID": "c0b0a03608614e5f893ef37dabfa17a8",
        "wType": "Label"
      }
    },
    "customhamburger.lblAddPayee": {
      "__events__": {},
      "__info__": {
        "kuid": "h2fce2be69d04f05b02ee263817371f8",
        "srcKUID": "b1ed43109a994044957b192e976111d5",
        "wType": "Label"
      }
    },
    "customhamburger.lblAlerts": {
      "__events__": {},
      "__info__": {
        "kuid": "da188dd1465d4111bdad957d6d831507",
        "srcKUID": "jdf83704ef2b4947a774852f4c514bb6",
        "wType": "Label"
      }
    },
    "customhamburger.lblAlertsAndMessages": {
      "__events__": {},
      "__info__": {
        "kuid": "b182ccf94d4a4840891b25652a7eac2a",
        "srcKUID": "c8bfe7de3cb1469aaef6d3ffee8c215e",
        "wType": "Label"
      }
    },
    "customhamburger.lblBillPay": {
      "__events__": {},
      "__info__": {
        "kuid": "j3d2b679a1d740c0ab47249537a2d16d",
        "srcKUID": "e219504191c84becaee171477e34698a",
        "wType": "Label"
      }
    },
    "customhamburger.lblBillPayHistory": {
      "__events__": {},
      "__info__": {
        "kuid": "d9b348f3517e4ac18af25f20a8ee812d",
        "srcKUID": "ce6923a7ee8b477bab3d1bfa0979246d",
        "wType": "Label"
      }
    },
    "customhamburger.lblContactUs": {
      "__events__": {},
      "__info__": {
        "kuid": "e245805e07494f91949742e4a33f7959",
        "srcKUID": "efd35344776642a49ef6e3aae807a692",
        "wType": "Label"
      }
    },
    "customhamburger.lblExternalAccounts": {
      "__events__": {},
      "__info__": {
        "kuid": "i41e1eacda734ae4a1696f44b99a7bd2",
        "srcKUID": "abc7e43bdfb142efb0d94a00a797f211",
        "wType": "Label"
      }
    },
    "customhamburger.lblFaq": {
      "__events__": {},
      "__info__": {
        "kuid": "a557d71be71840d0bcc13d0506d7edbc",
        "srcKUID": "d8ba96ef5a2e4bf8be5c973713049dc0",
        "wType": "Label"
      }
    },
    "customhamburger.lblLocateUs": {
      "__events__": {},
      "__info__": {
        "kuid": "g8b7f6c4e7064d68862dd927a8588669",
        "srcKUID": "g3b7ff8590d0445197ae60ef7a93a17d",
        "wType": "Label"
      }
    },
    "customhamburger.lblLogout": {
      "__events__": {},
      "__info__": {
        "kuid": "ib5e66ec1a784c47b46bd6150a2ed5dd",
        "srcKUID": "h4feb1ebd1d844adbbb270e5f22582cd",
        "wType": "Label"
      }
    },
    "customhamburger.lblMessages": {
      "__events__": {},
      "__info__": {
        "kuid": "b3b7371b63e443d18158b7f6977d0dde",
        "srcKUID": "bc3a860393a642769c9453d52202a501",
        "wType": "Label"
      }
    },
    "customhamburger.lblMyAccounts": {
      "__events__": {},
      "__info__": {
        "kuid": "bd9bc4dc8374477bb02a9f6c72533cb2",
        "srcKUID": "a202b406f5f04a1698b17c9f0f9e1694",
        "wType": "Label"
      }
    },
    "customhamburger.lblMyPayee": {
      "__events__": {},
      "__info__": {
        "kuid": "b0548ed8f66848838b84bd8329c368ab",
        "srcKUID": "gac82f09141642e3bc00bf3a4c27e7a0",
        "wType": "Label"
      }
    },
    "customhamburger.lblNewMessage": {
      "__events__": {},
      "__info__": {
        "kuid": "ac85a165a10b45958b85a9678fad5f2c",
        "srcKUID": "d62536e6a959458a97d070c4fbc8bbcb",
        "wType": "Label"
      }
    },
    "customhamburger.lblPayABill": {
      "__events__": {},
      "__info__": {
        "kuid": "b44a5838bf5e4c1384e64f7ff2acc5a5",
        "srcKUID": "dc6b9bef9ddf45c0864525e01b4b08d8",
        "wType": "Label"
      }
    },
    "customhamburger.lblPrivacyPolicy": {
      "__events__": {},
      "__info__": {
        "kuid": "i3e4e4b500424f1aa6f47acc06e7e31c",
        "srcKUID": "ba595802100f49ed8ebfbfc56c559f36",
        "wType": "Label"
      }
    },
    "customhamburger.lblStatements": {
      "__events__": {},
      "__info__": {
        "kuid": "b7f498902a9c4cdfb60e70611ff40fc0",
        "srcKUID": "bff438c123aa40fc9a25144a929f7a4d",
        "wType": "Label"
      }
    },
    "customhamburger.lblTermsAndCondition": {
      "__events__": {},
      "__info__": {
        "kuid": "g29c43d6d01b4deb9354addca623e1ee",
        "srcKUID": "dc7b8618b5ed4cf3ba5a013618d07063",
        "wType": "Label"
      }
    },
    "customhamburger.lblTransferHistory": {
      "__events__": {},
      "__info__": {
        "kuid": "f064ef56f9ea4c2ea1e82203e2394adc",
        "srcKUID": "d62b43e095964b29b436135534a7afec",
        "wType": "Label"
      }
    },
    "customhamburger.lblTransferMoney": {
      "__events__": {},
      "__info__": {
        "kuid": "f6c9a79ec8284ca38b5b64f1c3687afe",
        "srcKUID": "b61740e755f3405791224a340675e733",
        "wType": "Label"
      }
    },
    "customhamburger.lblTransfers": {
      "__events__": {},
      "__info__": {
        "kuid": "b19554a8f0924bbc82e77e9fd5a445eb",
        "srcKUID": "d4c40832e9a140ab8fafbb30d4d1df1d",
        "wType": "Label"
      }
    },
    "customheader": {
      "__events__": {},
      "__info__": {
        "isRoot": true,
        "kuid": "e8cffa6fd8514712baf5eba2a68433cd",
        "srcKUID": "c04bbf50611342ca895c5e0a329aeb52",
        "wType": "FlexContainer"
      }
    },
    "flxAccountTypesSegment": {
      "__events__": {},
      "__info__": {
        "kuid": "dfd1e51856f94a4a9ea7d0cf3ecf95e5",
        "srcKUID": "d431114047984f3ba84cf9829500caf5",
        "wType": "FlexContainer"
      }
    },
    "flxBottomContainer": {
      "__events__": {},
      "__info__": {
        "kuid": "dbe418dba8cd412cb446961f14a77457",
        "srcKUID": "h9bdf039c3f54878b18ff66171c8c6c6",
        "wType": "FlexContainer"
      }
    },
    "flxHamburger": {
      "__events__": {},
      "__info__": {
        "kuid": "ec426ef8a3634e44806ff89ebf4d3c32",
        "srcKUID": "f04c6e11e7da43b49dd181b8b47d93c4",
        "wType": "FlexContainer"
      },
      "width": {
        "Default": {
          "type": "string",
          "value": "450dp"
        }
      }
    },
    "flxHamburgerBack": {
      "__events__": {},
      "__info__": {
        "kuid": "b21018157aa24c42af2eae84d22b5a20",
        "srcKUID": "d74ea43244984beda96f3fdfd7e1de6b",
        "wType": "FlexContainer"
      }
    },
    "flxSeperatorHor2": {
      "__events__": {},
      "__info__": {
        "kuid": "ee42c9ca82cf4e1489dfd4266de6434a",
        "srcKUID": "hadeefb9ccf84d75b58e19e7a860af8f",
        "wType": "FlexContainer"
      }
    },
    "flxSeperatorhor": {
      "__events__": {},
      "__info__": {
        "kuid": "a0c58dabac304384ac896ac47842d406",
        "srcKUID": "d0d14e359d9b4f2bae40325782d5d3d0",
        "wType": "FlexContainer"
      }
    },
    "flxTopmenu": {
      "__events__": {},
      "__info__": {
        "kuid": "f4c96f83a9ad4d1482f41f56cbc92e0d",
        "srcKUID": "ed60ec01cd4843d8acaf4c0c4767b493",
        "wType": "FlexContainer"
      }
    },
    "flxUserActions": {
      "__events__": {},
      "__info__": {
        "kuid": "aa00a85806cd45f8a9a8ee88a9b88981",
        "srcKUID": "j914824243a446a18dc539def72a7642",
        "wType": "FlexContainer"
      }
    },
    "headermenu": {
      "__events__": {},
      "__info__": {
        "kuid": "f2183acb747348d090d2184e5aed0ccb",
        "srcKUID": "haabafcdc12f4455b3af44d1e0d8f80b",
        "wType": "UserWidgetInstance"
      }
    },
    "headermenu.btnLogout": {
      "__events__": {},
      "__info__": {
        "kuid": "a2b5bdabf30b4fc8a6cb7407d1459f5b",
        "srcKUID": "a766f3cd9f714697b54e4cdcbe1c544b",
        "wType": "Button"
      },
      "i18n_text": "i18n.common.logout"
    },
    "headermenu.flxMessages": {
      "__events__": {},
      "__info__": {
        "kuid": "b623279671c046338632476ab6d0ab5f",
        "srcKUID": "ac3447a671db4ff79c563e385d237583",
        "wType": "FlexContainer"
      }
    },
    "headermenu.flxResetUserImg": {
      "__events__": {},
      "__info__": {
        "kuid": "a95a5b6acf0d46d49555c81379b53033",
        "srcKUID": "adcf593a077c4c0cb56c90ee73238583",
        "wType": "FlexContainer"
      }
    },
    "headermenu.flxUserId": {
      "__events__": {},
      "__info__": {
        "kuid": "afbe3008e85a4cbda80a128a9b9a725e",
        "srcKUID": "c135ea56ffd24834a20c4f3af08e75ed",
        "wType": "FlexContainer"
      }
    },
    "headermenu.flxVerticalSeperator1": {
      "__events__": {},
      "__info__": {
        "kuid": "je8429e45a054b04a16dd567bebb26c7",
        "srcKUID": "g1cf2c5ea04748138b67069bf6443784",
        "wType": "FlexContainer"
      }
    },
    "headermenu.flxVerticalSeperator2": {
      "__events__": {},
      "__info__": {
        "kuid": "g6671d08f0b84743b9dd257f308c712a",
        "srcKUID": "i869d64f25f744c7a219ce87160f4fa9",
        "wType": "FlexContainer"
      }
    },
    "headermenu.flxWarning": {
      "__events__": {},
      "__info__": {
        "kuid": "e637f7c7a6054670bd304f774da5fee9",
        "srcKUID": "a3f637c9fa154e6ca5621edf7af7f744",
        "wType": "FlexContainer"
      }
    },
    "headermenu.flximgUserResetWrapper": {
      "__events__": {},
      "__info__": {
        "kuid": "bb4b6481d8114fd591ef3e938587ce1a",
        "srcKUID": "e3916b40967c456aa3942940472ad47e",
        "wType": "FlexContainer"
      }
    },
    "headermenu.imgDropdown": {
      "__events__": {},
      "__info__": {
        "kuid": "fb7453bd28ff4bfbbbc4e3ee1920ceb0",
        "srcKUID": "h3d2b4b7f954464d931e34492064ab17",
        "wType": "Image"
      }
    },
    "headermenu.imgNotifications": {
      "__events__": {},
      "__info__": {
        "kuid": "c41ad9cfdaf0413aa7256c5f8d5e0472",
        "srcKUID": "j053dc709b2c497681932e7129f70ddb",
        "wType": "Image"
      }
    },
    "headermenu.imgUserBoundary": {
      "__events__": {},
      "__info__": {
        "kuid": "d4a495b192a148e798ac0997a7fc54bb",
        "srcKUID": "g6047dd874ff440fab7ed86f7b808fdd",
        "wType": "Image"
      }
    },
    "headermenu.imgUserReset": {
      "__events__": {},
      "__info__": {
        "kuid": "f4145666aa6d4c4f9f69b0ad3d6314f0",
        "srcKUID": "i9a593cdf8934086b62dd5b4b4d93eda",
        "wType": "Image"
      }
    },
    "headermenu.imgWarning": {
      "__events__": {},
      "__info__": {
        "kuid": "g6fecbc6588e4b75b61731af1c5020a0",
        "srcKUID": "j00ce4f7525e4f2aa69884ac2cc7b8a0",
        "wType": "Image"
      }
    },
    "headermenu.imgheaderdefault": {
      "__events__": {},
      "__info__": {
        "kuid": "e92d37e40e9a415e86a998f5ad127b9e",
        "srcKUID": "i589d54c00ef4b33bc0e54ccd9b1e9b9",
        "wType": "Image"
      }
    },
    "headermenu.lblNewMessages": {
      "__events__": {},
      "__info__": {
        "kuid": "h981b1db0195461f9a4f8512d06b5320",
        "srcKUID": "bc2f4a9f76164bc18e8e1663bbba3a61",
        "wType": "Label"
      }
    },
    "headermenu.rtxWarning": {
      "__events__": {},
      "__info__": {
        "kuid": "i8d4359f1df34558bf77b84207174321",
        "srcKUID": "i05c5f9533194937886bb0d238f640e3",
        "wType": "RichText"
      },
      "i18n_text": "i18n.CustomerFeedback.YouHaveNotLoggedIn"
    },
    "imgKony": {
      "__events__": {},
      "__info__": {
        "kuid": "c7d787c4a2b546deaf4d763991583479",
        "srcKUID": "i89a4c93ab68416c8f6a24b3e85d037c",
        "wType": "Image"
      }
    },
    "imgToolTip": {
      "__events__": {},
      "__info__": {
        "kuid": "b2fecbeb8b7f44d4b2f5797c4883f301",
        "srcKUID": "b05c4200ee7747f2b596bc0eafc18760",
        "wType": "Image"
      }
    },
    "lblUserEmail": {
      "__events__": {},
      "__info__": {
        "kuid": "ff523376beda421793f4c1c5e8beea47",
        "srcKUID": "j0ea4a96f1104289ad3d0312ed141d3b",
        "wType": "Label"
      },
      "i18n_text": "i18n.AccountsDetails.usernamekonycom"
    },
    "leftcontainer": {
      "__events__": {},
      "__info__": {
        "kuid": "fa7a9cd8c04a4c708f2f2a6fee5cfd89",
        "srcKUID": "bd51d17a858b470f86d30f1fdb49d6d3",
        "wType": "FlexContainer"
      }
    },
    "rightcontainer": {
      "__events__": {},
      "__info__": {
        "kuid": "a2c0b76bf4cb4bdb8fb67c1e96d69a9a",
        "srcKUID": "j9e2ac398ee647f8b33a80640560a977",
        "wType": "FlexContainer"
      }
    },
    "segUserActions": {
      "__events__": {},
      "__info__": {
        "kuid": "a258147675fa4b648bc60c3ae3a37b75",
        "srcKUID": "h6bf423223694ef0be1f75d0abee1c0a",
        "wType": "Segment"
      }
    },
    "topmenu": {
      "__events__": {},
      "__info__": {
        "kuid": "fa8fce46765340b6b6466edac4f51d01",
        "srcKUID": "f3bc1d211a8342419317a1f649e456a0",
        "wType": "UserWidgetInstance"
      }
    },
    "topmenu.CopyLabel0a8b12f7002084d": {
      "__events__": {},
      "__info__": {
        "kuid": "c7628ccda9884fe4b774932bf12d6ce2",
        "srcKUID": "a051506ea3864885b198b844795df50e",
        "wType": "Label"
      }
    },
    "topmenu.CopyLabel0b07dfb57de2445": {
      "__events__": {},
      "__info__": {
        "kuid": "bed33b8871864bac883c9e332dedbcfb",
        "srcKUID": "f0f9e56b281d4eceb0749c61522f4a90",
        "wType": "Label"
      }
    },
    "topmenu.CopyLabel0b53cc10abb0342": {
      "__events__": {},
      "__info__": {
        "kuid": "b6a0f66494fc41c1956b64bcdb56cf29",
        "srcKUID": "a28491ec994f45f18c08fe5d1f9b23c5",
        "wType": "Label"
      }
    },
    "topmenu.CopyLabel0bb648d916e554d": {
      "__events__": {},
      "__info__": {
        "kuid": "e33bb143a8e84242bc8087ffe8241f2d",
        "srcKUID": "bc077f5775344d05abc4b26b93f547e2",
        "wType": "Label"
      }
    },
    "topmenu.CopyLabel0h9e71b8a76ad44": {
      "__events__": {},
      "__info__": {
        "kuid": "e61e7523b52f4d2bae5d2d7f93131f7f",
        "srcKUID": "j8cfefac3629406384cc9ab091131d25",
        "wType": "Label"
      }
    },
    "topmenu.CopyLabel0ifdc84d9814842": {
      "__events__": {},
      "__info__": {
        "kuid": "h1ac90d2b51849438ea4d32521ba4e3b",
        "srcKUID": "ja80f2c849514793bc2b7ef76880027c",
        "wType": "Label"
      }
    },
    "topmenu.Label0b60331706e5e45": {
      "__events__": {},
      "__info__": {
        "kuid": "hce2185cfb7e45f9ae320a09d60cca36",
        "srcKUID": "f5dfdacb3a9c44f0a62033ada65c55ec",
        "wType": "Label"
      }
    },
    "topmenu.Label0dcf00103bdba46": {
      "__events__": {},
      "__info__": {
        "kuid": "deeb0a8b25694031bc1f84612acbf2a3",
        "srcKUID": "c696e7354c7341469fe1c6fac1869c9b",
        "wType": "Label"
      }
    },
    "topmenu.flxContextualMenu": {
      "__events__": {},
      "__info__": {
        "kuid": "e2f4bd636c5242be9a2d055f504cd433",
        "srcKUID": "d93e029b84b847fc81a03de1b30f353f",
        "wType": "FlexContainer"
      }
    },
    "topmenu.flxFeedback": {
      "__events__": {},
      "__info__": {
        "kuid": "f879330f2aec48cc87d937bd4f8d353a",
        "srcKUID": "cd10d4b4f565433fb35f2d2d0a97fe1e",
        "wType": "FlexContainer"
      }
    },
    "topmenu.flxFeedbackimg": {
      "__events__": {},
      "__info__": {
        "kuid": "c94daf945c544bcba93e8579dccf4d02",
        "srcKUID": "g11b5488a8d343ae866e1de13660acda",
        "wType": "FlexContainer"
      }
    },
    "topmenu.flxHelp": {
      "__events__": {},
      "__info__": {
        "kuid": "bb736fd95957467489e23565fa26cbfe",
        "srcKUID": "i2d06c634cdc4172ba80e744bcdcfebb",
        "wType": "FlexContainer"
      }
    },
    "topmenu.flxMenu": {
      "__events__": {},
      "__info__": {
        "kuid": "i38ba251da354fff81cf88ce01d55807",
        "srcKUID": "e3be9a8fdce047e6bfc57c6134e9a975",
        "wType": "FlexContainer"
      }
    },
    "topmenu.flxMenusMain": {
      "__events__": {},
      "__info__": {
        "kuid": "b268ffd4f62249ec96fbf9306239037a",
        "srcKUID": "da5555fd4c164726bf9860ec53363048",
        "wType": "FlexContainer"
      }
    },
    "topmenu.flxPayBills": {
      "__events__": {},
      "__info__": {
        "kuid": "c83224cf5c774b0fb1b1e8bf6dc97ebc",
        "srcKUID": "b0405a53deab419f93cadece0ff2e29e",
        "wType": "FlexContainer"
      }
    },
    "topmenu.flxSendMoney": {
      "__events__": {},
      "__info__": {
        "kuid": "ba514abacf5047f19137587ea25fdf2c",
        "srcKUID": "aa94ebd29fcb48ee8d1006f949210f98",
        "wType": "FlexContainer"
      }
    },
    "topmenu.flxSeperator": {
      "__events__": {},
      "__info__": {
        "kuid": "de5cf678e468423893d8b00b76601830",
        "srcKUID": "d7f042bfaaf046d5942ed568eec44b23",
        "wType": "FlexContainer"
      }
    },
    "topmenu.flxSeperator1": {
      "__events__": {},
      "__info__": {
        "kuid": "f0ba373d6e9b4e30a6892acddeb9d7c8",
        "srcKUID": "i09ec806e136452589e84e2f83e53e68",
        "wType": "FlexContainer"
      }
    },
    "topmenu.flxSeperator3": {
      "__events__": {},
      "__info__": {
        "kuid": "db4101786c9f4dcfbfcb4e0eb276df9d",
        "srcKUID": "c7f495ff87f14421b1740a719941e64b",
        "wType": "FlexContainer"
      }
    },
    "topmenu.flxTransferMoney": {
      "__events__": {},
      "__info__": {
        "kuid": "gd8d6fe68eef4606b5704781807a9ee1",
        "srcKUID": "ceecbd5ac73749c0b95918674f9ffb17",
        "wType": "FlexContainer"
      }
    },
    "topmenu.flxTransfersAndPay": {
      "__events__": {},
      "__info__": {
        "kuid": "f491344d0b9a40a5bce42fb80058e958",
        "srcKUID": "j83fe7fb58c04ec394a0d8313351f539",
        "wType": "FlexContainer"
      }
    },
    "topmenu.flxWireMoney": {
      "__events__": {},
      "__info__": {
        "kuid": "d990f773870744f6b4f4b74b36db8a54",
        "srcKUID": "bed5646364634571b664cc577ca65144",
        "wType": "FlexContainer"
      }
    },
    "topmenu.flxaccounts": {
      "__events__": {},
      "__info__": {
        "kuid": "affa347378844ad39dbf7c7252571831",
        "srcKUID": "b6366fc9b5854ca5aecefb68e89386e7",
        "wType": "FlexContainer"
      }
    },
    "topmenu.flxverseperator1": {
      "__events__": {},
      "__info__": {
        "kuid": "f349bb9465dd4d9d8b86b567a8b9a23a",
        "srcKUID": "cd2f891c8cc94e9b87555c8c6066f221",
        "wType": "FlexContainer"
      }
    },
    "topmenu.flxverseperator2": {
      "__events__": {},
      "__info__": {
        "kuid": "i074255cc16f47da9d60f766503276a6",
        "srcKUID": "f9719a0b9d3f42b690d0b92a4477ec5d",
        "wType": "FlexContainer"
      }
    },
    "topmenu.imgAccounts": {
      "__events__": {},
      "__info__": {
        "kuid": "a149e6b48f614233b101ade5ced5225e",
        "srcKUID": "h41efc3bbd044c57a91bf7a47617cb38",
        "wType": "Image"
      }
    },
    "topmenu.imgFeedback": {
      "__events__": {},
      "__info__": {
        "kuid": "ba21ad133f314ad3b49d73a42ed0de4b",
        "srcKUID": "f4a6ae818e504daab62eabcb47b9a961",
        "wType": "Image"
      }
    },
    "topmenu.imgHelp": {
      "__events__": {},
      "__info__": {
        "kuid": "c3ea7284f6ea4f2385ac73a744c029ab",
        "srcKUID": "h95d6926104248c4abfea8af0ad0bb2d",
        "wType": "Image"
      }
    },
    "topmenu.imgMenu": {
      "__events__": {},
      "__info__": {
        "kuid": "h7d47772d1974a06ae399d09df2dc7b4",
        "srcKUID": "be1e045b3a3347d88509b7efc7d8015b",
        "wType": "Image"
      }
    },
    "topmenu.imgTransfers": {
      "__events__": {},
      "__info__": {
        "kuid": "b44bea383e94472da672e6712c88a57f",
        "srcKUID": "aa4f2882266a4cdda63980b155b9df71",
        "wType": "Image"
      }
    },
    "topmenu.lblAccounts": {
      "__events__": {},
      "__info__": {
        "kuid": "i94d5e0e4ce14fbdb8104631d565d877",
        "srcKUID": "bcf724a120b24fdbb2278444060c639c",
        "wType": "Label"
      }
    },
    "topmenu.lblFeedback": {
      "__events__": {},
      "__info__": {
        "kuid": "id9419b1972e44afa4b36d1c6feffc2f",
        "srcKUID": "i45ffb2e674e425ba9e5542807008a2e",
        "wType": "Label"
      }
    },
    "topmenu.lblHelp": {
      "__events__": {},
      "__info__": {
        "kuid": "cbd6ce13400e4e64b29a051222bddce9",
        "srcKUID": "b910c72e31ac4950b9d4fcca565a1df4",
        "wType": "Label"
      }
    },
    "topmenu.lblMenu": {
      "__events__": {},
      "__info__": {
        "kuid": "c5913cd218a643f68ae091406385b1f6",
        "srcKUID": "h7239719ed104114b04620b3da15cd02",
        "wType": "Label"
      }
    },
    "topmenu.lblTransferAndPay": {
      "__events__": {},
      "__info__": {
        "kuid": "c68ad455da8943b290c905ea7f1fa138",
        "srcKUID": "gf970d4c8185498db726665e80e4fff7",
        "wType": "Label"
      }
    },
    "CopyflxVerticalSeperator0b961fc23108f4b": {
      "__events__": {},
      "__info__": {
        "kuid": "be141769ba3548e386965d45113c18d0",
        "srcKUID": "b6e0434c2f904010bfff7590777daf67",
        "wType": "FlexContainer"
      }
    },
    "customhamburger.CopyflxSeperator0a7fd02d026804c": {
      "__events__": {},
      "__info__": {
        "kuid": "e66cedf8040d4c8a80dccfafe990a460",
        "srcKUID": "e6c67e99b0b64a4e83a34c312dc501a5",
        "wType": "FlexContainer"
      }
    },
    "customhamburger.CopyflxSeperator0dfcbfe80de1946": {
      "__events__": {},
      "__info__": {
        "kuid": "cea44819e2dd423f967aa4f8e0204783",
        "srcKUID": "ec5e9cdda1b4473aa156d59730730f65",
        "wType": "FlexContainer"
      }
    },
    "customhamburger.CopyflxSeperator0e9219bd0514c46": {
      "__events__": {},
      "__info__": {
        "kuid": "a9b9166f2b104c5a982b8dbdc823c0b0",
        "srcKUID": "g39fe81fa7b0498b87ae946e0e5daf27",
        "wType": "FlexContainer"
      }
    },
    "customhamburger.CopyflxSeperator0ef56548331074b": {
      "__events__": {},
      "__info__": {
        "kuid": "fef5c72d250349e28e04b0c1f5773742",
        "srcKUID": "j62d0667a0e5431d94bbeb7127ae6e11",
        "wType": "FlexContainer"
      }
    },
    "customhamburger.CopyflxSeperator0fcac07927fef43": {
      "__events__": {},
      "__info__": {
        "kuid": "f1f68b925a3e46e68fabd03852d7aeed",
        "srcKUID": "e1a67da7232b497db891680f5147e005",
        "wType": "FlexContainer"
      }
    },
    "customhamburger.flxAddExternalBankAccounts": {
      "__events__": {},
      "__info__": {
        "kuid": "c13c1c77836f4d28897a90559586a828",
        "srcKUID": "d829e28813f643ab8cc7b53a38a11877",
        "wType": "FlexContainer"
      }
    },
    "customhamburger.flxCardManagement": {
      "__events__": {},
      "__info__": {
        "kuid": "jae00daa50384c63a0b0a95c6e07ffca",
        "srcKUID": "fca38cea39334c569e00cf833a296ff0",
        "wType": "FlexContainer"
      }
    },
    "customhamburger.flxPFM": {
      "__events__": {},
      "__info__": {
        "kuid": "a7dfc30adb9445a79951fefd2ef3bd54",
        "srcKUID": "bfc8636c05da4c4e9131d447fb520a97",
        "wType": "FlexContainer"
      }
    },
    "customhamburger.flxStopPaymentRequests": {
      "__events__": {},
      "__info__": {
        "kuid": "i694129026ab4e3aac9240c68d6ca945",
        "srcKUID": "c6e0f2b6aa1948688094395a053fa1d8",
        "wType": "FlexContainer"
      }
    },
    "customhamburger.lblAddExternalBankAccounts": {
      "__events__": {},
      "__info__": {
        "kuid": "id9e7be7843b4a10bb6a1105ce0b269a",
        "srcKUID": "edabb77d8ed2442ab7ed61fb91558f23",
        "wType": "Label"
      }
    },
    "customhamburger.lblCardManagement": {
      "__events__": {},
      "__info__": {
        "kuid": "de2a8f6dde654a28b36ce1c685401fdc",
        "srcKUID": "b0c732201f424826b31b883b5eec6956",
        "wType": "Label"
      }
    },
    "customhamburger.lblPFM": {
      "__events__": {},
      "__info__": {
        "kuid": "hb2c9727ea374ae7bc077fac2a339d42",
        "srcKUID": "e09127ede361436abb545b5527fba0e0",
        "wType": "Label"
      }
    },
    "customhamburger.lblStopPaymentRequests": {
      "__events__": {},
      "__info__": {
        "kuid": "a30a6cf104e944ee83fd8502a6261ad0",
        "srcKUID": "a87770408c7e42698c673972b990dd6d",
        "wType": "Label"
      }
    }
  },
  "id": "customheader",
  "info": null,
  "isdatareferenced": false,
  "isvisible": true,
  "kuid": "e8cffa6fd8514712baf5eba2a68433cd",
  "layouttype": 2,
  "masterType": 0,
  "name": "kony.ui.UserWidgetInstance",
  "parent": "flxHeader",
  "pf": "frmAddInternalAccount",
  "snaptogrid": true,
  "sourceUserWidget": "c04bbf50611342ca895c5e0a329aeb52",
  "wType": "UserWidgetInstance",
  "zindex": 1000
}