{
  "@class": "com.kony.gen.viz.model.container.KVizScrollFlexForm",
  "DNDConfig": null,
  "_margin_": [
    0,
    0,
    0,
    0
  ],
  "_orientation_": 1,
  "_padding_": [
    0,
    0,
    0,
    0
  ],
  "_percent_": true,
  "_skin_": "sa6b76c3a5c64558aa86f1f3835ef1e5",
  "_title_": null,
  "addWidgetsdone": false,
  "allboxes": [],
  "android": {
    "psp": {
      "windowSoftInputMode": 2
    }
  },
  "canUpdateUI": true,
  "canvasWidth": 2000,
  "children": [
    "flxHeader",
    "flxMainContainer",
    "flxFooter",
    "flxLogout",
    "flxLoading"
  ],
  "containerweight": 100,
  "controllerInfo": {
    "default": {
      "channel": "desktop",
      "name": "frmAddInternalAccountController"
    }
  },
  "currentLocale": "default",
  "desktopweb": {
    "needAppMenu": false
  },
  "device": "desktopweb",
  "displayorientation": 1,
  "enabledforidletimeout": true,
  "friendlyName": "frmAddInternalAccount",
  "id": "frmAddInternalAccount",
  "ide_onDeviceBack": "AS_Form_i0bb08defb9f4ff2a983b4e42e5a7093",
  "ide_onTouchEnd": "AS_Form_j8f3e23d143d43cd9dc6bb231366f5d1",
  "ide_postShow": "AS_Form_db7d2c00709448119ad5e593e1219416",
  "ide_preShow": "AS_Form_dad23327add24b55b3d7e1c346d61713",
  "info": null,
  "initdone": false,
  "inputaccessoryviewtype": 4,
  "ipad": {
    "psp": {
      "inputAccessoryViewType": 4
    }
  },
  "iphone": {
    "psp": {
      "inputAccessoryViewType": 4
    }
  },
  "isvisible": true,
  "kuid": "i0c7320b49fe40e1a3a168c136395e15",
  "layouttype": 2,
  "name": "kony.ui.Form2",
  "needappmenu": true,
  "paddinginpixel": false,
  "platform": "desktopweb",
  "prevDevice": "desktopweb",
  "prevPlatform": "desktopweb",
  "retainscrollposition": false,
  "shellCSS": "desktop",
  "snapgridsize": 10,
  "snaptogrid": true,
  "titleBarSkin": "s2e24ee0a8ca46b089d8a5bea8a1a32e",
  "titlebar": true,
  "type": 3,
  "wType": "Form"
}