{
  "@class": "com.kony.gen.viz.model.component.KVizListBox",
  "DNDConfig": null,
  "__parentReadjusting__": false,
  "_height_": {
    "type": "string",
    "value": "40dp"
  },
  "_left_": {
    "type": "string",
    "value": "50.80%"
  },
  "_margin_": [
    0,
    0,
    0,
    0
  ],
  "_padding_": [
    0,
    0,
    0,
    0
  ],
  "_skin_": "s4d3eb56cd07471fa3bd40485a2c2e84",
  "_top_": {
    "type": "string",
    "value": "103dp"
  },
  "_width_": {
    "type": "string",
    "value": "46.60%"
  },
  "canUpdateUI": true,
  "containerweight": 100,
  "contentalignment": 4,
  "context": {
    "channel": "desktop",
    "formID": "uwu53b0de3a8a648eaa6f120313abbdbec",
    "platform": "desktopweb",
    "templateType": "userwidgets",
    "topLevelBox": null
  },
  "groupcells": false,
  "id": "listbxTo",
  "info": null,
  "isvisible": true,
  "kuid": "ic7d3c58c7dc441ca2b90f9af65948f8",
  "masterdata": [],
  "name": "kony.ui.ListBox",
  "parent": "PayDueAmount",
  "pf": "userwidgetmodel",
  "selectedkey": null,
  "selectedkeys": null,
  "selectedkeyvalue": null,
  "selectedkeyvalues": null,
  "size": 18,
  "viewconfig": {
    "toggleViewConfig": {
      "viewStyle": 0
    }
  },
  "viewtype": 0,
  "wType": "ListBox",
  "zindex": 2
}