{
  "DNDConfig": null,
  "_height_": {
    "type": "string",
    "value": "220dp"
  },
  "_margin_": [
    0,
    0,
    0,
    0
  ],
  "_orientation_": 6,
  "_padding_": [
    0,
    0,
    0,
    0
  ],
  "_percent_": true,
  "_skin_": "s24c92fc23b14f5484b693ee9b8a9b35",
  "allboxes": [],
  "autogrowmode": 0,
  "canUpdateUI": true,
  "children": [
    "flxIdentifier",
    "flxSelectedRowWrapper"
  ],
  "clipbounds": true,
  "containerId": true,
  "containerweight": 100,
  "controllerInfo": {
    "default": {
      "channel": "desktop",
      "name": "flxScheduledTransactionsSelectedController"
    }
  },
  "enablescrolling": true,
  "id": "flxScheduledTransactionsSelected",
  "info": null,
  "isTemplate": true,
  "isvisible": true,
  "kuid": "h66a23e35f7e466ba69b821b90b10149",
  "layouttype": 3,
  "name": "kony.ui.FlexContainer",
  "parent": "segScheduledTransactionsSelected",
  "pf": "segScheduledTransactionsSelected",
  "snapgridsize": 10,
  "snaptogrid": true,
  "wType": "FlexContainer",
  "widgetalignment": 1
}