{
  "@class": "com.kony.gen.viz.model.component.KVizLabel",
  "DNDConfig": null,
  "__parentReadjusting__": false,
  "_height_": {
    "type": "ref",
    "value": "preferred"
  },
  "_margin_": [
    1,
    1,
    1,
    1
  ],
  "_padding_": [
    2,
    0,
    2,
    1
  ],
  "_skin_": "sbe50fd8b88b43d986df39c3e168b360",
  "_text_": "Label",
  "_top_": {
    "type": "string",
    "value": "214dp"
  },
  "_width_": {
    "type": "ref",
    "value": "preferred"
  },
  "_wrapping_": 2,
  "android": {
    "textStyle": {
      "letterSpacing": 0,
      "strikeThrough": false
    }
  },
  "canUpdateUI": true,
  "centerx": {
    "type": "string",
    "value": "50%"
  },
  "containerweight": 100,
  "contentalignment": 4,
  "id": "lblRefrenceNumber",
  "info": null,
  "ipad": {
    "psp": {
      "wrapping": 2
    }
  },
  "iphone": {
    "psp": {
      "wrapping": 2
    }
  },
  "isvisible": true,
  "kuid": "c31159cadcfb4118affb2e7e83617f87",
  "name": "kony.ui.Label",
  "paddinginpixel": false,
  "parent": "acknowledgmentVer",
  "pf": "userwidgetmodel",
  "texti18n": "i18n.transfers.RefrenceNumber",
  "tooltip": "",
  "wType": "Label",
  "zindex": 1
}