{
    "AS_Button_a0e37ed89ed945b6b08e3a5220a0dd3d": {
        "id": "AS_Button_a0e37ed89ed945b6b08e3a5220a0dd3d",
        "type": "ACTION_SEQUENCE",
        "params": [{
            "datatype": "collection",
            "name": "eventobject"
        }],
        "contextObj": {
            "name": "frmPayAPerson",
            "type": "forms",
            "platform": "",
            "KUID": "b19e9f55ebab4254b5eadf20d2a4c409"
        },
        "language": "js",
        "actions": [{
            "id": "ADD_SNIPPET__e27cefc0397140ca9bbf201bd7c78545",
            "type": "ADD_SNIPPET",
            "codeSnippet": "this.setSendRequestSegmentData();",
            "parentId": null,
            "callbackType": null
        }]
    }
}