{
    "AS_Button_e86aaf4ed591458fb7783270ac7c8154": {
        "id": "AS_Button_e86aaf4ed591458fb7783270ac7c8154",
        "type": "ACTION_SEQUENCE",
        "params": [{
            "datatype": "collection",
            "name": "eventobject"
        }],
        "contextObj": {
            "name": "frmAccountsDetails",
            "type": "forms",
            "platform": "",
            "KUID": "f22d64f7cb454ad980b530de61c4240a"
        },
        "language": "js",
        "actions": [{
            "id": "ADD_SNIPPET__b587a91cef24400abebea0416805e799",
            "type": "ADD_SNIPPET",
            "codeSnippet": "this.showAccountSummary();",
            "parentId": null,
            "callbackType": null
        }]
    }
}