{
    "AS_Button_a90cfcbf1a404ba2a311ef010b64c523": {
        "id": "AS_Button_a90cfcbf1a404ba2a311ef010b64c523",
        "type": "ACTION_SEQUENCE",
        "params": [{
            "datatype": "collection",
            "name": "eventobject"
        }],
        "contextObj": {
            "name": "frmLogin",
            "type": "forms",
            "platform": "",
            "KUID": "j0329c6c64654440bf366abc8de81b74"
        },
        "language": "js",
        "actions": [{
            "id": "ADD_SNIPPET__ddc6ccc9b96445aabb29150ed8100440",
            "type": "ADD_SNIPPET",
            "codeSnippet": "window.open(\"https://www.orangecountyscu.org/globalassets/pdf-files/disclosures/disc-online-privacy-policy-07172017.pdf\");",
            "parentId": null,
            "callbackType": null
        }]
    }
}