{
    "AS_Button_dce2271c9adb4ff288c6aa86d9dc85ff": {
        "id": "AS_Button_dce2271c9adb4ff288c6aa86d9dc85ff",
        "type": "ACTION_SEQUENCE",
        "params": [{
            "datatype": "collection",
            "name": "eventobject"
        }, {
            "datatype": "collection",
            "name": "context"
        }],
        "language": "js",
        "actions": [{
            "id": "ADD_SNIPPET_ide_onClick_ee9746de70104776957f545764579a81",
            "type": "ADD_SNIPPET",
            "codeSnippet": "this.showPayABill();",
            "callbackType": null
        }]
    }
}