{
    "AS_Button_c067dcabf76144fc9e1fa5131fb947fb": {
        "id": "AS_Button_c067dcabf76144fc9e1fa5131fb947fb",
        "type": "ACTION_SEQUENCE",
        "params": [{
            "datatype": "collection",
            "name": "eventobject"
        }],
        "contextObj": {
            "name": "frmTransfers",
            "type": "forms",
            "platform": "",
            "KUID": "e9f47be88ab64765a96b1fae7d2a7720"
        },
        "language": "js",
        "actions": [{
            "id": "ADD_SNIPPET__dabb0346141c406c8c2a4cb195a98a45",
            "type": "ADD_SNIPPET",
            "codeSnippet": "this.getUserRecentTransactions();",
            "parentId": null,
            "callbackType": null
        }]
    }
}