{
    "AS_Button_fa1c5037917246cba309fa50f1bdbb51": {
        "id": "AS_Button_fa1c5037917246cba309fa50f1bdbb51",
        "type": "ACTION_SEQUENCE",
        "params": [{
            "datatype": "collection",
            "name": "eventobject"
        }, {
            "datatype": "collection",
            "name": "context"
        }],
        "contextObj": {
            "name": "segExternalAccountsTransfersSelected",
            "type": "templates",
            "platform": "",
            "KUID": "fe5456b065724018ae2969ab450fb1ca"
        },
        "language": "js",
        "actions": [{
            "id": "ADD_SNIPPET__cefe64e862064684b5b2ca8640874982",
            "type": "ADD_SNIPPET",
            "codeSnippet": "",
            "parentId": null,
            "callbackType": null
        }]
    }
}