{
    "AS_Button_a61805ca8984455683cd2397f588215f": {
        "id": "AS_Button_a61805ca8984455683cd2397f588215f",
        "type": "ACTION_SEQUENCE",
        "params": [{
            "datatype": "collection",
            "name": "eventobject"
        }, {
            "datatype": "collection",
            "name": "context"
        }],
        "contextObj": {
            "name": "segExternalAccountsTransfersSelected",
            "type": "templates",
            "platform": "",
            "KUID": "fe5456b065724018ae2969ab450fb1ca"
        },
        "language": "js",
        "actions": [{
            "id": "ADD_SNIPPET__h25c90a85861475fa2678ca738b77ee5",
            "type": "ADD_SNIPPET",
            "codeSnippet": null,
            "parentId": null,
            "callbackType": null
        }]
    }
}