{
    "AS_Button_a49cc21b9e58424295f061fa768dc7ee": {
        "id": "AS_Button_a49cc21b9e58424295f061fa768dc7ee",
        "type": "ACTION_SEQUENCE",
        "params": [{
            "datatype": "collection",
            "name": "eventobject"
        }],
        "contextObj": {
            "name": "frmNotificationsAndMessages",
            "type": "forms",
            "platform": "",
            "KUID": "a83a23bb52bc4894a44b027a89964c1b"
        },
        "language": "js",
        "actions": [{
            "id": "ADD_SNIPPET__d8112185ee9149be819d1827a76246f0",
            "type": "ADD_SNIPPET",
            "codeSnippet": "this.NewMessage();",
            "parentId": null,
            "callbackType": null
        }]
    }
}