{
    "AS_Button_j66ffbd6e91d4c1ea7af845c88395205": {
        "id": "AS_Button_j66ffbd6e91d4c1ea7af845c88395205",
        "type": "ACTION_SEQUENCE",
        "params": [{
            "datatype": "collection",
            "name": "eventobject"
        }, {
            "datatype": "collection",
            "name": "context"
        }],
        "contextObj": {
            "name": "segAccountLandingDetailsMyMessages",
            "type": "templates",
            "platform": null,
            "KUID": "f33fa8648efd43a9b4617968dd37834e"
        },
        "language": "js",
        "actions": [{
            "id": "ADD_SNIPPET_ide_onClick_d82ed8f74e3c4541b61a7f5c15ccbb4a",
            "type": "ADD_SNIPPET",
            "codeSnippet": null,
            "callbackType": null
        }]
    }
}