{
    "AS_Button_gd255f860c7946ffa2041c83362cc3a4": {
        "id": "AS_Button_gd255f860c7946ffa2041c83362cc3a4",
        "type": "ACTION_SEQUENCE",
        "params": [{
            "datatype": "collection",
            "name": "eventobject"
        }],
        "contextObj": {
            "name": "frmPayDueAmount",
            "type": "forms",
            "platform": "",
            "KUID": "ba0b4f38b88d4ad7a2c69bb7d0d38c44"
        },
        "language": "js",
        "actions": [{
            "id": "ADD_SNIPPET__ae9d046459ca40fa8e87aae220c5b6f5",
            "type": "ADD_SNIPPET",
            "codeSnippet": "this.quitPopUpNo();",
            "parentId": null,
            "callbackType": null
        }]
    }
}