{
    "AS_Button_i1ae32c3af4647708f08d2e445e8dbda": {
        "id": "AS_Button_i1ae32c3af4647708f08d2e445e8dbda",
        "type": "ACTION_SEQUENCE",
        "params": [{
            "datatype": "collection",
            "name": "eventobject"
        }],
        "contextObj": {
            "type": "forms",
            "platform": null,
            "KUID": "fefecc2daf7b46699434d209b330569d"
        },
        "language": "js",
        "actions": [{
            "id": "ADD_SNIPPET_ide_onClick_ia48599c06a4442ea5d0cb5d6761fbb1",
            "type": "ADD_SNIPPET",
            "codeSnippet": "this.QuitNo();",
            "callbackType": null
        }]
    }
}