{
    "AS_Button_c76755d388d44f3fb9d0f8331133a976": {
        "id": "AS_Button_c76755d388d44f3fb9d0f8331133a976",
        "type": "ACTION_SEQUENCE",
        "params": [{
            "datatype": "collection",
            "name": "eventobject"
        }],
        "contextObj": {
            "name": "frmAddPayee",
            "type": "forms",
            "platform": "",
            "KUID": "a6f26a85f86b40cca7b9347666e596a5"
        },
        "language": "js",
        "actions": [{
            "id": "ADD_SNIPPET__ece7f6a867dc4f92a5fae8f0f26c66a1",
            "type": "ADD_SNIPPET",
            "codeSnippet": "this.goToSerchedBillerDetails();",
            "parentId": null,
            "callbackType": null
        }]
    }
}