{
    "AS_Button_i2bdf8c5c47f4024abeec3cf53116f9d": {
        "id": "AS_Button_i2bdf8c5c47f4024abeec3cf53116f9d",
        "type": "ACTION_SEQUENCE",
        "params": [{
            "datatype": "collection",
            "name": "eventobject"
        }],
        "contextObj": {
            "name": "frmNotificationsAndMessages",
            "type": "forms",
            "platform": null,
            "KUID": "a83a23bb52bc4894a44b027a89964c1b"
        },
        "language": "js",
        "actions": [{
            "id": "ADD_SNIPPET_ide_onClick_abd59696d45845d29217f3d648391b96",
            "type": "ADD_SNIPPET",
            "codeSnippet": "this.QuitNo();",
            "callbackType": null
        }]
    }
}