{
    "AS_Button_h3838e34bed24554abb63debdf3f646f": {
        "id": "AS_Button_h3838e34bed24554abb63debdf3f646f",
        "type": "ACTION_SEQUENCE",
        "params": [{
            "datatype": "collection",
            "name": "eventobject"
        }, {
            "datatype": "collection",
            "name": "context"
        }],
        "language": "js",
        "actions": [{
            "id": "ADD_SNIPPET_ide_onClick_e95da8b245c345ff8ad4d5925df2f7de",
            "type": "ADD_SNIPPET",
            "codeSnippet": "this.executeOnParent(\"viewTransactionReport\");",
            "callbackType": null
        }]
    }
}