{
    "AS_Button_bbb5f17acd9f4893be02eeecf7928645": {
        "id": "AS_Button_bbb5f17acd9f4893be02eeecf7928645",
        "type": "ACTION_SEQUENCE",
        "params": [{
            "datatype": "collection",
            "name": "eventobject"
        }],
        "contextObj": {
            "name": "frmLogin",
            "type": "forms",
            "platform": "",
            "KUID": "j0329c6c64654440bf366abc8de81b74"
        },
        "language": "js",
        "actions": [{
            "id": "ADD_SNIPPET__i8ea2e324b814e738a12c98d796c9655",
            "type": "ADD_SNIPPET",
            "codeSnippet": "this.login();\nthis.presenter.onLogin(this,{\"username\":this.view.main.tbxUserName.text,\"password\":this.view.main.tbxPassword.text});\n//this.raiseEvent(this,{\"username\":this.view.main.tbxUserName.text,\"password\":this.view.main.tbxPassword.text});",
            "parentId": null,
            "callbackType": null
        }]
    }
}