{
    "AS_Button_ff5f60ddb498447f82cf73804965d439": {
        "id": "AS_Button_ff5f60ddb498447f82cf73804965d439",
        "type": "ACTION_SEQUENCE",
        "params": [{
            "datatype": "collection",
            "name": "eventobject"
        }],
        "contextObj": {
            "name": "frmBillPay",
            "type": "forms",
            "platform": "",
            "KUID": "h754f638fe6d4c56aac376a2f3adf18b"
        },
        "language": "js",
        "actions": [{
            "id": "ADD_SNIPPET__d77abe8a5d6b4cf989b9eb6703ca9c92",
            "type": "ADD_SNIPPET",
            "codeSnippet": "this.setScheduledFlex();",
            "parentId": null,
            "callbackType": null
        }]
    }
}