{
    "AS_Button_ia36577772ca4e88bb4f2efdefa62149": {
        "id": "AS_Button_ia36577772ca4e88bb4f2efdefa62149",
        "type": "ACTION_SEQUENCE",
        "params": [{
            "datatype": "collection",
            "name": "eventobject"
        }],
        "contextObj": {
            "name": "frmAddPayee",
            "type": "forms",
            "platform": "",
            "KUID": "a6f26a85f86b40cca7b9347666e596a5"
        },
        "language": "js",
        "actions": [{
            "id": "ADD_SNIPPET__i2ed2734aa2b4cec992b3d807fb1f1a5",
            "type": "ADD_SNIPPET",
            "codeSnippet": " var obj1 = {\n       \"tabname\": \"payees\"\n      };\n      var navObj = new kony.mvc.Navigation(\"frmBillPay\");\n      navObj.navigate(obj1);",
            "parentId": null,
            "callbackType": null
        }]
    }
}