{
    "AS_Button_c8a587434d1d42a18ab3c94d65c2e95e": {
        "id": "AS_Button_c8a587434d1d42a18ab3c94d65c2e95e",
        "type": "ACTION_SEQUENCE",
        "params": [{
            "datatype": "collection",
            "name": "eventobject"
        }],
        "contextObj": {
            "type": "forms",
            "platform": null,
            "KUID": "fefecc2daf7b46699434d209b330569d"
        },
        "language": "js",
        "actions": [{
            "id": "ADD_SNIPPET_ide_onClick_d2aeb9d6e7c14e069ba30d8dc9b659a6",
            "type": "ADD_SNIPPET",
            "codeSnippet": "this.QuitNo();",
            "callbackType": null
        }]
    }
}