{
    "AS_Button_hc9a3cba5ed34dc38777a552314a6fce": {
        "id": "AS_Button_hc9a3cba5ed34dc38777a552314a6fce",
        "type": "ACTION_SEQUENCE",
        "params": [{
            "datatype": "collection",
            "name": "eventobject"
        }, {
            "datatype": "collection",
            "name": "context"
        }],
        "contextObj": {
            "name": "segMonthStatements",
            "type": "templates",
            "platform": "",
            "KUID": "d5581abc18234373861512c42232ee58"
        },
        "language": "js",
        "actions": [{
            "id": "ADD_SNIPPET__f81cd0885d744a9cacd1a153e2566c09",
            "type": "ADD_SNIPPET",
            "codeSnippet": null,
            "parentId": null,
            "callbackType": null
        }]
    }
}