{
    "AS_Button_fcb027f1cc2d404eb466928f291233ed": {
        "id": "AS_Button_fcb027f1cc2d404eb466928f291233ed",
        "type": "ACTION_SEQUENCE",
        "params": [{
            "datatype": "collection",
            "name": "eventobject"
        }],
        "contextObj": {
            "name": "frmCustomerFeedbackSurvey",
            "type": "forms",
            "platform": "",
            "KUID": "ad9d39604a4348e1b3724c4bc446e1b4"
        },
        "language": "js",
        "actions": [{
            "id": "ADD_SNIPPET__fcfbc1ac15bf480e92052681c699c79d",
            "type": "ADD_SNIPPET",
            "codeSnippet": "this.btnSubmitAction();",
            "parentId": null,
            "callbackType": null
        }]
    }
}