{
    "AS_Button_e802b22ea2d84362aba5b89de52b8cd3": {
        "id": "AS_Button_e802b22ea2d84362aba5b89de52b8cd3",
        "type": "ACTION_SEQUENCE",
        "params": [{
            "datatype": "collection",
            "name": "eventobject"
        }],
        "contextObj": {
            "name": "frmEnrollNow",
            "type": "forms",
            "platform": null,
            "KUID": "bd78051f2239477699cd5b3d036cf72a"
        },
        "language": "js",
        "actions": [{
            "id": "ADD_SNIPPET_ide_onClick_fa5ce2df6bb24a04bb77ea0eb48e1233",
            "type": "ADD_SNIPPET",
            "codeSnippet": "this.letsGetStarted();",
            "callbackType": null
        }]
    }
}