{
    "AS_Button_g2a9fb21282d4ce18a20720c907f3fce": {
        "id": "AS_Button_g2a9fb21282d4ce18a20720c907f3fce",
        "type": "ACTION_SEQUENCE",
        "params": [{
            "datatype": "collection",
            "name": "eventobject"
        }],
        "contextObj": {
            "name": "frmAddExternalAccount",
            "type": "forms",
            "platform": "",
            "KUID": "g44e89ee0cb445b982945b6b358d77eb"
        },
        "language": "js",
        "actions": [{
            "id": "ADD_SNIPPET__bf406a6cacce47f6a2ef83399cdd3789",
            "type": "ADD_SNIPPET",
            "codeSnippet": "//this.addDomesticAccount();\nthis.presenter.showDomesticAccounts(this);",
            "parentId": null,
            "callbackType": null
        }]
    }
}