{
    "AS_Button_c7fa3675ce074438b222094748ef6381": {
        "id": "AS_Button_c7fa3675ce074438b222094748ef6381",
        "type": "ACTION_SEQUENCE",
        "params": [{
            "datatype": "collection",
            "name": "eventobject"
        }],
        "contextObj": {
            "name": "frmAddPayee",
            "type": "forms",
            "platform": "",
            "KUID": "a6f26a85f86b40cca7b9347666e596a5"
        },
        "language": "js",
        "actions": [{
            "id": "ADD_SNIPPET__d3e5364201c54b1b9656f19f9161c491",
            "type": "ADD_SNIPPET",
            "codeSnippet": "this.showFlxEnterPayeeInfo();",
            "parentId": null,
            "callbackType": null
        }]
    }
}