{
    "AS_Button_h2c56bb203514038b2e64cde22f9ac24": {
        "id": "AS_Button_h2c56bb203514038b2e64cde22f9ac24",
        "type": "ACTION_SEQUENCE",
        "params": [{
            "datatype": "collection",
            "name": "eventobject"
        }, {
            "datatype": "collection",
            "name": "context"
        }],
        "contextObj": {
            "name": "segAccountList",
            "type": "templates",
            "platform": "",
            "KUID": "ic4ac69d8e72449887c963bb0c1ada8a"
        },
        "language": "js",
        "actions": [{
            "id": "ADD_SNIPPET__hf02bc1c831b4ed1a801aea635ebaad2",
            "type": "ADD_SNIPPET",
            "codeSnippet": null,
            "parentId": null,
            "callbackType": null
        }]
    }
}