{
    "AS_Button_hb13212b5ea84f1eac2cca62959f30c2": {
        "id": "AS_Button_hb13212b5ea84f1eac2cca62959f30c2",
        "type": "ACTION_SEQUENCE",
        "params": [{
            "datatype": "collection",
            "name": "eventobject"
        }],
        "contextObj": {
            "name": "frmLogin",
            "type": "forms",
            "platform": "",
            "KUID": "j0329c6c64654440bf366abc8de81b74"
        },
        "language": "js",
        "actions": [{
            "id": "ADD_SNIPPET__c7aac3b6b05c48eba68c1b531c5d7be2",
            "type": "ADD_SNIPPET",
            "codeSnippet": "this.welcomeVerifiedUser();",
            "parentId": null,
            "callbackType": null
        }]
    }
}