{
    "AS_Button_f1751cfad76d47dc9d6c0bb08868db14": {
        "id": "AS_Button_f1751cfad76d47dc9d6c0bb08868db14",
        "type": "ACTION_SEQUENCE",
        "params": [{
            "datatype": "collection",
            "name": "eventobject"
        }, {
            "datatype": "collection",
            "name": "context"
        }],
        "contextObj": {
            "name": "segMakeTransferWireTransfersUnselected",
            "type": "templates",
            "platform": "",
            "KUID": "e4f36e3dc67e41febf96a063d5f72ffa"
        },
        "language": "js",
        "actions": [{
            "id": "ADD_SNIPPET__af5f781be77b40ffbbd2c3218f5b62d3",
            "type": "ADD_SNIPPET",
            "codeSnippet": "this.MakeTransferAction();",
            "parentId": null,
            "callbackType": null
        }]
    }
}