{
    "AS_Button_dcc986e45e86443494bdec17eacad501": {
        "id": "AS_Button_dcc986e45e86443494bdec17eacad501",
        "type": "ACTION_SEQUENCE",
        "params": [{
            "datatype": "collection",
            "name": "eventobject"
        }],
        "contextObj": {
            "name": "frmBillPay",
            "type": "forms",
            "platform": "",
            "KUID": "h754f638fe6d4c56aac376a2f3adf18b"
        },
        "language": "js",
        "actions": [{
            "id": "ADD_SNIPPET__f43faf29d210411790528f7baf35d7b3",
            "type": "ADD_SNIPPET",
            "codeSnippet": "this.viewEBill();",
            "parentId": null,
            "callbackType": null
        }]
    }
}