{
    "AS_Button_g996636653884a61a6f553ccc216cdac": {
        "id": "AS_Button_g996636653884a61a6f553ccc216cdac",
        "type": "ACTION_SEQUENCE",
        "params": [{
            "datatype": "collection",
            "name": "eventobject"
        }],
        "contextObj": {
            "name": "frmPayDueAmount",
            "type": "forms",
            "platform": "",
            "KUID": "ba0b4f38b88d4ad7a2c69bb7d0d38c44"
        },
        "language": "js",
        "actions": [{
            "id": "ADD_SNIPPET__g8293288cafb405bbfc3a951faef0e3b",
            "type": "ADD_SNIPPET",
            "codeSnippet": "this.payDueAmountPay();",
            "parentId": null,
            "callbackType": null
        }]
    }
}