{
    "AS_Button_j45ef5390f854119af85c2c5f6320d47": {
        "id": "AS_Button_j45ef5390f854119af85c2c5f6320d47",
        "type": "ACTION_SEQUENCE",
        "params": [{
            "datatype": "collection",
            "name": "eventobject"
        }],
        "contextObj": {
            "name": "frmNotificationsAndMessages",
            "type": "forms",
            "platform": "",
            "KUID": "a83a23bb52bc4894a44b027a89964c1b"
        },
        "language": "js",
        "actions": [{
            "id": "ADD_SNIPPET__d196addd393447ae947b1c4aaab7d817",
            "type": "ADD_SNIPPET",
            "codeSnippet": "this.setDeletedMessagesSegmentData();",
            "parentId": null,
            "callbackType": null
        }]
    }
}