{
    "AS_Button_a025ccca7f214a0fba894cc4d313eb08": {
        "id": "AS_Button_a025ccca7f214a0fba894cc4d313eb08",
        "type": "ACTION_SEQUENCE",
        "params": [{
            "datatype": "collection",
            "name": "eventobject"
        }],
        "contextObj": {
            "name": "frmAddPayee",
            "type": "forms",
            "platform": "",
            "KUID": "a6f26a85f86b40cca7b9347666e596a5"
        },
        "language": "js",
        "actions": [{
            "id": "ADD_SNIPPET__a9e92beaae8d48ea9fe354870a6d8081",
            "type": "ADD_SNIPPET",
            "codeSnippet": "this.showMainWrapper();",
            "parentId": null,
            "callbackType": null
        }]
    }
}