{
    "AS_Button_e2b952ec4b624bcab2244dbe0e685044": {
        "id": "AS_Button_e2b952ec4b624bcab2244dbe0e685044",
        "type": "ACTION_SEQUENCE",
        "params": [{
            "datatype": "collection",
            "name": "eventobject"
        }],
        "contextObj": {
            "name": "frmConfirmAccount",
            "type": "forms",
            "platform": "",
            "KUID": "fa720a3845e84444a32d1129de3a2f6b"
        },
        "language": "js",
        "actions": [{
            "id": "ADD_SNIPPET__b35a6e6c14e64c9894dd7aaef0635f24",
            "type": "ADD_SNIPPET",
            "codeSnippet": "this.presenter.cancelTransaction(this);",
            "parentId": null,
            "callbackType": null
        }]
    }
}