{
    "AS_Button_b62fbdfcecb444339411dc7d5b19a8d5": {
        "id": "AS_Button_b62fbdfcecb444339411dc7d5b19a8d5",
        "type": "ACTION_SEQUENCE",
        "params": [{
            "datatype": "collection",
            "name": "eventobject"
        }],
        "contextObj": {
            "name": "frmBillPay",
            "type": "forms",
            "platform": "",
            "KUID": "h754f638fe6d4c56aac376a2f3adf18b"
        },
        "language": "js",
        "actions": [{
            "id": "ADD_SNIPPET__f4b0b382e6644b7185110509e44edc5a",
            "type": "ADD_SNIPPET",
            "codeSnippet": "this.setScheduledFlex();",
            "parentId": null,
            "callbackType": null
        }]
    }
}