{
    "AS_Button_abbc9f5ec8ff46e0bccd032b532e5fa9": {
        "id": "AS_Button_abbc9f5ec8ff46e0bccd032b532e5fa9",
        "type": "ACTION_SEQUENCE",
        "params": [{
            "datatype": "collection",
            "name": "eventobject"
        }],
        "contextObj": {
            "name": "frmBillPay",
            "type": "forms",
            "platform": "",
            "KUID": "h754f638fe6d4c56aac376a2f3adf18b"
        },
        "language": "js",
        "actions": [{
            "id": "ADD_SNIPPET__efbd28c01961465c8d9c4d29c771bc98",
            "type": "ADD_SNIPPET",
            "codeSnippet": "this.setAllPayeesSegmentData();",
            "parentId": null,
            "callbackType": null
        }]
    }
}