{
    "AS_Button_b72f02dbcd9e4a33b75335ff8d89544b": {
        "id": "AS_Button_b72f02dbcd9e4a33b75335ff8d89544b",
        "type": "ACTION_SEQUENCE",
        "params": [{
            "datatype": "collection",
            "name": "eventobject"
        }],
        "contextObj": {
            "name": "frmAddExternalAccount",
            "type": "forms",
            "platform": "",
            "KUID": "g44e89ee0cb445b982945b6b358d77eb"
        },
        "language": "js",
        "actions": [{
            "id": "ADD_SNIPPET__gb6561e9f11c48099fcf13bfb63b2f92",
            "type": "ADD_SNIPPET",
            "codeSnippet": "//this.addInternationalAccount();\nthis.presenter.showInternationalAccounts(this);",
            "parentId": null,
            "callbackType": null
        }]
    }
}