{
    "AS_Button_ce3b7bd26cac4a949004c7a52054eaea": {
        "id": "AS_Button_ce3b7bd26cac4a949004c7a52054eaea",
        "type": "ACTION_SEQUENCE",
        "params": [{
            "datatype": "collection",
            "name": "eventobject"
        }],
        "contextObj": {
            "name": "frmTransfers",
            "type": "forms",
            "platform": "",
            "KUID": "e9f47be88ab64765a96b1fae7d2a7720"
        },
        "language": "js",
        "actions": [{
            "id": "ADD_SNIPPET__e706666841f543cab4dc37a613968471",
            "type": "ADD_SNIPPET",
            "codeSnippet": "this.getUserRecentTransactions();",
            "parentId": null,
            "callbackType": null
        }]
    }
}