{
    "AS_Button_b98010e2b91e413f93439aee295a3cfc": {
        "id": "AS_Button_b98010e2b91e413f93439aee295a3cfc",
        "type": "ACTION_SEQUENCE",
        "params": [{
            "datatype": "collection",
            "name": "eventobject"
        }],
        "contextObj": {
            "name": "frmVerifyAccount",
            "type": "forms",
            "platform": "",
            "KUID": "cd9d334f742c4ef3addf06485fd42e4c"
        },
        "language": "js",
        "actions": [{
            "id": "ADD_SNIPPET__g7e36895cb12451f994527971a60c227",
            "type": "ADD_SNIPPET",
            "codeSnippet": "this.presenter.cancelTransaction(this);",
            "parentId": null,
            "callbackType": null
        }]
    }
}