{
    "AS_Button_gb486833eaa54284977a6c65e66294c5": {
        "id": "AS_Button_gb486833eaa54284977a6c65e66294c5",
        "type": "ACTION_SEQUENCE",
        "params": [{
            "datatype": "collection",
            "name": "eventobject"
        }],
        "contextObj": {
            "type": "forms",
            "platform": null,
            "KUID": "fefecc2daf7b46699434d209b330569d"
        },
        "language": "js",
        "actions": [{
            "id": "ADD_SNIPPET_ide_onClick_ae07e4cc7e3c44aca7f8253323f6f356",
            "type": "ADD_SNIPPET",
            "codeSnippet": "this.cancelPayDueAmount();",
            "callbackType": null
        }]
    }
}