{
    "AS_Button_hd550aad15ba41d9a2225e61d4681d23": {
        "id": "AS_Button_hd550aad15ba41d9a2225e61d4681d23",
        "type": "ACTION_SEQUENCE",
        "params": [{
            "datatype": "collection",
            "name": "eventobject"
        }, {
            "datatype": "collection",
            "name": "context"
        }],
        "contextObj": {
            "name": "segScheduledTransfers",
            "type": "templates",
            "platform": null,
            "KUID": "c1daedd6a1644593b6b75e54025cd8c1"
        },
        "language": "js",
        "actions": [{
            "id": "ADD_SNIPPET_ide_onClick_dd49048936b0400487e47df476188a3b",
            "type": "ADD_SNIPPET",
            "codeSnippet": "this.executeOnParent(\"viewTransactionReport\");",
            "callbackType": null
        }]
    }
}