{
    "AS_Button_e0b46bb8b2b14ac5b79e53d66d1f947d": {
        "id": "AS_Button_e0b46bb8b2b14ac5b79e53d66d1f947d",
        "type": "ACTION_SEQUENCE",
        "params": [{
            "datatype": "collection",
            "name": "eventobject"
        }],
        "contextObj": {
            "name": "frmPayAPerson",
            "type": "forms",
            "platform": "",
            "KUID": "b19e9f55ebab4254b5eadf20d2a4c409"
        },
        "language": "js",
        "actions": [{
            "id": "ADD_SNIPPET__d3721ce51c6c46edb175dc5171106c5e",
            "type": "ADD_SNIPPET",
            "codeSnippet": "this.showAcknowledgementRequestMoney();",
            "parentId": null,
            "callbackType": null
        }]
    }
}