{
    "AS_Button_jb4be355388a4261a514696d16a334c8": {
        "id": "AS_Button_jb4be355388a4261a514696d16a334c8",
        "type": "ACTION_SEQUENCE",
        "params": [{
            "datatype": "collection",
            "name": "eventobject"
        }, {
            "datatype": "collection",
            "name": "context"
        }],
        "contextObj": {
            "name": "segAccountList",
            "type": "templates",
            "platform": "",
            "KUID": "ic4ac69d8e72449887c963bb0c1ada8a"
        },
        "language": "js",
        "actions": [{
            "id": "ADD_SNIPPET__ff13909594504e48999d534481d68507",
            "type": "ADD_SNIPPET",
            "codeSnippet": null,
            "parentId": null,
            "callbackType": null
        }]
    }
}