{
    "AS_Button_j912d2860bbd4e7ebac09789ccdd101c": {
        "id": "AS_Button_j912d2860bbd4e7ebac09789ccdd101c",
        "type": "ACTION_SEQUENCE",
        "params": [{
            "datatype": "collection",
            "name": "eventobject"
        }],
        "language": "js",
        "actions": [{
            "id": "ADD_SNIPPET_ide_onClick_ed62dbc7b7ec422dbed7105c8768a2ee",
            "type": "ADD_SNIPPET",
            "codeSnippet": "this.btnAckDoneAction();",
            "callbackType": null
        }]
    }
}