{
    "AS_Button_d4807f66dcf14cdcbfc576277bb297f8": {
        "id": "AS_Button_d4807f66dcf14cdcbfc576277bb297f8",
        "type": "ACTION_SEQUENCE",
        "params": [{
            "datatype": "collection",
            "name": "eventobject"
        }, {
            "datatype": "collection",
            "name": "context"
        }],
        "contextObj": {
            "name": "segManageRecipientSelected",
            "type": "templates",
            "platform": "",
            "KUID": "i2f31261efb34380a16f1580bf86966f"
        },
        "language": "js",
        "actions": [{
            "id": "ADD_SNIPPET__d8f31a0e648e4e299c2af1dc3c832096",
            "type": "ADD_SNIPPET",
            "codeSnippet": "this.showSendMoney();",
            "parentId": null,
            "callbackType": null
        }]
    }
}