{
    "AS_Button_c0f7668789b5429aa9d9342bd35e2a9c": {
        "id": "AS_Button_c0f7668789b5429aa9d9342bd35e2a9c",
        "type": "ACTION_SEQUENCE",
        "params": [{
            "datatype": "collection",
            "name": "eventobject"
        }],
        "contextObj": {
            "name": "frmEnrollNow",
            "type": "forms",
            "platform": "",
            "KUID": "bd78051f2239477699cd5b3d036cf72a"
        },
        "language": "js",
        "actions": [{
            "id": "ADD_SNIPPET__ib4ca194e1ac493a942a83edfe24dfb6",
            "type": "ADD_SNIPPET",
            "codeSnippet": "this.showSetSecurityQuestions();",
            "parentId": null,
            "callbackType": null
        }]
    }
}