{
    "AS_Button_af746e4f3e2d4e4e9aca6aa2eb600ffb": {
        "id": "AS_Button_af746e4f3e2d4e4e9aca6aa2eb600ffb",
        "type": "ACTION_SEQUENCE",
        "name": "AS_Button_f7e8a7130dbf49d786a682ec9cbf119e",
        "params": [{
            "datatype": "collection",
            "name": "eventobject"
        }],
        "contextObj": {
            "name": "frmAccountsDetails",
            "type": "forms",
            "platform": "",
            "KUID": "f22d64f7cb454ad980b530de61c4240a"
        },
        "language": "js",
        "actions": [{
            "id": "ADD_SNIPPET__e96c1f0dd3944cce964682fcf7118cdb",
            "type": "ADD_SNIPPET",
            "codeSnippet": "this.presenter.Transactions.showChecks();",
            "parentId": null,
            "callbackType": null
        }]
    }
}