{
    "AS_Button_fc3e3184ebb74a5e92ab1fda8b85ec4a": {
        "id": "AS_Button_fc3e3184ebb74a5e92ab1fda8b85ec4a",
        "type": "ACTION_SEQUENCE",
        "params": [{
            "datatype": "collection",
            "name": "eventobject"
        }],
        "contextObj": {
            "name": "frmLogin",
            "type": "forms",
            "platform": "",
            "KUID": "j0329c6c64654440bf366abc8de81b74"
        },
        "language": "js",
        "actions": [{
            "id": "ADD_SNIPPET__he743a6607ff4e538f0abf2386af88e3",
            "type": "ADD_SNIPPET",
            "codeSnippet": "this.navigateToNewUserOnBoarding();",
            "parentId": null,
            "callbackType": null
        }]
    }
}