{
    "AS_Button_ia7febe0d8e84c269b020e2a10b16067": {
        "id": "AS_Button_ia7febe0d8e84c269b020e2a10b16067",
        "type": "ACTION_SEQUENCE",
        "params": [{
            "datatype": "collection",
            "name": "eventobject"
        }],
        "contextObj": {
            "name": "frmLogin",
            "type": "forms",
            "platform": "",
            "KUID": "j0329c6c64654440bf366abc8de81b74"
        },
        "language": "js",
        "actions": [{
            "id": "ADD_SNIPPET__b9daba3acfaf4877910d92971d5e62a1",
            "type": "ADD_SNIPPET",
            "codeSnippet": "this.letsGetStarted();",
            "parentId": null,
            "callbackType": null
        }]
    }
}