{
    "AS_Button_f6c7462707c64247a95fa4e5b4a0376f": {
        "id": "AS_Button_f6c7462707c64247a95fa4e5b4a0376f",
        "type": "ACTION_SEQUENCE",
        "params": [{
            "datatype": "collection",
            "name": "eventobject"
        }],
        "contextObj": {
            "name": "frmNotificationsAndMessages",
            "type": "forms",
            "platform": "",
            "KUID": "a83a23bb52bc4894a44b027a89964c1b"
        },
        "language": "js",
        "actions": [{
            "id": "ADD_SNIPPET__d0216626fa234963ad520f7eafa13a81",
            "type": "ADD_SNIPPET",
            "codeSnippet": "this.SortAnimate();",
            "parentId": null,
            "callbackType": null
        }]
    }
}