{
    "AS_Button_e28aed8da45b4803b1176647cbcfa59c": {
        "id": "AS_Button_e28aed8da45b4803b1176647cbcfa59c",
        "type": "ACTION_SEQUENCE",
        "params": [{
            "datatype": "collection",
            "name": "eventobject"
        }],
        "contextObj": {
            "name": "frmAddPayee",
            "type": "forms",
            "platform": "",
            "KUID": "a6f26a85f86b40cca7b9347666e596a5"
        },
        "language": "js",
        "actions": [{
            "id": "ADD_SNIPPET__f604c9c3736847979db6bc69c6d883f8",
            "type": "ADD_SNIPPET",
            "codeSnippet": "this.navigateToBillPayHistoryTab();",
            "parentId": null,
            "callbackType": null
        }]
    }
}