{
    "AS_Button_ff8a1c1e1bc84075b4e7936a676b2b7a": {
        "id": "AS_Button_ff8a1c1e1bc84075b4e7936a676b2b7a",
        "type": "ACTION_SEQUENCE",
        "params": [{
            "datatype": "collection",
            "name": "eventobject"
        }, {
            "datatype": "collection",
            "name": "context"
        }],
        "contextObj": {
            "name": "segExternalAccountsTransfersUnselected",
            "type": "templates",
            "platform": "",
            "KUID": "a1e4944abef64fa581ad9ac45aa4bfa8"
        },
        "language": "js",
        "actions": [{
            "id": "ADD_SNIPPET__i6d369e77e7a411f8e9c4f594b99c6f4",
            "type": "ADD_SNIPPET",
            "codeSnippet": "this.showSelectedRow();",
            "parentId": null,
            "callbackType": null
        }]
    }
}