{
    "AS_Button_b3434432b7524b959ee98aa30b8c12d4": {
        "id": "AS_Button_b3434432b7524b959ee98aa30b8c12d4",
        "type": "ACTION_SEQUENCE",
        "params": [{
            "datatype": "collection",
            "name": "eventobject"
        }],
        "contextObj": {
            "name": "frmBillPay",
            "type": "forms",
            "platform": "",
            "KUID": "h754f638fe6d4c56aac376a2f3adf18b"
        },
        "language": "js",
        "actions": [{
            "id": "ADD_SNIPPET__da7675331e8f4c8b837c3bae61c38b19",
            "type": "ADD_SNIPPET",
            "codeSnippet": "this.setScheduledFlex();",
            "parentId": null,
            "callbackType": null
        }]
    }
}