{
    "AS_Button_h8faf8b2575648bba4eb93abec1d32fb": {
        "id": "AS_Button_h8faf8b2575648bba4eb93abec1d32fb",
        "type": "ACTION_SEQUENCE",
        "params": [{
            "datatype": "collection",
            "name": "eventobject"
        }],
        "contextObj": {
            "name": "frmBillPay",
            "type": "forms",
            "platform": "",
            "KUID": "h754f638fe6d4c56aac376a2f3adf18b"
        },
        "language": "js",
        "actions": [{
            "id": "ADD_SNIPPET__d9274a1072c243b4b878e76f70dc5300",
            "type": "ADD_SNIPPET",
            "codeSnippet": "this.setPaymentDueSegmentData();",
            "parentId": null,
            "callbackType": null
        }]
    }
}