{
    "AS_Button_a2d1332a99aa40c1baead74c33929226": {
        "id": "AS_Button_a2d1332a99aa40c1baead74c33929226",
        "type": "ACTION_SEQUENCE",
        "params": [{
            "datatype": "collection",
            "name": "eventobject"
        }],
        "contextObj": {
            "name": "frmTransfers",
            "type": "forms",
            "platform": "",
            "KUID": "e9f47be88ab64765a96b1fae7d2a7720"
        },
        "language": "js",
        "actions": [{
            "id": "ADD_SNIPPET__bd5dd164d5894ecfa57094620c91220d",
            "type": "ADD_SNIPPET",
            "codeSnippet": "this.presenter.showExternalAccounts();",
            "parentId": null,
            "callbackType": null
        }]
    }
}