{
    "AS_Button_f2e1e13deb004def8cf79638cb1afd6e": {
        "id": "AS_Button_f2e1e13deb004def8cf79638cb1afd6e",
        "type": "ACTION_SEQUENCE",
        "params": [{
            "datatype": "collection",
            "name": "eventobject"
        }],
        "contextObj": {
            "type": "forms",
            "platform": null,
            "KUID": "fefecc2daf7b46699434d209b330569d"
        },
        "language": "js",
        "actions": [{
            "id": "ADD_SNIPPET_ide_onClick_i993c112f0774fe5babd42266f94a446",
            "type": "ADD_SNIPPET",
            "codeSnippet": "this.ConfirmationProceed();",
            "callbackType": null
        }]
    }
}