{
    "AS_Button_abbfb5bc9abd40f9829c2a80eecd6d09": {
        "id": "AS_Button_abbfb5bc9abd40f9829c2a80eecd6d09",
        "type": "ACTION_SEQUENCE",
        "params": [{
            "datatype": "collection",
            "name": "eventobject"
        }, {
            "datatype": "collection",
            "name": "context"
        }],
        "contextObj": {
            "name": "segConfirmBulkPay",
            "type": "templates",
            "platform": "",
            "KUID": "f375fb0fde4643e68ee453551ec8ab36"
        },
        "language": "js",
        "actions": [{
            "id": "ADD_SNIPPET__d2eb694b03c84fdf929becff44ca8a3a",
            "type": "ADD_SNIPPET",
            "codeSnippet": "this.navigatetoprevform();",
            "parentId": null,
            "callbackType": null
        }]
    }
}