{
    "AS_Button_i9214ea328de4aa8811e1c8f5c48d779": {
        "id": "AS_Button_i9214ea328de4aa8811e1c8f5c48d779",
        "type": "ACTION_SEQUENCE",
        "params": [{
            "datatype": "collection",
            "name": "eventobject"
        }],
        "contextObj": {
            "name": "frmPayDueAmount",
            "type": "forms",
            "platform": "",
            "KUID": "ba0b4f38b88d4ad7a2c69bb7d0d38c44"
        },
        "language": "js",
        "actions": [{
            "id": "ADD_SNIPPET_ide_onClick_i3c11f3c29fc4c1a9cc11286a2f2cdfc",
            "type": "ADD_SNIPPET",
            "codeSnippet": "//this.openAddPayeeForm();\nthis.LoanPayOff();",
            "callbackType": null
        }]
    }
}