{
    "AS_Button_ga7a95970e694db9a7e96b99eb97ef81": {
        "id": "AS_Button_ga7a95970e694db9a7e96b99eb97ef81",
        "type": "ACTION_SEQUENCE",
        "params": [{
            "datatype": "collection",
            "name": "eventobject"
        }],
        "contextObj": {
            "name": "frmAddExternalAccount",
            "type": "forms",
            "platform": "",
            "KUID": "g44e89ee0cb445b982945b6b358d77eb"
        },
        "language": "js",
        "actions": []
    }
}