{
    "AS_Button_b27b84dc8a164359a0b8509d09c29bc8": {
        "id": "AS_Button_b27b84dc8a164359a0b8509d09c29bc8",
        "type": "ACTION_SEQUENCE",
        "params": [{
            "datatype": "collection",
            "name": "eventobject"
        }],
        "contextObj": {
            "name": "frmNotificationsAndMessages",
            "type": "forms",
            "platform": "",
            "KUID": "a83a23bb52bc4894a44b027a89964c1b"
        },
        "language": "js",
        "actions": [{
            "id": "ADD_SNIPPET__fb04b620fce44c9ba21666c0d1d9fca5",
            "type": "ADD_SNIPPET",
            "codeSnippet": "this.setDeletedMessagesSegmentData();",
            "parentId": null,
            "callbackType": null
        }]
    }
}