{
    "AS_Button_i63195b6fd94464a8a1825d5f2d5af30": {
        "id": "AS_Button_i63195b6fd94464a8a1825d5f2d5af30",
        "type": "ACTION_SEQUENCE",
        "params": [{
            "datatype": "collection",
            "name": "eventobject"
        }],
        "contextObj": {
            "name": "frmBillPay",
            "type": "forms",
            "platform": "",
            "KUID": "h754f638fe6d4c56aac376a2f3adf18b"
        },
        "language": "js",
        "actions": [{
            "id": "ADD_SNIPPET__hd9dc619bd1946a29b2f4d7862753db9",
            "type": "ADD_SNIPPET",
            "codeSnippet": "this.view.flxBillPayManagePayeeActivity.setVisibility(false);\nthis.view.forceLayout();",
            "parentId": null,
            "callbackType": null
        }]
    }
}