{
    "AS_Button_eb1ef8752371425aa8aa73a43f0639fd": {
        "id": "AS_Button_eb1ef8752371425aa8aa73a43f0639fd",
        "type": "ACTION_SEQUENCE",
        "params": [{
            "datatype": "collection",
            "name": "eventobject"
        }, {
            "datatype": "string",
            "name": "x"
        }, {
            "datatype": "string",
            "name": "y"
        }],
        "contextObj": {
            "name": "segBillPayAllPayees",
            "type": "templates",
            "platform": "",
            "KUID": "j3b42045f1fa401dbfd2614d5accb518"
        },
        "language": "js",
        "actions": []
    }
}