{
    "AS_Button_c6be953f59a143368dfde744f4eea992": {
        "id": "AS_Button_c6be953f59a143368dfde744f4eea992",
        "type": "ACTION_SEQUENCE",
        "params": [{
            "datatype": "collection",
            "name": "eventobject"
        }],
        "contextObj": {
            "name": "frmAccountsDetails",
            "type": "forms",
            "platform": "",
            "KUID": "f22d64f7cb454ad980b530de61c4240a"
        },
        "language": "js",
        "actions": [{
            "id": "ADD_SNIPPET__j5e9b596b5a74db0ab7458841893af9c",
            "type": "ADD_SNIPPET",
            "codeSnippet": "window.open(\"https://www.orangecountyscu.org/\");",
            "parentId": null,
            "callbackType": null
        }]
    }
}