{
    "AS_Button_hb21de5594c6439286c39b0dc94da167": {
        "id": "AS_Button_hb21de5594c6439286c39b0dc94da167",
        "type": "ACTION_SEQUENCE",
        "params": [{
            "datatype": "collection",
            "name": "eventobject"
        }],
        "contextObj": {
            "name": "frmEnrollNow",
            "type": "forms",
            "platform": "",
            "KUID": "bd78051f2239477699cd5b3d036cf72a"
        },
        "language": "js",
        "actions": [{
            "id": "ADD_SNIPPET__ba6a854fe48645758b96f8bae29162f1",
            "type": "ADD_SNIPPET",
            "codeSnippet": "this.showUsernamePasswordAck();",
            "parentId": null,
            "callbackType": null
        }]
    }
}