{
    "AS_Button_b42a3e167c2c45f68fa5cfdb94746b35": {
        "id": "AS_Button_b42a3e167c2c45f68fa5cfdb94746b35",
        "type": "ACTION_SEQUENCE",
        "name": "AS_Button_ha1c497f7a3443ada322cb15e033a19f",
        "params": [{
            "datatype": "collection",
            "name": "eventobject"
        }],
        "contextObj": {
            "name": "frmAccountsDetails",
            "type": "forms",
            "platform": "",
            "KUID": "f22d64f7cb454ad980b530de61c4240a"
        },
        "language": "js",
        "actions": []
    }
}