{
    "AS_Button_a8f6a78c3e0c4ca1bc0fbd60946f8ee2": {
        "id": "AS_Button_a8f6a78c3e0c4ca1bc0fbd60946f8ee2",
        "type": "ACTION_SEQUENCE",
        "params": [{
            "datatype": "collection",
            "name": "eventobject"
        }, {
            "datatype": "collection",
            "name": "context"
        }],
        "language": "js",
        "actions": [{
            "id": "ADD_SNIPPET_ide_onClick_c9b7ad3dfc714800a02c0af058eb5073",
            "type": "ADD_SNIPPET",
            "codeSnippet": "this.viewEBill();",
            "callbackType": null
        }]
    }
}