{
    "AS_Button_a9a297c9236f4155b76e1d5d4873a688": {
        "id": "AS_Button_a9a297c9236f4155b76e1d5d4873a688",
        "type": "ACTION_SEQUENCE",
        "params": [{
            "datatype": "collection",
            "name": "eventobject"
        }],
        "contextObj": {
            "name": "frmNotificationsAndMessages",
            "type": "forms",
            "platform": null,
            "KUID": "a83a23bb52bc4894a44b027a89964c1b"
        },
        "language": "js",
        "actions": [{
            "id": "ADD_SNIPPET_ide_onClick_dcb0ae1bb94a42358c7eb6e10ceec6f9",
            "type": "ADD_SNIPPET",
            "codeSnippet": "this.ConfirmationProceed();",
            "callbackType": null
        }]
    }
}