{
    "AS_Button_d1cacdea79494f118f27d1a674b3b9f0": {
        "id": "AS_Button_d1cacdea79494f118f27d1a674b3b9f0",
        "type": "ACTION_SEQUENCE",
        "params": [{
            "datatype": "collection",
            "name": "eventobject"
        }, {
            "datatype": "collection",
            "name": "context"
        }],
        "contextObj": {
            "name": "segManageRecipientSelected",
            "type": "templates",
            "platform": "",
            "KUID": "i2f31261efb34380a16f1580bf86966f"
        },
        "language": "js",
        "actions": [{
            "id": "ADD_SNIPPET__b00a7c3ff4b3432fb161a16728d663cc",
            "type": "ADD_SNIPPET",
            "codeSnippet": "//adding this comment due to platform bug.",
            "parentId": null,
            "callbackType": null
        }]
    }
}