{
    "AS_Button_j89ec25f9d1046e8905fe9325da3a5d1": {
        "id": "AS_Button_j89ec25f9d1046e8905fe9325da3a5d1",
        "type": "ACTION_SEQUENCE",
        "params": [{
            "datatype": "collection",
            "name": "eventobject"
        }],
        "contextObj": {
            "name": "frmLogin",
            "type": "forms",
            "platform": "",
            "KUID": "j0329c6c64654440bf366abc8de81b74"
        },
        "language": "js",
        "actions": [{
            "id": "ADD_SNIPPET__c45f78c76a7940dc90da72ccd2c44e1d",
            "type": "ADD_SNIPPET",
            "codeSnippet": "window.open(\"https://www.orangecountyscu.org/globalassets/pdf-files/disclosures/disc-online-privacy-policy-07172017.pdf\");",
            "parentId": null,
            "callbackType": null
        }]
    }
}