{
    "AS_Button_i704e782a8cf4832bf5bf35c58250db3": {
        "id": "AS_Button_i704e782a8cf4832bf5bf35c58250db3",
        "type": "ACTION_SEQUENCE",
        "params": [{
            "datatype": "collection",
            "name": "eventobject"
        }],
        "contextObj": {
            "name": "frmAccountsDetails",
            "type": "forms",
            "platform": "",
            "KUID": "f22d64f7cb454ad980b530de61c4240a"
        },
        "language": "js",
        "actions": [{
            "id": "ADD_SNIPPET__f8eeb551ed514b3aa48b9d384a4712cc",
            "type": "ADD_SNIPPET",
            "codeSnippet": "this.showBalanceDetails(0);",
            "parentId": null,
            "callbackType": null
        }]
    }
}