{
    "AS_Button_dc10682586df4c5990700c0d0752bdb3": {
        "id": "AS_Button_dc10682586df4c5990700c0d0752bdb3",
        "type": "ACTION_SEQUENCE",
        "params": [{
            "datatype": "collection",
            "name": "eventobject"
        }],
        "contextObj": {
            "name": "frmNotificationsAndMessages",
            "type": "forms",
            "platform": "",
            "KUID": "a83a23bb52bc4894a44b027a89964c1b"
        },
        "language": "js",
        "actions": []
    }
}