{
    "AS_Button_d41dbd492d654d048270e330cb951abf": {
        "id": "AS_Button_d41dbd492d654d048270e330cb951abf",
        "type": "ACTION_SEQUENCE",
        "params": [{
            "datatype": "collection",
            "name": "eventobject"
        }],
        "contextObj": {
            "name": "frmLogin",
            "type": "forms",
            "platform": "",
            "KUID": "j0329c6c64654440bf366abc8de81b74"
        },
        "language": "js",
        "actions": [{
            "id": "ADD_SNIPPET__e4d985ea7611457bb6a736213d74ce58",
            "type": "ADD_SNIPPET",
            "codeSnippet": "window.open(\"https://www.orangecountyscu.org/about-us/contact-us/\");",
            "parentId": null,
            "callbackType": null
        }]
    }
}