{
    "AS_Button_c9b1826cca75417bbe0dcd875c4275ba": {
        "id": "AS_Button_c9b1826cca75417bbe0dcd875c4275ba",
        "type": "ACTION_SEQUENCE",
        "params": [{
            "datatype": "collection",
            "name": "eventobject"
        }, {
            "datatype": "collection",
            "name": "context"
        }],
        "contextObj": {
            "name": "segRecentsWireTransfersSelected",
            "type": "templates",
            "platform": "",
            "KUID": "fba0115a8879452ea8181f1c0498fd92"
        },
        "language": "js",
        "actions": [{
            "id": "ADD_SNIPPET__a8d16aa7e76b41da99ffaa3e60903d74",
            "type": "ADD_SNIPPET",
            "codeSnippet": "this.RecentAction();",
            "parentId": null,
            "callbackType": null
        }]
    }
}