{
    "AS_Button_b8951bc9750c41febe82b347a50a0f2a": {
        "id": "AS_Button_b8951bc9750c41febe82b347a50a0f2a",
        "type": "ACTION_SEQUENCE",
        "params": [{
            "datatype": "collection",
            "name": "eventobject"
        }],
        "contextObj": {
            "name": "frmLogin",
            "type": "forms",
            "platform": "",
            "KUID": "j0329c6c64654440bf366abc8de81b74"
        },
        "language": "js",
        "actions": [{
            "id": "ADD_SNIPPET__if0d7a34abf34f2ba6b5aabb956c3909",
            "type": "ADD_SNIPPET",
            "codeSnippet": "this.showResetPasswordPage();",
            "parentId": null,
            "callbackType": null
        }]
    }
}