{
    "AS_Calendar_f947e7c3e6154676bbbcda9a36a69b34": {
        "id": "AS_Calendar_f947e7c3e6154676bbbcda9a36a69b34",
        "type": "ACTION_SEQUENCE",
        "params": [{
            "datatype": "collection",
            "name": "eventobject"
        }, {
            "datatype": "boolean",
            "name": "isValidDateSelected"
        }],
        "contextObj": {
            "name": "frmPayDueAmount",
            "type": "forms",
            "platform": "",
            "KUID": "ba0b4f38b88d4ad7a2c69bb7d0d38c44"
        },
        "language": "js",
        "actions": [{
            "id": "ADD_SNIPPET__d06090d14bb647f29c5acaad067e7bdf",
            "type": "ADD_SNIPPET",
            "codeSnippet": "var dateVal = this.view.frmPayDueAmount.flxContainer.flxMainContainer.flxBillPay.PayDueAmount.flxCalender.CalendarSendDate.data;\nif(dateVal!=2014-07-04)\n  {\n    this.view.frmPayDueAmount.flxContainer.flxMainContainer.flxBillPay.PayDueAmount.lblDueDate.isVisible=\"false\";\n    this.view.frmPayDueAmount.flxContainer.flxMainContainer.flxBillPay.PayDueAmount.flxInfoDueDate.isVisible=\"true\";\n  }",
            "parentId": null,
            "callbackType": null
        }]
    }
}