{
    "AS_FlexContainer_a5a2e38051314d01949b4f24371c3d37": {
        "id": "AS_FlexContainer_a5a2e38051314d01949b4f24371c3d37",
        "type": "ACTION_SEQUENCE",
        "params": [{
            "datatype": "collection",
            "name": "eventobject"
        }, {
            "datatype": "collection",
            "name": "context"
        }],
        "contextObj": {
            "type": "templates",
            "platform": "",
            "KUID": "f64697f671be4a3f8636c4d0f78359ee"
        },
        "language": "js",
        "actions": [{
            "id": "ADD_SNIPPET__gfaa4107626a4f259dee12e73192d776",
            "type": "ADD_SNIPPET",
            "codeSnippet": "var index = kony.application.getCurrentForm().settings.segPhoneNumbers.selectedIndex[1];   \nvar data = kony.application.getCurrentForm().settings.segPhoneNumbers.data;\n        for(i=0;i<data.length;i++)\n         {\n           if(i==index)\n             {\n               if(data[i].imgCheckBox2 === \"checked_box.png\")\n                 data[i].imgCheckBox2 = \"unchecked_box.png\";\n               else\n                 data[i].imgCheckBox2 = \"checked_box.png\";\n             }  \n      \tkony.application.getCurrentForm().settings.segPhoneNumbers.setData(data);\n        }",
            "parentId": null,
            "callbackType": null
        }]
    }
}