{
    "AS_Form_h48e69aa0150449086f0dfc85999054d": {
        "id": "AS_Form_h48e69aa0150449086f0dfc85999054d",
        "type": "ACTION_SEQUENCE",
        "params": [{
            "datatype": "collection",
            "name": "eventobject"
        }, {
            "datatype": "string",
            "name": "x"
        }, {
            "datatype": "string",
            "name": "y"
        }],
        "contextObj": {
            "name": "frmLocateUs",
            "type": "forms",
            "platform": "",
            "KUID": "i1112cee4e884991ad42fd579d977bbf"
        },
        "language": "js",
        "actions": [{
            "id": "ADD_SNIPPET__faf1a94b709b4066a4aacd62da4e0f50",
            "type": "ADD_SNIPPET",
            "codeSnippet": "hidePopups();",
            "parentId": null,
            "callbackType": null
        }]
    }
}