{
    "AS_FlexContainer_69a6b33e17604d92804a0f1d5143edb3": {
        "id": "AS_FlexContainer_69a6b33e17604d92804a0f1d5143edb3",
        "type": "ACTION_SEQUENCE",
        "params": [{
            "datatype": "collection",
            "name": "eventobject"
        }, {
            "datatype": "collection",
            "name": "context"
        }],
        "contextObj": {
            "type": "templates",
            "platform": null,
            "KUID": "fbb29b451d084a7ab306ff33fe6e1d85"
        },
        "language": "js",
        "actions": [{
            "id": "ADD_SNIPPET_ide_onClick_a3542dda5973415bbd645528e758759f",
            "type": "ADD_SNIPPET",
            "codeSnippet": "this.menuPressed();",
            "callbackType": null
        }]
    }
}