{
    "AS_FlexContainer_c6381cee98fb4343a809b3320207fb4d": {
        "id": "AS_FlexContainer_c6381cee98fb4343a809b3320207fb4d",
        "type": "ACTION_SEQUENCE",
        "params": [{
            "datatype": "collection",
            "name": "eventobject"
        }, {
            "datatype": "collection",
            "name": "context"
        }],
        "contextObj": {
            "name": "segSurveyQuestion2",
            "type": "templates",
            "platform": "",
            "KUID": "a8117dcfdf714dafbc6437eb5acb6e3f"
        },
        "language": "js",
        "actions": [{
            "id": "ADD_SNIPPET__g07e698f99b14a9da1a93f86e2058a5b",
            "type": "ADD_SNIPPET",
            "codeSnippet": "this.toggleSurveyQuestionNotificationMsgsCheckBox();",
            "parentId": null,
            "callbackType": null
        }]
    }
}