{
    "AS_Form_ja2a733aa3444cedb63684f03f21b757": {
        "id": "AS_Form_ja2a733aa3444cedb63684f03f21b757",
        "type": "ACTION_SEQUENCE",
        "params": [{
            "datatype": "collection",
            "name": "eventobject"
        }],
        "contextObj": {
            "name": "frmAcknowledgement",
            "type": "forms",
            "platform": "",
            "KUID": "cb4b7da5a9954469a49f6e61d6bf1d13"
        },
        "language": "js",
        "actions": [{
            "id": "ADD_SNIPPET__d97fcb9151ea4bf0b87e2def26c4f803",
            "type": "ADD_SNIPPET",
            "codeSnippet": "this.initActions();",
            "parentId": null,
            "callbackType": null
        }]
    }
}