{
    "AS_FlexContainer_i06bd1af517f437f880c40d7df2efbab": {
        "id": "AS_FlexContainer_i06bd1af517f437f880c40d7df2efbab",
        "type": "ACTION_SEQUENCE",
        "params": [{
            "datatype": "collection",
            "name": "eventobject"
        }, {
            "datatype": "collection",
            "name": "context"
        }],
        "contextObj": {
            "name": "segProfileManagementPhoneNumbers",
            "type": "templates",
            "platform": "",
            "KUID": "db445a79675a41389d8fbbb8d3c49235"
        },
        "language": "js",
        "actions": []
    }
}