{
    "AS_FlexContainer_e1bab3dce8ea404097e66dc0ccecac94": {
        "id": "AS_FlexContainer_e1bab3dce8ea404097e66dc0ccecac94",
        "type": "ACTION_SEQUENCE",
        "params": [{
            "datatype": "collection",
            "name": "eventobject"
        }, {
            "datatype": "collection",
            "name": "context"
        }],
        "contextObj": {
            "name": "segScheduledTransactions",
            "type": "templates",
            "platform": null,
            "KUID": "b6b635e824de4aa683ad3e773b3e8b76"
        },
        "language": "js",
        "actions": [{
            "id": "ADD_SNIPPET_ide_onClick_be734acd608d4056b081ef186f3c4232",
            "type": "ADD_SNIPPET",
            "codeSnippet": "this.showSelectedRow();",
            "callbackType": null
        }]
    }
}