{
    "AS_Form_cd94e734981b49cdbeb5ab4d34f4f525": {
        "id": "AS_Form_cd94e734981b49cdbeb5ab4d34f4f525",
        "type": "ACTION_SEQUENCE",
        "params": [{
            "datatype": "collection",
            "name": "eventobject"
        }],
        "contextObj": {
            "name": "frmPayDueAmount",
            "type": "forms",
            "platform": "",
            "KUID": "ba0b4f38b88d4ad7a2c69bb7d0d38c44"
        },
        "language": "js",
        "actions": [{
            "id": "ADD_SNIPPET__ab7c12a54b724f34be0902ebff4b13c6",
            "type": "ADD_SNIPPET",
            "codeSnippet": "this.postShowPayDueAmount();\n",
            "parentId": null,
            "callbackType": null
        }]
    }
}