{
    "AS_FlexContainer_ba16491b5c394d5b9a666b81ad69b969": {
        "id": "AS_FlexContainer_ba16491b5c394d5b9a666b81ad69b969",
        "type": "ACTION_SEQUENCE",
        "params": [{
            "datatype": "collection",
            "name": "eventobject"
        }],
        "contextObj": {
            "name": "frmAddExternalAccount",
            "type": "forms",
            "platform": "",
            "KUID": "g44e89ee0cb445b982945b6b358d77eb"
        },
        "language": "js",
        "actions": [{
            "id": "ADD_SNIPPET__f1d7423b21f646e38f43d974f97b3d6e",
            "type": "ADD_SNIPPET",
            "codeSnippet": "this.toggleChekBoxNonDomestic();",
            "parentId": null,
            "callbackType": null
        }]
    }
}