{
    "AS_Form_hbdaa3ccb2c14b3487e3eb883a3e4cbd": {
        "id": "AS_Form_hbdaa3ccb2c14b3487e3eb883a3e4cbd",
        "type": "ACTION_SEQUENCE",
        "params": [{
            "datatype": "collection",
            "name": "eventobject"
        }],
        "contextObj": {
            "name": "frmAddInternalAccount",
            "type": "forms",
            "platform": "",
            "KUID": "i0c7320b49fe40e1a3a168c136395e15"
        },
        "language": "js",
        "actions": [{
            "id": "ADD_SNIPPET__d88cff68138044488e81344566bba598",
            "type": "ADD_SNIPPET",
            "codeSnippet": "",
            "parentId": null,
            "callbackType": null
        }]
    }
}