{
    "AS_FlexContainer_b8aeab0809674580ad3fd4dcc2fa950b": {
        "id": "AS_FlexContainer_b8aeab0809674580ad3fd4dcc2fa950b",
        "type": "ACTION_SEQUENCE",
        "name": "AS_FlexContainer_b37ab8f2f70748aeb96dbd052d11935c",
        "params": [{
            "datatype": "collection",
            "name": "eventobject"
        }, {
            "datatype": "string",
            "name": "x"
        }, {
            "datatype": "string",
            "name": "y"
        }],
        "contextObj": {
            "name": "frmBillPay",
            "type": "forms",
            "platform": "",
            "KUID": "h754f638fe6d4c56aac376a2f3adf18b"
        },
        "language": "js",
        "actions": []
    }
}