{
    "AS_FlexContainer_be66b670846742599fa0f3febf02ee5b": {
        "id": "AS_FlexContainer_be66b670846742599fa0f3febf02ee5b",
        "type": "ACTION_SEQUENCE",
        "params": [{
            "datatype": "collection",
            "name": "eventobject"
        }],
        "contextObj": {
            "name": "frmCustomerFeedbackSurvey",
            "type": "forms",
            "platform": "",
            "KUID": "ad9d39604a4348e1b3724c4bc446e1b4"
        },
        "language": "js",
        "actions": [{
            "id": "ADD_SNIPPET__ac086b1e8aa6442eb120ec330be48f00",
            "type": "ADD_SNIPPET",
            "codeSnippet": "this.showRatingAction(2);",
            "parentId": null,
            "callbackType": null
        }]
    }
}