{
    "AS_Form_geee432f252b464083f1fdcb5d08f39f": {
        "id": "AS_Form_geee432f252b464083f1fdcb5d08f39f",
        "type": "ACTION_SEQUENCE",
        "params": [{
            "datatype": "collection",
            "name": "eventobject"
        }],
        "contextObj": {
            "name": "frmConfirmAccount",
            "type": "forms",
            "platform": null,
            "KUID": "fa720a3845e84444a32d1129de3a2f6b"
        },
        "language": "js",
        "actions": [{
            "id": "ADD_SNIPPET_ide_postShow_c1359b1dad834aed9caaea3032f5c388",
            "type": "ADD_SNIPPET",
            "codeSnippet": "this.postShowFrmConfirm();",
            "callbackType": null
        }]
    }
}