{
    "AS_FlexContainer_c3529d67c6c34e2f80506f3969f34fac": {
        "id": "AS_FlexContainer_c3529d67c6c34e2f80506f3969f34fac",
        "type": "ACTION_SEQUENCE",
        "params": [{
            "datatype": "collection",
            "name": "eventobject"
        }],
        "contextObj": {
            "name": "frmCustomerFeedbackSurvey",
            "type": "forms",
            "platform": "",
            "KUID": "ad9d39604a4348e1b3724c4bc446e1b4"
        },
        "language": "js",
        "actions": [{
            "id": "ADD_SNIPPET__b947bfb5daff49a294037d75d7ccaf34",
            "type": "ADD_SNIPPET",
            "codeSnippet": "this.showRatingAction();",
            "parentId": null,
            "callbackType": null
        }]
    }
}