{
    "AS_FlexContainer_d66daefec3674fa39cd486bc7ae22bad": {
        "id": "AS_FlexContainer_d66daefec3674fa39cd486bc7ae22bad",
        "type": "ACTION_SEQUENCE",
        "params": [{
            "datatype": "collection",
            "name": "eventobject"
        }],
        "contextObj": {
            "name": "frmPayAPerson",
            "type": "forms",
            "platform": "",
            "KUID": "b19e9f55ebab4254b5eadf20d2a4c409"
        },
        "language": "js",
        "actions": [{
            "id": "ADD_SNIPPET__h70d2645b12c4164b14e1748b0e5755f",
            "type": "ADD_SNIPPET",
            "codeSnippet": "this.toggleSearch();",
            "parentId": null,
            "callbackType": null
        }]
    }
}