{
    "AS_FlexContainer_j3855a9f3774478690821d3a9834e6f6": {
        "id": "AS_FlexContainer_j3855a9f3774478690821d3a9834e6f6",
        "type": "ACTION_SEQUENCE",
        "params": [{
            "datatype": "collection",
            "name": "eventobject"
        }],
        "contextObj": {
            "name": "frmCustomerFeedbackSurvey",
            "type": "forms",
            "platform": "",
            "KUID": "ad9d39604a4348e1b3724c4bc446e1b4"
        },
        "language": "js",
        "actions": [{
            "id": "ADD_SNIPPET__ffaef3176eb0466db9913a0814577012",
            "type": "ADD_SNIPPET",
            "codeSnippet": "this.toggleCheckBox(this.view.FeedbackSurvey.imgcheckbox1);",
            "parentId": null,
            "callbackType": null
        }]
    }
}