{
    "AS_FlexContainer_g0e1f8b6cd0946bbb5aa197b9766ce57": {
        "id": "AS_FlexContainer_g0e1f8b6cd0946bbb5aa197b9766ce57",
        "type": "ACTION_SEQUENCE",
        "params": [{
            "datatype": "collection",
            "name": "eventobject"
        }, {
            "datatype": "collection",
            "name": "context"
        }],
        "contextObj": {
            "name": "segTravelNotificationsCollapsed",
            "type": "templates",
            "platform": "",
            "KUID": "h4a69e0bc7054d29bcb2c0014939430e"
        },
        "language": "js",
        "actions": [{
            "id": "ADD_SNIPPET__f0b295bbcbd74a3bae433ca2e1e25071",
            "type": "ADD_SNIPPET",
            "codeSnippet": "this.segTravelNotificationToggle();",
            "parentId": null,
            "callbackType": null
        }]
    }
}