{
    "AS_FlexContainer_b5f980e471a84859b0b106ce699a4a43": {
        "id": "AS_FlexContainer_b5f980e471a84859b0b106ce699a4a43",
        "type": "ACTION_SEQUENCE",
        "params": [{
            "datatype": "collection",
            "name": "eventobject"
        }],
        "language": "js",
        "actions": [{
            "id": "ADD_SNIPPET_ide_onClick_bd3527755a924cf9a34688a0760b73a1",
            "type": "ADD_SNIPPET",
            "codeSnippet": "this.toggle(this.view.flxBillPaySubMenu);",
            "callbackType": null
        }]
    }
}