{
    "AS_FlexContainer_bf07ef8c9537476b8ea4589636860db0": {
        "id": "AS_FlexContainer_bf07ef8c9537476b8ea4589636860db0",
        "type": "ACTION_SEQUENCE",
        "params": [{
            "datatype": "collection",
            "name": "eventobject"
        }, {
            "datatype": "collection",
            "name": "context"
        }],
        "contextObj": {
            "name": "segBillPayHistory",
            "type": "templates",
            "platform": "",
            "KUID": "f427f8d461d840c7a1e2793f519058d9"
        },
        "language": "js",
        "actions": [{
            "id": "ADD_SNIPPET__c9c8b827664041649eabed84b353bf1d",
            "type": "ADD_SNIPPET",
            "codeSnippet": "this.segmentHistoryRowClick();",
            "parentId": null,
            "callbackType": null
        }]
    }
}