{
    "AS_FlexContainer_e3d78dc1358f47319c8acfd12d5bc09f": {
        "id": "AS_FlexContainer_e3d78dc1358f47319c8acfd12d5bc09f",
        "type": "ACTION_SEQUENCE",
        "params": [{
            "datatype": "collection",
            "name": "eventobject"
        }],
        "contextObj": {
            "name": "frmCustomerFeedbackSurvey",
            "type": "forms",
            "platform": "",
            "KUID": "ad9d39604a4348e1b3724c4bc446e1b4"
        },
        "language": "js",
        "actions": [{
            "id": "ADD_SNIPPET__b23a7f29b63b4b179a14920d03f94546",
            "type": "ADD_SNIPPET",
            "codeSnippet": "this.toggleCheckBox(this.view.FeedbackSurvey.imgcheckbox3);",
            "parentId": null,
            "callbackType": null
        }]
    }
}