{
    "AS_Form_a0be73d82df04cf999c2de52ff9234f7": {
        "id": "AS_Form_a0be73d82df04cf999c2de52ff9234f7",
        "type": "ACTION_SEQUENCE",
        "name": "AS_Form_ee66d65cb0b54d738178c167808442c5",
        "params": [{
            "datatype": "collection",
            "name": "eventobject"
        }, {
            "datatype": "string",
            "name": "x"
        }, {
            "datatype": "string",
            "name": "y"
        }],
        "contextObj": {
            "name": "frmConfirmAccount",
            "type": "forms",
            "platform": "",
            "KUID": "fa720a3845e84444a32d1129de3a2f6b"
        },
        "language": "js",
        "actions": []
    }
}