{
    "AS_Form_f8aea1b7f61843bd906101be866f633f": {
        "id": "AS_Form_f8aea1b7f61843bd906101be866f633f",
        "type": "ACTION_SEQUENCE",
        "params": [{
            "datatype": "collection",
            "name": "eventobject"
        }],
        "contextObj": {
            "name": "frmAccountsDetails",
            "type": "forms",
            "platform": "",
            "KUID": "f22d64f7cb454ad980b530de61c4240a"
        },
        "language": "js",
        "actions": [{
            "id": "ADD_SNIPPET__c4c4ebcb886d47869ce58e9c73acd368",
            "type": "ADD_SNIPPET",
            "codeSnippet": "this.initFrmAccountDetails();\nthis.TransactionTabActions();\n//this.checkNumberAction();",
            "parentId": null,
            "callbackType": null
        }]
    }
}