{
    "AS_FlexContainer_h190581d232d412788f0a570aa2f984b": {
        "id": "AS_FlexContainer_h190581d232d412788f0a570aa2f984b",
        "type": "ACTION_SEQUENCE",
        "params": [{
            "datatype": "collection",
            "name": "eventobject"
        }, {
            "datatype": "string",
            "name": "x"
        }, {
            "datatype": "string",
            "name": "y"
        }],
        "contextObj": {
            "name": "frmEnrollNow",
            "type": "forms",
            "platform": "",
            "KUID": "bd78051f2239477699cd5b3d036cf72a"
        },
        "language": "js",
        "actions": []
    }
}