{
    "AS_FlexContainer_h1e819e2cbc24bea86bf7c699898c757": {
        "id": "AS_FlexContainer_h1e819e2cbc24bea86bf7c699898c757",
        "type": "ACTION_SEQUENCE",
        "params": [{
            "datatype": "collection",
            "name": "eventobject"
        }, {
            "datatype": "collection",
            "name": "context"
        }],
        "contextObj": {
            "name": "segScheduledTransactionsSelected",
            "type": "templates",
            "platform": null,
            "KUID": "c21f11e1206d4b2ca80fc588af6576b6"
        },
        "language": "js",
        "actions": [{
            "id": "ADD_SNIPPET_ide_onClick_h5b7e28841e649c785783ecebcc480a6",
            "type": "ADD_SNIPPET",
            "codeSnippet": "this.rememberCategory();",
            "callbackType": null
        }]
    }
}