{
    "AS_Form_c4521dd49acb44bdbfa03cec2de72428": {
        "id": "AS_Form_c4521dd49acb44bdbfa03cec2de72428",
        "type": "ACTION_SEQUENCE",
        "params": [{
            "datatype": "collection",
            "name": "eventobject"
        }],
        "contextObj": {
            "name": "frmNotificationsAndMessages",
            "type": "forms",
            "platform": "",
            "KUID": "a83a23bb52bc4894a44b027a89964c1b"
        },
        "language": "js",
        "actions": [{
            "id": "ADD_SNIPPET__fd540db582d14e3690c21edb32d2b93d",
            "type": "ADD_SNIPPET",
            "codeSnippet": "this.initFunction();",
            "parentId": null,
            "callbackType": null
        }]
    }
}