{
    "AS_FlexContainer_j9a104e5382a404f8ea3ce4c60b78f6d": {
        "id": "AS_FlexContainer_j9a104e5382a404f8ea3ce4c60b78f6d",
        "type": "ACTION_SEQUENCE",
        "params": [{
            "datatype": "collection",
            "name": "eventobject"
        }, {
            "datatype": "string",
            "name": "x"
        }, {
            "datatype": "string",
            "name": "y"
        }],
        "contextObj": {
            "name": "frmNotificationsAndMessages",
            "type": "forms",
            "platform": "",
            "KUID": "a83a23bb52bc4894a44b027a89964c1b"
        },
        "language": "js",
        "actions": [{
            "id": "ADD_SNIPPET__g6232c5a26c64cd5a296e347e6c79c36",
            "type": "ADD_SNIPPET",
            "codeSnippet": "this.SearchAnimate();",
            "parentId": null,
            "callbackType": null
        }]
    }
}