{
    "AS_FlexContainer_i147a277edfe4e2cbfaff040b2bea793": {
        "id": "AS_FlexContainer_i147a277edfe4e2cbfaff040b2bea793",
        "type": "ACTION_SEQUENCE",
        "params": [{
            "datatype": "collection",
            "name": "eventobject"
        }, {
            "datatype": "collection",
            "name": "context"
        }],
        "contextObj": {
            "name": "segTransactionsRowSavings",
            "type": "templates",
            "platform": "",
            "KUID": "a340c420c4104f78b8822e5f6087325e"
        },
        "language": "js",
        "actions": [{
            "id": "ADD_SNIPPET__c15c333b62454078bba9b807a67552f5",
            "type": "ADD_SNIPPET",
            "codeSnippet": "this.showSelectedRow();",
            "parentId": null,
            "callbackType": null
        }]
    }
}