{
    "AS_FlexContainer_fc014ae0d92c45eb97bc2dd713c52b69": {
        "id": "AS_FlexContainer_fc014ae0d92c45eb97bc2dd713c52b69",
        "type": "ACTION_SEQUENCE",
        "params": [{
            "datatype": "collection",
            "name": "eventobject"
        }, {
            "datatype": "collection",
            "name": "context"
        }],
        "contextObj": {
            "name": "segTransactionsRowSelectedSavings",
            "type": "templates",
            "platform": "",
            "KUID": "df7eada892a641b38a57fd60b23c9c59"
        },
        "language": "js",
        "actions": [{
            "id": "ADD_SNIPPET__fa03fcb236bc4078a3c794953b23314f",
            "type": "ADD_SNIPPET",
            "codeSnippet": "this.check();",
            "parentId": null,
            "callbackType": null
        }]
    }
}