{
    "AS_FlexContainer_eeca1425129f4b568a977fce19d0d67e": {
        "id": "AS_FlexContainer_eeca1425129f4b568a977fce19d0d67e",
        "type": "ACTION_SEQUENCE",
        "params": [{
            "datatype": "collection",
            "name": "eventobject"
        }],
        "contextObj": {
            "name": "frmBillPay",
            "type": "forms",
            "platform": "",
            "KUID": "h754f638fe6d4c56aac376a2f3adf18b"
        },
        "language": "js",
        "actions": [{
            "id": "ADD_SNIPPET__c4e34d86e1034c39a050f5f610d92244",
            "type": "ADD_SNIPPET",
            "codeSnippet": "//this.flxSearchOnClick();",
            "parentId": null,
            "callbackType": null
        }]
    }
}