{
    "AS_FlexContainer_id4cba8fd7784efbacc919db4ef18068": {
        "id": "AS_FlexContainer_id4cba8fd7784efbacc919db4ef18068",
        "type": "ACTION_SEQUENCE",
        "params": [{
            "datatype": "collection",
            "name": "eventobject"
        }, {
            "datatype": "collection",
            "name": "context"
        }],
        "contextObj": {
            "name": "segProfileManagementAccounts",
            "type": "templates",
            "platform": "",
            "KUID": "b7b49663a590477097ec0ee49abb866b"
        },
        "language": "js",
        "actions": [{
            "id": "ADD_SNIPPET__e642f8adb792407988af6885da04e3ec",
            "type": "ADD_SNIPPET",
            "codeSnippet": null,
            "parentId": null,
            "callbackType": null
        }]
    }
}