{
    "AS_FlexContainer_e1949442b1464b77a6912bb8df43b369": {
        "id": "AS_FlexContainer_e1949442b1464b77a6912bb8df43b369",
        "type": "ACTION_SEQUENCE",
        "params": [{
            "datatype": "collection",
            "name": "eventobject"
        }],
        "language": "js",
        "actions": [{
            "id": "ADD_SNIPPET_ide_onClick_aef6d57b73004bc2b943ee5acb8ab090",
            "type": "ADD_SNIPPET",
            "codeSnippet": "this.toggle(this.view.flxAccountsSubMenu);",
            "callbackType": null
        }]
    }
}