{
    "AS_FlexContainer_a883ec21d50c42bc87d10caba9e49d76": {
        "id": "AS_FlexContainer_a883ec21d50c42bc87d10caba9e49d76",
        "type": "ACTION_SEQUENCE",
        "params": [{
            "datatype": "collection",
            "name": "eventobject"
        }],
        "contextObj": {
            "name": "frmAccountsLanding",
            "type": "forms",
            "platform": "",
            "KUID": "c0567b2e5ece4b0cbbe1b35e3c8f3103"
        },
        "language": "js",
        "actions": [{
            "id": "NAVIGATE_TO_FORM___c56c690153814aa3a753bf8d63d2961f",
            "type": "NAVIGATE_TO_FORM",
            "formId": "frmAccountsDetails",
            "friendlyName": "frmAccountsDetails",
            "formKUID": "f22d64f7cb454ad980b530de61c4240a",
            "mappings": {},
            "mappingsOrder": [],
            "parentId": "",
            "callbackType": null,
            "enableMappingEditor": true,
            "package": "AccountsModule"
        }]
    }
}