{
    "AS_FlexContainer_c3cfe5510cc9450c88b73309a09344df": {
        "id": "AS_FlexContainer_c3cfe5510cc9450c88b73309a09344df",
        "type": "ACTION_SEQUENCE",
        "params": [{
            "datatype": "collection",
            "name": "eventobject"
        }, {
            "datatype": "collection",
            "name": "context"
        }],
        "contextObj": {
            "name": "segMessagesRight",
            "type": "templates",
            "platform": "",
            "KUID": "fb8bf14a7f834dc8b0aeda23136c33c5"
        },
        "language": "js",
        "actions": []
    }
}