{
    "AS_FlexContainer_f3b1a52b321a4c4f95a49af43a3b58d3": {
        "id": "AS_FlexContainer_f3b1a52b321a4c4f95a49af43a3b58d3",
        "type": "ACTION_SEQUENCE",
        "params": [{
            "datatype": "collection",
            "name": "eventobject"
        }],
        "contextObj": {
            "name": "frmBillPay",
            "type": "forms",
            "platform": "",
            "KUID": "h754f638fe6d4c56aac376a2f3adf18b"
        },
        "language": "js",
        "actions": [{
            "id": "NAVIGATE_TO_FORM___a54484799b6e4f0aa9dc050104bef7fa",
            "type": "NAVIGATE_TO_FORM",
            "formId": "frmAccountsLanding",
            "friendlyName": "frmAccountsLanding",
            "formKUID": "c0567b2e5ece4b0cbbe1b35e3c8f3103",
            "mappings": {},
            "mappingsOrder": [],
            "parentId": "",
            "callbackType": null,
            "enableMappingEditor": true,
            "package": "AccountsModule"
        }]
    }
}