{
    "AS_FlexContainer_eae017c462d24a749ac5ebfb063b3ce1": {
        "id": "AS_FlexContainer_eae017c462d24a749ac5ebfb063b3ce1",
        "type": "ACTION_SEQUENCE",
        "params": [{
            "datatype": "collection",
            "name": "eventobject"
        }, {
            "datatype": "collection",
            "name": "context"
        }],
        "language": "js",
        "actions": [{
            "id": "ADD_SNIPPET_ide_onClick_hce65af7083749d8be7a00259f79001e",
            "type": "ADD_SNIPPET",
            "codeSnippet": "this.showSelectedRow();",
            "callbackType": null
        }]
    }
}