{
    "AS_Form_acfdd77e696e4530a1cc4358ea8fcfe8": {
        "id": "AS_Form_acfdd77e696e4530a1cc4358ea8fcfe8",
        "type": "ACTION_SEQUENCE",
        "params": [{
            "datatype": "collection",
            "name": "eventobject"
        }],
        "contextObj": {
            "name": "frmPayAPerson",
            "type": "forms",
            "platform": "",
            "KUID": "b19e9f55ebab4254b5eadf20d2a4c409"
        },
        "language": "js",
        "actions": [{
            "id": "ADD_SNIPPET__a760e0145722421c9bd3eb55e53f39b1",
            "type": "ADD_SNIPPET",
            "codeSnippet": "//Need to Consolidate\nkony.print(\"Back button pressed\");",
            "parentId": null,
            "callbackType": null
        }]
    }
}