{
    "AS_FlexContainer_i79dc315615244608d079d394e2c9a94": {
        "id": "AS_FlexContainer_i79dc315615244608d079d394e2c9a94",
        "type": "ACTION_SEQUENCE",
        "params": [{
            "datatype": "collection",
            "name": "eventobject"
        }, {
            "datatype": "collection",
            "name": "context"
        }],
        "contextObj": {
            "name": "segTransactionsRowSavings",
            "type": "templates",
            "platform": "",
            "KUID": "a340c420c4104f78b8822e5f6087325e"
        },
        "language": "js",
        "actions": [{
            "id": "ADD_SNIPPET__jf944945c4124c6bb7f46b3e30085c6b",
            "type": "ADD_SNIPPET",
            "codeSnippet": "this.showSelectedRow();",
            "parentId": null,
            "callbackType": null
        }]
    }
}