{
    "AS_FlexContainer_ca9537f4bcc54dc4a457161e02bc3020": {
        "id": "AS_FlexContainer_ca9537f4bcc54dc4a457161e02bc3020",
        "type": "ACTION_SEQUENCE",
        "params": [{
            "datatype": "collection",
            "name": "eventobject"
        }],
        "contextObj": {
            "name": "frmNotificationsAndMessages",
            "type": "forms",
            "platform": null,
            "KUID": "a83a23bb52bc4894a44b027a89964c1b"
        },
        "language": "js",
        "actions": [{
            "id": "ADD_SNIPPET_ide_onClick_ba29a52f48fb4d52b86a1d52b16dd11f",
            "type": "ADD_SNIPPET",
            "codeSnippet": "this.QuitNo();",
            "callbackType": null
        }]
    }
}