{
    "AS_FlexContainer_cd64958383f54b6db2df9ca80c03c849": {
        "id": "AS_FlexContainer_cd64958383f54b6db2df9ca80c03c849",
        "type": "ACTION_SEQUENCE",
        "params": [{
            "datatype": "collection",
            "name": "eventobject"
        }],
        "contextObj": {
            "name": "frmAccountsDetails",
            "type": "forms",
            "platform": "",
            "KUID": "f22d64f7cb454ad980b530de61c4240a"
        },
        "language": "js",
        "actions": [{
            "id": "ADD_SNIPPET__g779227c0c0c4e63ba99e0311ddd5a13",
            "type": "ADD_SNIPPET",
            "codeSnippet": "this.showMoreActions();",
            "parentId": null,
            "callbackType": null
        }]
    }
}