{
    "AS_FlexContainer_d1d5c15f5192465d8a30c8bf92c11a99": {
        "id": "AS_FlexContainer_d1d5c15f5192465d8a30c8bf92c11a99",
        "type": "ACTION_SEQUENCE",
        "params": [{
            "datatype": "collection",
            "name": "eventobject"
        }, {
            "datatype": "collection",
            "name": "context"
        }],
        "language": "js",
        "actions": [{
            "id": "ADD_SNIPPET_ide_onClick_j28a64fbe55d4c14a13de230ef00ab95",
            "type": "ADD_SNIPPET",
            "codeSnippet": "this.toggleCheckBox();",
            "callbackType": null
        }]
    }
}