{
    "AS_FlexContainer_ia8cedcd61a14acb90156dad9a5df07b": {
        "id": "AS_FlexContainer_ia8cedcd61a14acb90156dad9a5df07b",
        "type": "ACTION_SEQUENCE",
        "params": [{
            "datatype": "collection",
            "name": "eventobject"
        }],
        "contextObj": {
            "type": "forms",
            "platform": null,
            "KUID": "fefecc2daf7b46699434d209b330569d"
        },
        "language": "js",
        "actions": [{
            "id": "ADD_SNIPPET_ide_onClick_g0a49a10950e41fcb938129b57de7c68",
            "type": "ADD_SNIPPET",
            "codeSnippet": "this.QuitNo();",
            "callbackType": null
        }]
    }
}