{
    "AS_Form_b8bafac5aa9e430f935bf8d6235f8061": {
        "id": "AS_Form_b8bafac5aa9e430f935bf8d6235f8061",
        "type": "ACTION_SEQUENCE",
        "params": [{
            "datatype": "collection",
            "name": "eventobject"
        }],
        "contextObj": {
            "name": "frmNewUserOnboarding",
            "type": "forms",
            "platform": "",
            "KUID": "aff353eb7a424862bee1f3c76def72f5"
        },
        "language": "js",
        "actions": [{
            "id": "ADD_SNIPPET__e2c177fcd2074f8b865469a456218fea",
            "type": "ADD_SNIPPET",
            "codeSnippet": "this.initialize();",
            "parentId": null,
            "callbackType": null
        }]
    }
}