{
    "AS_Form_d9ca2b89bff14759a2403fb22886fc81": {
        "id": "AS_Form_d9ca2b89bff14759a2403fb22886fc81",
        "type": "ACTION_SEQUENCE",
        "params": [{
            "datatype": "collection",
            "name": "eventobject"
        }],
        "contextObj": {
            "name": "frmVerifyAccount",
            "type": "forms",
            "platform": "",
            "KUID": "cd9d334f742c4ef3addf06485fd42e4c"
        },
        "language": "js",
        "actions": [{
            "id": "ADD_SNIPPET__dbeedd1a9ba247a8ab20ab1462716279",
            "type": "ADD_SNIPPET",
            "codeSnippet": "this.postShowVerifyAccount();\nthis.presenter.loadHamburgerTransfers(\"frmVerifyAccount\");",
            "parentId": null,
            "callbackType": null
        }]
    }
}