{
    "AS_FlexContainer_h70362d400bb429da5c26606556f98dc": {
        "id": "AS_FlexContainer_h70362d400bb429da5c26606556f98dc",
        "type": "ACTION_SEQUENCE",
        "params": [{
            "datatype": "collection",
            "name": "eventobject"
        }],
        "contextObj": {
            "name": "frmLogin",
            "type": "forms",
            "platform": "",
            "KUID": "j0329c6c64654440bf366abc8de81b74"
        },
        "language": "js",
        "actions": [{
            "id": "ADD_SNIPPET__f0b336a7e6d14c109f9cc7edde85260c",
            "type": "ADD_SNIPPET",
            "codeSnippet": "this.rememberMe();",
            "parentId": null,
            "callbackType": null
        }]
    }
}