{
    "AS_Image_c7905cbc49a147e39bdb1b0a31995ff3": {
        "id": "AS_Image_c7905cbc49a147e39bdb1b0a31995ff3",
        "type": "ACTION_SEQUENCE",
        "params": [{
            "datatype": "collection",
            "name": "eventobject"
        }, {
            "datatype": "string",
            "name": "x"
        }, {
            "datatype": "string",
            "name": "y"
        }],
        "contextObj": {
            "name": "frmPayDueAmount",
            "type": "forms",
            "platform": "",
            "KUID": "ba0b4f38b88d4ad7a2c69bb7d0d38c44"
        },
        "language": "js",
        "actions": [{
            "id": "ADD_SNIPPET__ba682fda688647659c66923a7863ec13",
            "type": "ADD_SNIPPET",
            "codeSnippet": "this.imgToggle();",
            "parentId": null,
            "callbackType": null
        }]
    }
}