{
    "AS_Image_jdbb4394f1144542a7f3b2f91a6381cc": {
        "id": "AS_Image_jdbb4394f1144542a7f3b2f91a6381cc",
        "type": "ACTION_SEQUENCE",
        "params": [{
            "datatype": "collection",
            "name": "eventobject"
        }, {
            "datatype": "string",
            "name": "x"
        }, {
            "datatype": "string",
            "name": "y"
        }],
        "contextObj": {
            "name": "frmLogin",
            "type": "forms",
            "platform": "",
            "KUID": "j0329c6c64654440bf366abc8de81b74"
        },
        "language": "js",
        "actions": [{
            "id": "ADD_SNIPPET__h370191c83084d21b1c06ec88d136132",
            "type": "ADD_SNIPPET",
            "codeSnippet": "this.showCVV();",
            "parentId": null,
            "callbackType": null
        }]
    }
}