{
    "AS_Image_ad86127c1e4d46d8a9e36a69ad83338a": {
        "id": "AS_Image_ad86127c1e4d46d8a9e36a69ad83338a",
        "type": "ACTION_SEQUENCE",
        "params": [{
            "datatype": "collection",
            "name": "eventobject"
        }, {
            "datatype": "string",
            "name": "x"
        }, {
            "datatype": "string",
            "name": "y"
        }],
        "contextObj": {
            "name": "frmLogin",
            "type": "forms",
            "platform": "",
            "KUID": "j0329c6c64654440bf366abc8de81b74"
        },
        "language": "js",
        "actions": [{
            "id": "ADD_SNIPPET__d77a1c489f714c6393d65605ca574fe9",
            "type": "ADD_SNIPPET",
            "codeSnippet": "this.hideOTP();",
            "parentId": null,
            "callbackType": null
        }]
    }
}