{
    "AS_Image_c78087785f7c48e18d565b1dec7ee448": {
        "id": "AS_Image_c78087785f7c48e18d565b1dec7ee448",
        "type": "ACTION_SEQUENCE",
        "params": [{
            "datatype": "collection",
            "name": "eventobject"
        }, {
            "datatype": "string",
            "name": "x"
        }, {
            "datatype": "string",
            "name": "y"
        }],
        "contextObj": {
            "name": "frmLogin",
            "type": "forms",
            "platform": "",
            "KUID": "j0329c6c64654440bf366abc8de81b74"
        },
        "language": "js",
        "actions": [{
            "id": "ADD_SNIPPET__j694489b8f9c44099a76d3eeb382216b",
            "type": "ADD_SNIPPET",
            "codeSnippet": "this.showPassword();",
            "parentId": null,
            "callbackType": null
        }]
    }
}