{
    "AS_Image_b037369d831f4d5ca4511a3a1226334b": {
        "id": "AS_Image_b037369d831f4d5ca4511a3a1226334b",
        "type": "ACTION_SEQUENCE",
        "params": [{
            "datatype": "collection",
            "name": "eventobject"
        }, {
            "datatype": "string",
            "name": "x"
        }, {
            "datatype": "string",
            "name": "y"
        }],
        "contextObj": {
            "name": "frmProfileManagement",
            "type": "forms",
            "platform": "",
            "KUID": "e136103788ec406cab0b1d0f2087f12b"
        },
        "language": "js",
        "actions": [{
            "id": "ADD_SNIPPET__c36789a2b0f644a7a29a3b76865d2d0d",
            "type": "ADD_SNIPPET",
            "codeSnippet": "this.showOTP();",
            "parentId": null,
            "callbackType": null
        }]
    }
}