{
    "AS_Image_d023f7c00aae4c1aac640d792c7703b7": {
        "id": "AS_Image_d023f7c00aae4c1aac640d792c7703b7",
        "type": "ACTION_SEQUENCE",
        "params": [{
            "datatype": "collection",
            "name": "eventobject"
        }, {
            "datatype": "string",
            "name": "x"
        }, {
            "datatype": "string",
            "name": "y"
        }],
        "contextObj": {
            "name": "frmLogin",
            "type": "forms",
            "platform": "",
            "KUID": "j0329c6c64654440bf366abc8de81b74"
        },
        "language": "js",
        "actions": [{
            "id": "ADD_SNIPPET__a8c45e429c9b4ece83710ab882da98e7",
            "type": "ADD_SNIPPET",
            "codeSnippet": "this.hideSAC();",
            "parentId": null,
            "callbackType": null
        }]
    }
}