{
    "AS_Image_edd876de84ad4e3fa13ceb868f7dcba7": {
        "id": "AS_Image_edd876de84ad4e3fa13ceb868f7dcba7",
        "type": "ACTION_SEQUENCE",
        "params": [{
            "datatype": "collection",
            "name": "eventobject"
        }, {
            "datatype": "string",
            "name": "x"
        }, {
            "datatype": "string",
            "name": "y"
        }],
        "contextObj": {
            "name": "frmLogin",
            "type": "forms",
            "platform": "",
            "KUID": "j0329c6c64654440bf366abc8de81b74"
        },
        "language": "js",
        "actions": [{
            "id": "ADD_SNIPPET__f4ff6e61619442178bbd07ff0933cf4b",
            "type": "ADD_SNIPPET",
            "codeSnippet": "this.hidePassword();",
            "parentId": null,
            "callbackType": null
        }]
    }
}