{
    "AS_Image_aef6eca191534b798a31548b341313fa": {
        "id": "AS_Image_aef6eca191534b798a31548b341313fa",
        "type": "ACTION_SEQUENCE",
        "params": [{
            "datatype": "collection",
            "name": "eventobject"
        }, {
            "datatype": "string",
            "name": "x"
        }, {
            "datatype": "string",
            "name": "y"
        }],
        "contextObj": {
            "name": "frmNotificationsAndMessages",
            "type": "forms",
            "platform": "",
            "KUID": "a83a23bb52bc4894a44b027a89964c1b"
        },
        "language": "js",
        "actions": [{
            "id": "ADD_SNIPPET__f268e97859f74ec494354badd7345eae",
            "type": "ADD_SNIPPET",
            "codeSnippet": "this.view.NotficationsAndMessages.txtSearch.text=\"\";",
            "parentId": null,
            "callbackType": null
        }]
    }
}