{
    "AS_Image_a2831013e8fb466486924f1dad036dff": {
        "id": "AS_Image_a2831013e8fb466486924f1dad036dff",
        "type": "ACTION_SEQUENCE",
        "params": [{
            "datatype": "collection",
            "name": "eventobject"
        }, {
            "datatype": "string",
            "name": "x"
        }, {
            "datatype": "string",
            "name": "y"
        }],
        "contextObj": {
            "name": "frmProfileManagement",
            "type": "forms",
            "platform": "",
            "KUID": "e136103788ec406cab0b1d0f2087f12b"
        },
        "language": "js",
        "actions": [{
            "id": "ADD_SNIPPET__f49542930edb41e08c679f7a7899ed78",
            "type": "ADD_SNIPPET",
            "codeSnippet": "this.hideOTP();",
            "parentId": null,
            "callbackType": null
        }]
    }
}