{
    "AS_Image_ca3ed9430e584887a31578bb22d5b18b": {
        "id": "AS_Image_ca3ed9430e584887a31578bb22d5b18b",
        "type": "ACTION_SEQUENCE",
        "params": [{
            "datatype": "collection",
            "name": "eventobject"
        }, {
            "datatype": "string",
            "name": "x"
        }, {
            "datatype": "string",
            "name": "y"
        }],
        "contextObj": {
            "type": "forms",
            "platform": null,
            "KUID": "h76e5b804db249f3bed8bdb45f507766"
        },
        "language": "js",
        "actions": [{
            "id": "SET_FORM_WIDGET_PROPERTY____bfcb7f9dd57849ce8d29badd9be85796",
            "type": "SET_WIDGET_PROPERTY",
            "itemType": "FORM",
            "itemId": "frmPayDueAmount",
            "propertyName": "isVisible",
            "propertyValue": "false",
            "itemKUID": "ba0b4f38b88d4ad7a2c69bb7d0d38c44",
            "widgetKUID": "a6bcc3ddffb943e785d2e92bd0884a78",
            "isSkinProperty": false,
            "wType": "Image",
            "forkedPlatform": "all",
            "callbackType": null
        }, {
            "id": "SET_FORM_WIDGET_PROPERTY____g28e6c6352bd446a9554ce84b29f0db2",
            "type": "SET_WIDGET_PROPERTY",
            "itemType": "FORM",
            "itemId": "frmPayDueAmount",
            "propertyName": "isVisible",
            "propertyValue": "true",
            "itemKUID": "ba0b4f38b88d4ad7a2c69bb7d0d38c44",
            "widgetKUID": "ebda43c3c2504322a7baf7cc20338ea3",
            "isSkinProperty": false,
            "wType": "Image",
            "forkedPlatform": "all",
            "callbackType": null
        }]
    }
}