{
    "AS_Image_h482f0f304b04288a5767a79c99c6f29": {
        "id": "AS_Image_h482f0f304b04288a5767a79c99c6f29",
        "type": "ACTION_SEQUENCE",
        "params": [{
            "datatype": "collection",
            "name": "eventobject"
        }, {
            "datatype": "string",
            "name": "x"
        }, {
            "datatype": "string",
            "name": "y"
        }],
        "contextObj": {
            "name": "frmLogin",
            "type": "forms",
            "platform": "",
            "KUID": "j0329c6c64654440bf366abc8de81b74"
        },
        "language": "js",
        "actions": [{
            "id": "ADD_SNIPPET__b3062a34845b448ca875ad54cd7454da",
            "type": "ADD_SNIPPET",
            "codeSnippet": "this.hidePassword();",
            "parentId": null,
            "callbackType": null
        }]
    }
}