{
    "AS_Image_adc844d8e1ba4a938b32c06bb943f275": {
        "id": "AS_Image_adc844d8e1ba4a938b32c06bb943f275",
        "type": "ACTION_SEQUENCE",
        "params": [{
            "datatype": "collection",
            "name": "eventobject"
        }, {
            "datatype": "string",
            "name": "x"
        }, {
            "datatype": "string",
            "name": "y"
        }],
        "contextObj": {
            "type": "forms",
            "platform": null,
            "KUID": "fefecc2daf7b46699434d209b330569d"
        },
        "language": "js",
        "actions": [{
            "id": "ADD_SNIPPET_ide_onTouchEnd_f93cc20e1b03431ba05babea4e695bb5",
            "type": "ADD_SNIPPET",
            "codeSnippet": "this.imgToggle(\"Due\");",
            "callbackType": null
        }]
    }
}