{
    "AS_Image_g8b064f1081040559ae20ef3d608c8bb": {
        "id": "AS_Image_g8b064f1081040559ae20ef3d608c8bb",
        "type": "ACTION_SEQUENCE",
        "params": [{
            "datatype": "collection",
            "name": "eventobject"
        }, {
            "datatype": "string",
            "name": "x"
        }, {
            "datatype": "string",
            "name": "y"
        }],
        "contextObj": {
            "type": "forms",
            "platform": null,
            "KUID": "h76e5b804db249f3bed8bdb45f507766"
        },
        "language": "js",
        "actions": [{
            "id": "SET_FORM_WIDGET_PROPERTY____c00e29a8ad5d4c418e86173eb2d5cb8d",
            "type": "SET_WIDGET_PROPERTY",
            "itemType": "FORM",
            "itemId": "frmPayDueAmount",
            "propertyName": "isVisible",
            "propertyValue": "false",
            "itemKUID": "ba0b4f38b88d4ad7a2c69bb7d0d38c44",
            "widgetKUID": "hd29b2adfd534bfd95dd4210170728da",
            "isSkinProperty": false,
            "wType": "Image",
            "forkedPlatform": "all",
            "callbackType": null
        }, {
            "id": "SET_FORM_WIDGET_PROPERTY____ec6ba1145b5e4261b8a3ee94ae3ef61d",
            "type": "SET_WIDGET_PROPERTY",
            "itemType": "FORM",
            "itemId": "frmPayDueAmount",
            "propertyName": "isVisible",
            "propertyValue": "true",
            "itemKUID": "ba0b4f38b88d4ad7a2c69bb7d0d38c44",
            "widgetKUID": "ccc98b682c5341bfa969d0ac959da32a",
            "isSkinProperty": false,
            "wType": "Image",
            "forkedPlatform": "all",
            "callbackType": null
        }, {
            "id": "SET_FORM_WIDGET_PROPERTY____e6c402944c654307948d680abd4dc6d5",
            "type": "SET_WIDGET_PROPERTY",
            "itemType": "FORM",
            "itemId": "frmPayDueAmount",
            "propertyName": "isVisible",
            "propertyValue": "true",
            "itemKUID": "ba0b4f38b88d4ad7a2c69bb7d0d38c44",
            "widgetKUID": "c2a86957f0a14134964fe1899e8d2a9e",
            "isSkinProperty": false,
            "wType": "Label",
            "forkedPlatform": "all",
            "callbackType": null
        }]
    }
}