{
    "AS_Image_fef69b40a8df408fa4e400c01098ca40": {
        "id": "AS_Image_fef69b40a8df408fa4e400c01098ca40",
        "type": "ACTION_SEQUENCE",
        "params": [{
            "datatype": "collection",
            "name": "eventobject"
        }, {
            "datatype": "string",
            "name": "x"
        }, {
            "datatype": "string",
            "name": "y"
        }],
        "contextObj": {
            "name": "frmPayDueAmount",
            "type": "forms",
            "platform": "",
            "KUID": "ba0b4f38b88d4ad7a2c69bb7d0d38c44"
        },
        "language": "js",
        "actions": [{
            "id": "ADD_SNIPPET__bfc8b031d03b4edc812491339b300494",
            "type": "ADD_SNIPPET",
            "codeSnippet": "this.imgToggle(\"Other\");",
            "parentId": null,
            "callbackType": null
        }]
    }
}