{
    "AS_Image_g3cae1d128e746199bda63066fd74867": {
        "id": "AS_Image_g3cae1d128e746199bda63066fd74867",
        "type": "ACTION_SEQUENCE",
        "params": [{
            "datatype": "collection",
            "name": "eventobject"
        }, {
            "datatype": "string",
            "name": "x"
        }, {
            "datatype": "string",
            "name": "y"
        }],
        "contextObj": {
            "name": "frmLogin",
            "type": "forms",
            "platform": "",
            "KUID": "j0329c6c64654440bf366abc8de81b74"
        },
        "language": "js",
        "actions": [{
            "id": "ADD_SNIPPET__a4bf2eabb92548f0a3eada09f759db1d",
            "type": "ADD_SNIPPET",
            "codeSnippet": "this.showPassword();",
            "parentId": null,
            "callbackType": null
        }]
    }
}