{
    "AS_Image_j2ed8f186b554ae0bc252ae42ff4fb82": {
        "id": "AS_Image_j2ed8f186b554ae0bc252ae42ff4fb82",
        "type": "ACTION_SEQUENCE",
        "params": [{
            "datatype": "collection",
            "name": "eventobject"
        }, {
            "datatype": "string",
            "name": "x"
        }, {
            "datatype": "string",
            "name": "y"
        }],
        "contextObj": {
            "name": "segAccountListItem",
            "type": "templates",
            "platform": "",
            "KUID": "bd62770ffa4749bf9c7620f441c78f39"
        },
        "language": "js",
        "actions": [{
            "id": "ADD_SNIPPET__f796a324e3e74e398078f03245ec19d6",
            "type": "ADD_SNIPPET",
            "codeSnippet": "kony.print(\"img pressed\");\nthis.imgPressed();",
            "parentId": null,
            "callbackType": null
        }]
    }
}