{
    "AS_Label_f896a050f9974ae5b10a35ca603d5824": {
        "id": "AS_Label_f896a050f9974ae5b10a35ca603d5824",
        "type": "ACTION_SEQUENCE",
        "params": [{
            "datatype": "collection",
            "name": "eventobject"
        }, {
            "datatype": "string",
            "name": "x"
        }, {
            "datatype": "string",
            "name": "y"
        }],
        "contextObj": {
            "name": "frmAccountsDetails",
            "type": "forms",
            "platform": "",
            "KUID": "f22d64f7cb454ad980b530de61c4240a"
        },
        "language": "js",
        "actions": [{
            "id": "NAVIGATE_TO_FORM___ad3fce94315146fbb07639e2cc6a83c7",
            "type": "NAVIGATE_TO_FORM",
            "formId": "frmAccountsLanding",
            "friendlyName": "frmAccountsLanding",
            "formKUID": "c0567b2e5ece4b0cbbe1b35e3c8f3103",
            "mappings": {},
            "mappingsOrder": [],
            "parentId": "",
            "callbackType": null,
            "enableMappingEditor": true,
            "package": "AccountsModule"
        }]
    }
}