{
    "AS_ListBox_e5f42253d68741bb895df3034fc5c402": {
        "id": "AS_ListBox_e5f42253d68741bb895df3034fc5c402",
        "type": "ACTION_SEQUENCE",
        "params": [{
            "datatype": "collection",
            "name": "eventobject"
        }],
        "contextObj": {
            "name": "frmProfileManagement",
            "type": "forms",
            "platform": "",
            "KUID": "e136103788ec406cab0b1d0f2087f12b"
        },
        "language": "js",
        "actions": [{
            "id": "ADD_SNIPPET__f00b9b9b40ed4b378fd9bf8de0a0c2da",
            "type": "ADD_SNIPPET",
            "codeSnippet": "this.setQuestionForListBox4(); ",
            "parentId": null,
            "callbackType": null
        }]
    }
}