{
    "AS_ListBox_h9cd9f4d38e74908a6950a38a71840cd": {
        "id": "AS_ListBox_h9cd9f4d38e74908a6950a38a71840cd",
        "type": "ACTION_SEQUENCE",
        "params": [{
            "datatype": "collection",
            "name": "eventobject"
        }],
        "contextObj": {
            "name": "frmProfileManagement",
            "type": "forms",
            "platform": "",
            "KUID": "e136103788ec406cab0b1d0f2087f12b"
        },
        "language": "js",
        "actions": [{
            "id": "ADD_SNIPPET__b1faf595805b4b6aac06e0cd31b8ef0c",
            "type": "ADD_SNIPPET",
            "codeSnippet": "this.setQuestionForListBox3(); ",
            "parentId": null,
            "callbackType": null
        }]
    }
}