{
    "AS_Label_e07853102cc64683a6dc929291b1de12": {
        "id": "AS_Label_e07853102cc64683a6dc929291b1de12",
        "type": "ACTION_SEQUENCE",
        "params": [{
            "datatype": "collection",
            "name": "eventobject"
        }, {
            "datatype": "string",
            "name": "x"
        }, {
            "datatype": "string",
            "name": "y"
        }],
        "contextObj": {
            "name": "frmBillPay",
            "type": "forms",
            "platform": "",
            "KUID": "h754f638fe6d4c56aac376a2f3adf18b"
        },
        "language": "js",
        "actions": [{
            "id": "NAVIGATE_TO_FORM___jb6fe13fe81044198c8dcc8d3d5db0e9",
            "type": "NAVIGATE_TO_FORM",
            "formId": "frmAccountsLanding",
            "friendlyName": "frmAccountsLanding",
            "formKUID": "c0567b2e5ece4b0cbbe1b35e3c8f3103",
            "mappings": {},
            "mappingsOrder": [],
            "parentId": "",
            "callbackType": null,
            "enableMappingEditor": true,
            "package": "AccountsModule"
        }]
    }
}