{
    "AS_ListBox_d473bed3f34a484aabfc5d8da37e729b": {
        "id": "AS_ListBox_d473bed3f34a484aabfc5d8da37e729b",
        "type": "ACTION_SEQUENCE",
        "params": [{
            "datatype": "collection",
            "name": "eventobject"
        }],
        "contextObj": {
            "name": "frmLogin",
            "type": "forms",
            "platform": "",
            "KUID": "j0329c6c64654440bf366abc8de81b74"
        },
        "language": "js",
        "actions": [{
            "id": "ADD_SNIPPET__ac6c5bc384eb47bd879eab7cdcfd06f2",
            "type": "ADD_SNIPPET",
            "codeSnippet": "this.allFieldsCheck();",
            "parentId": null,
            "callbackType": null
        }]
    }
}