{
    "AS_Label_a7bebe4012bb48049d26b0d92275a773": {
        "id": "AS_Label_a7bebe4012bb48049d26b0d92275a773",
        "type": "ACTION_SEQUENCE",
        "params": [{
            "datatype": "collection",
            "name": "eventobject"
        }, {
            "datatype": "string",
            "name": "x"
        }, {
            "datatype": "string",
            "name": "y"
        }],
        "contextObj": {
            "name": "frmAddExternalAccount",
            "type": "forms",
            "platform": "",
            "KUID": "g44e89ee0cb445b982945b6b358d77eb"
        },
        "language": "js",
        "actions": [{
            "id": "ADD_SNIPPET__da06cda612c04acfb2ccc5624ff3ccef",
            "type": "ADD_SNIPPET",
            "codeSnippet": "this.navigatetointernalaccount();",
            "parentId": null,
            "callbackType": null
        }]
    }
}