{
    "AS_Label_d4e0d72c867b418dbecb1c04e9dec6a8": {
        "id": "AS_Label_d4e0d72c867b418dbecb1c04e9dec6a8",
        "type": "ACTION_SEQUENCE",
        "params": [{
            "datatype": "collection",
            "name": "eventobject"
        }, {
            "datatype": "string",
            "name": "x"
        }, {
            "datatype": "string",
            "name": "y"
        }],
        "contextObj": {
            "name": "frmTransfers",
            "type": "forms",
            "platform": "",
            "KUID": "e9f47be88ab64765a96b1fae7d2a7720"
        },
        "language": "js",
        "actions": [{
            "id": "ADD_SNIPPET__gb056214520a4ce7a1d8881bf625c22e",
            "type": "ADD_SNIPPET",
            "codeSnippet": "var type=\"OWN_INTERNAL_ACCOUNTS\";\nthis.presenter.transferToTypeListener(type);",
            "parentId": null,
            "callbackType": null
        }]
    }
}