{
    "AS_Label_j949de57b0d3419e84018257d3966f91": {
        "id": "AS_Label_j949de57b0d3419e84018257d3966f91",
        "type": "ACTION_SEQUENCE",
        "params": [{
            "datatype": "collection",
            "name": "eventobject"
        }, {
            "datatype": "string",
            "name": "x"
        }, {
            "datatype": "string",
            "name": "y"
        }],
        "contextObj": {
            "name": "frmLogin",
            "type": "forms",
            "platform": "",
            "KUID": "j0329c6c64654440bf366abc8de81b74"
        },
        "language": "js",
        "actions": [{
            "id": "ADD_SNIPPET__fd7f94244d5a41d09b7f4f406dbb75f7",
            "type": "ADD_SNIPPET",
            "codeSnippet": "this.verifyUser();",
            "parentId": null,
            "callbackType": null
        }]
    }
}