{
    "AS_Label_c2c1d2abc7e74d04b0cafa220c8e20e8": {
        "id": "AS_Label_c2c1d2abc7e74d04b0cafa220c8e20e8",
        "type": "ACTION_SEQUENCE",
        "params": [{
            "datatype": "collection",
            "name": "eventobject"
        }, {
            "datatype": "string",
            "name": "x"
        }, {
            "datatype": "string",
            "name": "y"
        }],
        "contextObj": {
            "name": "frmLogin",
            "type": "forms",
            "platform": "",
            "KUID": "j0329c6c64654440bf366abc8de81b74"
        },
        "language": "js",
        "actions": [{
            "id": "ADD_SNIPPET__h2bb5c6af2b245a59d5321a06c169cf8",
            "type": "ADD_SNIPPET",
            "codeSnippet": "this.useCVVForReset();",
            "parentId": null,
            "callbackType": null
        }]
    }
}