{
    "AS_RichText_gdb86129d58445bbbf332318556f098d": {
        "id": "AS_RichText_gdb86129d58445bbbf332318556f098d",
        "type": "ACTION_SEQUENCE",
        "params": [{
            "datatype": "collection",
            "name": "eventobject"
        }, {
            "datatype": "string",
            "name": "linktext"
        }, {
            "datatype": "string",
            "name": "attributes"
        }],
        "contextObj": {
            "name": "frmEnrollNow",
            "type": "forms",
            "platform": null,
            "KUID": "bd78051f2239477699cd5b3d036cf72a"
        },
        "language": "js",
        "actions": [{
            "id": "ADD_SNIPPET__bb44eaeea3a549dbade32df90cee7e64",
            "type": "ADD_SNIPPET",
            "codeSnippet": "this.showCVVDescription();",
            "parentId": null,
            "callbackType": null
        }]
    }
}