{
    "AS_Segment_gc7b6e2f5bab4ca083b10dafd54aed46": {
        "id": "AS_Segment_gc7b6e2f5bab4ca083b10dafd54aed46",
        "type": "ACTION_SEQUENCE",
        "params": [{
            "datatype": "collection",
            "name": "eventobject"
        }, {
            "datatype": "number",
            "name": "sectionNumber"
        }, {
            "datatype": "number",
            "name": "rowNumber"
        }],
        "contextObj": {
            "name": "frmAccountsLanding",
            "type": "forms",
            "platform": "",
            "KUID": "c0567b2e5ece4b0cbbe1b35e3c8f3103"
        },
        "language": "js",
        "actions": [{
            "id": "NAVIGATE_TO_FORM___h21c8f26ff7f442db4ab29b23d3f36c3",
            "type": "NAVIGATE_TO_FORM",
            "formId": "frmAccountsDetails",
            "friendlyName": "frmAccountsDetails",
            "formKUID": "f22d64f7cb454ad980b530de61c4240a",
            "mappings": {},
            "mappingsOrder": [],
            "parentId": "",
            "callbackType": null,
            "enableMappingEditor": true,
            "package": "AccountsModule"
        }]
    }
}