{
    "AS_Segment_g374d7eef6fc4a6bba8771a828e97209": {
        "id": "AS_Segment_g374d7eef6fc4a6bba8771a828e97209",
        "type": "ACTION_SEQUENCE",
        "params": [{
            "datatype": "collection",
            "name": "eventobject"
        }, {
            "datatype": "number",
            "name": "sectionNumber"
        }, {
            "datatype": "number",
            "name": "rowNumber"
        }],
        "contextObj": {
            "name": "frmLogin",
            "type": "forms",
            "platform": "",
            "KUID": "j0329c6c64654440bf366abc8de81b74"
        },
        "language": "js",
        "actions": [{
            "id": "ADD_SNIPPET__haf237d34a8e4087852d5274adc1fe02",
            "type": "ADD_SNIPPET",
            "codeSnippet": "this.selectUserName();",
            "parentId": null,
            "callbackType": null
        }]
    }
}