{
    "AS_Segment_hb176113c8c3464eb07d9d440d09a389": {
        "id": "AS_Segment_hb176113c8c3464eb07d9d440d09a389",
        "type": "ACTION_SEQUENCE",
        "params": [{
            "datatype": "collection",
            "name": "eventobject"
        }, {
            "datatype": "number",
            "name": "sectionNumber"
        }, {
            "datatype": "number",
            "name": "rowNumber"
        }],
        "contextObj": {
            "type": "forms",
            "platform": "",
            "KUID": "j3542a2978ee44e9a1620084f2c3dfc9"
        },
        "language": "js",
        "actions": [{
            "id": "ADD_SNIPPET__f0ef2f30e7b645cf81aa52474bd4d358",
            "type": "ADD_SNIPPET",
            "codeSnippet": "this.pendingRowOnClick();",
            "parentId": null,
            "callbackType": null
        }]
    }
}