{
    "AS_TextField_fbdaa375465449ef8f0f1e092b0965f5": {
        "id": "AS_TextField_fbdaa375465449ef8f0f1e092b0965f5",
        "type": "ACTION_SEQUENCE",
        "params": [{
            "datatype": "collection",
            "name": "eventobject"
        }, {
            "datatype": "string",
            "name": "changedtext"
        }],
        "contextObj": {
            "name": "frmLogin",
            "type": "forms",
            "platform": "",
            "KUID": "j0329c6c64654440bf366abc8de81b74"
        },
        "language": "js",
        "actions": [{
            "id": "ADD_SNIPPET__ff41e117dce144b284ffd36b5a18a029",
            "type": "ADD_SNIPPET",
            "codeSnippet": "this.validateNewPassword(this.view.newpasswordsetting.tbxNewPassword.text);",
            "parentId": null,
            "callbackType": null
        }]
    }
}