{
    "AS_TextField_ib509dcba166468b88c40a873abb3e56": {
        "id": "AS_TextField_ib509dcba166468b88c40a873abb3e56",
        "type": "ACTION_SEQUENCE",
        "params": [{
            "datatype": "collection",
            "name": "eventobject"
        }, {
            "datatype": "string",
            "name": "changedtext"
        }],
        "contextObj": {
            "type": "forms",
            "platform": null,
            "KUID": "h76e5b804db249f3bed8bdb45f507766"
        },
        "language": "js",
        "actions": [{
            "id": "ADD_SNIPPET_ide_onDone_c3c280b4286043109c3d5c731879c87e",
            "type": "ADD_SNIPPET",
            "codeSnippet": "var amount = this.view.frmPayDueAmount.flxContainer.flxMainContainer.flxBillPay.PayDueAmount.tbxAmount.text;\nvar a = replace(/$/g,'');\nint amt=parseInt(a);\nif(amt<1000)\n  {\n    this.view.frmPayDueAmount.flxContainer.flxMainContainer.flxBillPay.PayDueAmount.lblAmount.isVisible=\"false\";\n    this.view.frmPayDueAmount.flxContainer.flxMainContainer.flxBillPay.PayDueAmount.flxInfoDueAmount.isVisible=\"true\";\n  }\n  \n  \n",
            "callbackType": null
        }]
    }
}