{
    "AS_TextField_b56a3c7092e84da2aca6fc58eba5a953": {
        "id": "AS_TextField_b56a3c7092e84da2aca6fc58eba5a953",
        "type": "ACTION_SEQUENCE",
        "params": [{
            "datatype": "collection",
            "name": "eventobject"
        }],
        "contextObj": {
            "name": "frmAddExternalAccount",
            "type": "forms",
            "platform": "",
            "KUID": "g44e89ee0cb445b982945b6b358d77eb"
        },
        "language": "js",
        "actions": [{
            "id": "ADD_SNIPPET__fbd099f178064ecfabe0540a277bf6ca",
            "type": "ADD_SNIPPET",
            "codeSnippet": "this.validateInternationalFields();",
            "parentId": null,
            "callbackType": null
        }]
    }
}