{
    "AS_TextField_a744a85ebddf495998025108d9c447df": {
        "id": "AS_TextField_a744a85ebddf495998025108d9c447df",
        "type": "ACTION_SEQUENCE",
        "params": [{
            "datatype": "collection",
            "name": "eventobject"
        }, {
            "datatype": "string",
            "name": "changedtext"
        }],
        "contextObj": {
            "name": "frmLogin",
            "type": "forms",
            "platform": "",
            "KUID": "j0329c6c64654440bf366abc8de81b74"
        },
        "language": "js",
        "actions": [{
            "id": "ADD_SNIPPET__g93d38d73b894f21bb8f1676216da2d6",
            "type": "ADD_SNIPPET",
            "codeSnippet": "if(this.view.main.flxPassword.skin ==\"sknBorderFF0101\"){\n this.credentialsMissingUIChangesAnti(); \n}",
            "parentId": null,
            "callbackType": null
        }]
    }
}