{
    "AS_TextField_g0130b245bc549c0b0965c769ff625ea": {
        "id": "AS_TextField_g0130b245bc549c0b0965c769ff625ea",
        "type": "ACTION_SEQUENCE",
        "params": [{
            "datatype": "collection",
            "name": "eventobject"
        }, {
            "datatype": "string",
            "name": "changedtext"
        }],
        "contextObj": {
            "name": "frmLogin",
            "type": "forms",
            "platform": "",
            "KUID": "j0329c6c64654440bf366abc8de81b74"
        },
        "language": "js",
        "actions": [{
            "id": "ADD_SNIPPET__ffd7efb7d8ec476eb8a3755385c8188c",
            "type": "ADD_SNIPPET",
            "codeSnippet": "this.allFieldsCheck();\nthis.ssnCheck();",
            "parentId": null,
            "callbackType": null
        }]
    }
}