{
    "AS_TextField_f9e2db2085744cec9374174e86aa361c": {
        "id": "AS_TextField_f9e2db2085744cec9374174e86aa361c",
        "type": "ACTION_SEQUENCE",
        "params": [{
            "datatype": "collection",
            "name": "eventobject"
        }],
        "contextObj": {
            "name": "frmProfileManagement",
            "type": "forms",
            "platform": "",
            "KUID": "e136103788ec406cab0b1d0f2087f12b"
        },
        "language": "js",
        "actions": [{
            "id": "ADD_SNIPPET__c64d5be4071c4747b7d44398b1b35b60",
            "type": "ADD_SNIPPET",
            "codeSnippet": "this.ValidateUsername();",
            "parentId": null,
            "callbackType": null
        }]
    }
}