{
    "AS_TextField_b34785ed74a546d699391b121aaa9c66": {
        "id": "AS_TextField_b34785ed74a546d699391b121aaa9c66",
        "type": "ACTION_SEQUENCE",
        "params": [{
            "datatype": "collection",
            "name": "eventobject"
        }],
        "contextObj": {
            "name": "frmEnrollNow",
            "type": "forms",
            "platform": "",
            "KUID": "bd78051f2239477699cd5b3d036cf72a"
        },
        "language": "js",
        "actions": [{
            "id": "ADD_SNIPPET__a93e67db143647edaaad538d5db6b1bb",
            "type": "ADD_SNIPPET",
            "codeSnippet": "if (this.view.newUsernamepasswordsetting.tbxMatchPassword.text !== \"\")\nthis.validateConfirmPassword(this.view.newUsernamepasswordsetting.tbxMatchPassword.text);",
            "parentId": null,
            "callbackType": null
        }]
    }
}