{
    "AS_TextField_a892a0332988490d9ac6d609f7cfc6cc": {
        "id": "AS_TextField_a892a0332988490d9ac6d609f7cfc6cc",
        "type": "ACTION_SEQUENCE",
        "params": [{
            "datatype": "collection",
            "name": "eventobject"
        }],
        "contextObj": {
            "name": "frmAddExternalAccount",
            "type": "forms",
            "platform": "",
            "KUID": "g44e89ee0cb445b982945b6b358d77eb"
        },
        "language": "js",
        "actions": [{
            "id": "ADD_SNIPPET__d8e151dc3c8949dbbe0e76a656bcaf38",
            "type": "ADD_SNIPPET",
            "codeSnippet": "this.validateInternationalFields();",
            "parentId": null,
            "callbackType": null
        }]
    }
}