{
    "AS_TextField_bdaf04817c824560b9863990600ba889": {
        "id": "AS_TextField_bdaf04817c824560b9863990600ba889",
        "type": "ACTION_SEQUENCE",
        "params": [{
            "datatype": "collection",
            "name": "eventobject"
        }, {
            "datatype": "string",
            "name": "changedtext"
        }],
        "contextObj": {
            "name": "frmLogin",
            "type": "forms",
            "platform": "",
            "KUID": "j0329c6c64654440bf366abc8de81b74"
        },
        "language": "js",
        "actions": [{
            "id": "ADD_SNIPPET__gc46a96ba05f4060a8ac05e1e8460265",
            "type": "ADD_SNIPPET",
            "codeSnippet": "this.hideUserNameSuggestions();",
            "parentId": null,
            "callbackType": null
        }]
    }
}