{
    "AS_TextField_da144b2be663466db1faae9dcd72fc69": {
        "id": "AS_TextField_da144b2be663466db1faae9dcd72fc69",
        "type": "ACTION_SEQUENCE",
        "params": [{
            "datatype": "collection",
            "name": "eventobject"
        }],
        "contextObj": {
            "name": "frmLogin",
            "type": "forms",
            "platform": "",
            "KUID": "j0329c6c64654440bf366abc8de81b74"
        },
        "language": "js",
        "actions": [{
            "id": "ADD_SNIPPET__befd651b476d43e9b31900b2a6c35544",
            "type": "ADD_SNIPPET",
            "codeSnippet": "if (this.view.resetusingOTPEnterOTP.tbxCVV.text !== \"\")\n    this.otpCheck();",
            "parentId": null,
            "callbackType": null
        }]
    }
}