{
    "AS_TextField_f16827f71b0b4a05a6105875d69ccad8": {
        "id": "AS_TextField_f16827f71b0b4a05a6105875d69ccad8",
        "type": "ACTION_SEQUENCE",
        "params": [{
            "datatype": "collection",
            "name": "eventobject"
        }, {
            "datatype": "string",
            "name": "changedtext"
        }],
        "contextObj": {
            "name": "frmProfileManagement",
            "type": "forms",
            "platform": "",
            "KUID": "e136103788ec406cab0b1d0f2087f12b"
        },
        "language": "js",
        "actions": [{
            "id": "ADD_SNIPPET__eeb6a835a7aa47fe9ce56430b53ae9b6",
            "type": "ADD_SNIPPET",
            "codeSnippet": "this.enableSecurityQuestions(this.view.settings.tbxAnswer1.text,this.view.settings.tbxAnswer2.text,this.view.settings.tbxAnswer3.text,this.view.settings.tbxAnswer4.text,this.view.settings.tbxAnswer5.text);",
            "parentId": null,
            "callbackType": null
        }]
    }
}