{
    "AS_TextField_bc5789457a334c96b5a4bab1fa9d4356": {
        "id": "AS_TextField_bc5789457a334c96b5a4bab1fa9d4356",
        "type": "ACTION_SEQUENCE",
        "params": [{
            "datatype": "collection",
            "name": "eventobject"
        }],
        "contextObj": {
            "name": "frmProfileManagement",
            "type": "forms",
            "platform": "",
            "KUID": "e136103788ec406cab0b1d0f2087f12b"
        },
        "language": "js",
        "actions": [{
            "id": "ADD_SNIPPET__b3fdaa8788d140519fbfb6d27c18f757",
            "type": "ADD_SNIPPET",
            "codeSnippet": "this.enableSecurityQuestions(this.view.settings.tbxAnswer1.text,this.view.settings.tbxAnswer2.text,this.view.settings.tbxAnswer3.text,this.view.settings.tbxAnswer4.text,this.view.settings.tbxAnswer5.text);",
            "parentId": null,
            "callbackType": null
        }]
    }
}