{
    "AS_TextField_e8b918ffd1e346d69ade6a3ba28cf7e2": {
        "id": "AS_TextField_e8b918ffd1e346d69ade6a3ba28cf7e2",
        "type": "ACTION_SEQUENCE",
        "params": [{
            "datatype": "collection",
            "name": "eventobject"
        }, {
            "datatype": "string",
            "name": "changedtext"
        }],
        "contextObj": {
            "name": "frmProfileManagement",
            "type": "forms",
            "platform": "",
            "KUID": "e136103788ec406cab0b1d0f2087f12b"
        },
        "language": "js",
        "actions": [{
            "id": "ADD_SNIPPET__ec66875c7c73491a9bcd8a230096fc5c",
            "type": "ADD_SNIPPET",
            "codeSnippet": "this.onEditingAnswer1(); ",
            "parentId": null,
            "callbackType": null
        }]
    }
}