{
    "AS_TextField_d846920a6ff7411ab0e3bd25603949fd": {
        "id": "AS_TextField_d846920a6ff7411ab0e3bd25603949fd",
        "type": "ACTION_SEQUENCE",
        "params": [{
            "datatype": "collection",
            "name": "eventobject"
        }],
        "contextObj": {
            "name": "frmTransfers",
            "type": "forms",
            "platform": "",
            "KUID": "e9f47be88ab64765a96b1fae7d2a7720"
        },
        "language": "js",
        "actions": [{
            "id": "ADD_SNIPPET__d2fb63aad7024b3dac27e114e3cda7a9",
            "type": "ADD_SNIPPET",
            "codeSnippet": "this.checkValidityMakeTransferForm();",
            "parentId": null
        }]
    }
}