{
    "AS_TextField_ibc63b2725694accbfce5c11749c7ae8": {
        "id": "AS_TextField_ibc63b2725694accbfce5c11749c7ae8",
        "type": "ACTION_SEQUENCE",
        "params": [{
            "datatype": "collection",
            "name": "eventobject"
        }, {
            "datatype": "string",
            "name": "changedtext"
        }],
        "contextObj": {
            "name": "frmEnrollNow",
            "type": "forms",
            "platform": null,
            "KUID": "bd78051f2239477699cd5b3d036cf72a"
        },
        "language": "js",
        "actions": [{
            "id": "ADD_SNIPPET_ide_onBeginEditing_c30dd95741044c528d10a9e0d6e524cb",
            "type": "ADD_SNIPPET",
            "codeSnippet": "this.hideUserNameSuggestions();",
            "callbackType": null
        }]
    }
}