{
    "AS_TextField_b6d955a678e8405989f620b1ad9a7b88": {
        "id": "AS_TextField_b6d955a678e8405989f620b1ad9a7b88",
        "type": "ACTION_SEQUENCE",
        "params": [{
            "datatype": "collection",
            "name": "eventobject"
        }],
        "contextObj": {
            "name": "frmProfileManagement",
            "type": "forms",
            "platform": "",
            "KUID": "e136103788ec406cab0b1d0f2087f12b"
        },
        "language": "js",
        "actions": [{
            "id": "ADD_SNIPPET__a17660410b474aeaa56bc1fb9f44397b",
            "type": "ADD_SNIPPET",
            "codeSnippet": "this.ValidateUsername();",
            "parentId": null,
            "callbackType": null
        }]
    }
}