{
    "AS_TextField_ea12b1d37fe34512b6124d6e884cb25d": {
        "id": "AS_TextField_ea12b1d37fe34512b6124d6e884cb25d",
        "type": "ACTION_SEQUENCE",
        "params": [{
            "datatype": "collection",
            "name": "eventobject"
        }],
        "contextObj": {
            "name": "frmTransfers",
            "type": "forms",
            "platform": "",
            "KUID": "e9f47be88ab64765a96b1fae7d2a7720"
        },
        "language": "js",
        "actions": [{
            "id": "ADD_SNIPPET__d1a781e59427456788303d51b1df2e9e",
            "type": "ADD_SNIPPET",
            "codeSnippet": "this.checkValidityMakeTransferForm();",
            "parentId": null
        }]
    }
}