{
    "AS_TextField_e353535c4cc04986848d350dfa447dab": {
        "id": "AS_TextField_e353535c4cc04986848d350dfa447dab",
        "type": "ACTION_SEQUENCE",
        "params": [{
            "datatype": "collection",
            "name": "eventobject"
        }, {
            "datatype": "string",
            "name": "x"
        }, {
            "datatype": "string",
            "name": "y"
        }],
        "contextObj": {
            "name": "frmEnrollNow",
            "type": "forms",
            "platform": "",
            "KUID": "bd78051f2239477699cd5b3d036cf72a"
        },
        "language": "js",
        "actions": [{
            "id": "ADD_SNIPPET__d70427ab059f43098cd23b926b23bafe",
            "type": "ADD_SNIPPET",
            "codeSnippet": "this.showRulesPassword();",
            "parentId": null,
            "callbackType": null
        }]
    }
}