{
    "AS_TextField_d0397c608c3c49a3bd5c6162a84fb3ce": {
        "id": "AS_TextField_d0397c608c3c49a3bd5c6162a84fb3ce",
        "type": "ACTION_SEQUENCE",
        "params": [{
            "datatype": "collection",
            "name": "eventobject"
        }, {
            "datatype": "string",
            "name": "changedtext"
        }],
        "contextObj": {
            "name": "frmProfileManagement",
            "type": "forms",
            "platform": "",
            "KUID": "e136103788ec406cab0b1d0f2087f12b"
        },
        "language": "js",
        "actions": [{
            "id": "ADD_SNIPPET__e662a0d9a8a04377be967aa89bd2fbac",
            "type": "ADD_SNIPPET",
            "codeSnippet": "this.onEditingAnswer4(); ",
            "parentId": null,
            "callbackType": null
        }]
    }
}