{
  "@class": "com.kony.gen.viz.model.component.KVizButton",
  "DNDConfig": null,
  "__parentReadjusting__": false,
  "_height_": {
    "type": "string",
    "value": "50px"
  },
  "_left_": {
    "type": "string",
    "value": "79dp"
  },
  "_margin_": [
    6,
    6,
    6,
    6
  ],
  "_padding_": [
    0,
    0,
    0,
    0
  ],
  "_skin_": "sb387ebf08b649c99164e8bfb3dc80c8",
  "_text_": "BACK",
  "_top_": {
    "type": "string",
    "value": "40dp"
  },
  "_width_": {
    "type": "string",
    "value": "14.60%"
  },
  "canUpdateUI": true,
  "containerweight": 100,
  "contentalignment": 5,
  "displaytext": true,
  "focusskin": "sf44d06ca8224832827ea7fdff757013",
  "id": "btnBackBottom",
  "info": null,
  "isvisible": true,
  "kuid": "a73b5e595da9412dab57a68f50ddba04",
  "name": "kony.ui.Button",
  "parent": "flxPrintTransfer",
  "pf": "frmPrintTransfer",
  "wType": "Button",
  "zindex": 3,
  "texti18n": "i18n.ProfileManagement.BACK",
  "tooltip": "Back"
}