{
  "@class": "com.kony.gen.viz.model.component.KVizLabel",
  "DNDConfig": null,
  "__parentReadjusting__": false,
  "_height_": {
    "type": "ref",
    "value": "preferred"
  },
  "_left_": {
    "type": "string",
    "value": "0%"
  },
  "_margin_": [
    1,
    1,
    1,
    1
  ],
  "_padding_": [
    0,
    0,
    0,
    0
  ],
  "_skin_": "s575c3b3144e40cf911f587474d3ad72",
  "_text_": "Kony Bank Pvt. Ltd. Copyright 2017. All rightes reserved.",
  "_top_": {
    "type": "string",
    "value": "45dp"
  },
  "_width_": {
    "type": "ref",
    "value": "preferred"
  },
  "_wrapping_": 2,
  "android": {
    "textStyle": {
      "letterSpacing": 0,
      "strikeThrough": false
    }
  },
  "canUpdateUI": true,
  "containerweight": 100,
  "contentalignment": 4,
  "id": "lblCopyRight",
  "info": null,
  "ipad": {
    "psp": {
      "wrapping": 2
    }
  },
  "iphone": {
    "psp": {
      "wrapping": 2
    }
  },
  "isvisible": true,
  "kuid": "bcba354407694311bf881fad0854c194",
  "name": "kony.ui.Label",
  "parent": "flxBottom",
  "pf": "frmPrintTransfer",
  "tooltip": "",
  "wType": "Label",
  "zindex": 3
}