{
  "@class": "com.kony.gen.viz.model.component.KVizTextBox2",
  "DNDConfig": null,
  "__parentReadjusting__": false,
  "_height_": {
    "type": "string",
    "value": "40dp"
  },
  "_left_": {
    "type": "string",
    "value": "51.07%"
  },
  "_margin_": [
    0,
    0,
    0,
    0
  ],
  "_padding_": [
    2,
    0,
    0,
    0
  ],
  "_placeholder_": "Address line 2",
  "_right_": {
    "type": "string",
    "value": "30dp"
  },
  "_skin_": "sbad3c0dbd09447ea3f81eebcfc69002",
  "_text_": "",
  "_top_": {
    "type": "string",
    "value": "40dp"
  },
  "_width_": {
    "type": "string",
    "value": "45.16%"
  },
  "autocapitalize": "none",
  "autocomplete": false,
  "autocorrect": false,
  "autofilter": false,
  "canUpdateUI": true,
  "containerheight": "",
  "containerheightmode": 1,
  "containerweight": 100,
  "contentalignment": 4,
  "desktopweb": {
    "psp": {
      "hoverSkin": "s80a8c5539a441ee9b9b49917cc45cc2"
    }
  },
  "focusskin": "s80a8c5539a441ee9b9b49917cc45cc2",
  "id": "tbxBankAddressLine2",
  "info": null,
  "isvisible": true,
  "keyboardtype": "A",
  "kuid": "c1fbefbb1d6b4519a5fa7689ca9f0acd",
  "mode": "A",
  "name": "kony.ui.TextBox2",
  "paddinginpixel": false,
  "parent": "flxBankAddress1",
  "pf": "userwidgetmodel",
  "securetextentry": false,
  "textinputmode": "A",
  "tooltip": "",
  "viewtype": "default",
  "wType": "TextField",
  "zindex": 1
}