{
  "@class": "com.kony.gen.viz.model.component.KVizUserWidget",
  "DNDConfig": null,
  "__parentReadjusting__": false,
  "_children_": [],
  "_height_": {
    "type": "string",
    "value": "60dp"
  },
  "_left_": {
    "type": "string",
    "value": "0dp"
  },
  "_margin_": [
    0,
    0,
    0,
    0
  ],
  "_orientation_": 1,
  "_padding_": [
    0,
    0,
    0,
    0
  ],
  "_percent_": true,
  "_render_": true,
  "_skin_": "s4d6392bface4761840338d65d827a61",
  "_top_": {
    "type": "string",
    "value": "0dp"
  },
  "_width_": {
    "type": "string",
    "value": "100%"
  },
  "areflexpropsreferenced": false,
  "canUpdateUI": true,
  "clipbounds": true,
  "containerweight": 0,
  "dataDiffs": {
    "confirmHeaders": {
      "__events__": {},
      "__info__": {
        "isRoot": true,
        "kuid": "a40b346c8753490b954f2e7c2c614899",
        "srcKUID": "bfa374b04e3743cf981eb31d77ebf746",
        "wType": "FlexContainer"
      },
      "left": {
        "Default": {
          "type": "string",
          "value": "0dp"
        }
      },
      "top": {
        "Default": {
          "type": "string",
          "value": "0dp"
        }
      },
      "zIndex": {
        "Default": 1
      }
    },
    "flxHeader": {
      "__events__": {},
      "__info__": {
        "kuid": "b4fcbc13cd22469390c813039fd64585",
        "srcKUID": "ge4b975c1527467a9bc1b610e3dcf02e",
        "wType": "FlexContainer"
      }
    },
    "lblHeading": {
      "__events__": {},
      "__info__": {
        "kuid": "da0fd6105f1042b69cc2a78624f17d3b",
        "srcKUID": "e48654a7e4ae4428b39557093fea9b39",
        "wType": "Label"
      },
      "i18n_text": "i18n.transfers.Acknowledgement",
      "left": {
        "Default": {
          "type": "string",
          "value": "2.20%"
        }
      }
    }
  },
  "id": "confirmHeaders",
  "info": null,
  "isdatareferenced": false,
  "isvisible": true,
  "kuid": "c6c37edf97a146fa9f23bb02f55a7305",
  "layouttype": 2,
  "masterType": 0,
  "name": "kony.ui.UserWidgetInstance",
  "parent": "acknowledgmentModify",
  "pf": "userwidgetmodel",
  "snaptogrid": true,
  "sourceUserWidget": "bfa374b04e3743cf981eb31d77ebf746",
  "wType": "UserWidgetInstance",
  "zindex": 1
}