{
  "@class": "com.kony.gen.viz.model.component.KVizButton",
  "DNDConfig": null,
  "__parentReadjusting__": false,
  "_height_": {
    "type": "string",
    "value": "50dp"
  },
  "_margin_": [
    6,
    6,
    6,
    6
  ],
  "_padding_": [
    0,
    0,
    0,
    0
  ],
  "_right_": {
    "type": "string",
    "value": "30dp"
  },
  "_skin_": "sd93406756c64689acabc6c6ca718fdc",
  "_text_": "ADD INTERNAL ACCOUNT",
  "_top_": {
    "type": "string",
    "value": "30px"
  },
  "_width_": {
    "type": "string",
    "value": "28.97%"
  },
  "canUpdateUI": true,
  "containerweight": 100,
  "contentalignment": 5,
  "disabledSkins": {
    "focusSkin": "s30cdf4f9a6c4bbcb797e45d11425d8e"
  },
  "displaytext": true,
  "id": "btnAddAccount",
  "info": null,
  "isvisible": true,
  "kuid": "834c4e884eb1414ea9b0232b77919cd1",
  "name": "kony.ui.Button",
  "parent": "flxButtons",
  "pf": "userwidgetmodel",
  "wType": "Button",
  "zindex": 2,
  "texti18n": "i18n.transfers.add_international_account",
  "tooltip": "Add Internal Account"
}