{
  "@class": "com.kony.gen.viz.model.component.KVizLabel",
  "DNDConfig": null,
  "__parentReadjusting__": false,
  "_height_": {
    "type": "ref",
    "value": "preferred"
  },
  "_left_": {
    "type": "string",
    "value": "42%"
  },
  "_margin_": [
    1,
    1,
    1,
    1
  ],
  "_padding_": [
    0,
    0,
    0,
    0
  ],
  "_skin_": "sb28ec75068d4f079d144277cf83312f",
  "_text_": "Savings Account",
  "_top_": {
    "type": "string",
    "value": "17dp"
  },
  "_width_": {
    "type": "ref",
    "value": "preferred"
  },
  "_wrapping_": 2,
  "android": {
    "textStyle": {
      "letterSpacing": 0,
      "strikeThrough": false
    }
  },
  "canUpdateUI": true,
  "containerId": true,
  "containerweight": 100,
  "contentalignment": 4,
  "id": "lblSelectedProductName1",
  "info": null,
  "ipad": {
    "psp": {
      "wrapping": 2
    }
  },
  "iphone": {
    "psp": {
      "wrapping": 2
    }
  },
  "iscustomlayout": false,
  "isvisible": true,
  "kuid": "e0a2fb4949874d38ba84996b5129cdec",
  "name": "kony.ui.Label",
  "parent": "flxSelectedProduct1",
  "pf": "segNAOProductsSelectedAck",
  "retaincontentalignment": false,
  "retainflexpositionproperties": false,
  "tooltip": "",
  "wType": "Label",
  "zindex": 1
}