{
  "DNDConfig": null,
  "_height_": {
    "type": "string",
    "value": "101dp"
  },
  "_margin_": [
    0,
    0,
    0,
    0
  ],
  "_orientation_": 6,
  "_padding_": [
    0,
    0,
    0,
    0
  ],
  "_percent_": true,
  "_skin_": "s24c92fc23b14f5484b693ee9b8a9b35",
  "allboxes": [],
  "autogrowmode": 0,
  "canUpdateUI": true,
  "children": [
    "flxHolisticAccountListItemWrapper"
  ],
  "clipbounds": false,
  "containerId": true,
  "containerweight": 100,
  "controllerInfo": {
    "default": {
      "channel": "desktop",
      "name": "flxHolisticAccountListItemController"
    }
  },
  "enablescrolling": true,
  "id": "flxHolisticAccountListItem",
  "info": null,
  "isTemplate": true,
  "isvisible": true,
  "kuid": "cf02980678a44d51813ce2e2b819ac75",
  "layouttype": 4,
  "name": "kony.ui.FlexContainer",
  "parent": "segHolisticAccountListItem",
  "pf": "segHolisticAccountListItem",
  "snapgridsize": 10,
  "snaptogrid": true,
  "wType": "FlexContainer",
  "widgetalignment": 1
}