{
  "@class": "com.kony.gen.viz.model.component.KVizLabel",
  "DNDConfig": null,
  "__markedForDelete__": true,
  "__parentReadjusting__": false,
  "_height_": {
    "type": "ref",
    "value": "preferred"
  },
  "_margin_": [
    1,
    1,
    1,
    1
  ],
  "_padding_": [
    0,
    0,
    2,
    0
  ],
  "_right_": {
    "type": "string",
    "value": "0dp"
  },
  "_skin_": "s91f117e14f34e9993fd49cf32901f12",
  "_text_": "$338400.00 ",
  "_top_": {
    "type": "string",
    "value": "18dp"
  },
  "_width_": {
    "type": "ref",
    "value": "preferred"
  },
  "_wrapping_": 2,
  "android": {
    "textStyle": {
      "letterSpacing": 0,
      "strikeThrough": false
    }
  },
  "canUpdateUI": true,
  "containerId": true,
  "containerweight": 100,
  "contentalignment": 4,
  "id": "lblHolisticBalanceValue",
  "info": null,
  "ipad": {
    "psp": {
      "wrapping": 2
    }
  },
  "iphone": {
    "psp": {
      "wrapping": 2
    }
  },
  "isvisible": true,
  "kuid": "j8ff55316a10415189e8308fe6a08ced",
  "name": "kony.ui.Label",
  "paddinginpixel": false,
  "parent": "flxAvailableBalance",
  "pf": "segHolisticAccountListItem",
  "tooltip": "",
  "wType": "Label",
  "zindex": 1
}