{
  "@class": "com.kony.gen.viz.model.component.KVizButton",
  "DNDConfig": null,
  "__parentReadjusting__": false,
  "_height_": {
    "type": "string",
    "value": "50dp"
  },
  "_margin_": [
    6,
    6,
    6,
    6
  ],
  "_padding_": [
    0,
    0,
    0,
    0
  ],
  "_right_": {
    "type": "string",
    "value": "42.40%"
  },
  "_skin_": "s6abe09660494ddb831694ff6456c74d",
  "_text_": "",
  "_width_": {
    "type": "string",
    "value": "18.80%"
  },
  "canUpdateUI": true,
  "centery": {
    "type": "string",
    "value": "50%"
  },
  "containerweight": 100,
  "contentalignment": 5,
  "desktopweb": {
    "psp": {
      "hoverSkin": "sba91fb5e9774521856508ab3e21943d"
    }
  },
  "displaytext": true,
  "focusskin": "sb23593b913b4005add4a246020aa1cc",
  "id": "btnCancel",
  "ide_onClick": "AS_Button_f6a72cf3f8f5445ca6afb9223c694d3d",
  "info": null,
  "isvisible": true,
  "kuid": "h2745a293e29421da01e4d643c011a53",
  "name": "kony.ui.Button",
  "parent": "flxActions",
  "pf": "frmAddPayee",
  "texti18n": "i18n.transfers.Cancel",
  "tooltip": "Cancel",
  "wType": "Button",
  "zindex": 1
}