{
  "@class": "com.kony.gen.viz.model.component.KVizButton",
  "DNDConfig": null,
  "__parentReadjusting__": false,
  "_height_": {
    "type": "string",
    "value": "50dp"
  },
  "_margin_": [
    6,
    6,
    6,
    6
  ],
  "_padding_": [
    0,
    0,
    0,
    0
  ],
  "_right_": {
    "type": "string",
    "value": "2.20%"
  },
  "_skin_": "sfbbba35ede4457b94eb681b72349b98",
  "_text_": "",
  "_width_": {
    "type": "string",
    "value": "18.80%"
  },
  "canUpdateUI": true,
  "centery": {
    "type": "string",
    "value": "50%"
  },
  "containerweight": 100,
  "contentalignment": 5,
  "desktopweb": {
    "psp": {
      "hoverSkin": "s81054b5e2b74f17a5261991df565427"
    }
  },
  "displaytext": true,
  "focusskin": "s5a4f67acd3e47b9be6d6910a7a6686f",
  "id": "btnDetailsConfirm",
  "ide_onClick": "AS_Button_fb3e71efb4354769a751443f06bcbd4d",
  "info": null,
  "isvisible": true,
  "kuid": "d9ddc97560114c7aa116c9ce368f668d",
  "name": "kony.ui.Button",
  "parent": "flxAddDetailsActions",
  "pf": "frmAddPayee",
  "texti18n": "i18n.common.next",
  "tooltip": "Next",
  "wType": "Button",
  "zindex": 1
}