{
  "@class": "com.kony.gen.viz.model.component.KVizButton",
  "DNDConfig": null,
  "__parentReadjusting__": false,
  "_height_": {
    "type": "string",
    "value": "50dp"
  },
  "_margin_": [
    6,
    6,
    6,
    6
  ],
  "_padding_": [
    0,
    0,
    0,
    0
  ],
  "_right_": {
    "type": "string",
    "value": "22.18%"
  },
  "_skin_": "s06f3276949949918b26482c79cfbf12",
  "_text_": "BACK",
  "_width_": {
    "type": "string",
    "value": "18.80%"
  },
  "canUpdateUI": true,
  "centery": {
    "type": "string",
    "value": "50%"
  },
  "containerweight": 100,
  "contentalignment": 5,
  "desktopweb": {
    "psp": {
      "hoverSkin": "sba91fb5e9774521856508ab3e21943d"
    }
  },
  "displaytext": true,
  "focusskin": "sb23593b913b4005add4a246020aa1cc",
  "id": "btnDetailsBack",
  "ide_onClick": "AS_Button_a025ccca7f214a0fba894cc4d313eb08",
  "info": null,
  "isvisible": true,
  "kuid": "c08a10ab68894f1f98333f4699acc420",
  "name": "kony.ui.Button",
  "parent": "flxAddDetailsActions",
  "pf": "frmAddPayee",
  "tooltip": "Back",
  "wType": "Button",
  "zindex": 1,
  "texti18n": "i18n.ProfileManagement.BACK"
}