{
  "@class": "com.kony.gen.viz.model.component.KVizButton",
  "DNDConfig": null,
  "__parentReadjusting__": false,
  "_height_": {
    "type": "string",
    "value": "100%"
  },
  "_left_": {
    "type": "string",
    "value": "0dp"
  },
  "_margin_": [
    6,
    6,
    6,
    6
  ],
  "_padding_": [
    2,
    0,
    2,
    0
  ],
  "_skin_": "sacca249ab304ec78a19e71c10b6b496",
  "_text_": "Enter Payee Information",
  "_top_": {
    "type": "string",
    "value": "0dp"
  },
  "_width_": {
    "type": "ref",
    "value": "preferred"
  },
  "canUpdateUI": true,
  "containerweight": 100,
  "contentalignment": 5,
  "desktopweb": {
    "psp": {
      "hoverSkin": "seb0e2c2b1b04a1f9b4e08d59ba60fb5"
    }
  },
  "disabledSkins": {
    "focusSkin": "sf44d06ca8224832827ea7fdff757013"
  },
  "displaytext": false,
  "id": "btnEnterPayeeInfo",
  "ide_onClick": "AS_Button_ad65eb7bf90343dcb8171e30616cbf58",
  "info": null,
  "isvisible": false,
  "kuid": "d53f50ed85134e6591e7279b3ad278ea",
  "name": "kony.ui.Button",
  "paddinginpixel": false,
  "parent": "flxAddPayeeTabs",
  "pf": "frmAddPayee",
  "tooltip": "Enter Payee Information",
  "wType": "Button",
  "zindex": 1
}