{
  "@class": "com.kony.gen.viz.model.component.KVizButton",
  "DNDConfig": null,
  "__parentReadjusting__": false,
  "_height_": {
    "type": "string",
    "value": "50dp"
  },
  "_margin_": [
    6,
    6,
    6,
    6
  ],
  "_padding_": [
    0,
    0,
    0,
    0
  ],
  "_right_": {
    "type": "string",
    "value": "22.18%"
  },
  "_skin_": "s6abe09660494ddb831694ff6456c74d",
  "_text_": "MODIFY",
  "_width_": {
    "type": "string",
    "value": "18.80%"
  },
  "canUpdateUI": true,
  "centery": {
    "type": "string",
    "value": "50%"
  },
  "containerweight": 100,
  "contentalignment": 5,
  "desktopweb": {
    "psp": {
      "hoverSkin": "sba91fb5e9774521856508ab3e21943d"
    }
  },
  "displaytext": true,
  "focusskin": "sb23593b913b4005add4a246020aa1cc",
  "id": "btnModify",
  "ide_onClick": "AS_Button_idc4ba21fd584b1292a125b5abdbc908",
  "info": null,
  "isvisible": true,
  "kuid": "ec2aa1b3d5d84767a560389ef4403522",
  "name": "kony.ui.Button",
  "parent": "flxActions",
  "pf": "frmAddPayee",
  "tooltip": "Modify",
  "wType": "Button",
  "zindex": 1,
  "texti18n": "i18n.transfers.Modify"
}