{
  "@class": "com.kony.gen.viz.model.component.KVizButton",
  "DNDConfig": null,
  "__parentReadjusting__": false,
  "_height_": {
    "type": "string",
    "value": "100%"
  },
  "_left_": {
    "type": "string",
    "value": "0dp"
  },
  "_margin_": [
    6,
    6,
    6,
    6
  ],
  "_padding_": [
    2,
    0,
    2,
    0
  ],
  "_skin_": "s2b4a11ae8934a7883e188f89a368d95",
  "_text_": "SEARCH FOR PAYEE BY NAME",
  "_width_": {
    "type": "ref",
    "value": "preferred"
  },
  "canUpdateUI": true,
  "centery": {
    "type": "string",
    "value": "50%"
  },
  "containerweight": 100,
  "contentalignment": 5,
  "desktopweb": {
    "psp": {
      "hoverSkin": "seb0e2c2b1b04a1f9b4e08d59ba60fb5"
    }
  },
  "disabledSkins": {
    "focusSkin": "sf44d06ca8224832827ea7fdff757013"
  },
  "displaytext": true,
  "id": "btnSearchPayee",
  "ide_onClick": "AS_Button_cfaaa40f8f5e4165bd5a8c26fa2156b7",
  "info": null,
  "isvisible": true,
  "kuid": "h8df4fb4ec0d46e6a6106dd4cd04c5d0",
  "name": "kony.ui.Button",
  "paddinginpixel": false,
  "parent": "flxAddPayeeTabs",
  "pf": "frmAddPayee",
  "tooltip": "Search For Payee By Name",
  "wType": "Button",
  "zindex": 1,
  "texti18n": "i18n.AddPayee.SEARCHFORPAYEEBYNAME"
}