{
  "DNDConfig": null,
  "__parentReadjusting__": false,
  "_height_": {
    "type": "string",
    "value": "50dp"
  },
  "_left_": {
    "type": "string",
    "value": "0dp"
  },
  "_margin_": [
    0,
    0,
    0,
    0
  ],
  "_orientation_": 6,
  "_padding_": [
    0,
    0,
    0,
    0
  ],
  "_percent_": true,
  "_skin_": "s24c92fc23b14f5484b693ee9b8a9b35",
  "_top_": {
    "type": "string",
    "value": "20dp"
  },
  "_width_": {
    "type": "string",
    "value": "100%"
  },
  "allboxes": [],
  "autogrowmode": 0,
  "canUpdateUI": true,
  "children": [
    "flxAddNickKey",
    "lblAddColon4",
    "tbxAddNickValue"
  ],
  "clipbounds": true,
  "containerweight": 100,
  "enablescrolling": true,
  "id": "flxAddNickName",
  "info": null,
  "isvisible": true,
  "kuid": "d8ed46f0c87c469a8bea9093dc1bb851",
  "layouttype": 2,
  "name": "kony.ui.FlexContainer",
  "parent": "flxAddBillerDetails",
  "pf": "frmAddPayee",
  "snapgridsize": 10,
  "snaptogrid": true,
  "wType": "FlexContainer",
  "widgetalignment": 1,
  "zindex": 1
}