{
  "DNDConfig": null,
  "__parentReadjusting__": false,
  "_height_": {
    "type": "string",
    "value": "100%"
  },
  "_left_": {
    "type": "string",
    "value": "31%"
  },
  "_margin_": [
    0,
    0,
    0,
    0
  ],
  "_orientation_": 6,
  "_padding_": [
    0,
    0,
    0,
    0
  ],
  "_percent_": true,
  "_skin_": "s24c92fc23b14f5484b693ee9b8a9b35",
  "_width_": {
    "type": "string",
    "value": "50%"
  },
  "allboxes": [],
  "autogrowmode": 0,
  "canUpdateUI": true,
  "centery": {
    "type": "string",
    "value": "50%"
  },
  "children": [
    "lblAddAccNumValue"
  ],
  "clipbounds": true,
  "containerweight": 100,
  "enablescrolling": true,
  "id": "flxAddAccNumValue",
  "info": null,
  "isvisible": true,
  "kuid": "eadc05d1759c4f73b391be7ce231e6f3",
  "layouttype": 2,
  "name": "kony.ui.FlexContainer",
  "parent": "flxAddAccountNumber",
  "pf": "frmAddPayee",
  "snapgridsize": 10,
  "snaptogrid": true,
  "wType": "FlexContainer",
  "widgetalignment": 1,
  "zindex": 1
}