{
  "DNDConfig": null,
  "__parentReadjusting__": false,
  "_bottom_": {
    "type": "string",
    "value": "30dp"
  },
  "_height_": {
    "type": "ref",
    "value": "preferred"
  },
  "_margin_": [
    0,
    0,
    0,
    0
  ],
  "_orientation_": 6,
  "_padding_": [
    0,
    0,
    0,
    0
  ],
  "_percent_": true,
  "_skin_": "s4b3bfcb27c14526bcdce6dec3972d8d",
  "_top_": {
    "type": "string",
    "value": "0dp"
  },
  "_width_": {
    "type": "string",
    "value": "1200dp"
  },
  "allboxes": [],
  "autogrowmode": 1,
  "canUpdateUI": true,
  "centerx": {
    "type": "string",
    "value": "50%"
  },
  "children": [
    "flxAddDetails",
    "flxSeparatorAddSelected",
    "flxAddBiller",
    "flxAddAddress",
    "flxAddAccountNumber",
    "flxAddNickName",
    "flxAddNameOnBill",
    "flxAddDetailsActions"
  ],
  "clipbounds": false,
  "containerweight": 100,
  "enablescrolling": true,
  "id": "flxAddBillerDetails",
  "info": null,
  "isvisible": false,
  "kuid": "b4e3b4e5e00a429c97ee5d5a45c67aff",
  "layouttype": 4,
  "name": "kony.ui.FlexContainer",
  "parent": "flxMain",
  "pf": "frmAddPayee",
  "snapgridsize": 10,
  "snaptogrid": true,
  "wType": "FlexContainer",
  "widgetalignment": 1,
  "zindex": 1
}