{
  "DNDConfig": null,
  "__parentReadjusting__": false,
  "_height_": {
    "type": "string",
    "value": "320dp"
  },
  "_left_": {
    "type": "string",
    "value": "0dp"
  },
  "_margin_": [
    0,
    0,
    0,
    0
  ],
  "_orientation_": 6,
  "_padding_": [
    0,
    0,
    0,
    0
  ],
  "_percent_": true,
  "_skin_": "sf94624be61d43e299a4790d019276ba",
  "_top_": {
    "type": "string",
    "value": "0dp"
  },
  "_width_": {
    "type": "string",
    "value": "100%"
  },
  "allboxes": [],
  "autogrowmode": 0,
  "canUpdateUI": true,
  "children": [
    "lblNotMatching",
    "flxMisMatch",
    "lblCustomerName",
    "flxPayeeName",
    "lblZipcode",
    "tbxZipcode",
    "lblOne",
    "tbxOne",
    "lblTwo",
    "tbxTwo",
    "lblThree",
    "tbxThree",
    "flxManually"
  ],
  "clipbounds": true,
  "containerweight": 100,
  "enablescrolling": true,
  "id": "flxSearchPayee",
  "info": null,
  "isvisible": true,
  "kuid": "c532a247216d488884a814ee55904b91",
  "layouttype": 4,
  "name": "kony.ui.FlexContainer",
  "parent": "flxAddPayee",
  "pf": "frmAddPayee",
  "snapgridsize": 10,
  "snaptogrid": true,
  "wType": "FlexContainer",
  "widgetalignment": 1,
  "zindex": 1
}