{
  "@class": "com.kony.gen.viz.model.component.KVizImage2",
  "DNDConfig": null,
  "__parentReadjusting__": false,
  "_base64_": null,
  "_height_": {
    "type": "string",
    "value": "74dp"
  },
  "_margin_": [
    0,
    0,
    0,
    0
  ],
  "_padding_": [
    0,
    0,
    0,
    0
  ],
  "_skin_": "s78a5f26c9f14cec9ebed1bb46098f80",
  "_src_": "success_green.png",
  "_top_": {
    "type": "string",
    "value": "209dp"
  },
  "_width_": {
    "type": "string",
    "value": "74dp"
  },
  "canUpdateUI": true,
  "centerx": {
    "type": "string",
    "value": "50%"
  },
  "containerweight": 100,
  "context": {
    "channel": "desktop",
    "formID": "frmAddPayee",
    "platform": "desktopweb",
    "templateType": "forms",
    "topLevelBox": null
  },
  "id": "ImgAcknowledged",
  "imagescalemode": 1,
  "info": null,
  "isvisible": true,
  "kuid": "jf29e86e6f1e4fae99cf9eadae178ffa",
  "name": "kony.ui.Image2",
  "parent": "flxAcknowledgement",
  "pf": "frmAddPayee",
  "srcType": 1,
  "wType": "Image",
  "widgetalignment": 5,
  "zindex": 1
}