{
  "@class": "com.kony.gen.viz.model.component.KVizLabel",
  "DNDConfig": null,
  "__parentReadjusting__": false,
  "_height_": {
    "type": "ref",
    "value": "preferred"
  },
  "_left_": {
    "type": "string",
    "value": "0dp"
  },
  "_margin_": [
    1,
    1,
    1,
    1
  ],
  "_padding_": [
    0,
    0,
    2,
    0
  ],
  "_skin_": "sb57ddd930ef42d5b307efc805cba3d6",
  "_text_": "Biller Account Number :",
  "_top_": {
    "type": "string",
    "value": "0dp"
  },
  "_width_": {
    "type": "ref",
    "value": "preferred"
  },
  "_wrapping_": 2,
  "android": {
    "textStyle": {
      "letterSpacing": 0,
      "strikeThrough": false
    }
  },
  "canUpdateUI": true,
  "containerweight": 100,
  "contentalignment": 4,
  "id": "lblBillerAccNumKey",
  "info": null,
  "ipad": {
    "psp": {
      "wrapping": 2
    }
  },
  "iphone": {
    "psp": {
      "wrapping": 2
    }
  },
  "isvisible": true,
  "kuid": "cdc98d11ba954f8b8376fc4abb4ba8e5",
  "name": "kony.ui.Label",
  "paddinginpixel": false,
  "parent": "flxBillerAccNumKey",
  "pf": "frmAddPayee",
  "tooltip": "",
  "wType": "Label",
  "zindex": 1,
  "texti18n": "i18n.AddPayee.billeraccountnumber"
}