{
  "@class": "com.kony.gen.viz.model.component.KVizLabel",
  "DNDConfig": null,
  "__parentReadjusting__": false,
  "_height_": {
    "type": "ref",
    "value": "preferred"
  },
  "_left_": {
    "type": "string",
    "value": "3.77%"
  },
  "_margin_": [
    1,
    1,
    1,
    1
  ],
  "_padding_": [
    0,
    0,
    0,
    0
  ],
  "_skin_": "sd9fada740124e4a99edc1f0a05ec2d0",
  "_text_": "Address Line 2",
  "_top_": {
    "type": "string",
    "value": "26dp"
  },
  "_width_": {
    "type": "ref",
    "value": "preferred"
  },
  "_wrapping_": 2,
  "android": {
    "textStyle": {
      "letterSpacing": 0,
      "strikeThrough": false
    }
  },
  "canUpdateUI": true,
  "containerweight": 100,
  "contentalignment": 4,
  "id": "lblEnterAddressLine2",
  "info": null,
  "ipad": {
    "psp": {
      "wrapping": 2
    }
  },
  "iphone": {
    "psp": {
      "wrapping": 2
    }
  },
  "isvisible": true,
  "kuid": "ea68b26aca154208940083fcb461ebce",
  "name": "kony.ui.Label",
  "parent": "flxEnterPayeeInfo",
  "pf": "frmAddPayee",
  "tooltip": "",
  "wType": "Label",
  "zindex": 1,
  "texti18n": "i18n.WireTransfer.AddressLine2"
}