{
  "@class": "com.kony.gen.viz.model.component.KVizListBox",
  "DNDConfig": null,
  "__parentReadjusting__": false,
  "_height_": {
    "type": "string",
    "value": "40dp"
  },
  "_left_": {
    "type": "string",
    "value": "0dp"
  },
  "_margin_": [
    0,
    0,
    0,
    0
  ],
  "_padding_": [
    1,
    0,
    0,
    0
  ],
  "_placeholder_": "Please Select",
  "_skin_": "sf5974e587514d3a8aafaf8a7b746c26",
  "_top_": {
    "type": "string",
    "value": "10dp"
  },
  "_width_": {
    "type": "string",
    "value": "100%"
  },
  "canUpdateUI": true,
  "containerweight": 100,
  "contentalignment": 4,
  "context": {
    "channel": "desktop",
    "formID": "frmAddPayee",
    "platform": "desktopweb",
    "templateType": "forms",
    "topLevelBox": null
  },
  "focusskin": "s6d4932a8c69472191793032de0df19a",
  "groupcells": false,
  "id": "lstbxState",
  "info": null,
  "iscustomlayout": false,
  "isvisible": true,
  "kiosk": {
    "psp": {
      "placeholder": " State"
    }
  },
  "kuid": "d798a7d498914efea1b92caec6900890",
  "masterdata": [],
  "name": "kony.ui.ListBox",
  "paddinginpixel": false,
  "parent": "flxManullayAddress",
  "pf": "frmAddPayee",
  "retaincontentalignment": false,
  "retainflexpositionproperties": false,
  "selectedkey": null,
  "selectedkeys": null,
  "selectedkeyvalue": null,
  "selectedkeyvalues": null,
  "size": 18,
  "viewconfig": {
    "toggleViewConfig": {
      "viewStyle": 0
    }
  },
  "viewtype": 0,
  "wType": "ListBox",
  "zindex": 1
}