{
  "@class": "com.kony.gen.viz.model.component.KVizUserWidget",
  "DNDConfig": null,
  "__parentReadjusting__": false,
  "_children_": [],
  "_height_": {
    "type": "ref",
    "value": "preferred"
  },
  "_left_": {
    "type": "string",
    "value": "0dp"
  },
  "_margin_": [
    0,
    0,
    0,
    0
  ],
  "_orientation_": 1,
  "_padding_": [
    0,
    0,
    0,
    0
  ],
  "_percent_": true,
  "_render_": true,
  "_skin_": "sf052fd82d224fc1a020a88977067dd5",
  "_top_": {
    "type": "string",
    "value": "0dp"
  },
  "_width_": {
    "type": "string",
    "value": "100%"
  },
  "areflexpropsreferenced": false,
  "autogrowmode": 1,
  "canUpdateUI": true,
  "clipbounds": true,
  "containerweight": 0,
  "dataDiffs": {
    "CopyflxHorizantalLineKA0d1f762eef0f846": {
      "__events__": {},
      "__info__": {
        "kuid": "d80bad86cb7249a182d10e36067baa61",
        "srcKUID": "cc0c8dfdb977438b9cf3b24321022e61",
        "wType": "FlexContainer"
      }
    },
    "btnCancel": {
      "__events__": {},
      "__info__": {
        "kuid": "hca3588163564232a46d264c4aa77fab",
        "srcKUID": "17191a6741f648f085ec2d51f7ec94f0",
        "wType": "Button"
      }
    },
    "btnNext": {
      "__events__": {},
      "__info__": {
        "kuid": "ia182bebdbf84904ba3b8683079b3a8a",
        "srcKUID": "af9e79f5e1f44ed7b386d9ee32f2be55",
        "wType": "Button"
      }
    },
    "calEndingOn": {
      "__events__": {},
      "__info__": {
        "kuid": "d5076eb3e75b44f7a9c0f89d6e42f515",
        "srcKUID": "d5f73769dea14786a2fb2e28c847b5d3",
        "wType": "Calendar"
      }
    },
    "calSendOn": {
      "__events__": {},
      "__info__": {
        "kuid": "ca54d760a5ea4e9ab304c55fb97a46f2",
        "srcKUID": "h59ea00a6d744c438b73e922f5d24c49",
        "wType": "Calendar"
      }
    },
    "flxAccountNumber": {
      "__events__": {},
      "__info__": {
        "kuid": "c7b27f1bf23742ac96f362bde6d021d5",
        "srcKUID": "c0bcb59f480f404bb47ce58c9770e7e1",
        "wType": "FlexContainer"
      }
    },
    "flxAccountNumberAgainKA": {
      "__events__": {},
      "__info__": {
        "kuid": "d7b3022bbe8648d6a23cfe02a127b29c",
        "srcKUID": "eb42511c0910459a98ca7cb2f53c061f",
        "wType": "FlexContainer"
      }
    },
    "flxAccountNumberKA": {
      "__events__": {},
      "__info__": {
        "kuid": "d29a5199cf654d7899c25a8986a4bf0f",
        "srcKUID": "9987524288ec4c199815dbc915752c09",
        "wType": "FlexContainer"
      }
    },
    "flxAddOrCancelKA": {
      "__events__": {},
      "__info__": {
        "kuid": "ba8754cd7ddd45b2a74114bf92876dc2",
        "srcKUID": "788f068d2296478f800adf72721c7e6e",
        "wType": "FlexContainer"
      }
    },
    "flxCalEndingOn": {
      "__events__": {},
      "__info__": {
        "kuid": "fe596867255344079baec24cbc995492",
        "srcKUID": "a04f57b49faa45499e5f71d17de8e50e",
        "wType": "FlexContainer"
      }
    },
    "flxCalSendOn": {
      "__events__": {},
      "__info__": {
        "kuid": "a40e4478e58c4674836b967fbe3cb932",
        "srcKUID": "e72e4eb999ba41bba811556c7189af69",
        "wType": "FlexContainer"
      }
    },
    "flxDetails": {
      "__events__": {},
      "__info__": {
        "kuid": "c91c2398a3664bbeaf32e2ffa6c3212a",
        "srcKUID": "b475f06ad15a4cc8bbee3b7f4d39c322",
        "wType": "FlexContainer"
      }
    },
    "flxDomesticDetailsKA": {
      "__events__": {},
      "__info__": {
        "kuid": "a95a918b89054359b5dce69842b971c6",
        "srcKUID": "10ad3bc2ddf543d4832177ab691acd47",
        "wType": "FlexContainer"
      }
    },
    "flxDowntimeWarning": {
      "__events__": {},
      "__info__": {
        "kuid": "edb5c84b9bd64735991193fecd398c10",
        "srcKUID": "0f441f1810734abf9e615b4df9ab712e",
        "wType": "FlexContainer"
      }
    },
    "flxFrom": {
      "__events__": {},
      "__info__": {
        "kuid": "b18aa1be9ebf4a73bed6bb6693e74bc0",
        "srcKUID": "c76e9207b0554912a7e8d6cd27142c5b",
        "wType": "FlexContainer"
      }
    },
    "flxHeader": {
      "__events__": {},
      "__info__": {
        "kuid": "f5d989254e7d4eb0997853d750237c42",
        "srcKUID": "d3a896756cef4548b30f9d2281df452a",
        "wType": "FlexContainer"
      }
    },
    "flxHorizantalLineKA": {
      "__events__": {},
      "__info__": {
        "kuid": "i4fbbda1066b48af861d0c43baf6d954",
        "srcKUID": "83331b221af0439e9e7ead89835ed897",
        "wType": "FlexContainer"
      }
    },
    "flxMainDesktopKA": {
      "__events__": {},
      "__info__": {
        "kuid": "a7033a06331a455cb6a08f180d52bf55",
        "srcKUID": "d5b8a41e0da4413d81df8edb2e81baa1",
        "wType": "FlexContainer"
      }
    },
    "flxName": {
      "__events__": {},
      "__info__": {
        "kuid": "c9aa40edeba644e7a3a33fd22775c4c9",
        "srcKUID": "25b01df1163e455994935db2117138c3",
        "wType": "FlexContainer"
      }
    },
    "flxPayeeList": {
      "__events__": {},
      "__info__": {
        "kuid": "d4892405e88c4db991c959393d5216e1",
        "srcKUID": "g7a763ac445f45f68a1f2d37af397034",
        "wType": "FlexContainer"
      }
    },
    "flxSearchPayee": {
      "__events__": {},
      "__info__": {
        "kuid": "f9476a5d4b3f4d3db48602551dfcef76",
        "srcKUID": "c25be30450704e64be8fa0e2a2dd6da1",
        "wType": "FlexContainer"
      }
    },
    "flxSeparator": {
      "__events__": {},
      "__info__": {
        "kuid": "fcdff66aa0564f54b7d34caf2c4f393c",
        "srcKUID": "b125e5a2c5af4a95a0967f9fefb61f5d",
        "wType": "FlexContainer"
      }
    },
    "flxZipCode": {
      "__events__": {},
      "__info__": {
        "kuid": "g65f89bb13524c818633be7486234cfc",
        "srcKUID": "d1950492b6624a42b80c7cb5e98b3728",
        "wType": "FlexContainer"
      }
    },
    "flxmobilenumber": {
      "__events__": {},
      "__info__": {
        "kuid": "i46d692e9929459bb36e39e81c87d802",
        "srcKUID": "e4974a4955b04617a83519224daff1f2",
        "wType": "FlexContainer"
      }
    },
    "imgDowntimeWarning": {
      "__events__": {},
      "__info__": {
        "kuid": "bcc4764d289f4584b16cafee8adca93f",
        "srcKUID": "14e0b0995ea24df3be1f7e671bd52012",
        "wType": "Image"
      }
    },
    "lblAccountNumber": {
      "__events__": {},
      "__info__": {
        "kuid": "fd3d9f5c8a654fa081b91f8b48cc7a35",
        "srcKUID": "0cffc7d895d643c996289090c34dcfc4",
        "wType": "Label"
      },
      "i18n_text": "i18n.common.accountNumber"
    },
    "lblAccountNumberAgain": {
      "__events__": {},
      "__info__": {
        "kuid": "b92e0fab965847928919700db0f07608",
        "srcKUID": "206b26c6666748b995806aef36c74bc4",
        "wType": "Label"
      },
      "i18n_text": "i18n.WireTransfers.ReEnterAccountNumber"
    },
    "lblAccountNumberTitle": {
      "__events__": {},
      "__info__": {
        "kuid": "f7412d05a3ee4be7ba2e0d28f296c574",
        "srcKUID": "d8e4d241257c4aa09fdd4f6c47140ce0",
        "wType": "Label"
      },
      "i18n_text": "i18n.common.accountNumber"
    },
    "lblAccountNumberValue": {
      "__events__": {},
      "__info__": {
        "kuid": "cfebb027121b4ad09204846a6ffada60",
        "srcKUID": "fd8f480095414bbe828fd17ecd1c65ca",
        "wType": "Label"
      }
    },
    "lblCategoryTitle": {
      "__events__": {},
      "__info__": {
        "kuid": "d4fc6504d5264baaa2846b5ebdb97466",
        "srcKUID": "bf128210361e4c45bfa73dab12c82727",
        "wType": "Label"
      },
      "i18n_text": "i18n.billPay.category"
    },
    "lblDollar": {
      "__events__": {},
      "__info__": {
        "kuid": "fece701e03964eba83b509a9cb67f1c2",
        "srcKUID": "cb1c3602dce34d6bb0913657a3f5257a",
        "wType": "Label"
      },
      "i18n_text": "i18n.common.currencySymbol"
    },
    "lblHeader": {
      "__events__": {},
      "__info__": {
        "kuid": "i287c75345f04d8bb623e71a9947b0d8",
        "srcKUID": "b8b64d99d5fb47cf978f12b1723545db",
        "wType": "Label"
      },
      "i18n_text": "i18n.AddPayee.SEARCHFORPAYEEBYNAME"
    },
    "lblName": {
      "__events__": {},
      "__info__": {
        "kuid": "gfecd8ba15f640fa975c4db6406ceb16",
        "srcKUID": "e8839ab2bcf14624a0ea7049627401a7",
        "wType": "Label"
      },
      "i18n_text": "i18n.ProfileManagement.Name"
    },
    "lblNoOfRecOrEndingOn": {
      "__events__": {},
      "__info__": {
        "kuid": "b7733de73e7142178f3a999db5863733",
        "srcKUID": "a2fa1be4e39748a59052028cc413f528",
        "wType": "Label"
      }
    },
    "lblNotes": {
      "__events__": {},
      "__info__": {
        "kuid": "fe67b27ada3b478eabdd0781515b7f46",
        "srcKUID": "d5f6ab631c2541df8f3758533f8ca168",
        "wType": "Label"
      },
      "i18n_text": "i18n.transfers.Description"
    },
    "lblPayFrom": {
      "__events__": {},
      "__info__": {
        "kuid": "d5a06bd3e86b4e5184d897a58c137df4",
        "srcKUID": "d4baf6d2a15648959a03fff1add6e5e1",
        "wType": "Label"
      },
      "i18n_text": "i18n.billPay.PayFrom"
    },
    "lblPaymentAmount": {
      "__events__": {},
      "__info__": {
        "kuid": "dd7149e6784d44fea9ce5bb186ad8b80",
        "srcKUID": "d6ef954fd2cd4c0eaa16bed1d4bb236c",
        "wType": "Label"
      },
      "i18n_text": "i18n.transfers.PaymentAmount"
    },
    "lblSendOn": {
      "__events__": {},
      "__info__": {
        "kuid": "cbd835c3fc3045da8c69288a512951e5",
        "srcKUID": "i049ce845fdc424b9891dc4a021e82eb",
        "wType": "Label"
      }
    },
    "lblToOne": {
      "__events__": {},
      "__info__": {
        "kuid": "e42c8242b1b54270adf2b0cad0c3f574",
        "srcKUID": "f5558767f47e44078cbd15f86478e274",
        "wType": "Label"
      },
      "i18n_text": "i18n.BillPay.ATTCommunications"
    },
    "lblToTitle": {
      "__events__": {},
      "__info__": {
        "kuid": "gef24d1410fc47c5885409ee3cb3df45",
        "srcKUID": "e2f0f3a18dd841438c3706c2aa75bb9f",
        "wType": "Label"
      }
    },
    "lblWarning": {
      "__events__": {},
      "__info__": {
        "kuid": "g514435f67344508a1d1c3681145b8f3",
        "srcKUID": "9ef5657388094840a546934751ccb0b3",
        "wType": "Label"
      }
    },
    "lblZipCode": {
      "__events__": {},
      "__info__": {
        "kuid": "ee10726108b849cdb8d04dcef2036135",
        "srcKUID": "160ac6b5c3234414bb5f636121f7be73",
        "wType": "Label"
      },
      "i18n_text": "i18n.common.zipcode"
    },
    "lblmobilenumeber": {
      "__events__": {},
      "__info__": {
        "kuid": "b4d9711670af430d8f3b1ab95b6c01e2",
        "srcKUID": "gbe3c1a3c70f4549afc7a835566b31a5",
        "wType": "Label"
      },
      "i18n_text": "i18n.common.MobilePhone"
    },
    "lbloTwo": {
      "__events__": {},
      "__info__": {
        "kuid": "d4090b91d48a41d5b9d9ef47257e1079",
        "srcKUID": "ace24ad3c74b4e1cb9c11d9d1e449170",
        "wType": "Label"
      },
      "i18n_text": "i18n.BillPay.Lane1AustindowntownAustinTexas"
    },
    "lbxCategory": {
      "__events__": {},
      "__info__": {
        "kuid": "e198abc335e14c65a01724a26af0cf1b",
        "srcKUID": "fe501039122f45749cff7d97cafc6d9f",
        "wType": "ListBox"
      }
    },
    "lbxPayFrom": {
      "__events__": {},
      "__info__": {
        "kuid": "bdf3913f65ce42f2bf114c77fb5e69bc",
        "srcKUID": "abce61fa4a4548d9982790b18c0e1d52",
        "wType": "ListBox"
      }
    },
    "oneTimePay": {
      "__events__": {},
      "__info__": {
        "isRoot": true,
        "kuid": "eb99c834f1da4823b7227ac6b2fb6e23",
        "srcKUID": "53f7b5c175ee42138a1a8841b03e73b9",
        "wType": "FlexContainer"
      }
    },
    "rtxDowntimeWarningDomestic": {
      "__events__": {},
      "__info__": {
        "kuid": "e17f8c021a094bf5bfab20e5649a34ae",
        "srcKUID": "e62f7cc66fa04556aa01d20ddb0189b2",
        "wType": "RichText"
      }
    },
    "segPayeesName": {
      "__events__": {},
      "__info__": {
        "kuid": "f8d7086c41fb422ba078c37b1c5de912",
        "srcKUID": "i1b70f53790d4d6d8a696e285332ea42",
        "wType": "Segment"
      }
    },
    "tbxName": {
      "__events__": {},
      "__info__": {
        "kuid": "h6a2e3c7ec614689894b0911bb58ba36",
        "srcKUID": "61238d9ca0844956bb413aec2f26e939",
        "wType": "TextField"
      },
      "placeholder": "Search for Payee by Company Name(Ex: AT\u0026T or Comcast )",
      "i18n_placeholder": "i18n.BillPay.SearchforPayeebyCompanyNameExATTorComcast"
    },
    "txtAccountNumber": {
      "__events__": {},
      "__info__": {
        "kuid": "g910a8367db5491f9539dc23174d8a99",
        "srcKUID": "15141d74641a43bb98e85d2ed96e3e3e",
        "wType": "TextField"
      },
      "i18n_placeholder": "i18n.BillPay.EnterAccountNumber"
    },
    "txtAccountNumberAgain": {
      "__events__": {},
      "__info__": {
        "kuid": "c9988e258104444eb623e9d3c3b3891f",
        "srcKUID": "b28d660a41704d2589be68c1fba156b1",
        "wType": "TextField"
      },
      "i18n_placeholder": "i18n.EnterReEnterAccountNumber"
    },
    "txtNotes": {
      "__events__": {},
      "__info__": {
        "kuid": "e43ab098414f49d68806809721f18277",
        "srcKUID": "d1ff99a636e7472bb526905768a02d1d",
        "wType": "TextField"
      }
    },
    "txtPaymentAmount": {
      "__events__": {},
      "__info__": {
        "kuid": "b9071cf1c6c24a928896a8fd786a7a36",
        "srcKUID": "dac11b52db3b4101b9d7b8af28d3b22b",
        "wType": "TextField"
      },
      "i18n_placeholder": "i18n.transfers.PaymentAmount"
    },
    "txtZipCode": {
      "__events__": {},
      "__info__": {
        "kuid": "bd8281ed15c0424d98201d3db8b02ee0",
        "srcKUID": "6ac4904554fa43f1bf5324f0fc88664e",
        "wType": "TextField"
      },
      "i18n_placeholder": "i18n.BillPay.EnterZipCode"
    },
    "txtmobilenumber": {
      "__events__": {},
      "__info__": {
        "kuid": "b52fc5aab31c4351b8694c7a0c9037ab",
        "srcKUID": "cea2278305e34a8da228080ca59db67d",
        "wType": "TextField"
      },
      "i18n_placeholder": "i18n.PayAPerson.EnterPhoneNumber"
    }
  },
  "id": "oneTimePay",
  "info": null,
  "isdatareferenced": false,
  "isvisible": true,
  "kuid": "eb99c834f1da4823b7227ac6b2fb6e23",
  "layouttype": 2,
  "masterType": 0,
  "name": "kony.ui.UserWidgetInstance",
  "parent": "flxonetimepayment",
  "pf": "frmAddPayee",
  "snaptogrid": true,
  "sourceUserWidget": "53f7b5c175ee42138a1a8841b03e73b9",
  "wType": "UserWidgetInstance"
}