{
  "@class": "com.kony.gen.viz.model.component.KVizTextBox2",
  "DNDConfig": null,
  "__parentReadjusting__": false,
  "_height_": {
    "type": "string",
    "value": "50dp"
  },
  "_left_": {
    "type": "string",
    "value": "3.77%"
  },
  "_margin_": [
    0,
    0,
    0,
    0
  ],
  "_padding_": [
    1,
    0,
    0,
    0
  ],
  "_placeholder_": "Enter Payee\u0027s Zip Code",
  "_skin_": "sbad3c0dbd09447ea3f81eebcfc69002",
  "_text_": "",
  "_top_": {
    "type": "string",
    "value": "10dp"
  },
  "_width_": {
    "type": "string",
    "value": "92.44%"
  },
  "autocapitalize": "none",
  "autocomplete": false,
  "autocorrect": false,
  "autofilter": false,
  "canUpdateUI": true,
  "containerheight": "",
  "containerheightmode": 1,
  "containerweight": 100,
  "contentalignment": 4,
  "desktopweb": {
    "psp": {
      "hoverSkin": "s80a8c5539a441ee9b9b49917cc45cc2"
    }
  },
  "focusskin": "s80a8c5539a441ee9b9b49917cc45cc2",
  "id": "tbxZipcode",
  "info": null,
  "isvisible": false,
  "keyboardstyle": "A",
  "keyboardtype": "A",
  "kiosk": {
    "psp": {
      "toolTip": "Zip Code"
    }
  },
  "kuid": "e7ef7e9485484349beacd1b2898ecd28",
  "maxtextlength": 50,
  "mode": "A",
  "name": "kony.ui.TextBox2",
  "paddinginpixel": false,
  "parent": "flxSearchPayee",
  "pf": "frmAddPayee",
  "securetextentry": false,
  "textinputmode": "A",
  "viewtype": "default",
  "wType": "TextField",
  "zindex": 1,
  "placeholderi18n": "i18n.AddPayee.EnterPayeesZipCode"
}