{
  "classname": "ForgotUsernamePassword",
  "definitions": {
    "apis": {
      "custom": [],
      "passthrough": []
    },
    "events": {
      "custom": [],
      "passthrough": []
    },
    "groups": {
      "apis": [],
      "events": [],
      "properties": [],
      "widgets": []
    },
    "properties": {
      "custom": [],
      "passthrough": []
    },
    "widgets": {
      "expose": [],
      "passthrough": []
    }
  },
  "namespace": "com.konyolb.enrollnow",
  "version": "1.0.0"
}