{
  "@class": "com.kony.gen.viz.model.component.KVizImage2",
  "DNDConfig": null,
  "__parentReadjusting__": false,
  "_base64_": null,
  "_height_": {
    "type": "string",
    "value": "60dp"
  },
  "_left_": {
    "type": "string",
    "value": "3dp"
  },
  "_margin_": [
    0,
    0,
    0,
    0
  ],
  "_padding_": [
    0,
    0,
    0,
    0
  ],
  "_right_": {
    "type": "string",
    "value": "0dp"
  },
  "_skin_": "s78a5f26c9f14cec9ebed1bb46098f80",
  "_src_": "icon_zoom_frame.png",
  "_top_": {
    "type": "string",
    "value": "1dp"
  },
  "_width_": {
    "type": "string",
    "value": "60dp"
  },
  "canUpdateUI": true,
  "containerweight": 100,
  "context": {
    "channel": "desktop",
    "formID": "uwcf2a32f75e4045588edc4fd1dc2211bc",
    "platform": "desktopweb",
    "templateType": "userwidgets",
    "topLevelBox": null
  },
  "id": "imgZoom",
  "imagescalemode": 1,
  "imagewhiledownloading": "img_transparent.png",
  "info": null,
  "invokedProperty": "src",
  "isvisible": false,
  "kuid": "i190a8b974814107a3f5d76ba395a5ce",
  "name": "kony.ui.Image2",
  "parent": "flxZoom",
  "pf": "userwidgetmodel",
  "srcType": 1,
  "wType": "Image",
  "widgetalignment": 5,
  "zindex": 1
}