{
  "@class": "com.kony.gen.viz.model.component.KVizButton",
  "DNDConfig": null,
  "__parentReadjusting__": false,
  "_height_": {
    "type": "string",
    "value": "100%"
  },
  "_left_": {
    "type": "string",
    "value": "0dp"
  },
  "_margin_": [
    6,
    6,
    6,
    6
  ],
  "_padding_": [
    0,
    0,
    0,
    0
  ],
  "_skin_": "s9c804d151314842984467eaf379ac90",
  "_text_": ".",
  "_top_": {
    "type": "string",
    "value": "0dp"
  },
  "_width_": {
    "type": "string",
    "value": "100%"
  },
  "canUpdateUI": true,
  "containerId": true,
  "containerweight": 100,
  "contentalignment": 5,
  "disabledSkins": {
    "focusSkin": "sf44d06ca8224832827ea7fdff757013"
  },
  "displaytext": true,
  "id": "btn",
  "info": null,
  "isvisible": true,
  "kuid": "d1c94c0b580a46cfb179ab23ce62e90c",
  "name": "kony.ui.Button",
  "parent": "flxIdentifier",
  "pf": "segProfileManagementAccounts",
  "wType": "Button",
  "zindex": 1
}