{
  "DNDConfig": null,
  "__parentReadjusting__": false,
  "_height_": {
    "type": "ref",
    "value": "preferred"
  },
  "_left_": {
    "type": "string",
    "value": "0dp"
  },
  "_margin_": [
    0,
    0,
    0,
    0
  ],
  "_orientation_": 6,
  "_padding_": [
    0,
    0,
    0,
    0
  ],
  "_percent_": true,
  "_skin_": "s24c92fc23b14f5484b693ee9b8a9b35",
  "_top_": {
    "type": "string",
    "value": "0dp"
  },
  "_width_": {
    "type": "string",
    "value": "24dp"
  },
  "allboxes": [],
  "autogrowmode": 1,
  "canUpdateUI": true,
  "children": [
    "imgEStatementCheckBox",
    "lblEstatementCheckBoxIcon"
  ],
  "clipbounds": true,
  "containerId": true,
  "containerweight": 100,
  "enablescrolling": true,
  "id": "flxEStatementCheckBox",
  "ide_onClick": "AS_FlexContainer_i0e2d2c700ae4750a6aa0376dd344a70",
  "info": null,
  "isvisible": true,
  "kuid": "fd8b1ca407fa4497815fc9ac175d60a8",
  "layouttype": 2,
  "name": "kony.ui.FlexContainer",
  "parent": "flxEStatement",
  "pf": "segProfileManagementAccounts",
  "snapgridsize": 10,
  "snaptogrid": true,
  "wType": "FlexContainer",
  "widgetalignment": 1,
  "zindex": 1
}