{
  "DNDConfig": null,
  "__parentReadjusting__": false,
  "_height_": {
    "type": "string",
    "value": "111px"
  },
  "_left_": {
    "type": "string",
    "value": "51.82%"
  },
  "_margin_": [
    0,
    0,
    0,
    0
  ],
  "_orientation_": 6,
  "_padding_": [
    0,
    0,
    0,
    0
  ],
  "_percent_": true,
  "_skin_": "s24c92fc23b14f5484b693ee9b8a9b35",
  "_top_": {
    "type": "string",
    "value": "39dp"
  },
  "_width_": {
    "type": "string",
    "value": "48.18%"
  },
  "allboxes": [],
  "autogrowmode": 0,
  "canUpdateUI": true,
  "children": [
    "flxMarkAsFavorite",
    "flxEStatement"
  ],
  "clipbounds": true,
  "containerId": true,
  "containerweight": 100,
  "enablescrolling": true,
  "id": "flxRight",
  "info": null,
  "isvisible": true,
  "kuid": "e52ce181c07c43c49fa6c32e0ef3722c",
  "layouttype": 4,
  "name": "kony.ui.FlexContainer",
  "parent": "flxContent",
  "pf": "segProfileManagementAccounts",
  "snapgridsize": 10,
  "snaptogrid": true,
  "wType": "FlexContainer",
  "widgetalignment": 1,
  "zindex": 1
}