{
  "@class": "com.kony.gen.viz.model.component.KVizButton",
  "DNDConfig": null,
  "__parentReadjusting__": false,
  "_height_": {
    "type": "string",
    "value": "50dp"
  },
  "_left_": {
    "type": "string",
    "value": "2.52%"
  },
  "_margin_": [
    6,
    6,
    6,
    6
  ],
  "_padding_": [
    0,
    0,
    0,
    0
  ],
  "_skin_": "sd93406756c64689acabc6c6ca718fdc",
  "_text_": "SEND MONEY",
  "_top_": {
    "type": "string",
    "value": "30px"
  },
  "_width_": {
    "type": "string",
    "value": "28.97%"
  },
  "canUpdateUI": true,
  "containerweight": 100,
  "contentalignment": 5,
  "disabledSkins": {
    "focusSkin": "s30cdf4f9a6c4bbcb797e45d11425d8e"
  },
  "displaytext": true,
  "id": "btnSendMoney",
  "info": null,
  "isvisible": true,
  "kuid": "idef1ad5217c423e8c7dc2e86f54e6c6",
  "name": "kony.ui.Button",
  "parent": "flxButtons",
  "pf": "userwidgetmodel",
  "wType": "Button",
  "zindex": 2,
  "texti18n": "i18n.Pay.SendMoney",
  "tooltip": "Send Money"
}