{
  "@class": "com.kony.gen.viz.model.component.KVizImage2",
  "DNDConfig": null,
  "__parentReadjusting__": false,
  "_base64_": null,
  "_height_": {
    "type": "string",
    "value": "40dp"
  },
  "_left_": {
    "type": "string",
    "value": "16dp"
  },
  "_margin_": [
    0,
    0,
    0,
    0
  ],
  "_padding_": [
    0,
    0,
    0,
    0
  ],
  "_skin_": "s78a5f26c9f14cec9ebed1bb46098f80",
  "_src_": "error_yellow.png",
  "_top_": {
    "type": "string",
    "value": "15dp"
  },
  "_width_": {
    "type": "string",
    "value": "3.30%"
  },
  "canUpdateUI": true,
  "containerweight": 100,
  "context": {
    "channel": "desktop",
    "formID": "uwe6ba8dad9a33463abde60225b243ad94",
    "templateType": "userwidgets",
    "topLevelBox": null
  },
  "id": "imgWarningEnterCVV",
  "imagescalemode": 1,
  "imagewhiledownloading": "img_transparent.png",
  "info": null,
  "invokedProperty": "src",
  "isvisible": true,
  "kuid": "f745bb2abec24ad4ae6dc02520cec035",
  "name": "kony.ui.Image2",
  "parent": "flxWarningEnterCVV",
  "pf": "userwidgetmodel",
  "srcType": 1,
  "wType": "Image",
  "widgetalignment": 5,
  "zindex": 1
}