{
    "@class": "com.kony.gen.viz.model.component.KVizButton",
    "DNDConfig": null,
    "__parentReadjusting__": false,
    "_height_": {
        "type": "string",
        "value": "50dp"
    },
    "_left_": {
        "type": "string",
        "value": "29.89%"
    },
    "_margin_": [
        6,
        6,
        6,
        6
    ],
    "_padding_": [
        0,
        0,
        0,
        0
    ],
    "_right_": {
        "type": "string",
        "value": "23.20%"
    },
    "_skin_": "s6abe09660494ddb831694ff6456c74d",
    "_text_": "",
    "_width_": {
        "type": "string",
        "value": "32.10%"
    },
    "canUpdateUI": true,
    "centery": {
        "type": "string",
        "value": "50.00%"
    },
    "containerweight": 100,
    "contentalignment": 5,
    "desktopweb": {
        "psp": {
            "hoverSkin": "sba91fb5e9774521856508ab3e21943d"
        }
    },
    "disabledSkins": {
        "focusSkin": "sf44d06ca8224832827ea7fdff757013"
    },
    "displaytext": true,
    "id": "btnModify",
    "info": null,
    "isvisible": true,
    "kuid": "cc060ce62374465fa04ce1ade47e22aa",
    "name": "kony.ui.Button",
    "parent": "flxTransferSubmit",
    "pf": "userwidgetmodel",
    "texti18n": "i18n.transfers.Modify",
    "tooltip": "Modify",
    "wType": "Button",
    "zindex": 1
}