{
    "DNDConfig": null,
    "__parentReadjusting__": false,
    "_height_": {
        "type": "string",
        "value": "420dp"
    },
    "_left_": {
        "type": "string",
        "value": "0dp"
    },
    "_margin_": [
        0,
        0,
        0,
        0
    ],
    "_orientation_": 6,
    "_padding_": [
        0,
        0,
        0,
        0
    ],
    "_percent_": true,
    "_skin_": "s24c92fc23b14f5484b693ee9b8a9b35",
    "_top_": {
        "type": "string",
        "value": "0dp"
    },
    "_width_": {
        "type": "string",
        "value": "92%"
    },
    "allboxes": [],
    "autogrowmode": 0,
    "canUpdateUI": true,
    "children": [
        "lblLastName",
        "tbxLastName",
        "lblMembershipID",
        "lblAccountCategory",
        "tbxMembershipID",
        "lblShareID",
        "tbxShareID",
        "flxAmountRec",
        "lblAmountRec",
        "lbxAccountCategory"
    ],
    "clipbounds": true,
    "containerweight": 100,
    "enablescrolling": true,
    "id": "flexNewRecipient",
    "info": null,
    "iscustomlayout": false,
    "isvisible": true,
    "kuid": "e9deb8714eaa44ba87a8d781cece6f76",
    "layouttype": 2,
    "name": "kony.ui.FlexContainer",
    "parent": "flxTransferForm",
    "pf": "userwidgetmodel",
    "retaincontentalignment": false,
    "retainflexpositionproperties": false,
    "snapgridsize": 10,
    "snaptogrid": true,
    "wType": "FlexContainer",
    "widgetalignment": 1,
    "zindex": 101
}