{
    "DNDConfig": null,
    "__parentReadjusting__": false,
    "_height_": {
        "type": "ref",
        "value": "preferred"
    },
    "_left_": {
        "type": "string",
        "value": "0dp"
    },
    "_margin_": [
        0,
        0,
        0,
        0
    ],
    "_orientation_": 6,
    "_padding_": [
        0,
        0,
        0,
        0
    ],
    "_percent_": true,
    "_skin_": "s24c92fc23b14f5484b693ee9b8a9b35",
    "_top_": {
        "type": "string",
        "value": "20dp"
    },
    "_width_": {
        "type": "string",
        "value": "100%"
    },
    "allboxes": [],
    "autogrowmode": 1,
    "canUpdateUI": true,
    "children": [
        "flxContainer1",
        "flxContainer2",
        "flxFrom",
        "flxTo",
        "flexNewRecipient",
        "flxContainer3",
        "flxMainCreditCard",
        "flxWhenLoan",
        "flxSubFrequencyAndSendOn",
        "flxContainer4",
        "flxContainer5",
        "flxContainer6",
        "flxDuration",
        "flxStartAndEndDate",
        "lblRegDLimit"
    ],
    "clipbounds": true,
    "containerweight": 100,
    "enablescrolling": true,
    "id": "flxTransferForm",
    "info": null,
    "iscustomlayout": false,
    "isvisible": true,
    "kuid": "ic69e2ad070a4eabb58f062a0de483bd",
    "layouttype": 4,
    "name": "kony.ui.FlexContainer",
    "parent": "maketransfer",
    "pf": "userwidgetmodel",
    "retaincontentalignment": false,
    "retainflexpositionproperties": false,
    "snapgridsize": 10,
    "snaptogrid": true,
    "wType": "FlexContainer",
    "widgetalignment": 1,
    "zindex": 5
}