{
    "@class": "com.kony.gen.viz.model.component.KVizLabel",
    "DNDConfig": null,
    "__parentReadjusting__": false,
    "_height_": {
        "type": "ref",
        "value": "preferred"
    },
    "_left_": {
        "type": "string",
        "value": "4.50%"
    },
    "_margin_": [
        1,
        1,
        1,
        1
    ],
    "_padding_": [
        0,
        0,
        0,
        0
    ],
    "_skin_": "sc7dabdc8439451083fe2f741c501714",
    "_text_": "Amount",
    "_top_": {
        "type": "string",
        "value": "82%"
    },
    "_width_": {
        "type": "string",
        "value": "46%"
    },
    "_wrapping_": 2,
    "android": {
        "textStyle": {
            "letterSpacing": 0,
            "strikeThrough": false
        }
    },
    "canUpdateUI": true,
    "containerweight": 100,
    "contentalignment": 4,
    "id": "lblAmountRec",
    "info": null,
    "ipad": {
        "psp": {
            "wrapping": 2
        }
    },
    "iphone": {
        "psp": {
            "wrapping": 2
        }
    },
    "isvisible": true,
    "kuid": "f557a383e798473d8a540fac51f8f335",
    "name": "kony.ui.Label",
    "parent": "flexNewRecipient",
    "pf": "userwidgetmodel",
    "texti18n": "i18n.transfers.amountlabel",
    "tooltip": "",
    "wType": "Label",
    "zindex": 101
}