{
    "@class": "com.kony.gen.viz.model.component.KVizTextBox2",
    "DNDConfig": null,
    "__parentReadjusting__": false,
    "_height_": {
        "type": "string",
        "value": "40dp"
    },
    "_left_": {
        "type": "string",
        "value": "35dp"
    },
    "_margin_": [
        0,
        0,
        0,
        0
    ],
    "_padding_": [
        3,
        0,
        0,
        0
    ],
    "_placeholder_": "Amount",
    "_skin_": "sb049626e4a048c682930b6769048b65",
    "_text_": "",
    "_width_": {
        "type": "string",
        "value": "90.28%"
    },
    "autocapitalize": "none",
    "autocomplete": false,
    "autocorrect": false,
    "autofilter": false,
    "canUpdateUI": true,
    "centery": "49.29%",
    "containerheight": "",
    "containerheightmode": 1,
    "containerweight": 100,
    "contentalignment": 4,
    "disabledSkins": {
        "focusSkin": "s5f5a9f8c3a548e281fa49915b760e95"
    },
    "id": "tbxAmountRec",
    "info": null,
    "isvisible": true,
    "keyboardtype": "A",
    "kuid": "e37077adf8864328a724ff922f5e9de3",
    "mode": "A",
    "name": "kony.ui.TextBox2",
    "parent": "flxAmountRec",
    "pf": "userwidgetmodel",
    "securetextentry": false,
    "textinputmode": "A",
    "viewtype": "default",
    "wType": "TextField",
    "zindex": 101
}