{
    "@class": "com.kony.gen.viz.model.component.KVizTextBox2",
    "DNDConfig": null,
    "__parentReadjusting__": false,
    "_height_": {
        "type": "string",
        "value": "40dp"
    },
    "_left_": {
        "type": "string",
        "value": "4.50%"
    },
    "_margin_": [
        0,
        0,
        0,
        0
    ],
    "_padding_": [
        1,
        0,
        0,
        0
    ],
    "_placeholder_": "Recipient Last Name",
    "_right_": "0.00%",
    "_skin_": "s801872ac0264da098d8da59c1cea7f5",
    "_text_": "",
    "_top_": {
        "type": "string",
        "value": "9%"
    },
    "_width_": {
        "type": "string",
        "value": "45.40%"
    },
    "autocapitalize": "none",
    "autocomplete": false,
    "autocorrect": false,
    "autofilter": false,
    "canUpdateUI": true,
    "containerheight": "",
    "containerheightmode": 1,
    "containerweight": 100,
    "contentalignment": 4,
    "focusskin": "s5f5a9f8c3a548e281fa49915b760e95",
    "id": "tbxLastName",
    "info": null,
    "isvisible": true,
    "keyboardtype": "A",
    "kuid": "d08e75b8ba46435cae6f43a512fd11b9",
    "mode": "A",
    "name": "kony.ui.TextBox2",
    "parent": "flexNewRecipient",
    "pf": "userwidgetmodel",
    "placeholderi18n": "i18n.transfers.lblReciLastName",
    "securetextentry": false,
    "textinputmode": "A",
    "viewtype": "default",
    "wType": "TextField",
    "zindex": 101
}