{
    "AS_Button_cd05bbb0f914480eab1833921a9d501e": {
        "id": "AS_Button_cd05bbb0f914480eab1833921a9d501e",
        "type": "ACTION_SEQUENCE",
        "params": [{
            "datatype": "collection",
            "name": "eventobject"
        }],
        "contextObj": {
            "name": "uwu0c254ff60fd4759bdc3555b1eaef73d",
            "type": "userwidgets",
            "KUID": "u0c254ff60fd4759bdc3555b1eaef73d"
        },
        "language": "js",
        "actions": [{
            "id": "ADD_SNIPPET__f40b805a762e460e8ba5a8c67b0e9d82",
            "type": "ADD_SNIPPET",
            "codeSnippet": "this.transferSkin();",
            "parentId": null,
            "callbackType": null
        }]
    }
}