{
    "AS_Button_f51c4c2ffb524011b7f134edee06bd9d": {
        "id": "AS_Button_f51c4c2ffb524011b7f134edee06bd9d",
        "type": "ACTION_SEQUENCE",
        "params": [{
            "datatype": "collection",
            "name": "eventobject"
        }],
        "contextObj": {
            "name": "uw294b249e1f264e78b48398d28b888f75",
            "type": "userwidgets",
            "KUID": "294b249e1f264e78b48398d28b888f75"
        },
        "language": "js",
        "actions": [{
            "id": "ADD_SNIPPET__hea4e57f1ea3469cbbbf18c6e11f0a3a",
            "type": "ADD_SNIPPET",
            "codeSnippet": "onNavigate(\"ManageReceipts\");",
            "parentId": null,
            "callbackType": null
        }]
    }
}