{
    "AS_Button_f2dfbf167840497da35215b4b37bb814": {
        "id": "AS_Button_f2dfbf167840497da35215b4b37bb814",
        "type": "ACTION_SEQUENCE",
        "params": [{
            "datatype": "collection",
            "name": "eventobject"
        }],
        "contextObj": {
            "name": "uwu880133531214eb8bd74348879605663",
            "type": "userwidgets",
            "KUID": "u880133531214eb8bd74348879605663"
        },
        "language": "js",
        "actions": [{
            "id": "ADD_SNIPPET__a32df621827a47178efad3745efcfed6",
            "type": "ADD_SNIPPET",
            "codeSnippet": "var count= this.view.flxAddEmail.widgets().length;\nkony.print(\"count value\"+count);\nvar append=count+1;\nvar idName = \"tbxEmailValue0\"+append;\nkony.print(idName);\nvar txtBasic = {id:idName, placeholder:\"Enter a number here\", maxTextLength:15, isVisible:true,skin:\"sknTBXAcc\", bottom:\"5px\",height:\"40dp\", left : \"0%\",width : \"100%\" };\nvar txtLayout = {padding:[3,0,3,0]};\nvar txtPSP ={};\nvar textBox1 = new kony.ui.TextBox2(txtBasic, txtLayout, txtPSP);\nthis.view.flxAddEmail.add(textBox1);\n",
            "parentId": null,
            "callbackType": null
        }]
    }
}