{
    "AS_FlexContainer_dd5ec5862d654929974873796ee5a57e": {
        "id": "AS_FlexContainer_dd5ec5862d654929974873796ee5a57e",
        "type": "ACTION_SEQUENCE",
        "params": [{
            "datatype": "collection",
            "name": "eventobject"
        }],
        "contextObj": {
            "name": "uwu8a6ec125b5849f1b101cb5192deae35",
            "type": "userwidgets",
            "KUID": "u8a6ec125b5849f1b101cb5192deae35"
        },
        "language": "js",
        "actions": [{
            "id": "ADD_SNIPPET__jda985238a5c48c48075743aefbf7ea5",
            "type": "ADD_SNIPPET",
            "codeSnippet": "this.navigateToBillPay();",
            "parentId": null,
            "callbackType": null
        }]
    }
}