{
    "AS_FlexContainer_c701cc4625834485a255c76fd49cacf6": {
        "id": "AS_FlexContainer_c701cc4625834485a255c76fd49cacf6",
        "type": "ACTION_SEQUENCE",
        "params": [{
            "datatype": "collection",
            "name": "eventobject"
        }],
        "language": "js",
        "actions": [{
            "id": "ADD_SNIPPET_ide_onClick_j7a7f458f4cd418aa14117d4fb6b074a",
            "type": "ADD_SNIPPET",
            "codeSnippet": "this.toggleCheckbox();",
            "callbackType": null
        }]
    }
}