{
    "AS_FlexContainer_g737e954a7c6493e83d02e1a61550ce0": {
        "id": "AS_FlexContainer_g737e954a7c6493e83d02e1a61550ce0",
        "type": "ACTION_SEQUENCE",
        "params": [{
            "datatype": "collection",
            "name": "eventobject"
        }],
        "contextObj": {
            "name": "uwu061affc28134a43aad7bfab7786c25c",
            "type": "userwidgets",
            "KUID": "u061affc28134a43aad7bfab7786c25c"
        },
        "language": "js",
        "actions": [{
            "id": "ADD_SNIPPET__a4f202ce28e94460a992ab126d1695a7",
            "type": "ADD_SNIPPET",
            "codeSnippet": "this.toggle(this.view.flxBillPaySubMenu, this.view.imgBillPayCollapse)",
            "parentId": null,
            "callbackType": null
        }]
    }
}