{
    "AS_FlexContainer_a5df818e3bf34e3bb6be22f9c1fce6f4": {
        "id": "AS_FlexContainer_a5df818e3bf34e3bb6be22f9c1fce6f4",
        "type": "ACTION_SEQUENCE",
        "params": [{
            "datatype": "collection",
            "name": "eventobject"
        }, {
            "datatype": "string",
            "name": "x"
        }, {
            "datatype": "string",
            "name": "y"
        }],
        "contextObj": {
            "name": "uwu8a6ec125b5849f1b101cb5192deae35",
            "type": "userwidgets",
            "KUID": "u8a6ec125b5849f1b101cb5192deae35"
        },
        "language": "js",
        "actions": [{
            "id": "ADD_SNIPPET__e17bb3d4096747ddacec494093152ab4",
            "type": "ADD_SNIPPET",
            "codeSnippet": "window.open(\"https://www.orangecountyscu.org/about-us/contact-us/\");",
            "parentId": null,
            "callbackType": null
        }]
    }
}