{
    "AS_FlexContainer_hcddbad0f29e4b968a3dfdaf41335435": {
        "id": "AS_FlexContainer_hcddbad0f29e4b968a3dfdaf41335435",
        "type": "ACTION_SEQUENCE",
        "params": [{
            "datatype": "collection",
            "name": "eventobject"
        }],
        "contextObj": {
            "name": "uwu3c2c946748847149418dfaa68c7cce0",
            "type": "userwidgets",
            "KUID": "u3c2c946748847149418dfaa68c7cce0"
        },
        "language": "js",
        "actions": []
    }
}