{
    "AS_FlexContainer_e41e777bd9d54bfd891b5c4b6a3ee0ec": {
        "id": "AS_FlexContainer_e41e777bd9d54bfd891b5c4b6a3ee0ec",
        "type": "ACTION_SEQUENCE",
        "params": [{
            "datatype": "collection",
            "name": "eventobject"
        }],
        "contextObj": {
            "name": "uwucda9af4868f4f47b4947f3f15660a6f",
            "type": "userwidgets",
            "KUID": "ucda9af4868f4f47b4947f3f15660a6f"
        },
        "language": "js",
        "actions": [{
            "id": "ADD_SNIPPET__aa35bcb90e7e43d7aa8fd9c8a962c03b",
            "type": "ADD_SNIPPET",
            "codeSnippet": "if(this.view.imgCheckbox.src == \"unchecked_box.png\"){\n  this.view.imgCheckbox.src = \"checked_box.png\";\n}else{\n  this.view.imgCheckbox.src = \"unchecked_box.png\";\n}",
            "parentId": null,
            "callbackType": null
        }]
    }
}