{
    "AS_FlexContainer_cf6dd04b747b476e9c8c816a1e513f1b": {
        "id": "AS_FlexContainer_cf6dd04b747b476e9c8c816a1e513f1b",
        "type": "ACTION_SEQUENCE",
        "params": [{
            "datatype": "collection",
            "name": "eventobject"
        }],
        "contextObj": {
            "name": "uwu886471e9ec64dfabf9345f176339ccd",
            "type": "userwidgets",
            "KUID": "u886471e9ec64dfabf9345f176339ccd"
        },
        "language": "js",
        "actions": []
    }
}