{
    "AS_FlexContainer_b6575651ffab498384320c1c34d8df60": {
        "id": "AS_FlexContainer_b6575651ffab498384320c1c34d8df60",
        "type": "ACTION_SEQUENCE",
        "params": [{
            "datatype": "collection",
            "name": "eventobject"
        }],
        "language": "js",
        "actions": [{
            "id": "ADD_SNIPPET_ide_onClick_b12743cd362145029e2de10d8d1f6c4e",
            "type": "ADD_SNIPPET",
            "codeSnippet": "",
            "callbackType": null
        }]
    }
}