{
    "AS_FlexContainer_i94ac6945e754d7b86e24f720d780c3c": {
        "id": "AS_FlexContainer_i94ac6945e754d7b86e24f720d780c3c",
        "type": "ACTION_SEQUENCE",
        "params": [{
            "datatype": "collection",
            "name": "eventobject"
        }],
        "contextObj": {
            "name": "uwu0c254ff60fd4759bdc3555b1eaef73d",
            "type": "userwidgets",
            "KUID": "u0c254ff60fd4759bdc3555b1eaef73d"
        },
        "language": "js",
        "actions": [{
            "id": "ADD_SNIPPET__f615cb6b97294063ba601ba0e3ab44e4",
            "type": "ADD_SNIPPET",
            "codeSnippet": "this.showContextualMenu();",
            "parentId": null,
            "callbackType": null
        }]
    }
}