{
    "AS_FlexContainer_ab07db5ee452440bbf80226108610658": {
        "id": "AS_FlexContainer_ab07db5ee452440bbf80226108610658",
        "type": "ACTION_SEQUENCE",
        "params": [{
            "datatype": "collection",
            "name": "eventobject"
        }],
        "contextObj": {
            "name": "uwu061affc28134a43aad7bfab7786c25c",
            "type": "userwidgets",
            "KUID": "u061affc28134a43aad7bfab7786c25c"
        },
        "language": "js",
        "actions": [{
            "id": "ADD_SNIPPET__e14a94493804466980c04137041f2bee",
            "type": "ADD_SNIPPET",
            "codeSnippet": "window.open(\"https://www.orangecountyscu.org/globalassets/pdf-files/disclosures/disc-online-privacy-policy-07172017.pdf\");",
            "parentId": null,
            "callbackType": null
        }]
    }
}