{
    "AS_FlexContainer_c38f79455c5a487ea99bdfd76eb8d83f": {
        "id": "AS_FlexContainer_c38f79455c5a487ea99bdfd76eb8d83f",
        "type": "ACTION_SEQUENCE",
        "params": [{
            "datatype": "collection",
            "name": "eventobject"
        }],
        "contextObj": {
            "name": "uwu0c254ff60fd4759bdc3555b1eaef73d",
            "type": "userwidgets",
            "KUID": "u0c254ff60fd4759bdc3555b1eaef73d"
        },
        "language": "js",
        "actions": [{
            "id": "ADD_SNIPPET__j6dda44d37094f2e9937826cacf487ac",
            "type": "ADD_SNIPPET",
            "codeSnippet": "this.initiateActions();",
            "parentId": null,
            "callbackType": null
        }]
    }
}