{
    "AS_FlexContainer_ec26f922acb1445385c95b86a80bdc59": {
        "id": "AS_FlexContainer_ec26f922acb1445385c95b86a80bdc59",
        "type": "ACTION_SEQUENCE",
        "params": [{
            "datatype": "collection",
            "name": "eventobject"
        }],
        "language": "js",
        "actions": [{
            "id": "ADD_SNIPPET__i769618a661642f6b1ed5172ae415155",
            "type": "ADD_SNIPPET",
            "codeSnippet": "this.checkboxaction();",
            "parentId": null,
            "callbackType": null
        }]
    }
}