{
    "AS_FlexContainer_ga9fabdac7b440cfa326026e6f5862a6": {
        "id": "AS_FlexContainer_ga9fabdac7b440cfa326026e6f5862a6",
        "type": "ACTION_SEQUENCE",
        "params": [{
            "datatype": "collection",
            "name": "eventobject"
        }],
        "contextObj": {
            "name": "uwc392cab45f364225809790b44deb8fe0",
            "type": "userwidgets",
            "KUID": "c392cab45f364225809790b44deb8fe0"
        },
        "language": "js",
        "actions": [{
            "id": "ADD_SNIPPET__g9273fba1ec34b92af8730d615180b2e",
            "type": "ADD_SNIPPET",
            "codeSnippet": "this.renderCalendar();",
            "parentId": null,
            "callbackType": null
        }]
    }
}