{
    "AS_FlexContainer_id997d6b30c248d29a536719ada5a04c": {
        "id": "AS_FlexContainer_id997d6b30c248d29a536719ada5a04c",
        "type": "ACTION_SEQUENCE",
        "params": [{
            "datatype": "collection",
            "name": "eventobject"
        }],
        "contextObj": {
            "name": "uw96b93cd19fc04d80abf86051af2431ed",
            "type": "userwidgets",
            "KUID": "96b93cd19fc04d80abf86051af2431ed"
        },
        "language": "js",
        "actions": [{
            "id": "ADD_SNIPPET__e19c7c5bb9f64d0994888104d9a5571a",
            "type": "ADD_SNIPPET",
            "codeSnippet": "this.toggleCheckbox();",
            "parentId": null,
            "callbackType": null
        }]
    }
}