{
    "AS_Image_e3107ecb9b744c2399c9617032475390": {
        "id": "AS_Image_e3107ecb9b744c2399c9617032475390",
        "type": "ACTION_SEQUENCE",
        "params": [{
            "datatype": "collection",
            "name": "eventobject"
        }, {
            "datatype": "string",
            "name": "x"
        }, {
            "datatype": "string",
            "name": "y"
        }],
        "contextObj": {
            "name": "uwu9915372989245fe853039974c82ccf1",
            "type": "userwidgets",
            "KUID": "u9915372989245fe853039974c82ccf1"
        },
        "language": "js",
        "actions": []
    }
}