{
    "AS_Image_g8ad0a3f05b4419f90787ead409e73dc": {
        "id": "AS_Image_g8ad0a3f05b4419f90787ead409e73dc",
        "type": "ACTION_SEQUENCE",
        "params": [{
            "datatype": "collection",
            "name": "eventobject"
        }, {
            "datatype": "string",
            "name": "x"
        }, {
            "datatype": "string",
            "name": "y"
        }],
        "contextObj": {
            "name": "uwu53b0de3a8a648eaa6f120313abbdbec",
            "type": "userwidgets",
            "KUID": "u53b0de3a8a648eaa6f120313abbdbec"
        },
        "language": "js",
        "actions": []
    }
}