{
    "AS_Image_a1c7976c48eb4565a20f216a0c20eb21": {
        "id": "AS_Image_a1c7976c48eb4565a20f216a0c20eb21",
        "type": "ACTION_SEQUENCE",
        "params": [{
            "datatype": "collection",
            "name": "eventobject"
        }, {
            "datatype": "string",
            "name": "x"
        }, {
            "datatype": "string",
            "name": "y"
        }],
        "contextObj": {
            "name": "uwu2b1d798d4594f63837ed9524b560443",
            "type": "userwidgets",
            "KUID": "u2b1d798d4594f63837ed9524b560443"
        },
        "language": "js",
        "actions": [{
            "id": "ADD_SNIPPET__f0865040b2d44579b7cdd9d4ab7b9eb8",
            "type": "ADD_SNIPPET",
            "codeSnippet": "this.checkboxaction();",
            "parentId": null,
            "callbackType": null
        }]
    }
}