{
    "AS_Label_ba660219c7ef43269cff262b366c82dd": {
        "id": "AS_Label_ba660219c7ef43269cff262b366c82dd",
        "type": "ACTION_SEQUENCE",
        "params": [{
            "datatype": "collection",
            "name": "eventobject"
        }, {
            "datatype": "string",
            "name": "x"
        }, {
            "datatype": "string",
            "name": "y"
        }],
        "contextObj": {
            "name": "uwuc49d7aece6c4a6ebb867624b3d575a0",
            "type": "userwidgets",
            "KUID": "uc49d7aece6c4a6ebb867624b3d575a0"
        },
        "language": "js",
        "actions": [{
            "id": "ADD_SNIPPET__c4ac3d5ff59f48dda61a488afa6e6488",
            "type": "ADD_SNIPPET",
            "codeSnippet": "var type=\"OWN_INTERNAL_ACCOUNTS\";\nthis.presenter.transferToTypeListener(type);",
            "parentId": null,
            "callbackType": null
        }]
    }
}