{
    "AS_TextField_hef71704bbf94d3eb98426330a33b53c": {
        "id": "AS_TextField_hef71704bbf94d3eb98426330a33b53c",
        "type": "ACTION_SEQUENCE",
        "params": [{
            "datatype": "collection",
            "name": "eventobject"
        }],
        "contextObj": {
            "name": "uwu8a6d9f9b47646de89046a4438d1548b",
            "type": "userwidgets",
            "KUID": "u8a6d9f9b47646de89046a4438d1548b"
        },
        "language": "js",
        "actions": []
    }
}