{
    "AS_TextField_cc4b6f4777154e839e67e68d0102fc74": {
        "id": "AS_TextField_cc4b6f4777154e839e67e68d0102fc74",
        "type": "ACTION_SEQUENCE",
        "params": [{
            "datatype": "collection",
            "name": "eventobject"
        }],
        "contextObj": {
            "name": "uwu8a6d9f9b47646de89046a4438d1548b",
            "type": "userwidgets",
            "KUID": "u8a6d9f9b47646de89046a4438d1548b"
        },
        "language": "js",
        "actions": []
    }
}