{
    "AS_TextField_f626720e2855408c905aabef941bd914": {
        "id": "AS_TextField_f626720e2855408c905aabef941bd914",
        "type": "ACTION_SEQUENCE",
        "params": [{
            "datatype": "collection",
            "name": "eventobject"
        }],
        "contextObj": {
            "name": "uwe6ba8dad9a33463abde60225b243ad94",
            "type": "userwidgets",
            "KUID": "e6ba8dad9a33463abde60225b243ad94"
        },
        "language": "js",
        "actions": [{
            "id": "ADD_SNIPPET__ddc5d1191195447c84c9db77ebf60973",
            "type": "ADD_SNIPPET",
            "codeSnippet": null,
            "parentId": null,
            "callbackType": null
        }]
    }
}