{
  "DNDConfig": null,
  "__markedForDelete__": true,
  "__parentReadjusting__": false,
  "_height_": {
    "type": "string",
    "value": "100%"
  },
  "_left_": {
    "type": "string",
    "value": "0dp"
  },
  "_margin_": [
    0,
    0,
    0,
    0
  ],
  "_orientation_": 6,
  "_padding_": [
    0,
    0,
    0,
    0
  ],
  "_percent_": true,
  "_skin_": "s680c9bafb594fe4bfa388d84acc43b2",
  "_top_": {
    "type": "string",
    "value": "0dp"
  },
  "_width_": {
    "type": "string",
    "value": "7.70%"
  },
  "allboxes": [],
  "autogrowmode": 0,
  "canUpdateUI": true,
  "children": [
    "imgDropdown"
  ],
  "clipbounds": true,
  "containerId": true,
  "containerweight": 100,
  "desktopweb": {
    "psp": {
      "hoverSkin": "sb92697635f243c28bdd27c3900635be"
    }
  },
  "enablescrolling": true,
  "id": "flxDropdown",
  "ide_onClick": "AS_FlexContainer_d7015165b09a417e9ec3b574f268b362",
  "info": null,
  "isvisible": true,
  "kuid": "j55aae08190f42d5977f01cdde876e8b",
  "layouttype": 3,
  "name": "kony.ui.FlexContainer",
  "parent": "flxRow",
  "pf": "segRecentWireTransfers",
  "snapgridsize": 10,
  "snaptogrid": true,
  "wType": "FlexContainer",
  "widgetalignment": 1,
  "zindex": 1
}