{
  "DNDConfig": null,
  "__parentReadjusting__": false,
  "_height_": {
    "type": "string",
    "value": "700px"
  },
  "_left_": {
    "type": "string",
    "value": "0dp"
  },
  "_margin_": [
    0,
    0,
    0,
    0
  ],
  "_orientation_": 6,
  "_padding_": [
    0,
    0,
    0,
    0
  ],
  "_percent_": true,
  "_skin_": "sc8cf8902c76478898b36335256eac73",
  "_top_": {
    "type": "string",
    "value": "0dp"
  },
  "_width_": {
    "type": "string",
    "value": "100%"
  },
  "allboxes": [],
  "allowhorizontalbounce": false,
  "allowverticalbounce": true,
  "bounces": true,
  "canUpdateUI": true,
  "children": [
    "flxDetailsAndImage",
    "flxSeperatorWrapper",
    "flxContactCustomerService"
  ],
  "clipbounds": true,
  "containerweight": 100,
  "decelerat": false,
  "dragg": false,
  "enablescrolling": true,
  "horizontalscrollindicator": true,
  "id": "flxScrollDetails",
  "info": null,
  "isvisible": true,
  "kuid": "cb155fbfbfa643c89b7a362cd024434c",
  "layouttype": 4,
  "maxheight": {
    "type": "number",
    "value": "634"
  },
  "minheight": {
    "type": "number",
    "value": "378"
  },
  "name": "kony.ui.FlexScrollContainer",
  "pagingenabled": false,
  "parent": "contactUs",
  "pf": "userwidgetmodel",
  "scrolldirection": 2,
  "snapgridsize": 10,
  "snaptogrid": true,
  "track": false,
  "verticalscrollindicator": true,
  "wType": "FlexScrollContainer",
  "widgetalignment": 1,
  "zindex": 1
}