{
  "@class": "com.kony.gen.viz.model.component.KVizRichText",
  "DNDConfig": null,
  "__parentReadjusting__": false,
  "_height_": {
    "type": "ref",
    "value": "preferred"
  },
  "_left_": {
    "type": "string",
    "value": "0dp"
  },
  "_margin_": [
    0,
    0,
    0,
    0
  ],
  "_padding_": [
    0,
    0,
    0,
    0
  ],
  "_skin_": "sc4cc30bc71442ee9f8b2e9230a973fa",
  "_text_": "Theodore Lowe\u003cbr\u003eAp #867-859 Sit Rd.\u003cbr\u003eAzusa New York - 39531",
  "_top_": {
    "type": "string",
    "value": "5dp"
  },
  "_width_": {
    "type": "string",
    "value": "100%"
  },
  "_wrapping_": 2,
  "canUpdateUI": true,
  "containerweight": 100,
  "contentalignment": 1,
  "id": "rtxCorporateOfficeAddress",
  "info": null,
  "isvisible": true,
  "kuid": "c7db577d9d224262a6749683ee92279a",
  "name": "kony.ui.RichText",
  "parent": "flxContactDetails",
  "pf": "userwidgetmodel",
  "wType": "RichText",
  "widgetalignment": 5,
  "zindex": 1
}