{
  "@class": "com.kony.gen.viz.model.component.KVizButton",
  "DNDConfig": null,
  "__parentReadjusting__": false,
  "_bottom_": 30,
  "_height_": {
    "type": "string",
    "value": "50dp"
  },
  "_left_": {
    "type": "string",
    "value": "35%"
  },
  "_margin_": [
    6,
    6,
    6,
    6
  ],
  "_padding_": [
    0,
    0,
    0,
    0
  ],
  "_skin_": "s83729feaa224e359d660d5af05c4bac",
  "_text_": "NO",
  "_width_": {
    "type": "string",
    "value": "29.74%"
  },
  "canUpdateUI": true,
  "centery": {
    "type": "string",
    "value": "50%"
  },
  "containerweight": 100,
  "contentalignment": 5,
  "disabledSkins": {
    "focusSkin": "sf44d06ca8224832827ea7fdff757013"
  },
  "displaytext": true,
  "id": "btnCancel",
  "info": null,
  "isvisible": true,
  "kuid": "j8b0807c08da48ea9e703286967b1c30",
  "name": "kony.ui.Button",
  "parent": "flxContentsButtons",
  "pf": "frmCardManagement",
  "texti18n": "i18n.transfers.Cancel",
  "tooltip": "Cancel",
  "wType": "Button",
  "zindex": 1
}