{
  "@class": "com.kony.gen.viz.model.component.KVizDateField",
  "DNDConfig": null,
  "Image": "calender.png",
  "__id": "frmCardManagement_calFrom",
  "__input": "calFrom",
  "__parentReadjusting__": false,
  "_data_": null,
  "_date_": [
    "30",
    "8",
    "2017"
  ],
  "_height_": {
    "type": "string",
    "value": "40dp"
  },
  "_left_": {
    "type": "string",
    "value": "0dp"
  },
  "_margin_": [
    0,
    0,
    0,
    0
  ],
  "_padding_": [
    1,
    1,
    1,
    1
  ],
  "_skin_": "s309f86f067941bbb828e53b34e06a77",
  "_top_": {
    "type": "string",
    "value": "10dp"
  },
  "_width_": {
    "type": "string",
    "value": "170dp"
  },
  "advview": "default",
  "calendaricon": "calbtn.png",
  "canUpdateUI": true,
  "containerweight": 100,
  "contentalignment": 4,
  "datecomponents": [
    "30",
    "8",
    "2017"
  ],
  "dateeditable": true,
  "dateformat": "dd/MM/yyyy",
  "datesGroup": [],
  "datesState": 0,
  "day": "30",
  "daytextalignmentincell": 5,
  "desktopweb": {
    "calendarIcon": "calender.png",
    "contentAlignment": 4
  },
  "disabledSkins": {
    "focusSkin": "sa98c9725f534aa89bc97fbf889bfbc7"
  },
  "displayedMonths": [
    8,
    2017
  ],
  "entereddate": [
    "30",
    "8",
    "2017"
  ],
  "format": "dd/MM/yyyy",
  "formatteddate": "30/08/2017",
  "gridCellInactiveDaysSkin": "sd35029800e247beb86f04d6851b1b8d",
  "gridCellSelectedSkin": "se25cb8945064b57bbc9a41b3cd425f7",
  "gridCellSkin": "s5f875a55e8d4ce4bd8a22d01f285405",
  "gridCellTodaySkin": "s544d961e8084f759a5352dec12df3c8",
  "gridCellWeekendSkin": "s5f875a55e8d4ce4bd8a22d01f285405",
  "gridSkin": "s996ecb9dbc14113a367b19b028a1ef4",
  "hidedaysheader": false,
  "hidemonthsheader": false,
  "hour": 0,
  "id": "calFrom",
  "info": null,
  "invokedProperty": "rightNavigationImage",
  "isvisible": true,
  "kiosk": {
    "contentAlignment": 5
  },
  "kuid": "a864341754a14b50aa8c9d5f6331f7e9",
  "luadate": [
    "30",
    "8",
    "2017"
  ],
  "minutes": 0,
  "month": "8",
  "monthsinrow": 3,
  "name": "kony.ui.Calendar",
  "navigatorAlert": "Invalid Selection",
  "noofmonths": 1,
  "paddingLocked": true,
  "paddinginpixel": false,
  "pagedate": "/2017",
  "parent": "flxDates",
  "pf": "frmCardManagement",
  "popupHeight": "auto",
  "popupWidth": "auto",
  "seconds": 0,
  "selectdate": "//2017",
  "startDay": 0,
  "viewconfig": {
    "gridConfig": {
      "gridCellInactiveDaysSkin": "sd35029800e247beb86f04d6851b1b8d",
      "gridCellSelectedSkin": "se25cb8945064b57bbc9a41b3cd425f7",
      "gridCellSkin": "s5f875a55e8d4ce4bd8a22d01f285405",
      "gridCellTodaySkin": "s544d961e8084f759a5352dec12df3c8",
      "gridCellWeekendSkin": "s5f875a55e8d4ce4bd8a22d01f285405",
      "gridSkin": "s996ecb9dbc14113a367b19b028a1ef4",
      "leftNavigationImage": "arrow_left.png",
      "rightNavigationImage": "arrow_right.png"
    }
  },
  "viewtype": "default",
  "wType": "Calendar",
  "widgetalignment": 5,
  "widths": [
    "14.2857%;",
    "14.2857%;",
    "14.2857%;",
    "14.2857%;",
    "14.2857%;",
    "14.2857%;",
    "14.2857%;"
  ],
  "year": "2017",
  "zindex": 5
}