{
  "@class": "com.kony.gen.viz.model.component.KVizUserWidget",
  "DNDConfig": null,
  "__parentReadjusting__": false,
  "_children_": [],
  "_height_": {
    "type": "string",
    "value": "370dp"
  },
  "_left_": {
    "type": "string",
    "value": "0dp"
  },
  "_margin_": [
    0,
    0,
    0,
    0
  ],
  "_orientation_": 1,
  "_padding_": [
    0,
    0,
    0,
    0
  ],
  "_percent_": true,
  "_render_": true,
  "_skin_": "s24c92fc23b14f5484b693ee9b8a9b35",
  "_top_": {
    "type": "string",
    "value": "0dp"
  },
  "_width_": {
    "type": "string",
    "value": "100%"
  },
  "areflexpropsreferenced": false,
  "autogrowmode": 0,
  "canUpdateUI": true,
  "clipbounds": true,
  "containerweight": 0,
  "dataDiffs": {
    "ConfirmDialog": {
      "__events__": {},
      "__info__": {
        "isRoot": true,
        "kuid": "j8d82b106d4f47a2bb30e7f475a460fb",
        "srcKUID": "aa75127069764f2e965f275831622aa1",
        "wType": "FlexContainer"
      },
      "autogrowMode": {
        "Default": 0
      },
      "height": {
        "Default": {
          "type": "string",
          "value": "370dp"
        }
      }
    },
    "confirmButtons": {
      "__events__": {},
      "__info__": {
        "kuid": "cdd9732234414974b37d871315ae8239",
        "srcKUID": "a8ed458d924b469b9b4b5dccbdafa4e5",
        "wType": "UserWidgetInstance"
      }
    },
    "confirmButtons.btnCancel": {
      "__events__": {},
      "__info__": {
        "kuid": "b0f829cc90734a1aa25764c00947a92f",
        "srcKUID": "fae6ee45f6944736b784000124ecfebe",
        "wType": "Button"
      }
    },
    "confirmButtons.btnConfirm": {
      "__events__": {},
      "__info__": {
        "kuid": "e52f149f824144ffa7cfe087f99b3943",
        "srcKUID": "b6b33790de33434286962f9022b393a3",
        "wType": "Button"
      }
    },
    "confirmButtons.btnModify": {
      "__events__": {},
      "__info__": {
        "kuid": "b267388ab94f4cd38135fa34b58d6951",
        "srcKUID": "c1994d3858b7412cbd627b6b637e5cbb",
        "wType": "Button"
      }
    },
    "confirmButtons.flxHorizontalLine": {
      "__events__": {},
      "__info__": {
        "kuid": "j24cb30a0c7c42f2aa3a5f89ed3dbc76",
        "srcKUID": "d1563016451e4bf7ae97355bb0d69e47",
        "wType": "FlexContainer"
      }
    },
    "confirmHeaders": {
      "__events__": {},
      "__info__": {
        "kuid": "f69d9d9329644f998f799814f84678cc",
        "srcKUID": "eb2bc07cef80496b8e5ab955b31b477a",
        "wType": "UserWidgetInstance"
      }
    },
    "confirmHeaders.flxHeader": {
      "__events__": {},
      "__info__": {
        "kuid": "ha2c7ef0e5b847229947a5618bab6df5",
        "srcKUID": "h9fb5aeebf714e808970339a24af15a8",
        "wType": "FlexContainer"
      }
    },
    "confirmHeaders.lblHeading": {
      "__events__": {},
      "__info__": {
        "kuid": "fb104cb1d8ca4409bb529265b17363f3",
        "srcKUID": "e18c0baf4ab348428d66651f8be8b5af",
        "wType": "Label"
      },
      "i18n_text": "i18n.CardManagement.CardDetails",
      "left": {
        "Default": {
          "type": "string",
          "value": "30dp"
        }
      },
      "text": "CARD DETAILS"
    },
    "flxCards": {
      "__events__": {},
      "__info__": {
        "kuid": "e97cc0acc6574959804b3b3083a0ea86",
        "srcKUID": "cb3096a853ad4fd5b4e821528f08e8fd",
        "wType": "FlexContainer"
      },
      "left": {
        "Default": {
          "type": "string",
          "value": "35%"
        }
      }
    },
    "flxDestination": {
      "__events__": {},
      "__info__": {
        "kuid": "feb21aabe920468697ab7ad0e2eab53b",
        "srcKUID": "d678e81aa22e499f82d91d506d72adc0",
        "wType": "FlexContainer"
      },
      "isVisible": false,
      "left": {
        "Default": {
          "type": "string",
          "value": "4.70%"
        }
      },
      "top": {
        "Default": {
          "type": "string",
          "value": "20dp"
        }
      }
    },
    "flxDestination1": {
      "__events__": {},
      "__info__": {
        "kuid": "gd1ec2f60d2b496caa21628277a024e6",
        "srcKUID": "c2fa27231a6d48c5af3397f62f0f1007",
        "wType": "FlexContainer"
      }
    },
    "flxDestination2": {
      "__events__": {},
      "__info__": {
        "kuid": "cb507107d8a04c01925bcfbed58abce6",
        "srcKUID": "e3480c8540aa4117bb45f0bb9a0f1faf",
        "wType": "FlexContainer"
      }
    },
    "flxDestination3": {
      "__events__": {},
      "__info__": {
        "kuid": "fd2ded17abf44e9a89a7b539dc676bbc",
        "srcKUID": "b63f8a18b41b4deaab6534bfb02dd51c",
        "wType": "FlexContainer"
      }
    },
    "flxDestination4": {
      "__events__": {},
      "__info__": {
        "kuid": "ab71fd4445fb462087b803dd79eed03e",
        "srcKUID": "j877d08b791a4aee94af340d20ba21cf",
        "wType": "FlexContainer"
      }
    },
    "flxDestination5": {
      "__events__": {},
      "__info__": {
        "kuid": "b7fdf1616c914bb2b06ce3c1af7422ef",
        "srcKUID": "hbfb70273c5e412792d2a2af85fe6d08",
        "wType": "FlexContainer"
      }
    },
    "flxHorizontalLine": {
      "__events__": {},
      "__info__": {
        "kuid": "j6298bdb279d4a51acf16e20d499d0d6",
        "srcKUID": "h52fa16bb4b24adea27c97a16ecd19c5",
        "wType": "FlexContainer"
      }
    },
    "flxMain": {
      "__events__": {},
      "__info__": {
        "kuid": "b7f5986122854cbdb9a6b6189c74af66",
        "srcKUID": "de1631be4c9e442c9c47378e21354ddb",
        "wType": "FlexContainer"
      }
    },
    "flxSelectCards": {
      "__events__": {},
      "__info__": {
        "kuid": "gfa0fe9934384e71bb59d79f88cd0158",
        "srcKUID": "b99ce31f01524f64a08cb6fca63d78dc",
        "wType": "FlexContainer"
      },
      "isVisible": false,
      "left": {
        "Default": {
          "type": "string",
          "value": "4.70%"
        }
      },
      "top": {
        "Default": {
          "type": "string",
          "value": "20px"
        }
      }
    },
    "flxscrollBody": {
      "__events__": {},
      "__info__": {
        "kuid": "b592b114679d406cb0d47eb9b12b575e",
        "srcKUID": "ab5219e59d474216b3114cfeee6e15fb",
        "wType": "FlexScrollContainer"
      },
      "height": {
        "Default": {
          "type": "string",
          "value": "310dp"
        }
      }
    },
    "keyValueAvailableCredit": {
      "__events__": {},
      "__info__": {
        "kuid": "a7fab38f09a343ed983f91959b194d97",
        "srcKUID": "e6ecaaa7f6cc4303b9ae0f06ffb9157c",
        "wType": "UserWidgetInstance"
      },
      "bottom": {
        "Default": {
          "type": "string",
          "value": ""
        }
      },
      "top": {
        "Default": {
          "type": "string",
          "value": "20dp"
        }
      }
    },
    "keyValueAvailableCredit.flxContainer": {
      "__events__": {},
      "__info__": {
        "kuid": "d09b19dfe6d94867995171b0f858b4c0",
        "srcKUID": "j544fccd81704d1f86f84030dcbb7f71",
        "wType": "FlexContainer"
      },
      "left": {
        "Default": {
          "type": "string",
          "value": "2.50%"
        }
      }
    },
    "keyValueAvailableCredit.flxInfo": {
      "__events__": {},
      "__info__": {
        "kuid": "e4e7b525839a41d5b289da5394621c32",
        "srcKUID": "bc17b7ca1cac4c79acc6674bece1e363",
        "wType": "FlexContainer"
      }
    },
    "keyValueAvailableCredit.flxKey": {
      "__events__": {},
      "__info__": {
        "kuid": "g73515e0da6e46f2b7c63fc238723461",
        "srcKUID": "b7cd8ac6223f4b7aa170fc60ddf39d78",
        "wType": "FlexContainer"
      },
      "width": {
        "Default": {
          "type": "string",
          "value": "30%"
        }
      }
    },
    "keyValueAvailableCredit.flxValue": {
      "__events__": {},
      "__info__": {
        "kuid": "d3a6c06984404b0ea29bc7fd91606067",
        "srcKUID": "ce2bf2f0a0f44365bd5fc71fb6eb469b",
        "wType": "FlexContainer"
      },
      "left": {
        "Default": {
          "type": "string",
          "value": "37.22%"
        }
      }
    },
    "keyValueAvailableCredit.imgWhatIsSSN": {
      "__events__": {},
      "__info__": {
        "kuid": "e5a92281627d46d59d3abdfebffeb370",
        "srcKUID": "g207d4a4b3fb4bb1ab14d701f21ce5e3",
        "wType": "Image"
      }
    },
    "keyValueAvailableCredit.lblColon": {
      "__events__": {},
      "__info__": {
        "kuid": "i7aad6da047e49229064134529bd7f36",
        "srcKUID": "jd77d3848dd54958b98592a2c35092d0",
        "wType": "Label"
      },
      "isVisible": false
    },
    "keyValueAvailableCredit.lblKey": {
      "__events__": {},
      "__info__": {
        "kuid": "a908d02660cf49ab8349c557c228b32b",
        "srcKUID": "j32f5df278e34deba18e43e8086fc286",
        "wType": "Label"
      },
      "i18n_text": "i18n.accountDetail.availableCredit"
    },
    "keyValueAvailableCredit.lblValue": {
      "__events__": {},
      "__info__": {
        "kuid": "j6f5a3319adf4df899d4cf8ad42b5e13",
        "srcKUID": "ec23c0e7d4f04e82b1943647c2c0b7f6",
        "wType": "Label"
      },
      "text": "$50,000"
    },
    "keyValueCardHolder": {
      "__events__": {},
      "__info__": {
        "kuid": "ifb6a0fd002e4db2b060443f792d9282",
        "srcKUID": "c459886158a64b1cbd80f270c4030757",
        "wType": "UserWidgetInstance"
      }
    },
    "keyValueCardHolder.flxContainer": {
      "__events__": {},
      "__info__": {
        "kuid": "b58a9cd1c0a04687b8b18e6061f03a40",
        "srcKUID": "a554234178ce473fa97a507336044869",
        "wType": "FlexContainer"
      },
      "left": {
        "Default": {
          "type": "string",
          "value": "2.50%"
        }
      }
    },
    "keyValueCardHolder.flxInfo": {
      "__events__": {},
      "__info__": {
        "kuid": "aec1d2b19e654f4fa784394be4ddd1d3",
        "srcKUID": "gbda800d3d244401bb019fdc3513a903",
        "wType": "FlexContainer"
      }
    },
    "keyValueCardHolder.flxKey": {
      "__events__": {},
      "__info__": {
        "kuid": "b35512c83c114397becd7e40def5c595",
        "srcKUID": "d93e6455e20149fa8d9cd00b169d9588",
        "wType": "FlexContainer"
      },
      "width": {
        "Default": {
          "type": "string",
          "value": "30%"
        }
      }
    },
    "keyValueCardHolder.flxValue": {
      "__events__": {},
      "__info__": {
        "kuid": "cf2083cf699345db985d3bd0235a5847",
        "srcKUID": "e02cf593a69b4720aee846e8d45984ab",
        "wType": "FlexContainer"
      },
      "left": {
        "Default": {
          "type": "string",
          "value": "37.22%"
        }
      }
    },
    "keyValueCardHolder.imgWhatIsSSN": {
      "__events__": {},
      "__info__": {
        "kuid": "hfbc698a573941bcb6786d4012943d42",
        "srcKUID": "f1f4eff20a1449a1a66e08c4bf94ad08",
        "wType": "Image"
      }
    },
    "keyValueCardHolder.lblColon": {
      "__events__": {},
      "__info__": {
        "kuid": "da2b3220a7e34bfca9070347bba51b84",
        "srcKUID": "g89448f1d14f4352872a94648d6627e5",
        "wType": "Label"
      },
      "isVisible": false
    },
    "keyValueCardHolder.lblKey": {
      "__events__": {},
      "__info__": {
        "kuid": "d3391235915c4254832fd4551984fc35",
        "srcKUID": "a81e4e2fd4204b02bad34ea740b1c736",
        "wType": "Label"
      },
      "i18n_text": "i18n.CardManagement.CardHolder"
    },
    "keyValueCardHolder.lblValue": {
      "__events__": {},
      "__info__": {
        "kuid": "ec6329a89c08455f815268af7490af8f",
        "srcKUID": "f921bea0b13e44c78921949545344353",
        "wType": "Label"
      },
      "text": "John Bailey"
    },
    "keyValueCardName": {
      "__events__": {},
      "__info__": {
        "kuid": "a65416483fe74504ae0ae8c9e0af7a26",
        "srcKUID": "f3ee46db7856422392249b766c1c10ce",
        "wType": "UserWidgetInstance"
      },
      "top": {
        "Default": {
          "type": "string",
          "value": "20dp"
        }
      }
    },
    "keyValueCardName.flxContainer": {
      "__events__": {},
      "__info__": {
        "kuid": "fb11bbfbc7f742eabb0dabb365f90afe",
        "srcKUID": "h415fc3ef4934f92b446061b217aaae9",
        "wType": "FlexContainer"
      },
      "left": {
        "Default": {
          "type": "string",
          "value": "2.50%"
        }
      }
    },
    "keyValueCardName.flxInfo": {
      "__events__": {},
      "__info__": {
        "kuid": "bb81daf7b70e424c9ff3b1c5964c9a52",
        "srcKUID": "a600e5a256ce4110bb5acf8026c39dad",
        "wType": "FlexContainer"
      }
    },
    "keyValueCardName.flxKey": {
      "__events__": {},
      "__info__": {
        "kuid": "b8960fe3a9cd462aba2c42c03922fb56",
        "srcKUID": "f1a5826886104a49989e2a9affa62371",
        "wType": "FlexContainer"
      },
      "width": {
        "Default": {
          "type": "string",
          "value": "30%"
        }
      }
    },
    "keyValueCardName.flxValue": {
      "__events__": {},
      "__info__": {
        "kuid": "a5ad8a1c0d604a478eb7b9e291ddd935",
        "srcKUID": "a1610fc3af064bc5a67147bd92d6b5e1",
        "wType": "FlexContainer"
      },
      "left": {
        "Default": {
          "type": "string",
          "value": "37.22%"
        }
      }
    },
    "keyValueCardName.imgWhatIsSSN": {
      "__events__": {},
      "__info__": {
        "kuid": "f4190de56a874fd89318359c1d49417f",
        "srcKUID": "b9673decd24b4f01860bd380952489b3",
        "wType": "Image"
      }
    },
    "keyValueCardName.lblColon": {
      "__events__": {},
      "__info__": {
        "kuid": "f5ddaf2ed1b248a28edba8c8905b1526",
        "srcKUID": "a9a7c0afcb5e459497e31dee0dc3c642",
        "wType": "Label"
      },
      "isVisible": false
    },
    "keyValueCardName.lblKey": {
      "__events__": {},
      "__info__": {
        "kuid": "cff3aa9059f34229b2aeb8ea079e62fd",
        "srcKUID": "daa5108bd60942a9876bd193ed2f61f6",
        "wType": "Label"
      },
      "i18n_text": "i18n.CardManagement.CardNumber"
    },
    "keyValueCardName.lblValue": {
      "__events__": {},
      "__info__": {
        "kuid": "jdbe718668ed4f9dbe28ff3b943faa39",
        "srcKUID": "eb8ee217035e4af4933095ab1bb955b8",
        "wType": "Label"
      },
      "text": "XXXX XXXX XXXX 5404"
    },
    "keyValueCreditLimit": {
      "__events__": {},
      "__info__": {
        "kuid": "eda8ca4ccc7846c2ba8e6a3c88a381e4",
        "srcKUID": "ba2a42683f81400aa78d54f3e8e9d88b",
        "wType": "UserWidgetInstance"
      },
      "top": {
        "Default": {
          "type": "string",
          "value": "20dp"
        }
      }
    },
    "keyValueCreditLimit.flxContainer": {
      "__events__": {},
      "__info__": {
        "kuid": "bb722217cb2f4933a6cfee87b84be507",
        "srcKUID": "b1251d83a1e9416fae9c293bb71584b4",
        "wType": "FlexContainer"
      },
      "left": {
        "Default": {
          "type": "string",
          "value": "2.50%"
        }
      }
    },
    "keyValueCreditLimit.flxInfo": {
      "__events__": {},
      "__info__": {
        "kuid": "e8896d82bec84df8adae391360e639d3",
        "srcKUID": "jeeffaee9b644f1481de4764142cf01f",
        "wType": "FlexContainer"
      }
    },
    "keyValueCreditLimit.flxKey": {
      "__events__": {},
      "__info__": {
        "kuid": "d05b78030587438dad0a3e9f9b315c9c",
        "srcKUID": "d03977901bb04b2eb40772cb684d32b9",
        "wType": "FlexContainer"
      },
      "width": {
        "Default": {
          "type": "string",
          "value": "30%"
        }
      }
    },
    "keyValueCreditLimit.flxValue": {
      "__events__": {},
      "__info__": {
        "kuid": "da4245614cc540f6afc7b2f38ee01987",
        "srcKUID": "fd0c03dd399d48fe9982532e65605447",
        "wType": "FlexContainer"
      },
      "left": {
        "Default": {
          "type": "string",
          "value": "37.22%"
        }
      }
    },
    "keyValueCreditLimit.imgWhatIsSSN": {
      "__events__": {},
      "__info__": {
        "kuid": "d4a05754f9924723acee97a0466e4ae5",
        "srcKUID": "d8049572b45f43bcb135ee64ef5ca19c",
        "wType": "Image"
      }
    },
    "keyValueCreditLimit.lblColon": {
      "__events__": {},
      "__info__": {
        "kuid": "b97839e2fe9140cea55c8cdaf6b59f6c",
        "srcKUID": "g662ab7b02a14b709becb28ffbd4f205",
        "wType": "Label"
      },
      "isVisible": false
    },
    "keyValueCreditLimit.lblKey": {
      "__events__": {},
      "__info__": {
        "kuid": "ha1ed1a2aa0e4e0f81b4a8767573eee1",
        "srcKUID": "b7947522e3cf47a290e1e010b562bf46",
        "wType": "Label"
      },
      "i18n_text": "i18n.accountDetail.creditLimit"
    },
    "keyValueCreditLimit.lblValue": {
      "__events__": {},
      "__info__": {
        "kuid": "h30d2b7d0e00444687ec47432016f9c5",
        "srcKUID": "cd276b25e92e4e1481a3a30810f25be8",
        "wType": "Label"
      },
      "text": "$25,000"
    },
    "keyValueServiceProvider": {
      "__events__": {},
      "__info__": {
        "kuid": "ad134e9622e2449e996b4f1b7e95f31d",
        "srcKUID": "ge41e3353b5c47a9844ba6e6e58ea41b",
        "wType": "UserWidgetInstance"
      },
      "isVisible": true,
      "top": {
        "Default": {
          "type": "string",
          "value": "20dp"
        }
      }
    },
    "keyValueServiceProvider.flxContainer": {
      "__events__": {},
      "__info__": {
        "kuid": "h11898d54f514f5380bfddd7ca5c19aa",
        "srcKUID": "b57ff218de0c49e28c01a058cf9f41fd",
        "wType": "FlexContainer"
      },
      "left": {
        "Default": {
          "type": "string",
          "value": "2.50%"
        }
      }
    },
    "keyValueServiceProvider.flxInfo": {
      "__events__": {},
      "__info__": {
        "kuid": "da90df142f974e4cb016742628104ce2",
        "srcKUID": "ca095a2e772649b9bc6d5802103c779f",
        "wType": "FlexContainer"
      }
    },
    "keyValueServiceProvider.flxKey": {
      "__events__": {},
      "__info__": {
        "kuid": "ebb2d74380914ef99308602a35629ba6",
        "srcKUID": "c2d7a1409ab845b1a159a085aaa5359c",
        "wType": "FlexContainer"
      },
      "width": {
        "Default": {
          "type": "string",
          "value": "30%"
        }
      }
    },
    "keyValueServiceProvider.flxValue": {
      "__events__": {},
      "__info__": {
        "kuid": "b53d025200894ce29bcfc01da4ed213a",
        "srcKUID": "a0aed0ea6c6b4b70a2ec62dc18cff91a",
        "wType": "FlexContainer"
      },
      "left": {
        "Default": {
          "type": "string",
          "value": "37.22%"
        }
      }
    },
    "keyValueServiceProvider.imgWhatIsSSN": {
      "__events__": {},
      "__info__": {
        "kuid": "cf6f1e2ce2ca4c8bb949b07b113fa4e2",
        "srcKUID": "j68c007781a14df4a048390e5c3bbf7b",
        "wType": "Image"
      }
    },
    "keyValueServiceProvider.lblColon": {
      "__events__": {},
      "__info__": {
        "kuid": "g03881b73fbf40e18fd065fde6784152",
        "srcKUID": "fc4f292923644fc582548436eb94d5c6",
        "wType": "Label"
      },
      "isVisible": false
    },
    "keyValueServiceProvider.lblKey": {
      "__events__": {},
      "__info__": {
        "kuid": "f385fec82b40468289e09fc1abef9431",
        "srcKUID": "j333ca37bf0f4a4585cb5f0c56a88045",
        "wType": "Label"
      },
      "i18n_text": "i18n.CardManagement.ServiceProvider"
    },
    "keyValueServiceProvider.lblValue": {
      "__events__": {},
      "__info__": {
        "kuid": "a9f61039d0924c8685bc0431403624a4",
        "srcKUID": "bcfa3b10118e429cbd19b19e419df514",
        "wType": "Label"
      },
      "text": "Master Card"
    },
    "keyValueValidThrough": {
      "__events__": {},
      "__info__": {
        "kuid": "efce1c62b7934e9aa73ef3bc17062bda",
        "srcKUID": "e362e47104fd46a49463aae6d1599483",
        "wType": "UserWidgetInstance"
      },
      "isVisible": true,
      "top": {
        "Default": {
          "type": "string",
          "value": "20dp"
        }
      }
    },
    "keyValueValidThrough.flxContainer": {
      "__events__": {},
      "__info__": {
        "kuid": "ec51fb5827c347db8c701adb89f14c94",
        "srcKUID": "b0a3d0a0baf343b08de61f1ba0cf177e",
        "wType": "FlexContainer"
      },
      "left": {
        "Default": {
          "type": "string",
          "value": "2.50%"
        }
      }
    },
    "keyValueValidThrough.flxInfo": {
      "__events__": {},
      "__info__": {
        "kuid": "e6bd55c378e34787a6e7c7bd7aca49f2",
        "srcKUID": "jf0c4854c3e64a618cfc3931ca890da1",
        "wType": "FlexContainer"
      }
    },
    "keyValueValidThrough.flxKey": {
      "__events__": {},
      "__info__": {
        "kuid": "ea21ce4bcd80488cb4a4727b20214a73",
        "srcKUID": "f0a9c844c1ef4e36ab1a5be0dbd00e44",
        "wType": "FlexContainer"
      },
      "width": {
        "Default": {
          "type": "string",
          "value": "30%"
        }
      }
    },
    "keyValueValidThrough.flxValue": {
      "__events__": {},
      "__info__": {
        "kuid": "b0326ece24cf41239e1c77550ecac450",
        "srcKUID": "c57d9951daac45ab89574610656bd42f",
        "wType": "FlexContainer"
      },
      "left": {
        "Default": {
          "type": "string",
          "value": "37.22%"
        }
      }
    },
    "keyValueValidThrough.imgWhatIsSSN": {
      "__events__": {},
      "__info__": {
        "kuid": "ge85aaa2fbfa4966975895ae934e242a",
        "srcKUID": "c0210b85c7bb48819783357d4ff5b683",
        "wType": "Image"
      }
    },
    "keyValueValidThrough.lblColon": {
      "__events__": {},
      "__info__": {
        "kuid": "d94f02219ab242bab759f89f073d70a4",
        "srcKUID": "dd1e4ca4448e4de49f518b955c342251",
        "wType": "Label"
      },
      "isVisible": false
    },
    "keyValueValidThrough.lblKey": {
      "__events__": {},
      "__info__": {
        "kuid": "e1a21e48e2fe458d8cc077bddec9a5d2",
        "srcKUID": "ac6afc82121a46fe8aa1c874b696e5dd",
        "wType": "Label"
      },
      "i18n_text": "i18n.CardManagement.ValidThrough"
    },
    "keyValueValidThrough.lblValue": {
      "__events__": {},
      "__info__": {
        "kuid": "g2c6f7e29cd941e5a797b9012d3b0a81",
        "srcKUID": "ea71ae2de15c469aab1dac93b9034c63",
        "wType": "Label"
      },
      "text": "02/20"
    },
    "lblDestination1": {
      "__events__": {},
      "__info__": {
        "kuid": "f7c7be68483043f8aeec2964b82ed553",
        "srcKUID": "cfdcd01851734280907553c49c6a0adf",
        "wType": "Label"
      },
      "i18n_text": "i18n.CardManagement.SelectedDestination1"
    },
    "lblDestination2": {
      "__events__": {},
      "__info__": {
        "kuid": "fab693c2a7d248f18e8bcede80470563",
        "srcKUID": "d7779770055449519b4992d57ab947b7",
        "wType": "Label"
      },
      "i18n_text": "i18n.CardManagement.SelectedDestination2"
    },
    "lblDestination3": {
      "__events__": {},
      "__info__": {
        "kuid": "b33c8748de4e4aa0be2ac8affac6585c",
        "srcKUID": "b93604900b6541049c5a9f5a8a1e5355",
        "wType": "Label"
      },
      "i18n_text": "i18n.CardManagement.SelectedDestination3"
    },
    "lblDestination4": {
      "__events__": {},
      "__info__": {
        "kuid": "c454cd0a7d694068ab2c9e9e3ce2f0f0",
        "srcKUID": "f9d00bd685b44b1b97c080d13e3a102e",
        "wType": "Label"
      },
      "i18n_text": "i18n.CardManagement.SelectedDestination4"
    },
    "lblDestination5": {
      "__events__": {},
      "__info__": {
        "kuid": "ef27c9d21de14f2ea53ac116a7e4ad6d",
        "srcKUID": "ce29040b87e64a0faeee27443d5e66b2",
        "wType": "Label"
      },
      "i18n_text": "i18n.CardManagement.SelectedDestination5"
    },
    "lblKey6": {
      "__events__": {},
      "__info__": {
        "kuid": "a6bb3a35770e4f98b049165164311e86",
        "srcKUID": "fd04925ebec8412c920c6373254accc8",
        "wType": "Label"
      },
      "i18n_text": "i18n.CardManagement.SelectedCards"
    },
    "rtxDestination1": {
      "__events__": {},
      "__info__": {
        "kuid": "j2c608cbf69b44f8bb3f74c402d412a8",
        "srcKUID": "fe95e1906747430a9ec1ad6e9e379ad8",
        "wType": "RichText"
      },
      "left": {
        "Default": {
          "type": "string",
          "value": "35%"
        }
      }
    },
    "rtxDestination2": {
      "__events__": {},
      "__info__": {
        "kuid": "b03bf9b73c6c4bde8255a2bf525d728b",
        "srcKUID": "becbfcd1fef1427aa9ff51b409ddcb03",
        "wType": "RichText"
      },
      "left": {
        "Default": {
          "type": "string",
          "value": "35%"
        }
      }
    },
    "rtxDestination3": {
      "__events__": {},
      "__info__": {
        "kuid": "f132a6ebbada46809195501b99fbca51",
        "srcKUID": "ebcaabc8d5d14d47b381906c3cd192c2",
        "wType": "RichText"
      },
      "left": {
        "Default": {
          "type": "string",
          "value": "35%"
        }
      }
    },
    "rtxDestination4": {
      "__events__": {},
      "__info__": {
        "kuid": "c89f2ab576d4435fb1b11e5fd242eee6",
        "srcKUID": "jb9e41c170304a39b47faf667d13b774",
        "wType": "RichText"
      },
      "left": {
        "Default": {
          "type": "string",
          "value": "35%"
        }
      }
    },
    "rtxDestination5": {
      "__events__": {},
      "__info__": {
        "kuid": "f2f4b06359874bcfabe2d797cef5887f",
        "srcKUID": "i7b0b696874a452888db46abc90ed8b1",
        "wType": "RichText"
      },
      "left": {
        "Default": {
          "type": "string",
          "value": "35%"
        }
      }
    },
    "rtxValueA": {
      "__events__": {},
      "__info__": {
        "kuid": "fb63a6fc86774f40b79d27cca6d6e25f",
        "srcKUID": "bfd1f19584d5423fa6b0bb9417bd6f1d",
        "wType": "RichText"
      },
      "left": {
        "Default": {
          "type": "string",
          "value": "0dp"
        }
      }
    }
  },
  "id": "ConfirmDialog",
  "info": null,
  "isdatareferenced": false,
  "isvisible": true,
  "kuid": "j8d82b106d4f47a2bb30e7f475a460fb",
  "layouttype": 2,
  "masterType": 0,
  "name": "kony.ui.UserWidgetInstance",
  "parent": "flxCardDetails",
  "pf": "frmCardManagement",
  "snaptogrid": true,
  "sourceUserWidget": "aa75127069764f2e965f275831622aa1",
  "wType": "UserWidgetInstance"
}