{
  "@class": "com.kony.gen.viz.model.component.KVizUserWidget",
  "DNDConfig": null,
  "__parentReadjusting__": false,
  "_children_": [],
  "_height_": {
    "type": "string",
    "value": "268px"
  },
  "_left_": "0dp",
  "_margin_": [
    0,
    0,
    0,
    0
  ],
  "_orientation_": 1,
  "_padding_": [
    0,
    0,
    0,
    0
  ],
  "_percent_": true,
  "_render_": true,
  "_skin_": "s4b3bfcb27c14526bcdce6dec3972d8d",
  "_top_": {
    "type": "string",
    "value": "300dp"
  },
  "_width_": {
    "type": "string",
    "value": "44.30%"
  },
  "areflexpropsreferenced": false,
  "canUpdateUI": true,
  "centerx": {
    "type": "string",
    "value": "50.00%"
  },
  "centery": {
    "type": "string",
    "value": ""
  },
  "clipbounds": false,
  "containerweight": 0,
  "dataDiffs": {
    "CustomPopup": {
      "__events__": {},
      "__info__": {
        "isRoot": true,
        "kuid": "de88875ec9654f3dbf3b30b273d4ca8e",
        "srcKUID": "eb2d311dcb4744a7b05aa4f5428a6c53",
        "wType": "FlexContainer"
      },
      "centerX": {
        "Default": {
          "type": "string",
          "value": "50.00%"
        }
      },
      "centerY": {
        "Default": {
          "type": "string",
          "value": ""
        }
      },
      "top": {
        "Default": {
          "type": "string",
          "value": "300dp"
        }
      },
      "width": {
        "Default": {
          "type": "string",
          "value": "44.30%"
        }
      },
      "zIndex": {
        "Default": 1100
      }
    },
    "btnNo": {
      "__events__": {},
      "__info__": {
        "kuid": "fefdce318a7a4e37960c10028d3bda05",
        "srcKUID": "h61577b4448c4e22a2636221e8fe0d6d",
        "wType": "Button"
      },
      "text": "NO"
    },
    "btnYes": {
      "__events__": {},
      "__info__": {
        "kuid": "dbdd243126914189b2a1fdbf850555ba",
        "srcKUID": "e1c11d09edb846848d4aaf921cb1e5a0",
        "wType": "Button"
      },
      "text": "YES"
    },
    "flxCross": {
      "__events__": {},
      "__info__": {
        "kuid": "e5f80be166ee4508a951ddab0d0d7af6",
        "srcKUID": "e896a8d6e1244397be41e1011101c6ec",
        "wType": "FlexContainer"
      }
    },
    "flxHeader": {
      "__events__": {},
      "__info__": {
        "kuid": "bfe3e757bf9d482290464d522d73ebde",
        "srcKUID": "b6d465d7232a428eba11c466c6843856",
        "wType": "FlexContainer"
      }
    },
    "flxSeperator": {
      "__events__": {},
      "__info__": {
        "kuid": "c997547f461343c5a6f992641c26c948",
        "srcKUID": "b469cc45156e429d8fa47b9786168d10",
        "wType": "FlexContainer"
      }
    },
    "flxSeperator2": {
      "__events__": {},
      "__info__": {
        "kuid": "a9da2a1fa89f46c19f8879efcebf002c",
        "srcKUID": "e909e4e4b4a145b1aa92b22ece7050d3",
        "wType": "FlexContainer"
      }
    },
    "imgCross": {
      "__events__": {},
      "__info__": {
        "kuid": "e9369e0225a1427fa605895af5096c5a",
        "srcKUID": "ja13bba308404016b1cd223dbcdf01ae",
        "wType": "Image"
      },
      "height": {
        "Default": {
          "type": "string",
          "value": "15dp"
        }
      }
    },
    "lblHeading": {
      "__events__": {},
      "__info__": {
        "kuid": "a2af073c76554b64ac6de1727fb812dd",
        "srcKUID": "f97c1408984847af9f3cd9984a260c74",
        "wType": "Label"
      }
    },
    "lblPopupMessage": {
      "__events__": {},
      "__info__": {
        "kuid": "f8191d7fb9d24513801d243278e28542",
        "srcKUID": "f7c7509dccf24b88aeb13dc3d34fcc6b",
        "wType": "Label"
      }
    }
  },
  "id": "CustomPopupLogout",
  "info": null,
  "isdatareferenced": false,
  "isvisible": true,
  "kuid": "da1400df6e5647ab96e9b01001b288f8",
  "layouttype": 2,
  "masterType": 0,
  "name": "kony.ui.UserWidgetInstance",
  "parent": "flxLogout",
  "pf": "frmCardManagement",
  "snaptogrid": true,
  "sourceUserWidget": "eb2d311dcb4744a7b05aa4f5428a6c53",
  "wType": "UserWidgetInstance",
  "zindex": 1100
}