{
  "DNDConfig": null,
  "__parentReadjusting__": false,
  "_height_": {
    "type": "string",
    "value": "370dp"
  },
  "_left_": {
    "type": "string",
    "value": "6.08%"
  },
  "_margin_": [
    0,
    0,
    0,
    0
  ],
  "_orientation_": 6,
  "_padding_": [
    0,
    0,
    0,
    0
  ],
  "_percent_": true,
  "_skin_": "s4b3bfcb27c14526bcdce6dec3972d8d",
  "_top_": {
    "type": "string",
    "value": "63dp"
  },
  "_width_": {
    "type": "string",
    "value": "43.27%"
  },
  "allboxes": [],
  "autogrowmode": 0,
  "canUpdateUI": true,
  "children": [
    "Acknowledgement"
  ],
  "clipbounds": true,
  "containerweight": 100,
  "enablescrolling": true,
  "id": "flxAcknowledgementMain",
  "info": null,
  "isvisible": true,
  "kuid": "af752ec18f024795928d5aa2e90073be",
  "layouttype": 2,
  "name": "kony.ui.FlexContainer",
  "parent": "flxAcknowledgment",
  "pf": "frmCardManagement",
  "snapgridsize": 10,
  "snaptogrid": true,
  "wType": "FlexContainer",
  "widgetalignment": 1,
  "zindex": 1
}