{
  "DNDConfig": null,
  "__parentReadjusting__": false,
  "_height_": {
    "type": "ref",
    "value": "preferred"
  },
  "_left_": {
    "type": "string",
    "value": "0dp"
  },
  "_margin_": [
    0,
    0,
    0,
    0
  ],
  "_orientation_": 6,
  "_padding_": [
    0,
    0,
    0,
    0
  ],
  "_percent_": true,
  "_skin_": "s24c92fc23b14f5484b693ee9b8a9b35",
  "_top_": {
    "type": "string",
    "value": "60dp"
  },
  "_width_": {
    "type": "string",
    "value": "100%"
  },
  "allboxes": [],
  "autogrowmode": 1,
  "canUpdateUI": true,
  "children": [
    "lblRequestID",
    "lblRequestNo",
    "lblDates",
    "flxDates",
    "lblDestination",
    "flxDestination",
    "flxOtherDestinations",
    "lblPhoneNumber",
    "txtPhoneNumber",
    "lblAdditionalInformation",
    "txtareaUserComments",
    "flxButtons"
  ],
  "clipbounds": true,
  "containerweight": 100,
  "enablescrolling": true,
  "id": "flxBody",
  "info": null,
  "iscustomlayout": false,
  "isvisible": true,
  "kuid": "edf4616a38484a5cbaad568c6a36e15a",
  "layouttype": 4,
  "name": "kony.ui.FlexContainer",
  "parent": "flxTravelPlan",
  "pf": "frmCardManagement",
  "retaincontentalignment": false,
  "retainflexpositionproperties": false,
  "snapgridsize": 10,
  "snaptogrid": true,
  "wType": "FlexContainer",
  "widgetalignment": 1,
  "zindex": 1
}