{
  "DNDConfig": null,
  "__parentReadjusting__": false,
  "_bottom_": {
    "type": "string",
    "value": "30dp"
  },
  "_height_": {
    "type": "ref",
    "value": "preferred"
  },
  "_left_": {
    "type": "string",
    "value": "0dp"
  },
  "_margin_": [
    0,
    0,
    0,
    0
  ],
  "_orientation_": 6,
  "_padding_": [
    0,
    0,
    0,
    0
  ],
  "_percent_": true,
  "_skin_": "s701c003c4e848c3a7f35139db3e3ffe",
  "_top_": {
    "type": "string",
    "value": "30dp"
  },
  "_width_": {
    "type": "string",
    "value": "1200dp"
  },
  "allboxes": [],
  "autogrowmode": 1,
  "canUpdateUI": true,
  "centerx": {
    "type": "string",
    "value": "50%"
  },
  "children": [
    "CardLockVerificationStep"
  ],
  "clipbounds": false,
  "containerweight": 100,
  "enablescrolling": true,
  "id": "flxCardVerification",
  "info": null,
  "isvisible": true,
  "kuid": "d1e5f2ab2cea4af1bb1a2bc0eae06414",
  "layouttype": 4,
  "name": "kony.ui.FlexContainer",
  "parent": "flxMain",
  "pf": "frmCardManagement",
  "snapgridsize": 10,
  "snaptogrid": true,
  "wType": "FlexContainer",
  "widgetalignment": 1,
  "zindex": 1
}