{
  "DNDConfig": null,
  "__parentReadjusting__": false,
  "_height_": {
    "type": "string",
    "value": "110dp"
  },
  "_left_": {
    "type": "string",
    "value": "0dp"
  },
  "_margin_": [
    0,
    0,
    0,
    0
  ],
  "_orientation_": 6,
  "_padding_": [
    0,
    0,
    0,
    0
  ],
  "_percent_": true,
  "_skin_": "s1052a3ba22c44aa8a622b8ef1123e89",
  "_top_": {
    "type": "string",
    "value": "-2dp"
  },
  "_width_": {
    "type": "string",
    "value": "100%"
  },
  "allboxes": [],
  "autogrowmode": 0,
  "canUpdateUI": true,
  "children": [
    "flxSeperator",
    "btnCardsCancel",
    "btnCardsContinue"
  ],
  "clipbounds": true,
  "containerweight": 100,
  "enablescrolling": true,
  "id": "flxEligibleCardsButtons",
  "info": null,
  "isvisible": false,
  "kuid": "ea5e7420af494b03b1e19af2e0db3804",
  "layouttype": 2,
  "name": "kony.ui.FlexContainer",
  "parent": "flxMyCards",
  "pf": "frmCardManagement",
  "snapgridsize": 10,
  "snaptogrid": true,
  "wType": "FlexContainer",
  "widgetalignment": 1,
  "zindex": 1
}