{
  "@class": "com.kony.gen.viz.model.component.KVizLabel",
  "DNDConfig": null,
  "__parentReadjusting__": false,
  "_height_": {
    "type": "ref",
    "value": "preferred"
  },
  "_left_": {
    "type": "string",
    "value": "30dp"
  },
  "_margin_": [
    1,
    1,
    1,
    1
  ],
  "_padding_": [
    0,
    0,
    3,
    0
  ],
  "_skin_": "sb57ddd930ef42d5b307efc805cba3d6",
  "_text_": "Label",
  "_top_": {
    "type": "string",
    "value": "20dp"
  },
  "_width_": {
    "type": "ref",
    "value": "preferred"
  },
  "_wrapping_": 2,
  "android": {
    "textStyle": {
      "letterSpacing": 0,
      "strikeThrough": false
    }
  },
  "canUpdateUI": true,
  "containerweight": 100,
  "contentalignment": 4,
  "id": "lblFrom",
  "info": null,
  "ipad": {
    "psp": {
      "wrapping": 2
    }
  },
  "iphone": {
    "psp": {
      "wrapping": 2
    }
  },
  "isvisible": true,
  "kuid": "ce212c143e37440ab65486b4e457a364",
  "name": "kony.ui.Label",
  "paddinginpixel": false,
  "parent": "flxDates",
  "pf": "frmCardManagement",
  "texti18n": "i18n.StopCheckPayments.from",
  "tooltip": "",
  "wType": "Label",
  "zindex": 5
}