{
  "@class": "com.kony.gen.viz.model.component.KVizUserWidget",
  "DNDConfig": null,
  "__parentReadjusting__": false,
  "_children_": [],
  "_height_": {
    "type": "ref",
    "value": "preferred"
  },
  "_left_": {
    "type": "string",
    "value": "0dp"
  },
  "_margin_": [
    0,
    0,
    0,
    0
  ],
  "_orientation_": 1,
  "_padding_": [
    0,
    0,
    0,
    0
  ],
  "_percent_": true,
  "_render_": true,
  "_skin_": "s24c92fc23b14f5484b693ee9b8a9b35",
  "_top_": {
    "type": "string",
    "value": "0dp"
  },
  "_width_": {
    "type": "string",
    "value": "99.70%"
  },
  "areflexpropsreferenced": false,
  "autogrowmode": 1,
  "canUpdateUI": true,
  "clipbounds": false,
  "containerweight": 0,
  "dataDiffs": {
    "flxHeader": {
      "__events__": {},
      "__info__": {
        "kuid": "f5ec8682b84d41c9b7235b856502e661",
        "srcKUID": "a38171102e684156a1c642904f7a6f46",
        "wType": "FlexContainer"
      },
      "autogrowMode": 0,
      "height": {
        "Default": {
          "type": "string",
          "value": "59dp"
        }
      }
    },
    "flxSeperator": {
      "__events__": {},
      "__info__": {
        "kuid": "a23eda39e5e1418db66cfb1c5c0fdab7",
        "srcKUID": "b6c057a70c2e4d6ea9d8b1ff75406e50",
        "wType": "FlexContainer"
      }
    },
    "lblHeading": {
      "__events__": {},
      "__info__": {
        "kuid": "g9de2791e5984a8d910fac6dde31b9d6",
        "srcKUID": "j34f51dc200c45c78c870cf4eacf84b3",
        "wType": "Label"
      },
      "centerY": {
        "Default": {
          "type": "string",
          "value": "50%"
        }
      },
      "i18n_text": "i18n.CardManagement.MyRecentCardPayments",
      "left": {
        "Default": {
          "type": "string",
          "value": "7.69%"
        }
      },
      "top": {
        "Default": {
          "type": "string",
          "value": ""
        }
      }
    },
    "mypaymentAccounts": {
      "__events__": {},
      "__info__": {
        "isRoot": true,
        "kuid": "b1d5cd89e8b645b8999646e2e20774e5",
        "srcKUID": "f590376847d24d9f974f37ec805520ec",
        "wType": "FlexContainer"
      },
      "autogrowMode": 1,
      "height": {
        "Default": {
          "type": "ref",
          "value": "preferred"
        }
      },
      "maxHeight": {
        "Default": {
          "type": "number",
          "value": "336"
        }
      },
      "width": {
        "Default": {
          "type": "string",
          "value": "99.70%"
        }
      }
    },
    "segMypaymentAccounts": {
      "__events__": {},
      "__info__": {
        "kuid": "cff0202fb85e495f91d0e9b6c3e2ac33",
        "srcKUID": "d4d179c63565434e86e99d1446b5c0e6",
        "wType": "Segment"
      },
      "autogrowMode": 1,
      "data": {
        "desktop": [
          {
            "lblAccountName": {
              "@class": "com.viz.ide.model.segment.SimpleTextSegmentData",
              "text": ""
            },
            "lblAvailableBalance": {
              "@class": "com.viz.ide.model.segment.SimpleTextSegmentData",
              "text": ""
            },
            "lblBalance": {
              "@class": "com.viz.ide.model.segment.SimpleTextSegmentData",
              "text": ""
            },
            "lblHiddenAccountNumber": {
              "@class": "com.viz.ide.model.segment.SimpleTextSegmentData",
              "text": ""
            },
            "lblLeft": {
              "@class": "com.viz.ide.model.segment.SimpleTextSegmentData",
              "text": ""
            }
          },
          {
            "lblAccountName": {
              "@class": "com.viz.ide.model.segment.SimpleTextSegmentData",
              "text": ""
            },
            "lblAvailableBalance": {
              "@class": "com.viz.ide.model.segment.SimpleTextSegmentData",
              "text": ""
            },
            "lblBalance": {
              "@class": "com.viz.ide.model.segment.SimpleTextSegmentData",
              "text": ""
            },
            "lblHiddenAccountNumber": {
              "@class": "com.viz.ide.model.segment.SimpleTextSegmentData",
              "text": ""
            },
            "lblLeft": {
              "@class": "com.viz.ide.model.segment.SimpleTextSegmentData",
              "text": ""
            }
          },
          {
            "lblAccountName": {
              "@class": "com.viz.ide.model.segment.SimpleTextSegmentData",
              "text": ""
            },
            "lblAvailableBalance": {
              "@class": "com.viz.ide.model.segment.SimpleTextSegmentData",
              "text": ""
            },
            "lblBalance": {
              "@class": "com.viz.ide.model.segment.SimpleTextSegmentData",
              "text": ""
            },
            "lblHiddenAccountNumber": {
              "@class": "com.viz.ide.model.segment.SimpleTextSegmentData",
              "text": ""
            },
            "lblLeft": {
              "@class": "com.viz.ide.model.segment.SimpleTextSegmentData",
              "text": ""
            }
          },
          {
            "lblAccountName": {
              "@class": "com.viz.ide.model.segment.SimpleTextSegmentData",
              "text": ""
            },
            "lblAvailableBalance": {
              "@class": "com.viz.ide.model.segment.SimpleTextSegmentData",
              "text": ""
            },
            "lblBalance": {
              "@class": "com.viz.ide.model.segment.SimpleTextSegmentData",
              "text": ""
            },
            "lblHiddenAccountNumber": {
              "@class": "com.viz.ide.model.segment.SimpleTextSegmentData",
              "text": ""
            },
            "lblLeft": {
              "@class": "com.viz.ide.model.segment.SimpleTextSegmentData",
              "text": ""
            }
          }
        ]
      },
      "height": {
        "Default": {
          "type": "ref",
          "value": "preferred"
        }
      },
      "maxHeight": {
        "Default": {
          "type": "number",
          "value": "275"
        }
      },
      "top": {
        "Default": {
          "type": "string",
          "value": "60dp"
        }
      }
    }
  },
  "id": "mypaymentAccounts",
  "info": null,
  "isdatareferenced": false,
  "isvisible": true,
  "kuid": "ea49c91da82241c19b0d2567577a1eb2",
  "layouttype": 2,
  "masterType": 0,
  "maxheight": {
    "type": "number",
    "value": "336"
  },
  "name": "kony.ui.UserWidgetInstance",
  "parent": "flxMyPaymentsAccount",
  "pf": "frmCardManagement",
  "snaptogrid": true,
  "sourceUserWidget": "f590376847d24d9f974f37ec805520ec",
  "wType": "UserWidgetInstance"
}