{
  "@class": "com.kony.gen.viz.model.component.KVizRichText",
  "DNDConfig": null,
  "__parentReadjusting__": false,
  "_height_": {
    "type": "ref",
    "value": "preferred"
  },
  "_left_": {
    "type": "string",
    "value": "0dp"
  },
  "_margin_": [
    0,
    0,
    0,
    0
  ],
  "_padding_": [
    0,
    0,
    0,
    0
  ],
  "_right_": {
    "type": "number",
    "value": "0"
  },
  "_skin_": "sc4cc30bc71442ee9f8b2e9230a973fa",
  "_text_": "Gold Debit Card  -  XXXX XXXX XXXX 1234\n\n",
  "_top_": {
    "type": "string",
    "value": "0dp"
  },
  "_wrapping_": 2,
  "canUpdateUI": true,
  "containerweight": 100,
  "contentalignment": 1,
  "id": "rtxValueA",
  "info": null,
  "isvisible": true,
  "kuid": "i28fbdf8430d46f2a81e411540716d53",
  "name": "kony.ui.RichText",
  "parent": "flxCards",
  "pf": "frmCardManagement",
  "wType": "RichText",
  "watchos": {
    "render": false
  },
  "widgetalignment": 5,
  "windows10": {
    "render": false
  },
  "winphone10": {
    "render": false
  },
  "zindex": 1
}