{
  "@class": "com.kony.gen.viz.model.component.KVizTextArea2",
  "DNDConfig": null,
  "__parentReadjusting__": false,
  "_height_": {
    "type": "string",
    "value": "150dp"
  },
  "_left_": {
    "type": "string",
    "value": "30dp"
  },
  "_margin_": [
    2,
    2,
    2,
    2
  ],
  "_padding_": [
    2,
    2,
    2,
    2
  ],
  "_placeholder_": "Optional",
  "_skin_": "s3dc18584a1c45bda7095ad0314ebfd5",
  "_text_": "",
  "_top_": {
    "type": "string",
    "value": "10dp"
  },
  "_width_": {
    "type": "string",
    "value": "92%"
  },
  "autocapitalize": "none",
  "autocomplete": false,
  "autocorrect": false,
  "autofilter": false,
  "canUpdateUI": true,
  "closebuttontext": "",
  "containerheight": "",
  "containerheightmode": 1,
  "containerweight": 100,
  "contentalignment": 1,
  "id": "txtareaUserComments",
  "info": null,
  "isvisible": true,
  "keyboardstyle": "A",
  "keyboardtype": "A",
  "kuid": "f65532a7501e43c49f8095f8e80eef77",
  "maxtextlength": 1000,
  "mode": "A",
  "name": "kony.ui.TextArea2",
  "numberofvisiblelines": 3,
  "paddinginpixel": false,
  "parent": "flxBody",
  "pf": "frmCardManagement",
  "placeholderi18n": "i18n.CardManagement.AdditionalInformationOptionalText",
  "securetextentry": false,
  "showoprogressindicator": false,
  "showprogressindicator": false,
  "textinputmode": "A",
  "tooltip": "",
  "viewtype": "default",
  "wType": "TextArea",
  "zindex": 5
}