{
  "@class": "com.kony.gen.viz.model.component.KVizImage2",
  "DNDConfig": null,
  "__markedForDelete__": true,
  "__parentReadjusting__": false,
  "_base64_": null,
  "_height_": {
    "type": "string",
    "value": "20dp"
  },
  "_margin_": [
    0,
    0,
    0,
    0
  ],
  "_padding_": [
    0,
    0,
    0,
    0
  ],
  "_right_": {
    "type": "string",
    "value": "16px"
  },
  "_skin_": "s78a5f26c9f14cec9ebed1bb46098f80",
  "_src_": "success_green.png",
  "_width_": {
    "type": "string",
    "value": "6.07%"
  },
  "canUpdateUI": true,
  "centery": {
    "type": "string",
    "value": "50%"
  },
  "containerweight": 100,
  "context": {
    "channel": "desktop",
    "formID": "uw9fa226d9679c43a18199f18fbc5ee02d",
    "platform": "desktopweb",
    "templateType": "userwidgets",
    "topLevelBox": null
  },
  "id": "imgCorrectUserName",
  "imagescalemode": 1,
  "info": null,
  "invokedProperty": "src",
  "isvisible": false,
  "kuid": "a030095cfc894e2995826984a4eedf68",
  "name": "kony.ui.Image2",
  "parent": "flxNewUserName",
  "pf": "userwidgetmodel",
  "srcType": 1,
  "wType": "Image",
  "widgetalignment": 5,
  "zindex": 20
}