{
  "DNDConfig": null,
  "__parentReadjusting__": false,
  "_height_": {
    "type": "string",
    "value": "100%"
  },
  "_left_": {
    "type": "string",
    "value": "0dp"
  },
  "_margin_": [
    0,
    0,
    0,
    0
  ],
  "_orientation_": 6,
  "_padding_": [
    0,
    0,
    0,
    0
  ],
  "_percent_": true,
  "_skin_": "s680c9bafb594fe4bfa388d84acc43b2",
  "_top_": {
    "type": "string",
    "value": "0dp"
  },
  "_width_": {
    "type": "string",
    "value": "6.84%"
  },
  "allboxes": [],
  "autogrowmode": 0,
  "canUpdateUI": true,
  "children": [
    "imgRowSelected"
  ],
  "clipbounds": true,
  "containerId": true,
  "containerweight": 100,
  "desktopweb": {
    "psp": {
      "hoverSkin": "s2bcfa36d2154f6d9205c4c2d946e640"
    }
  },
  "enablescrolling": true,
  "id": "flxDropdown",
  "ide_onClick": "AS_FlexContainer_g8156f1d74524702aaa4be59a294cfe3",
  "info": null,
  "isvisible": true,
  "kuid": "i4750808639b432cb30719f9183da679",
  "layouttype": 2,
  "name": "kony.ui.FlexContainer",
  "parent": "flxRow",
  "pf": "segSentSelected",
  "snapgridsize": 10,
  "snaptogrid": true,
  "wType": "FlexContainer",
  "widgetalignment": 1,
  "zindex": 1
}