{
  "DNDConfig": null,
  "_height_": {
    "type": "string",
    "value": "220px"
  },
  "_margin_": [
    0,
    0,
    0,
    0
  ],
  "_orientation_": 6,
  "_padding_": [
    0,
    0,
    0,
    0
  ],
  "_percent_": true,
  "_skin_": "s24c92fc23b14f5484b693ee9b8a9b35",
  "allboxes": [],
  "autogrowmode": 0,
  "canUpdateUI": true,
  "children": [
    "flxIdentifier",
    "flxSelectedRowWrapper",
    "flxBottomSeperator"
  ],
  "clipbounds": true,
  "containerId": true,
  "containerweight": 100,
  "controllerInfo": {
    "default": {
      "channel": "desktop",
      "name": "flxSentSelectedController"
    }
  },
  "enablescrolling": true,
  "id": "flxSentSelected",
  "info": null,
  "isvisible": true,
  "kuid": "f0c67baf237d4f26b1b73bb067bdaf11",
  "layouttype": 3,
  "name": "kony.ui.FlexContainer",
  "parent": "segSentSelected",
  "pf": "segSentSelected",
  "snapgridsize": 10,
  "snaptogrid": true,
  "wType": "FlexContainer",
  "widgetalignment": 1
}