{
  "DNDConfig": null,
  "__parentReadjusting__": false,
  "_height_": {
    "type": "string",
    "value": "25dp"
  },
  "_left_": {
    "type": "string",
    "value": "385dp"
  },
  "_margin_": [
    0,
    0,
    0,
    0
  ],
  "_orientation_": 6,
  "_padding_": [
    0,
    0,
    0,
    0
  ],
  "_percent_": true,
  "_right_": {
    "type": "string",
    "value": "5px"
  },
  "_skin_": "s24c92fc23b14f5484b693ee9b8a9b35",
  "_top_": {
    "type": "string",
    "value": "0dp"
  },
  "allboxes": [],
  "autogrowmode": 0,
  "canUpdateUI": true,
  "children": [
    "flxChannel1",
    "lblChannel1",
    "flxChannel2",
    "lblChannel2",
    "flxChannel3",
    "lblChannel3"
  ],
  "clipbounds": true,
  "containerId": true,
  "containerweight": 100,
  "enablescrolling": true,
  "id": "flxAlertsCheckBoxChannels",
  "info": null,
  "isvisible": true,
  "kuid": "d7c910434b384deba0cf735ae78ef6fa",
  "layouttype": 3,
  "name": "kony.ui.FlexContainer",
  "parent": "flxRow2",
  "pf": "segAlerts",
  "snapgridsize": 10,
  "snaptogrid": true,
  "wType": "FlexContainer",
  "widgetalignment": 1,
  "zindex": 1
}