{
  "@class": "com.kony.gen.viz.model.component.KVizLabel",
  "DNDConfig": null,
  "__parentReadjusting__": false,
  "_height_": {
    "type": "string",
    "value": "1px"
  },
  "_left_": {
    "type": "string",
    "value": "20dp"
  },
  "_margin_": [
    1,
    1,
    1,
    1
  ],
  "_padding_": [
    0,
    0,
    0,
    0
  ],
  "_right_": {
    "type": "string",
    "value": "20px"
  },
  "_skin_": "sbdeeab4f7084696b39041ac38df96c2",
  "_text_": "\u0027",
  "_top_": {
    "type": "string",
    "value": "0dp"
  },
  "_wrapping_": 2,
  "android": {
    "textStyle": {
      "letterSpacing": 0,
      "strikeThrough": false
    }
  },
  "canUpdateUI": true,
  "containerId": true,
  "containerweight": 100,
  "contentalignment": 4,
  "id": "lblSeperator",
  "info": null,
  "ipad": {
    "psp": {
      "wrapping": 2
    }
  },
  "iphone": {
    "psp": {
      "wrapping": 2
    }
  },
  "isvisible": true,
  "kuid": "b765b5cdca894515a6de8c3595702ff6",
  "name": "kony.ui.Label",
  "parent": "flxSeperator",
  "pf": "segAlerts",
  "tooltip": "",
  "wType": "Label",
  "zindex": 1
}