{
  "DNDConfig": null,
  "__markedForDelete__": true,
  "__parentReadjusting__": false,
  "_height_": {
    "type": "string",
    "value": "7.04%"
  },
  "_left_": {
    "type": "string",
    "value": "0"
  },
  "_margin_": [
    0,
    0,
    0,
    0
  ],
  "_orientation_": 6,
  "_padding_": [
    0,
    0,
    0,
    0
  ],
  "_percent_": true,
  "_skin_": "s2f1930e68bc4b258cfe821e7f0122cd",
  "_top_": {
    "type": "string",
    "value": "10%"
  },
  "_width_": {
    "type": "string",
    "value": "85%"
  },
  "allboxes": [],
  "autogrowmode": 0,
  "canUpdateUI": true,
  "centerx": {
    "type": "string",
    "value": "50%"
  },
  "children": [
    "imgUserName",
    "tbxUserName",
    "flxUserDropdown"
  ],
  "clipbounds": false,
  "containerweight": 100,
  "enablescrolling": true,
  "focusskin": "s3308b031b8e4da8a5965b769840b865",
  "id": "flxUserName",
  "info": null,
  "isvisible": true,
  "kuid": "j7bfc07060fd411e9dc231515dc11d50",
  "layouttype": 2,
  "name": "kony.ui.FlexContainer",
  "parent": "flxContainer",
  "pf": "userwidgetmodel",
  "snapgridsize": 10,
  "snaptogrid": true,
  "wType": "FlexContainer",
  "widgetalignment": 1,
  "zindex": 50
}