{
  "@class": "com.kony.gen.viz.model.component.KVizTextBox2",
  "DNDConfig": null,
  "__markedForDelete__": true,
  "__parentReadjusting__": false,
  "_height_": {
    "type": "string",
    "value": "84%"
  },
  "_left_": {
    "type": "string",
    "value": "10.90%"
  },
  "_margin_": [
    0,
    0,
    0,
    0
  ],
  "_padding_": [
    0,
    0,
    0,
    0
  ],
  "_placeholder_": "",
  "_right_": {
    "type": "string",
    "value": "15%"
  },
  "_skin_": "s3122d3c61c54427b7fb82c81b9d58b1",
  "_text_": "",
  "autocapitalize": "none",
  "autocomplete": false,
  "autocorrect": false,
  "autofilter": false,
  "canUpdateUI": true,
  "centery": {
    "type": "string",
    "value": "50%"
  },
  "containerheight": "",
  "containerheightmode": 1,
  "containerweight": 100,
  "contentalignment": 4,
  "focusskin": "s3122d3c61c54427b7fb82c81b9d58b1",
  "id": "tbxUserName",
  "info": null,
  "isvisible": true,
  "keyboardtype": "A",
  "kiosk": {
    "psp": {
      "toolTip": ""
    }
  },
  "kuid": "bf45340a06e94af6bbd447f3db454f96",
  "mode": "A",
  "name": "kony.ui.TextBox2",
  "paddinginpixel": false,
  "parent": "flxUserName",
  "pf": "userwidgetmodel",
  "placeholderi18n": "i18n.login.UserName",
  "securetextentry": false,
  "textinputmode": "A",
  "viewtype": "default",
  "wType": "TextField",
  "zindex": 1
}