{
  "@class": "com.kony.gen.viz.model.component.KVizLabel",
  "DNDConfig": null,
  "__parentReadjusting__": false,
  "_height_": {
    "type": "string",
    "value": "105dp"
  },
  "_left_": {
    "type": "string",
    "value": "80.50%"
  },
  "_margin_": [
    1,
    1,
    1,
    1
  ],
  "_padding_": [
    0,
    0,
    0,
    0
  ],
  "_skin_": "s09349f2265649b3ae4b14f3130733b2",
  "_text_": "a",
  "_top_": {
    "type": "string",
    "value": "62dp"
  },
  "_width_": {
    "type": "string",
    "value": "1dp"
  },
  "_wrapping_": 2,
  "android": {
    "textStyle": {
      "letterSpacing": 0,
      "strikeThrough": false
    }
  },
  "canUpdateUI": true,
  "containerId": true,
  "containerweight": 100,
  "contentalignment": 4,
  "id": "lblSeparator2",
  "info": null,
  "ipad": {
    "psp": {
      "wrapping": 2
    }
  },
  "iphone": {
    "psp": {
      "wrapping": 2
    }
  },
  "isvisible": false,
  "kuid": "ece02af8f72d41b6bc55cdcca768e9da",
  "name": "kony.ui.Label",
  "parent": "flxMyCards",
  "pf": "segSelectFromEligibleCards",
  "tooltip": "",
  "wType": "Label",
  "zindex": 1
}