{
  "@class": "com.kony.gen.viz.model.component.KVizButton",
  "DNDConfig": null,
  "__parentReadjusting__": false,
  "_height_": {
    "type": "ref",
    "value": "preferred"
  },
  "_left_": {
    "type": "string",
    "value": "8dp"
  },
  "_margin_": [
    6,
    6,
    6,
    6
  ],
  "_padding_": [
    0,
    0,
    0,
    0
  ],
  "_skin_": "s55b84dca2454feda7c7ebea7678efa9",
  "_text_": "REPEAT",
  "_top_": {
    "type": "string",
    "value": "15dp"
  },
  "_width_": {
    "type": "ref",
    "value": "preferred"
  },
  "canUpdateUI": true,
  "containerId": true,
  "containerweight": 100,
  "contentalignment": 4,
  "disabledSkins": {
    "focusSkin": "sf44d06ca8224832827ea7fdff757013"
  },
  "displaytext": true,
  "id": "btnCancelRequests",
  "ide_onClick": "AS_Button_c675ea729ef1437bac51c94544f2f8f7",
  "info": null,
  "isvisible": true,
  "kuid": "gc20cb3658154eeca117f839939955ba",
  "name": "kony.ui.Button",
  "parent": "flxActionsWrapper",
  "pf": "segDisputedtransactionsSelected",
  "texti18n": "i18n.StopCheckPayments.CANCELREQUESTS",
  "tooltip": "Cancel Requests",
  "wType": "Button",
  "zindex": 1,
  "desktopweb": {
    "psp": {
      "hoverSkin": "s8ba57bbb01e49f2acad2f1ea21d8717"
    }
  }
}