{
  "@class": "com.kony.gen.viz.model.component.KVizButton",
  "DNDConfig": null,
  "__parentReadjusting__": false,
  "_height_": {
    "type": "ref",
    "value": "preferred"
  },
  "_left_": {
    "type": "string",
    "value": "0.20%"
  },
  "_margin_": [
    6,
    6,
    6,
    6
  ],
  "_padding_": [
    0,
    0,
    0,
    0
  ],
  "_skin_": "sc271643a776421f939008dba59f55ff",
  "_text_": "CANCEL",
  "_top_": {
    "type": "string",
    "value": "0dp"
  },
  "_width_": {
    "type": "ref",
    "value": "preferred"
  },
  "canUpdateUI": true,
  "containerweight": 100,
  "contentalignment": 5,
  "desktopweb": {
    "psp": {
      "hoverSkin": "s69514e4f6774e14936cd627aadca726"
    }
  },
  "disabledSkins": {
    "focusSkin": "sf44d06ca8224832827ea7fdff757013"
  },
  "displaytext": true,
  "id": "btnProfileSetting",
  "info": null,
  "isvisible": true,
  "kuid": "a0a8589a83fc4c93acb891384e93e398",
  "name": "kony.ui.Button",
  "parent": "flxProfileSetting",
  "pf": "userwidgetmodel",
  "texti18n": "i18n.ProfileManagement.profilesettings",
  "tooltip": "Profile Setting",
  "wType": "Button",
  "zindex": 2
}