{
  "DNDConfig": null,
  "__parentReadjusting__": false,
  "_height_": {
    "type": "string",
    "value": "20dp"
  },
  "_left_": {
    "type": "string",
    "value": "5%"
  },
  "_margin_": [
    0,
    0,
    0,
    0
  ],
  "_orientation_": 6,
  "_padding_": [
    0,
    0,
    0,
    0
  ],
  "_percent_": true,
  "_skin_": "sd8d02531529489a8d85487257bc0ccb",
  "_top_": {
    "type": "string",
    "value": "21dp"
  },
  "_width_": {
    "type": "string",
    "value": "20dp"
  },
  "allboxes": [],
  "autogrowmode": 0,
  "canUpdateUI": true,
  "children": [
    "imgCheckboxEmailId"
  ],
  "clipbounds": true,
  "containerweight": 100,
  "desktopweb": {
    "psp": {
      "hoverSkin": "sd403771f17f42cbb7aea6cb69a914cc"
    }
  },
  "enablescrolling": true,
  "id": "flxCheckboxEmailId",
  "ide_onClick": "AS_FlexContainer_jf70363abfde478f806643efee6f2810",
  "info": null,
  "isvisible": true,
  "kuid": "a1a9feb097fc4de79085c30cae06b133",
  "layouttype": 3,
  "name": "kony.ui.FlexContainer",
  "parent": "flxRegisteredEmailId",
  "pf": "userwidgetmodel",
  "snapgridsize": 10,
  "snaptogrid": true,
  "wType": "FlexContainer",
  "widgetalignment": 1,
  "zindex": 2
}