{
  "@class": "com.kony.gen.viz.model.component.KVizLabel",
  "DNDConfig": null,
  "__parentReadjusting__": false,
  "_bottom_": {
    "type": "string",
    "value": "5dp"
  },
  "_height_": {
    "type": "ref",
    "value": "preferred"
  },
  "_left_": {
    "type": "string",
    "value": "2.30%"
  },
  "_margin_": [
    1,
    1,
    1,
    1
  ],
  "_padding_": [
    0,
    0,
    0,
    0
  ],
  "_skin_": "s9739fe0569d4851a6e139a20b64dd6e",
  "_text_": "Fee structure/basic guidlines:",
  "_top_": {
    "type": "string",
    "value": "60dp"
  },
  "_width_": {
    "type": "string",
    "value": "80%"
  },
  "_wrapping_": 2,
  "android": {
    "textStyle": {
      "letterSpacing": 0,
      "strikeThrough": false
    }
  },
  "canUpdateUI": true,
  "containerweight": 100,
  "contentalignment": 4,
  "id": "lblNoteSecureAccessCode",
  "info": null,
  "ipad": {
    "psp": {
      "wrapping": 2
    }
  },
  "iphone": {
    "psp": {
      "wrapping": 2
    }
  },
  "isvisible": true,
  "kuid": "j87f2012feeb4bfaaa1be3e332445685",
  "name": "kony.ui.Label",
  "parent": "flxDetails",
  "pf": "userwidgetmodel",
  "texti18n": "i18n.MFA.NoteYourSecureAccessCodeIsConfidential",
  "tooltip": "",
  "wType": "Label",
  "zindex": 1
}