{
  "DNDConfig": null,
  "__parentReadjusting__": false,
  "_height_": {
    "type": "string",
    "value": "123dp"
  },
  "_left_": {
    "type": "string",
    "value": "0dp"
  },
  "_margin_": [
    0,
    0,
    0,
    0
  ],
  "_orientation_": 6,
  "_padding_": [
    0,
    0,
    0,
    0
  ],
  "_percent_": true,
  "_skin_": "sf94624be61d43e299a4790d019276ba",
  "_top_": {
    "type": "string",
    "value": "50dp"
  },
  "_width_": {
    "type": "string",
    "value": "250dp"
  },
  "allboxes": [],
  "autogrowmode": 0,
  "canUpdateUI": true,
  "children": [
    "flxTransferMoney",
    "Label0b60331706e5e45",
    "flxPayBills",
    "CopyLabel0b07dfb57de2445",
    "flxSendMoney",
    "CopyLabel0b53cc10abb0342",
    "flxWireMoney",
    "CopyLabel0ifdc84d9814842"
  ],
  "clipbounds": false,
  "containerweight": 100,
  "enablescrolling": true,
  "id": "flxContextualMenu",
  "ide_onTouchEnd": "AS_FlexContainer_f75ec4f85ea34a63b092dad0826baa7c",
  "info": null,
  "isvisible": true,
  "kuid": "ia7f64fd1a884bcca86c2f3fc7082891",
  "layouttype": 4,
  "name": "kony.ui.FlexContainer",
  "parent": "flxMenusMain",
  "pf": "userwidgetmodel",
  "snapgridsize": 10,
  "snaptogrid": true,
  "wType": "FlexContainer",
  "widgetalignment": 1,
  "zindex": 1000
}