{
  "@class": "com.kony.gen.viz.model.component.KVizLabel",
  "DNDConfig": null,
  "__parentReadjusting__": false,
  "_height_": {
    "type": "ref",
    "value": "preferred"
  },
  "_left_": {
    "type": "string",
    "value": "10dp"
  },
  "_margin_": [
    1,
    1,
    1,
    1
  ],
  "_padding_": [
    0,
    0,
    0,
    0
  ],
  "_skin_": "sffebdd2d93048b88ed53cb4cbfd676f",
  "_text_": "Label",
  "_top_": {
    "type": "string",
    "value": "7dp"
  },
  "_width_": {
    "type": "ref",
    "value": "preferred"
  },
  "_wrapping_": 2,
  "android": {
    "textStyle": {
      "letterSpacing": 0,
      "strikeThrough": false
    }
  },
  "canUpdateUI": true,
  "centery": {
    "type": "string",
    "value": "50%"
  },
  "containerweight": 100,
  "contentalignment": 4,
  "id": "lblMenu",
  "info": null,
  "ipad": {
    "psp": {
      "wrapping": 2
    }
  },
  "iphone": {
    "psp": {
      "wrapping": 2
    }
  },
  "isvisible": true,
  "kuid": "be8264b36947456f853956677764a3bc",
  "name": "kony.ui.Label",
  "parent": "flxMenu",
  "pf": "userwidgetmodel",
  "texti18n": "i18n.topmenu.menu",
  "tooltip": "",
  "wType": "Label",
  "zindex": 2
}