{
  "@class": "com.kony.gen.viz.model.component.KVizUserWidget",
  "DNDConfig": null,
  "__parentReadjusting__": false,
  "_children_": [],
  "_height_": {
    "type": "ref",
    "value": "preferred"
  },
  "_left_": {
    "type": "string",
    "value": "0%"
  },
  "_margin_": [
    0,
    0,
    0,
    0
  ],
  "_orientation_": 1,
  "_padding_": [
    0,
    0,
    0,
    0
  ],
  "_percent_": true,
  "_render_": true,
  "_skin_": "sa0825568598455c988535d196d849d4",
  "_top_": {
    "type": "string",
    "value": "62px"
  },
  "_width_": {
    "type": "string",
    "value": "100%"
  },
  "areflexpropsreferenced": false,
  "autogrowmode": 1,
  "canUpdateUI": true,
  "clipbounds": true,
  "containerweight": 100,
  "dataDiffs": {
    "Activatep2p": {
      "__events__": {},
      "__info__": {
        "isRoot": true,
        "kuid": "g3ae91ef2b8a4265aaf33b84d1cf80d8",
        "srcKUID": "fa3a0d846bc54219b3f381d2091f2a8a",
        "wType": "FlexContainer"
      },
      "top": {
        "Default": {
          "type": "string",
          "value": "62px"
        }
      }
    },
    "btnCancel": {
      "__events__": {
        "ide_onClick": "AS_Button_b1baf167a1f8468f9f304b29ba082bb6"
      },
      "__info__": {
        "kuid": "g1ba1dd3c0e94413aef5ab217d3cdc0e",
        "srcKUID": "0200f8db752242d0949d6dd0dbe39047",
        "wType": "Button"
      },
      "i18n_text": "i18n.transfers.Cancel"
    },
    "btnConfirm": {
      "__events__": {
        "ide_onClick": "AS_Button_bc9ce113cc5441418e419f3346a5a8b0"
      },
      "__info__": {
        "kuid": "f2acfd206a4e4aa8a8ae35f790c99b8e",
        "srcKUID": "093ebe59e9dd4e14b0fe41b1f89e3843",
        "wType": "Button"
      },
      "i18n_text": "i18n.transfers.Confirm"
    },
    "flxAccFrDeposit": {
      "__events__": {},
      "__info__": {
        "kuid": "f6bcdb69d18b423fa027d9f93b5cfff7",
        "srcKUID": "aa9096ce0d2c4e44ae0b8b6256c42856",
        "wType": "FlexContainer"
      }
    },
    "flxAccoFrSending": {
      "__events__": {},
      "__info__": {
        "kuid": "i8bf51100d3a4642aadda6bc5f3cb774",
        "srcKUID": "88b597d72ae548ca9664c3f08d6405de",
        "wType": "FlexContainer"
      }
    },
    "flxCheckbox": {
      "__events__": {},
      "__info__": {
        "kuid": "hf636a9cbd104a72a077cdb1e800250b",
        "srcKUID": "j319fe3fb79a47eba1bbce1b44758652",
        "wType": "FlexContainer"
      }
    },
    "flxDummy": {
      "__events__": {},
      "__info__": {
        "kuid": "fecaf6c389ef4677a78620fcc5f27cfa",
        "srcKUID": "ef6bdf35ad5548ad8fb3f1a2766bb025",
        "wType": "FlexContainer"
      }
    },
    "flxEmail": {
      "__events__": {},
      "__info__": {
        "kuid": "c56d3a25d4794621b03541e0043cdbc1",
        "srcKUID": "e33d48c821a3446198a61bedc2f5f3a7",
        "wType": "FlexContainer"
      }
    },
    "flxHeader": {
      "__events__": {},
      "__info__": {
        "kuid": "a72e48920d0447148634aa6bd5747345",
        "srcKUID": "7c8873d4139944b9ad7e82283fc3109b",
        "wType": "FlexContainer"
      }
    },
    "flxName": {
      "__events__": {},
      "__info__": {
        "kuid": "g4e499f0e5a7496cbacaefc9a5564048",
        "srcKUID": "81f4f5eca3d240e1b9b2945fa0b6c892",
        "wType": "FlexContainer"
      }
    },
    "flxPhone": {
      "__events__": {},
      "__info__": {
        "kuid": "h8d6ba2081484d00bbcd434a961db629",
        "srcKUID": "42af03d6d1a94c0a9e18b3002791eeab",
        "wType": "FlexContainer"
      }
    },
    "flxSeparator": {
      "__events__": {},
      "__info__": {
        "kuid": "icbf6a36a7b84332a259ce12ee792170",
        "srcKUID": "cc28e1840ff24377ba3300fbb5f8b31f",
        "wType": "FlexContainer"
      }
    },
    "flxSeparator2": {
      "__events__": {},
      "__info__": {
        "kuid": "a21f735aea104a29918d81010b850ecb",
        "srcKUID": "c98e4402d5604cf6a45f2d17d36976aa",
        "wType": "FlexContainer"
      }
    },
    "flximgInfoIcon": {
      "__events__": {},
      "__info__": {
        "kuid": "f8db042bf4754d0bac540cdede6319a8",
        "srcKUID": "a7b5bb37e9a7454b9255aa3b1c433566",
        "wType": "FlexContainer"
      }
    },
    "flximgInfoIconsend": {
      "__events__": {},
      "__info__": {
        "kuid": "ed00d85301c949e4b45f9e704283a64f",
        "srcKUID": "b2e902dffacc4bd394201231ecab390c",
        "wType": "FlexContainer"
      }
    },
    "imgCheckbox": {
      "__events__": {},
      "__info__": {
        "kuid": "bd35fdf334e24837b662c5e6f18a6b48",
        "srcKUID": "f7f0d98a3e5449b9bf556955df74d369",
        "wType": "Image"
      }
    },
    "imgInfo": {
      "__events__": {},
      "__info__": {
        "kuid": "g5be78775ef54223addcd86fb5af985e",
        "srcKUID": "78a7725ff1f24e7bb0422e09381d9862",
        "wType": "Image"
      }
    },
    "imgInfo2": {
      "__events__": {},
      "__info__": {
        "kuid": "b32e7c147fba4a71b55b8464cb95fa19",
        "srcKUID": "c747b4072cb945d8ab82a32c7078ab86",
        "wType": "Image"
      }
    },
    "imgInfoIcon": {
      "__events__": {},
      "__info__": {
        "kuid": "a9e7743e252841fdaf6585eafa258531",
        "srcKUID": "c944047cb92e409fa874ef23e11d7ef5",
        "wType": "Image"
      }
    },
    "imgInfoIconsend": {
      "__events__": {},
      "__info__": {
        "kuid": "ab12fdacb6c04b85bd924456f8c7d762",
        "srcKUID": "fa77cb8e7bd643da86b2c813c677b6ab",
        "wType": "Image"
      },
      "width": {
        "Default": {
          "type": "string",
          "value": "15dp"
        }
      }
    },
    "lblDefaultAccountForDeposit": {
      "__events__": {},
      "__info__": {
        "kuid": "d006bde6f23c459e95a2ba91064964a9",
        "srcKUID": "3b4d011cc6c74cb9b5893e025ea913a7",
        "wType": "Label"
      },
      "i18n_text": "i18n.PayPerson.defaultAccountForDeposit"
    },
    "lblDefaultAccountforSending": {
      "__events__": {},
      "__info__": {
        "kuid": "e1cf9fa01abc49778bfd495e07edaffe",
        "srcKUID": "46a2c6eddef5462182d792d4c47b589b",
        "wType": "Label"
      },
      "i18n_text": "i18n.MFA.DefaultAccountForSending"
    },
    "lblDefaultDepositAccountValue": {
      "__events__": {},
      "__info__": {
        "kuid": "g3b366a291904b51839b3af9e1da261a",
        "srcKUID": "gb213c52524b40658c1a88499dd63b2f",
        "wType": "Label"
      }
    },
    "lblDefaultSendingAccountValue": {
      "__events__": {},
      "__info__": {
        "kuid": "fe4b93dc5c734e6d91995289cd67c54a",
        "srcKUID": "cc4cd308198c48fb99c7cbf24972eb4e",
        "wType": "Label"
      }
    },
    "lblEmail": {
      "__events__": {},
      "__info__": {
        "kuid": "f3a70b2b3f63450b90ce570554a4d721",
        "srcKUID": "a49327e6f7494f9a81b721a15dd0ced1",
        "wType": "Label"
      },
      "i18n_text": "i18n.PayAPerson.RegisteredEmail"
    },
    "lblHeader": {
      "__events__": {},
      "__info__": {
        "kuid": "f5bda4e533d64d06a9bf966168abe4da",
        "srcKUID": "47358a05b2934a88b70960dbc3ce1613",
        "wType": "Label"
      },
      "i18n_text": "i18n.PayAPerson.YOURACCOUNTDETAILS"
    },
    "lblName": {
      "__events__": {},
      "__info__": {
        "kuid": "e025bff0c1a44850bdb58b69f91b8b4b",
        "srcKUID": "08b59a6c735f4e629c84747250e4c1b0",
        "wType": "Label"
      },
      "i18n_text": "i18n.PayPerson.yourName"
    },
    "lblNameValue": {
      "__events__": {},
      "__info__": {
        "kuid": "fe34f204bef14be3a0de85067ef405dd",
        "srcKUID": "f90801c679d54731b01befe88e58917a",
        "wType": "Label"
      }
    },
    "lblNotify": {
      "__events__": {},
      "__info__": {
        "kuid": "baba54711e0f4bf8b4e31e802999adf2",
        "srcKUID": "75e8b4be904440beb62918d504787848",
        "wType": "Label"
      },
      "i18n_text": "i18n.PayAPerson.NotifywhenIreceivemoneyfrom"
    },
    "lblRegisteredEmailValue": {
      "__events__": {},
      "__info__": {
        "kuid": "b3f5c428dc2040a28e23bb6e012779cd",
        "srcKUID": "bf2bc53e701c400aaa9e0164601cb087",
        "wType": "Label"
      }
    },
    "lblRegisteredPhone": {
      "__events__": {},
      "__info__": {
        "kuid": "cb49324d02ad457fa695876efdebe24c",
        "srcKUID": "b3631b5de39849dda1f949b5e652560c",
        "wType": "Label"
      },
      "i18n_text": "i18n.PayAPerson.RegisteredPhone"
    },
    "lblRegisteredPhoneValue": {
      "__events__": {},
      "__info__": {
        "kuid": "dbc7d9393a6e44d591926f998316cbb7",
        "srcKUID": "d6975030122f40149f1ceddac910b042",
        "wType": "Label"
      }
    },
    "listbxAccFrSending": {
      "__events__": {},
      "__info__": {
        "kuid": "g3d24f1f62464816a8ea79fe0c79c710",
        "srcKUID": "765d1248891b493dbfe5438686376ab3",
        "wType": "ListBox"
      }
    },
    "listbxAcccFrDeposit": {
      "__events__": {},
      "__info__": {
        "kuid": "edd7d15d3c3e4186bd216cbdee7b1e59",
        "srcKUID": "2b22a5dd6adc4024a6009a168b2814d8",
        "wType": "ListBox"
      }
    },
    "listbxRegisteredEmailValue": {
      "__events__": {},
      "__info__": {
        "kuid": "bae0323e17ab47bdb6e0bcffc8bd5706",
        "srcKUID": "b0b3242cfbc642199ec301cf25bfb2ec",
        "wType": "ListBox"
      }
    },
    "listbxRegisteredPhoneValue": {
      "__events__": {},
      "__info__": {
        "kuid": "bbdad4a888e04ba583fdc51309c7fafe",
        "srcKUID": "i31e182d39b54fbfb48d0d15fd6eb967",
        "wType": "ListBox"
      }
    },
    "tbxNameValue": {
      "__events__": {},
      "__info__": {
        "kuid": "c85a6aacb46c4f7391e8035544689720",
        "srcKUID": "11228fe2d3d94cbf9c34c668b6f246af",
        "wType": "TextField"
      },
      "isVisible": false
    },
    "tbxRegisteredEmailValue": {
      "__events__": {},
      "__info__": {
        "kuid": "ccfcaaedf95641ffb417e8d648c5c3ba",
        "srcKUID": "9a20a41ce636432984583aff7ad4b2c5",
        "wType": "TextField"
      }
    },
    "tbxRegisteredPhoneValue": {
      "__events__": {},
      "__info__": {
        "kuid": "fcc99e05ba3d4a7c974b6b255f20d695",
        "srcKUID": "1c51e8eb5b8043499fb3f215cffea663",
        "wType": "TextField"
      }
    }
  },
  "id": "Activatep2p",
  "info": null,
  "isdatareferenced": false,
  "isvisible": true,
  "kuid": "e24d6f0592b141889e2279c1f59127e2",
  "layouttype": 4,
  "masterType": 0,
  "name": "kony.ui.UserWidgetInstance",
  "parent": "flxActivateP2P",
  "pf": "frmPayAPerson",
  "snaptogrid": true,
  "sourceUserWidget": "fa3a0d846bc54219b3f381d2091f2a8a",
  "wType": "UserWidgetInstance"
}