{
  "@class": "com.kony.gen.viz.model.component.KVizButton",
  "DNDConfig": null,
  "__parentReadjusting__": false,
  "_height_": {
    "type": "string",
    "value": "50dp"
  },
  "_left_": {
    "type": "string",
    "value": "55.83%"
  },
  "_margin_": [
    6,
    6,
    6,
    6
  ],
  "_padding_": [
    0,
    0,
    0,
    0
  ],
  "_skin_": "s5dbba5b9dac4f33998dc76f09b4e9d4",
  "_text_": "btnTwo",
  "_top_": {
    "type": "string",
    "value": "517dp"
  },
  "_width_": {
    "type": "string",
    "value": "21.42%"
  },
  "canUpdateUI": true,
  "containerweight": 100,
  "contentalignment": 5,
  "disabledSkins": {
    "focusSkin": "sf44d06ca8224832827ea7fdff757013"
  },
  "displaytext": true,
  "id": "btnAcknowledgementTwo",
  "info": null,
  "isvisible": true,
  "kuid": "e2eadc17924848d59495f96ceadbb7d6",
  "name": "kony.ui.Button",
  "parent": "flxAcknowledgement",
  "pf": "frmPayAPerson",
  "wType": "Button",
  "zindex": 1
}