{
  "@class": "com.kony.gen.viz.model.component.KVizButton",
  "DNDConfig": null,
  "__parentReadjusting__": false,
  "_height_": {
    "type": "string",
    "value": "50dp"
  },
  "_left_": {
    "type": "string",
    "value": "78.50%"
  },
  "_margin_": [
    6,
    6,
    6,
    6
  ],
  "_padding_": [
    0,
    0,
    0,
    0
  ],
  "_skin_": "s5dbba5b9dac4f33998dc76f09b4e9d4",
  "_text_": "btnThree",
  "_top_": {
    "type": "string",
    "value": "517dp"
  },
  "_width_": {
    "type": "string",
    "value": "21.42%"
  },
  "canUpdateUI": true,
  "containerweight": 100,
  "contentalignment": 5,
  "disabledSkins": {
    "focusSkin": "sf44d06ca8224832827ea7fdff757013"
  },
  "displaytext": true,
  "id": "btnAcknowledgementThree",
  "info": null,
  "isvisible": true,
  "kuid": "a96e53abebd446e19c356c82f929cae7",
  "name": "kony.ui.Button",
  "parent": "flxAcknowledgement",
  "pf": "frmPayAPerson",
  "wType": "Button",
  "zindex": 1
}