{
  "@class": "com.kony.gen.viz.model.component.KVizUserWidget",
  "DNDConfig": null,
  "__parentReadjusting__": false,
  "_children_": [],
  "_height_": {
    "type": "string",
    "value": "425dp"
  },
  "_left_": {
    "type": "string",
    "value": "51%"
  },
  "_margin_": [
    0,
    0,
    0,
    0
  ],
  "_orientation_": 1,
  "_padding_": [
    0,
    0,
    0,
    0
  ],
  "_percent_": true,
  "_render_": true,
  "_skin_": "s4d6392bface4761840338d65d827a61",
  "_top_": {
    "type": "string",
    "value": "62dp"
  },
  "_width_": {
    "type": "string",
    "value": "100%"
  },
  "areflexpropsreferenced": false,
  "autogrowmode": 0,
  "canUpdateUI": true,
  "clipbounds": true,
  "containerweight": 0,
  "dataDiffs": {
    "CopyRichText0j287807d04b44c": {
      "__events__": {},
      "__info__": {
        "kuid": "df745ab92e654ccda51d7ceab11727df",
        "srcKUID": "cb689ac7d90a428cbf98f2fe8ad7cc9f",
        "wType": "RichText"
      },
      "width": {
        "Default": {
          "type": "string",
          "value": "100%"
        }
      }
    },
    "CopyflxKeyDescription0d7c673182b0844": {
      "__events__": {},
      "__info__": {
        "kuid": "ae4b4573dbce4ada9c0438d370826d24",
        "srcKUID": "bcd49de7c64a4064be4e5ffab3c80131",
        "wType": "FlexContainer"
      },
      "left": {
        "Default": {
          "type": "string",
          "value": "3%"
        }
      },
      "width": {
        "Default": {
          "type": "string",
          "value": "22%"
        }
      }
    },
    "CopyflxKeyDescription0f2b5edb2ef234a": {
      "__events__": {},
      "__info__": {
        "kuid": "c3155cd9db624d7abf6a228465f1e1bf",
        "srcKUID": "h7cff43e8cea46c593026092488e2e40",
        "wType": "FlexContainer"
      },
      "left": {
        "Default": {
          "type": "string",
          "value": "3%"
        }
      },
      "width": {
        "Default": {
          "type": "string",
          "value": "22%"
        }
      }
    },
    "CopyflxKeyDescription0fa12f2286a9941": {
      "__events__": {},
      "__info__": {
        "kuid": "fe14068eb73b4a09b8019e14d7f6d036",
        "srcKUID": "bb13be6e874d4a48a3acc29ab4a8949e",
        "wType": "FlexContainer"
      },
      "left": {
        "Default": {
          "type": "string",
          "value": "3%"
        }
      },
      "width": {
        "Default": {
          "type": "string",
          "value": "22%"
        }
      }
    },
    "CopyflxValue0ad2c1b7fd97440": {
      "__events__": {},
      "__info__": {
        "kuid": "h90bad0f19034b3d9caa020c77984933",
        "srcKUID": "i5c772c6a2314e908b5ecb42b8abd975",
        "wType": "FlexContainer"
      },
      "left": {
        "Default": {
          "type": "string",
          "value": "28%"
        }
      },
      "width": {
        "Default": {
          "type": "string",
          "value": "24%"
        }
      }
    },
    "CopyflxValue0bb60337ccbaa4b": {
      "__events__": {},
      "__info__": {
        "kuid": "fbd0061ff6fc4f7fa28cb18ea4e7c976",
        "srcKUID": "d766d190f9ff4e1a9c25a2382a114137",
        "wType": "FlexContainer"
      },
      "left": {
        "Default": {
          "type": "string",
          "value": "28%"
        }
      },
      "width": {
        "Default": {
          "type": "string",
          "value": "24%"
        }
      }
    },
    "CopyflxValue0g860ff64430944": {
      "__events__": {},
      "__info__": {
        "kuid": "b5e7f1a4af0845b68c2947890d5e180a",
        "srcKUID": "dd1c73bfc135443d8856af0b8331671c",
        "wType": "FlexContainer"
      },
      "left": {
        "Default": {
          "type": "string",
          "value": "28%"
        }
      },
      "width": {
        "Default": {
          "type": "string",
          "value": "24%"
        }
      }
    },
    "CopylblKeyDescription0a12fa9a6e7084d": {
      "__events__": {},
      "__info__": {
        "kuid": "jbf23ea067fb432ca5517ee98f1b9097",
        "srcKUID": "eb59b6fad9d044bc9f1cb797c4368f49",
        "wType": "Label"
      },
      "width": {
        "Default": {
          "type": "string",
          "value": "100%"
        }
      },
      "i18n_text": "i18n.StopCheckPayments.Description"
    },
    "CopylblKeyDescription0g25d166a3c8342": {
      "__events__": {},
      "__info__": {
        "kuid": "b31266248f6b4d579fe9badd31b5b000",
        "srcKUID": "a62dd6ce42934f339c3da0f24bd67752",
        "wType": "Label"
      },
      "width": {
        "Default": {
          "type": "string",
          "value": "100%"
        }
      },
      "i18n_text": "i18n.StopCheckPayments.Description"
    },
    "CopylblKeyDescription0i0dcc6c4c5134e": {
      "__events__": {},
      "__info__": {
        "kuid": "g78ffe628fe1461c9774aae99a81487c",
        "srcKUID": "g49ca9441c004d5b81507120abd5b61d",
        "wType": "Label"
      },
      "width": {
        "Default": {
          "type": "string",
          "value": "100%"
        }
      },
      "i18n_text": "i18n.StopCheckPayments.Description"
    },
    "CopylblValueDescription0b68a3d2d9c5942": {
      "__events__": {},
      "__info__": {
        "kuid": "jad6f2c927b24fb696069d5da985dca8",
        "srcKUID": "d1ebfd0a5b2c445c8c4be9918ba838d5",
        "wType": "Label"
      },
      "width": {
        "Default": {
          "type": "string",
          "value": "100%"
        }
      }
    },
    "CopylblValueDescription0e7e996a47e5744": {
      "__events__": {},
      "__info__": {
        "kuid": "ed252aac20b44acc8aff7000cf3375d8",
        "srcKUID": "e3e8ce4ab92040a68269e3bb153cb188",
        "wType": "Label"
      },
      "width": {
        "Default": {
          "type": "string",
          "value": "100%"
        }
      }
    },
    "CopylblValueDescription0j4d08d9160fb4d": {
      "__events__": {},
      "__info__": {
        "kuid": "def8a6f644aa484c858262157837c556",
        "srcKUID": "c9ffba302ca54c41bff3f9422eb5dc71",
        "wType": "Label"
      },
      "width": {
        "Default": {
          "type": "string",
          "value": "100%"
        }
      }
    },
    "RichText0bfcfe81705e240": {
      "__events__": {},
      "__info__": {
        "kuid": "g1e794a1cfbd4179a3088f8e1a775ea9",
        "srcKUID": "cf2dbeb4437f48d88e879f15fe0d85f6",
        "wType": "RichText"
      },
      "width": {
        "Default": {
          "type": "string",
          "value": "100%"
        }
      }
    },
    "confirmDialog": {
      "__events__": {},
      "__info__": {
        "isRoot": true,
        "kuid": "a24fea7042834baab362e6ad52e628f3",
        "srcKUID": "e5d6d2416ee4415d8827194fb514619a",
        "wType": "FlexContainer"
      },
      "autogrowMode": 0,
      "height": {
        "Default": {
          "type": "string",
          "value": "425dp"
        }
      },
      "left": {
        "Default": {
          "type": "string",
          "value": "51%"
        }
      },
      "top": {
        "Default": {
          "type": "string",
          "value": "62dp"
        }
      },
      "width": {
        "Default": {
          "type": "string",
          "value": "100%"
        }
      }
    },
    "confirmHeaders": {
      "__events__": {},
      "__info__": {
        "kuid": "heb77aad859349918411b48ace0129a9",
        "srcKUID": "717c2b2a9de94e179aec5901cc71f7b1",
        "wType": "UserWidgetInstance"
      }
    },
    "confirmHeaders.flxHeader": {
      "__events__": {},
      "__info__": {
        "kuid": "cf6e3c3806d1409791a6896823620ca5",
        "srcKUID": "bbfdaa62cc6b4311b56d9c893f3b7798",
        "wType": "FlexContainer"
      }
    },
    "confirmHeaders.lblHeading": {
      "__events__": {},
      "__info__": {
        "kuid": "d97c339c36a247408059a814cccc67e1",
        "srcKUID": "cb2cf97fc294432fb48cd874691ca15e",
        "wType": "Label"
      },
      "left": {
        "Default": {
          "type": "string",
          "value": "3%"
        }
      }
    },
    "flxContainerAmount": {
      "__events__": {},
      "__info__": {
        "kuid": "d41eccb16638445893f18217542117b0",
        "srcKUID": "f1ef6c1cd489446eb96dd1d4c56c4e3d",
        "wType": "FlexContainer"
      }
    },
    "flxContainerDate": {
      "__events__": {},
      "__info__": {
        "kuid": "c7d52d6416da4df6881879277170c787",
        "srcKUID": "2a2d12c738be4b368154f6919d1f7aeb",
        "wType": "FlexContainer"
      }
    },
    "flxContainerDescription": {
      "__events__": {},
      "__info__": {
        "kuid": "e68f7e107e5c4bf695de68e09b857072",
        "srcKUID": "f11d6c60ef1e4120878604337c7235a3",
        "wType": "FlexContainer"
      }
    },
    "flxContainerEight": {
      "__events__": {},
      "__info__": {
        "kuid": "e53d29ed75b9433cacd671a0a44fb9b9",
        "srcKUID": "a56025a2c59a4bebb5fdee56a0a09540",
        "wType": "FlexContainer"
      }
    },
    "flxContainerFrom": {
      "__events__": {},
      "__info__": {
        "kuid": "f61bc83b5e934487a6ef0bdcb56631a0",
        "srcKUID": "803d929aaeda47b7a4dfe0d8ee8cb2ca",
        "wType": "FlexContainer"
      }
    },
    "flxContainerSeven": {
      "__events__": {},
      "__info__": {
        "kuid": "a91ad511aa5a467e8f9c5e516a5a18bd",
        "srcKUID": "b409a3a5b1af4c4aa86d640ce4f727de",
        "wType": "FlexContainer"
      }
    },
    "flxContainerSix": {
      "__events__": {},
      "__info__": {
        "kuid": "cce9de0bdddf4092bd6b96f63ae4243d",
        "srcKUID": "a244fc2ec6884da4a5bdab9473e17778",
        "wType": "FlexContainer"
      }
    },
    "flxContainerTo": {
      "__events__": {},
      "__info__": {
        "kuid": "bce79bb3ecf04fbd8de8841eac680e2f",
        "srcKUID": "bef84551fbc34857ad258294fb4c63d5",
        "wType": "FlexContainer"
      }
    },
    "flxHorizontalLine": {
      "__events__": {},
      "__info__": {
        "kuid": "da9c5f7b6b18449c850f5525533dca0a",
        "srcKUID": "b1475510edc54a68923ddf10f69c650f",
        "wType": "FlexContainer"
      }
    },
    "flxKey": {
      "__events__": {},
      "__info__": {
        "kuid": "e2364452c28f411ab653eaff9d446144",
        "srcKUID": "c2de9519abdd4c608f15bee12da1c381",
        "wType": "FlexContainer"
      },
      "left": {
        "Default": {
          "type": "string",
          "value": "3%"
        }
      },
      "width": {
        "Default": {
          "type": "string",
          "value": "22%"
        }
      }
    },
    "flxKeyAmount": {
      "__events__": {},
      "__info__": {
        "kuid": "cbb2af4c0f164bada3414dbfa11ede03",
        "srcKUID": "2b12610c0f32406d85a34b2f3d9ed27c",
        "wType": "FlexContainer"
      },
      "left": {
        "Default": {
          "type": "string",
          "value": "3%"
        }
      },
      "width": {
        "Default": {
          "type": "string",
          "value": "22%"
        }
      }
    },
    "flxKeyDate": {
      "__events__": {},
      "__info__": {
        "kuid": "d83739d4fc73411f841829a12e8580f9",
        "srcKUID": "cf7bd8f287244138bcbedb23d032f459",
        "wType": "FlexContainer"
      },
      "left": {
        "Default": {
          "type": "string",
          "value": "3%"
        }
      },
      "width": {
        "Default": {
          "type": "string",
          "value": "22%"
        }
      }
    },
    "flxKeyDescription": {
      "__events__": {},
      "__info__": {
        "kuid": "j8aaf2f59390438396e18f29a597d59f",
        "srcKUID": "96117e4a97c74865a5e862781f2bd7f8",
        "wType": "FlexContainer"
      },
      "left": {
        "Default": {
          "type": "string",
          "value": "3%"
        }
      },
      "width": {
        "Default": {
          "type": "string",
          "value": "22%"
        }
      }
    },
    "flxKeyTo": {
      "__events__": {},
      "__info__": {
        "kuid": "j740ef9ea3b14ed28cdb1b581a474e96",
        "srcKUID": "9560f8510ad44709a3355d0d1b1e41cd",
        "wType": "FlexContainer"
      },
      "left": {
        "Default": {
          "type": "string",
          "value": "3%"
        }
      },
      "width": {
        "Default": {
          "type": "string",
          "value": "22%"
        }
      }
    },
    "flxMain": {
      "__events__": {},
      "__info__": {
        "kuid": "df811e80e745495ea723e2378c12173a",
        "srcKUID": "5241f241628f41279be43740c36d0e89",
        "wType": "FlexContainer"
      }
    },
    "flxValue": {
      "__events__": {},
      "__info__": {
        "kuid": "a5b55c6273044439acfd183d64ed1d43",
        "srcKUID": "a5dad9cefae04f21959a6b99d12658ae",
        "wType": "FlexContainer"
      },
      "left": {
        "Default": {
          "type": "string",
          "value": "28%"
        }
      },
      "width": {
        "Default": {
          "type": "string",
          "value": "24%"
        }
      }
    },
    "flxValue0Description": {
      "__events__": {},
      "__info__": {
        "kuid": "f04e265a7be44a9ca4a3794e0ae3b164",
        "srcKUID": "5162560de5f24c3aa04137d78fd1755c",
        "wType": "FlexContainer"
      },
      "left": {
        "Default": {
          "type": "string",
          "value": "28%"
        }
      },
      "width": {
        "Default": {
          "type": "string",
          "value": "24%"
        }
      }
    },
    "flxValueAmount": {
      "__events__": {},
      "__info__": {
        "kuid": "j2f3c4a2190e41cbadb911811a934923",
        "srcKUID": "ae01af95ceb64126878e2b7a15496d1d",
        "wType": "FlexContainer"
      },
      "left": {
        "Default": {
          "type": "string",
          "value": "28%"
        }
      },
      "width": {
        "Default": {
          "type": "string",
          "value": "24%"
        }
      }
    },
    "flxValueDate": {
      "__events__": {},
      "__info__": {
        "kuid": "h52adc5d7b314ce7b3b188a21ef0c326",
        "srcKUID": "346e32ffd1e64d0ba3b5636b1528f168",
        "wType": "FlexContainer"
      },
      "left": {
        "Default": {
          "type": "string",
          "value": "28%"
        }
      },
      "width": {
        "Default": {
          "type": "string",
          "value": "24%"
        }
      }
    },
    "flxValueTo": {
      "__events__": {},
      "__info__": {
        "kuid": "d17a0457cabe4a8db490f007f41964a3",
        "srcKUID": "3ddf4c04a3c2497b8ee7f31bd0ab995f",
        "wType": "FlexContainer"
      },
      "left": {
        "Default": {
          "type": "string",
          "value": "28%"
        }
      },
      "width": {
        "Default": {
          "type": "string",
          "value": "24%"
        }
      }
    },
    "lblKey": {
      "__events__": {},
      "__info__": {
        "kuid": "jd3f15acf7d540648799cf0e83053618",
        "srcKUID": "07128b733f1e466eb3b20bb39f53b006",
        "wType": "Label"
      },
      "width": {
        "Default": {
          "type": "string",
          "value": "100%"
        }
      },
      "i18n_text": "i18n.transfers.lblFrom"
    },
    "lblKeyAmount": {
      "__events__": {},
      "__info__": {
        "kuid": "d2d37bd0efe6493cb18ac047d09dbb6b",
        "srcKUID": "c39a246f6c6846b099e5a5663ed0300d",
        "wType": "Label"
      },
      "width": {
        "Default": {
          "type": "string",
          "value": "100%"
        }
      },
      "i18n_text": "i18n.transfers.lblAmount"
    },
    "lblKeyDAte": {
      "__events__": {},
      "__info__": {
        "kuid": "b05fdb9b77d44bcfa6848a5d613f4090",
        "srcKUID": "ccacb8b632b54d56a75878eb3e35ffaf",
        "wType": "Label"
      },
      "width": {
        "Default": {
          "type": "string",
          "value": "100%"
        }
      },
      "i18n_text": "i18n.transfers.lblDate"
    },
    "lblKeyDescription": {
      "__events__": {},
      "__info__": {
        "kuid": "c2df1d31187e4ec5aae64e3bd413e850",
        "srcKUID": "831058a8dda74b3a8637a8567aed68ea",
        "wType": "Label"
      },
      "text": "Description:",
      "width": {
        "Default": {
          "type": "string",
          "value": "100%"
        }
      },
      "i18n_text": "i18n.StopCheckPayments.Description"
    },
    "lblKeyTo": {
      "__events__": {},
      "__info__": {
        "kuid": "b80833cd85d64bd6ab979e64a6ba4a71",
        "srcKUID": "3002eced07b14db1a9bd901046925b61",
        "wType": "Label"
      },
      "width": {
        "Default": {
          "type": "string",
          "value": "100%"
        }
      },
      "i18n_text": "i18n.transfers.lblTo"
    },
    "lblValue": {
      "__events__": {},
      "__info__": {
        "kuid": "d674982bb08f471d88ac509ef6f519f8",
        "srcKUID": "faee1f61ff544f64982f28c125a35a69",
        "wType": "Label"
      },
      "text": "Personal Checking….1234",
      "width": {
        "Default": {
          "type": "string",
          "value": "100%"
        }
      }
    },
    "lblValueDescription": {
      "__events__": {},
      "__info__": {
        "kuid": "b4e94e1a0d9a4a7fb24df9c7c790ba0e",
        "srcKUID": "0d8743cc4cab481ebc934a74b1e40ec0",
        "wType": "Label"
      },
      "width": {
        "Default": {
          "type": "string",
          "value": "100%"
        }
      }
    },
    "lblValueTo": {
      "__events__": {},
      "__info__": {
        "kuid": "badf77797fa14922bf6755c278005197",
        "srcKUID": "b29323ab2d3e4624b9cf628d2f045e62",
        "wType": "Label"
      },
      "width": {
        "Default": {
          "type": "string",
          "value": "100%"
        }
      }
    }
  },
  "id": "confirmDialog",
  "info": null,
  "isdatareferenced": false,
  "isvisible": true,
  "kuid": "a24fea7042834baab362e6ad52e628f3",
  "layouttype": 2,
  "masterType": 0,
  "name": "kony.ui.UserWidgetInstance",
  "parent": "flxAcknowledgement",
  "pf": "frmPayAPerson",
  "snaptogrid": true,
  "sourceUserWidget": "e5d6d2416ee4415d8827194fb514619a",
  "wType": "UserWidgetInstance"
}