{
  "DNDConfig": null,
  "__markedForDelete__": true,
  "__parentReadjusting__": false,
  "_height_": {
    "type": "string",
    "value": "150dp"
  },
  "_left_": {
    "type": "string",
    "value": "0%"
  },
  "_margin_": [
    0,
    0,
    0,
    0
  ],
  "_orientation_": 6,
  "_padding_": [
    0,
    0,
    0,
    0
  ],
  "_percent_": true,
  "_skin_": "scf267decc804230a0d131fa1ea5bd35",
  "_top_": {
    "type": "string",
    "value": "0dp"
  },
  "_width_": {
    "type": "string",
    "value": "50%"
  },
  "allboxes": [],
  "autogrowmode": 0,
  "canUpdateUI": true,
  "children": [],
  "clipbounds": false,
  "containerweight": 100,
  "enablescrolling": true,
  "id": "Copyflxleftcontainer0ie6f777b42284d",
  "info": null,
  "isvisible": true,
  "kuid": "fd79a89933424cbd91a6c9a11ffa9547",
  "layouttype": 2,
  "name": "kony.ui.FlexContainer",
  "parent": "flxFooter",
  "pf": "frmPayAPerson",
  "snapgridsize": 10,
  "snaptogrid": true,
  "wType": "FlexContainer",
  "widgetalignment": 1,
  "zindex": 1
}