{
  "@class": "com.kony.gen.viz.model.component.KVizUserWidget",
  "DNDConfig": null,
  "__parentReadjusting__": false,
  "_children_": [],
  "_height_": {
    "type": "ref",
    "value": "preferred"
  },
  "_left_": {
    "type": "string",
    "value": "1dp"
  },
  "_margin_": [
    0,
    0,
    0,
    0
  ],
  "_orientation_": 1,
  "_padding_": [
    0,
    0,
    0,
    0
  ],
  "_percent_": true,
  "_render_": true,
  "_skin_": "s6c801425113440f9292523a3df3e5c2",
  "_top_": "0dp",
  "_width_": {
    "type": "string",
    "value": "100%"
  },
  "areflexpropsreferenced": false,
  "autogrowmode": 1,
  "canUpdateUI": true,
  "clipbounds": true,
  "containerweight": 0,
  "dataDiffs": {
    "EnterCVVModule": {
      "__events__": {},
      "__info__": {
        "isRoot": true,
        "kuid": "if270b11ece443cca9cb109a141c23f9",
        "srcKUID": "e35ac3c7ee6a4bffaf3be9527ab87a00",
        "wType": "FlexContainer"
      }
    },
    "btnCancel": {
      "__events__": {},
      "__info__": {
        "kuid": "f94c69e18a3d484ca70ba05324028fb3",
        "srcKUID": "e2ce91e00ca3401991fa50eeaa0b6d7e",
        "wType": "Button"
      },
      "i18n_text": "i18n.transfers.Cancel"
    },
    "btnProceed": {
      "__events__": {},
      "__info__": {
        "kuid": "c693a8d0043648bc9d43fbada021f7bc",
        "srcKUID": "c151aa3ddb624eedb92dd23afd8cfa87",
        "wType": "Button"
      },
      "left": {
        "Default": {
          "type": "string",
          "value": "76.8%"
        }
      },
      "i18n_text": "i18n.common.proceed"
    },
    "flxActions": {
      "__events__": {},
      "__info__": {
        "kuid": "a0c885ce7cfb411ebd0ecee4a222138a",
        "srcKUID": "h23f0c4fa241458796efcd620e170f38",
        "wType": "FlexContainer"
      }
    },
    "flxDefaultAccountForSending": {
      "__events__": {},
      "__info__": {
        "kuid": "i7b232aecb0f424b833a6eca94cb32f6",
        "srcKUID": "a718cba4d1764215818f061ee2fe0953",
        "wType": "FlexContainer"
      }
    },
    "flxDefaultAccountForSendingInfo": {
      "__events__": {},
      "__info__": {
        "kuid": "ec7e6c5fef3a4240bbdf0a7b7ee7d9de",
        "srcKUID": "ade0ab4e99464b6da6109bcc65904e84",
        "wType": "FlexContainer"
      }
    },
    "flxEnterCVV": {
      "__events__": {},
      "__info__": {
        "kuid": "hfd60bf4c05b4437946e9b1530adbd5b",
        "srcKUID": "fe4a0780e0c94a2a8524c35610fc95c9",
        "wType": "FlexContainer"
      }
    },
    "flxEnterCVVCode": {
      "__events__": {},
      "__info__": {
        "kuid": "df6d2d73ccbc4b468f2b72a79577330f",
        "srcKUID": "ef49dec3b3a84058bbd5c19af61f6b78",
        "wType": "FlexContainer"
      }
    },
    "flxEnterCVVCodeInfo": {
      "__events__": {},
      "__info__": {
        "kuid": "d2fd3e9b2f1246c282803110c988073e",
        "srcKUID": "b1150f1b137449f0a8f1de2b6ebf5995",
        "wType": "FlexContainer"
      }
    },
    "flxEnterCVVCodes": {
      "__events__": {},
      "__info__": {
        "kuid": "e64f7797d1c64de8bd9bdaf10be4ffc9",
        "srcKUID": "a06b1d8562e842d587411bbd0a217740",
        "wType": "FlexContainer"
      }
    },
    "flxHeader": {
      "__events__": {},
      "__info__": {
        "kuid": "a5c04236dc8a4bc7868b21ebde817c2e",
        "srcKUID": "f1d567858793450eb9df6876df707c59",
        "wType": "FlexContainer"
      }
    },
    "flxSeparator": {
      "__events__": {},
      "__info__": {
        "kuid": "if3db2bad2e34fdb98f4321c1376f3dc",
        "srcKUID": "ac412654d8f6415a856df86bbc8c5e4e",
        "wType": "FlexContainer"
      }
    },
    "flxSeparator2": {
      "__events__": {},
      "__info__": {
        "kuid": "b82d30d202cb4c35876f13e255f18dda",
        "srcKUID": "e1073d1e81ea48a280a0722189f28bdf",
        "wType": "FlexContainer"
      }
    },
    "flxWarningEnterCVV": {
      "__events__": {},
      "__info__": {
        "kuid": "dde454d6000f47f78a71488c6e6b0c55",
        "srcKUID": "h83862e1f7984212b6b82a590de7ff08",
        "wType": "FlexContainer"
      }
    },
    "imgDefaultAccountForSendingInfo": {
      "__events__": {},
      "__info__": {
        "kuid": "i9a616f31e7948dc96e5726341585296",
        "srcKUID": "i027b51a2b7a4239a559480c725f84f2",
        "wType": "Image"
      }
    },
    "imgEnterCVVCodeInfo": {
      "__events__": {},
      "__info__": {
        "kuid": "de8470239b6b4f36a7c3ef5293384817",
        "srcKUID": "g595c322e54846be901beaa3389f68e8",
        "wType": "Image"
      }
    },
    "imgViewCVVCode": {
      "__events__": {
        "ide_onTouchEnd": "AS_Image_g0db6ac9e74540de9db3c0e123f05090",
        "ide_onTouchStart": "AS_Image_c57b68e2aaef4b22a4af5e88e7bfd274"
      },
      "__info__": {
        "kuid": "e1f1c52ddc6541ca84d24eab13948227",
        "srcKUID": "j0ec1694f805480d9ec820515a410132",
        "wType": "Image"
      }
    },
    "imgWarningEnterCVV": {
      "__events__": {},
      "__info__": {
        "kuid": "gfe832154c2b4a8492b84555b6d2c63c",
        "srcKUID": "f745bb2abec24ad4ae6dc02520cec035",
        "wType": "Image"
      }
    },
    "lblDefaultAccountForSending": {
      "__events__": {},
      "__info__": {
        "kuid": "fd9c466af3dd4c9a973289aa98a78aec",
        "srcKUID": "fa1e0d35a0704af48b4c8ea2329cd940",
        "wType": "Label"
      },
      "top": {
        "Default": {
          "type": "number",
          "value": "18"
        }
      }
    },
    "lblEnterCVVCode": {
      "__events__": {},
      "__info__": {
        "kuid": "f46995a6f5954899b11af0808f760545",
        "srcKUID": "bae9115121af4666b5ce91507b21c0cb",
        "wType": "Label"
      },
      "top": {
        "Default": {
          "type": "number",
          "value": "18"
        }
      }
    },
    "lblHeader": {
      "__events__": {},
      "__info__": {
        "kuid": "id8123c861604929aecf9bdfe585d7a7",
        "srcKUID": "g862fe931c6f44c4bb592c1332e812e4",
        "wType": "Label"
      }
    },
    "lblHeading2": {
      "__events__": {},
      "__info__": {
        "kuid": "a8ded69ef912404fad76892cd88e45c1",
        "srcKUID": "f52424e989344981bcac59610efeb494",
        "wType": "Label"
      }
    },
    "lblNoteSecureAccessCode": {
      "__events__": {},
      "__info__": {
        "kuid": "hed05c95f1044eb0b1729dbc0d61fc55",
        "srcKUID": "ee1cb4ea56754ff1a9c60de086f73566",
        "wType": "Label"
      }
    },
    "lblWarningEnterCVV": {
      "__events__": {},
      "__info__": {
        "kuid": "j1b7968027b24a95bf3df1cf2215cf08",
        "srcKUID": "g59352b31c3b497a9537bd4bcde0e43d",
        "wType": "Label"
      }
    },
    "lbxDefaultAccountForSending": {
      "__events__": {},
      "__info__": {
        "kuid": "ic27666d5adb48a6a6c12c3b09a511ed",
        "srcKUID": "c75fc8c8da654c3dbdd9c2dea8265ac1",
        "wType": "ListBox"
      }
    },
    "tbxEnterCVVCode": {
      "__events__": {
        "desktopweb": {
          "ide_onEndEditing": "AS_TextField_h3d5808ece124e0e85c2b94b1c9c9f35",
          "ide_onKeyUp": "AS_TextField_h2941e0be42c4675a2c9d12792cc1263"
        }
      },
      "__info__": {
        "kuid": "ha5ce1dc03c0465380412ee14e644722",
        "srcKUID": "ab0ec0f903c4452689a68a7933f4313d",
        "wType": "TextField"
      }
    }
  },
  "id": "EnterCVVModule",
  "info": null,
  "isdatareferenced": false,
  "isvisible": true,
  "kuid": "e96f6e84fd7d48b98b169f83c285a983",
  "layouttype": 4,
  "masterType": 0,
  "name": "kony.ui.UserWidgetInstance",
  "parent": "flxEnterCVVCode",
  "pf": "frmPayAPerson",
  "sourceUserWidget": "e35ac3c7ee6a4bffaf3be9527ab87a00",
  "wType": "UserWidgetInstance"
}