{
  "DNDConfig": null,
  "__parentReadjusting__": false,
  "_height_": {
    "type": "string",
    "value": "121dp"
  },
  "_left_": {
    "type": "string",
    "value": "0%"
  },
  "_margin_": [
    0,
    0,
    0,
    0
  ],
  "_orientation_": 6,
  "_padding_": [
    0,
    0,
    0,
    0
  ],
  "_percent_": true,
  "_skin_": "s32db308af9e4770a9ccf700cbe81176",
  "_top_": {
    "type": "string",
    "value": "0dp"
  },
  "_width_": {
    "type": "string",
    "value": "100%"
  },
  "allboxes": [],
  "autogrowmode": 0,
  "canUpdateUI": true,
  "children": [
    "btnAddRecipient",
    "CopylblWhatElse0ee994d229d7d49",
    "btnSendMoneyNewRecipient"
  ],
  "clipbounds": true,
  "containerweight": 100,
  "enablescrolling": true,
  "id": "flxAddRecipientButton",
  "info": null,
  "isvisible": true,
  "kuid": "dbb498c0a5464880a0f44f7514de4680",
  "layouttype": 4,
  "name": "kony.ui.FlexContainer",
  "parent": "flxRightWrapper",
  "pf": "frmPayAPerson",
  "snapgridsize": 10,
  "snaptogrid": true,
  "wType": "FlexContainer",
  "widgetalignment": 1,
  "zindex": 1
}