{
  "@class": "com.kony.gen.viz.model.component.KVizUserWidget",
  "DNDConfig": null,
  "__parentReadjusting__": false,
  "_children_": [],
  "_height_": {
    "type": "ref",
    "value": "preferred"
  },
  "_left_": "0dp",
  "_margin_": [
    0,
    0,
    0,
    0
  ],
  "_orientation_": 1,
  "_padding_": [
    0,
    0,
    0,
    0
  ],
  "_percent_": true,
  "_render_": true,
  "_skin_": "s24c92fc23b14f5484b693ee9b8a9b35",
  "_top_": {
    "type": "string",
    "value": "0dp"
  },
  "_width_": {
    "type": "string",
    "value": "100%"
  },
  "areflexpropsreferenced": false,
  "autogrowmode": 1,
  "canUpdateUI": true,
  "clipbounds": false,
  "containerweight": 0,
  "dataDiffs": {
    "btnBackToRecipients": {
      "__events__": {},
      "__info__": {
        "kuid": "ic0845570d3c4bf1a3d3486a4997f34c",
        "srcKUID": "ef04eebac21d4ecda5bddf1b92bd39a9",
        "wType": "Button"
      },
      "i18n_text": "i18n.PayAPerson.BACKTORECIPIENTS"
    },
    "btnClose": {
      "__events__": {},
      "__info__": {
        "kuid": "jd26b930a0de444db47bfc83e471e2b6",
        "srcKUID": "f961398649d0423685c5be4d60bedd90",
        "wType": "Button"
      }
    },
    "flxAmount": {
      "__events__": {},
      "__info__": {
        "kuid": "a14fe154945a4e41aad655ecd963f7ca",
        "srcKUID": "66193951f03144f2ae760fb6eb169947",
        "wType": "FlexContainer"
      }
    },
    "flxDate": {
      "__events__": {},
      "__info__": {
        "kuid": "f67e97f9b7e748bfae17af6b5d0530cd",
        "srcKUID": "b4174acac1a34b21919bf0a45888eea5",
        "wType": "FlexContainer"
      }
    },
    "flxDetails": {
      "__events__": {},
      "__info__": {
        "kuid": "a31ffe7b75384af4b6ecbf5ab2f5adbd",
        "srcKUID": "0f6c79ca9b4b43cda11a799e88a0b27d",
        "wType": "FlexContainer"
      }
    },
    "flxFrom": {
      "__events__": {},
      "__info__": {
        "kuid": "ed11a65cc1e74e2aa03993b88ed96884",
        "srcKUID": "c9bf5de3118b45588d6351f15545257c",
        "wType": "FlexContainer"
      }
    },
    "flxHeader": {
      "__events__": {},
      "__info__": {
        "kuid": "b5bc7dbd46d748df940ffc8e9e8176ce",
        "srcKUID": "2154672721704e518febbc135507a8e3",
        "wType": "FlexContainer"
      }
    },
    "flxLeft": {
      "__events__": {},
      "__info__": {
        "kuid": "dca31db99fd9432eb42fbd074dc36dc2",
        "srcKUID": "e63d6c5e438448a6b5effa3a08916961",
        "wType": "FlexContainer"
      }
    },
    "flxRight": {
      "__events__": {},
      "__info__": {
        "kuid": "hb1f1bbac2c944c284b53dfdc04e0a20",
        "srcKUID": "a2b7d815e6a049c09c1666890162cb21",
        "wType": "FlexContainer"
      }
    },
    "flxRunningBalance": {
      "__events__": {},
      "__info__": {
        "kuid": "f9c315e618af4110978eb1cc0c349664",
        "srcKUID": "d0314afc0e6f425fa6db18db41d32488",
        "wType": "FlexContainer"
      }
    },
    "flxSegment": {
      "__events__": {},
      "__info__": {
        "kuid": "f2d443da254d449b85f65c2c77b9f246",
        "srcKUID": "d04f64907e8f4a14bd6d26e67972ffe8",
        "wType": "FlexContainer"
      }
    },
    "flxSeparator": {
      "__events__": {},
      "__info__": {
        "kuid": "g649743323174a4592e32a36486e82e2",
        "srcKUID": "f9774b0b80be4c709efddc0c820d2ec8",
        "wType": "FlexContainer"
      }
    },
    "flxSeparatorDetails": {
      "__events__": {},
      "__info__": {
        "kuid": "g80a155fd69641828e89a753deff7ab9",
        "srcKUID": "d78a986ff64a4a7292de4e32c26c04d9",
        "wType": "FlexContainer"
      }
    },
    "flxSeparatorSort": {
      "__events__": {},
      "__info__": {
        "kuid": "eda3045903194ed3a3bff4bcb46713f9",
        "srcKUID": "246869bfac3f427194922e03cdd44b72",
        "wType": "FlexContainer"
      }
    },
    "flxSort": {
      "__events__": {},
      "__info__": {
        "kuid": "i88ada3ad219485aabc9f13c3d6a24ac",
        "srcKUID": "eba5c2cb4a5f45c897a421ee886ba5a7",
        "wType": "FlexContainer"
      }
    },
    "flxStatus": {
      "__events__": {},
      "__info__": {
        "kuid": "i87d2e8a0ce1479cb644898a321fadb0",
        "srcKUID": "f6c9ac7d4bcd4a77a830d0b014065c24",
        "wType": "FlexContainer"
      }
    },
    "flxtransferActivityWrapper": {
      "__events__": {},
      "__info__": {
        "kuid": "a0a078d1c2e145ee8cd07d96952c85a3",
        "srcKUID": "ef6f53afff6a419fae1652ab24387f28",
        "wType": "FlexContainer"
      }
    },
    "imgRunningBalance": {
      "__events__": {},
      "__info__": {
        "kuid": "b26a29ec6f6247f3b694c020b8b77352",
        "srcKUID": "ea4e5245468c4958ad8ceef4886be0f6",
        "wType": "Image"
      }
    },
    "imgSortAmount": {
      "__events__": {},
      "__info__": {
        "kuid": "a7797c0837e942fcad13d83c26f533d2",
        "srcKUID": "149a370a3a1f406da31b111e6b780361",
        "wType": "Image"
      }
    },
    "imgSortDate": {
      "__events__": {},
      "__info__": {
        "kuid": "af96b12199204a5a80dcbfeb22c0fc9b",
        "srcKUID": "3c55c59c26b04acdbc71bd3b6effd3c3",
        "wType": "Image"
      }
    },
    "imgSortFrom": {
      "__events__": {},
      "__info__": {
        "kuid": "dcf851b2a4034bc6955e21bc04a50531",
        "srcKUID": "21e686f5f7cf4270b261606e8788d37d",
        "wType": "Image"
      }
    },
    "imgSortStatus": {
      "__events__": {},
      "__info__": {
        "kuid": "j690e86c8b494dd0830da426d07cca1c",
        "srcKUID": "e67297b69200468aaaa440eecd6da6b9",
        "wType": "Image"
      }
    },
    "lblAccountHolderEmail": {
      "__events__": {},
      "__info__": {
        "kuid": "e4a0063b86734e08be3b7e952dbde880",
        "srcKUID": "cce20f78caea411c9c0cf5fae0593b8a",
        "wType": "Label"
      }
    },
    "lblAccountHolderName": {
      "__events__": {},
      "__info__": {
        "kuid": "b8c3390dbfa14690ba71214a0323bbcc",
        "srcKUID": "8683286766b141c9851aa19cdc36f373",
        "wType": "Label"
      }
    },
    "lblAccountHolderNumber": {
      "__events__": {},
      "__info__": {
        "kuid": "bb19503e5fdd4059aeb564ee61392ef6",
        "srcKUID": "e99de7cd16e142ac8405839b92d1e7c4",
        "wType": "Label"
      }
    },
    "lblAmount": {
      "__events__": {},
      "__info__": {
        "kuid": "ce77658bae304da383cbe46cbda3637d",
        "srcKUID": "2ef0b332f6a04581824b8407cada15b6",
        "wType": "Label"
      },
      "i18n_text": "i18n.transfers.amountlabel"
    },
    "lblAmountDeducted": {
      "__events__": {},
      "__info__": {
        "kuid": "c3decca2e4494aecb9545d1e05d34670",
        "srcKUID": "0b5814d57651494294d75d1013d3777f",
        "wType": "Label"
      }
    },
    "lblAmountDeductedTitle": {
      "__events__": {},
      "__info__": {
        "kuid": "a0c5d5c03813426fb487399f10eacf63",
        "srcKUID": "aa6b6b4c62b64f27be2c9ee0fa908342",
        "wType": "Label"
      },
      "i18n_text": "i18n.Transfers.AmountDeductedtillDate"
    },
    "lblDate": {
      "__events__": {},
      "__info__": {
        "kuid": "e16ead09d62d4a1599481a58a7d664f9",
        "srcKUID": "514c4f33ff53407c8bbcbffa44403b9b",
        "wType": "Label"
      },
      "i18n_text": "i18n.transfers.lblDate"
    },
    "lblFrom": {
      "__events__": {},
      "__info__": {
        "kuid": "f6c4081dc49944abafe9a7c8fec0b908",
        "srcKUID": "3ec8beb578254af0b7984e46bb5a2e28",
        "wType": "Label"
      },
      "i18n_text": "i18n.transfers.lblFrom"
    },
    "lblHeader": {
      "__events__": {},
      "__info__": {
        "kuid": "hf09b9a0fff946adac5c26739f8f16e1",
        "srcKUID": "7f48eca6dac1468e94705bf8527972b3",
        "wType": "Label"
      },
      "i18n_text": "i18n.PayAPerson.P2PACTIVITY"
    },
    "lblRunningBalance": {
      "__events__": {},
      "__info__": {
        "kuid": "f26537aaeac94f0c9bafe823e414d264",
        "srcKUID": "fe66a41f7cf34469b6a0a49485dd9e3a",
        "wType": "Label"
      },
      "i18n_text": "i18n.PayAPerson.RunningBalance"
    },
    "lblStatus": {
      "__events__": {},
      "__info__": {
        "kuid": "eb902e576de146bfb1808eeb52c87fd8",
        "srcKUID": "660c4368e033462f844c93f5b6d348ec",
        "wType": "Label"
      },
      "i18n_text": "i18n.billPay.Status"
    },
    "lblToAccount": {
      "__events__": {},
      "__info__": {
        "kuid": "f075dd73a70842aeb0f06dc824b3cc21",
        "srcKUID": "1bf694a42c33465f807e9cd37384ce62",
        "wType": "Label"
      },
      "i18n_text": "i18n.PayAPerson.ToAccount"
    },
    "p2pActivity": {
      "__events__": {},
      "__info__": {
        "isRoot": true,
        "kuid": "f86e2819805946d3b5a50da0faab3fb1",
        "srcKUID": "f063dde1e14c4bc1877ab95c9dd55ac1",
        "wType": "FlexContainer"
      },
      "isVisible": false,
      "top": {
        "Default": {
          "type": "string",
          "value": "0dp"
        }
      },
      "width": {
        "Default": {
          "type": "string",
          "value": "100%"
        }
      }
    },
    "segP2PActivity": {
      "__events__": {},
      "__info__": {
        "kuid": "b20663db91ec436099d974bc65244cd9",
        "srcKUID": "c11e49fc026948b8808fb5dc1a9eb0d6",
        "wType": "Segment"
      }
    },
    "tablePagination": {
      "__events__": {},
      "__info__": {
        "kuid": "gcdf0ea7049b4acf9b9d619537d6f5b7",
        "srcKUID": "7392734cfd894f64b044f1d82f393a16",
        "wType": "UserWidgetInstance"
      }
    },
    "tablePagination.flxPagination": {
      "__events__": {},
      "__info__": {
        "kuid": "fe9756b8793e44b9865b4977771a07e0",
        "srcKUID": "f9840c01200d406c8a20eaa36bd646ca",
        "wType": "FlexContainer"
      }
    },
    "tablePagination.flxPaginationFirst": {
      "__events__": {},
      "__info__": {
        "kuid": "g32ce6b421c14fe8bd664333be7c70c3",
        "srcKUID": "i64336b028264a5499a9a87faf1bdea5",
        "wType": "FlexContainer"
      }
    },
    "tablePagination.flxPaginationLast": {
      "__events__": {},
      "__info__": {
        "kuid": "d3a7869ee7904a13b85acf2e6ac0dac7",
        "srcKUID": "e9c1a1d254aa4600b026e555ab400bed",
        "wType": "FlexContainer"
      }
    },
    "tablePagination.flxPaginationNext": {
      "__events__": {},
      "__info__": {
        "kuid": "d58c6f17607049c7914ec75ad1610b26",
        "srcKUID": "b3ea5ad744894994aa3e5bfef47deea0",
        "wType": "FlexContainer"
      }
    },
    "tablePagination.flxPaginationPrevious": {
      "__events__": {},
      "__info__": {
        "kuid": "i7caeca6624c431fb0bf2e3e25fc0c38",
        "srcKUID": "c6c628eca8fd46d4be47cf1ab882e30f",
        "wType": "FlexContainer"
      }
    },
    "tablePagination.flxPaginationWrapper": {
      "__events__": {},
      "__info__": {
        "kuid": "g1ba37c37b6846ceba9829f72183e3dd",
        "srcKUID": "f0c795f8e3ea4cd7b7fa1e8628076e71",
        "wType": "FlexContainer"
      }
    },
    "tablePagination.imgPaginationFirst": {
      "__events__": {},
      "__info__": {
        "kuid": "ef7188d897424cbdb700000b0c4c6f39",
        "srcKUID": "d75960a4c67444d2a0dd5ddbbc832c65",
        "wType": "Image"
      }
    },
    "tablePagination.imgPaginationLast": {
      "__events__": {},
      "__info__": {
        "kuid": "c2b1f2ee051148b9a79a6555ced247bf",
        "srcKUID": "ad87538cfbe042339dd238587182c1fe",
        "wType": "Image"
      }
    },
    "tablePagination.imgPaginationNext": {
      "__events__": {},
      "__info__": {
        "kuid": "f4827e87281e4689a3e24483a2c5ad4a",
        "srcKUID": "dc72b11a712c4503a3035989d7ae4c63",
        "wType": "Image"
      }
    },
    "tablePagination.imgPaginationPrevious": {
      "__events__": {},
      "__info__": {
        "kuid": "dab9afa477f944ae86acf5cf543c2753",
        "srcKUID": "d30f762204734597ba7e16117fcdc8aa",
        "wType": "Image"
      }
    },
    "tablePagination.lblPagination": {
      "__events__": {},
      "__info__": {
        "kuid": "f4a87a214f9746f981cfe1e013f801be",
        "srcKUID": "ddf2f933f0014a209dc70aebbf14c7d3",
        "wType": "Label"
      }
    }
  },
  "id": "p2pActivity",
  "info": null,
  "isdatareferenced": false,
  "isvisible": false,
  "kuid": "f86e2819805946d3b5a50da0faab3fb1",
  "layouttype": 2,
  "masterType": 0,
  "name": "kony.ui.UserWidgetInstance",
  "parent": "flxTableView",
  "pf": "frmPayAPerson",
  "snaptogrid": true,
  "sourceUserWidget": "f063dde1e14c4bc1877ab95c9dd55ac1",
  "wType": "UserWidgetInstance"
}