{
  "@class": "com.kony.gen.viz.model.component.KVizUserWidget",
  "DNDConfig": null,
  "__parentReadjusting__": false,
  "_children_": [],
  "_height_": {
    "type": "ref",
    "value": "preferred"
  },
  "_left_": {
    "type": "string",
    "value": "65.30%"
  },
  "_margin_": [
    0,
    0,
    0,
    0
  ],
  "_orientation_": 1,
  "_padding_": [
    0,
    0,
    0,
    0
  ],
  "_percent_": true,
  "_render_": true,
  "_skin_": "s1c10698f564431499c2fef2fbd861d4",
  "_top_": {
    "type": "string",
    "value": "235dp"
  },
  "_width_": {
    "type": "string",
    "value": "28.50%"
  },
  "areflexpropsreferenced": false,
  "autogrowmode": 1,
  "canUpdateUI": true,
  "clipbounds": false,
  "containerweight": 0,
  "dataDiffs": {
    "accountTypesp2p": {
      "__events__": {},
      "__info__": {
        "isRoot": true,
        "kuid": "a9e06dd59634439281383e96b6fc5e5e",
        "srcKUID": "b3be271e134f42249f74fd6222ae14b3",
        "wType": "FlexContainer"
      },
      "isVisible": false,
      "left": {
        "Default": {
          "type": "string",
          "value": "65.30%"
        }
      },
      "top": {
        "Default": {
          "type": "string",
          "value": "235dp"
        }
      },
      "width": {
        "Default": {
          "type": "string",
          "value": "28.50%"
        }
      }
    },
    "flxAccountTypesSegment": {
      "__events__": {},
      "__info__": {
        "kuid": "gc6ae9ebf6194717ae2b45196958c108",
        "srcKUID": "ic7cfc5617094f369519e001907ab7ed",
        "wType": "FlexContainer"
      }
    },
    "imgToolTip": {
      "__events__": {},
      "__info__": {
        "kuid": "fd8dab26563341e0a3733ca2617f9629",
        "srcKUID": "iac380e0ad1c4ad7ba456f5ac6ac3ba7",
        "wType": "Image"
      },
      "left": {
        "Default": {
          "type": "string",
          "value": "88%"
        }
      }
    },
    "segAccountTypes": {
      "__events__": {},
      "__info__": {
        "kuid": "d18ae865c8214e4fbc5f6eabc2992560",
        "srcKUID": "h11eef7fc6494f6e918d3be22ccdfda9",
        "wType": "Segment"
      },
      "data": {
        "desktop": [
          {
            "lblSeparator": {
              "@class": "com.viz.ide.model.segment.SimpleTextSegmentData",
              "text": "lbl"
            },
            "lblUsers": {
              "@class": "com.viz.ide.model.segment.SimpleTextSegmentData",
              "text": "Deactivate P2P Service"
            }
          },
          {
            "lblSeparator": {
              "@class": "com.viz.ide.model.segment.SimpleTextSegmentData",
              "text": "lbl"
            },
            "lblUsers": {
              "@class": "com.viz.ide.model.segment.SimpleTextSegmentData",
              "text": "View / Edit my P2P Settings"
            }
          }
        ]
      },
      "isVisible": true,
      "maxHeight": {
        "Default": {
          "type": "string",
          "value": "105dp"
        }
      }
    }
  },
  "id": "secondaryActions",
  "info": null,
  "isdatareferenced": false,
  "isvisible": false,
  "kuid": "a9e06dd59634439281383e96b6fc5e5e",
  "layouttype": 4,
  "masterType": 0,
  "name": "kony.ui.UserWidgetInstance",
  "parent": "flxMainContainer",
  "pf": "frmPayAPerson",
  "snaptogrid": true,
  "sourceUserWidget": "b3be271e134f42249f74fd6222ae14b3",
  "wType": "UserWidgetInstance"
}