{
  "@class": "com.kony.gen.viz.model.component.KVizLabel",
  "DNDConfig": null,
  "__parentReadjusting__": false,
  "_height_": {
    "type": "string",
    "value": "20dp"
  },
  "_left_": {
    "type": "string",
    "value": "21.30%"
  },
  "_margin_": [
    1,
    1,
    1,
    1
  ],
  "_padding_": [
    0,
    0,
    0,
    0
  ],
  "_skin_": "s29e0b0775f54b798020de33c9989f04",
  "_text_": "Label",
  "_top_": {
    "type": "string",
    "value": "63dp"
  },
  "_width_": {
    "type": "ref",
    "value": "preferred"
  },
  "_wrapping_": 2,
  "android": {
    "textStyle": {
      "letterSpacing": 0,
      "strikeThrough": false
    }
  },
  "canUpdateUI": true,
  "containerweight": 100,
  "contentalignment": 4,
  "id": "CopylblAddYourComments0a96206e6e82d46",
  "info": null,
  "ipad": {
    "psp": {
      "wrapping": 2
    }
  },
  "iphone": {
    "psp": {
      "wrapping": 2
    }
  },
  "isvisible": true,
  "kuid": "f217aab098f242e98598e67dfa831f3c",
  "name": "kony.ui.Label",
  "parent": "flxaddress",
  "pf": "userwidgetmodel",
  "texti18n": "i18n.CustomerFeedback.VERYEASY",
  "tooltip": "",
  "wType": "Label",
  "zindex": 1
}