{
  "DNDConfig": null,
  "__parentReadjusting__": false,
  "_height_": {
    "type": "string",
    "value": "20dp"
  },
  "_left_": {
    "type": "string",
    "value": "2%"
  },
  "_margin_": [
    0,
    0,
    0,
    0
  ],
  "_orientation_": 6,
  "_padding_": [
    0,
    0,
    0,
    0
  ],
  "_percent_": true,
  "_skin_": "sf4c85c506de4687bf0645de2533a314",
  "_top_": {
    "type": "string",
    "value": "0dp"
  },
  "_width_": {
    "type": "string",
    "value": "21dp"
  },
  "allboxes": [],
  "autogrowmode": 0,
  "canUpdateUI": true,
  "children": [
    "imgcheckbox3"
  ],
  "clipbounds": true,
  "containerweight": 100,
  "desktopweb": {
    "psp": {
      "hoverSkin": "sd403771f17f42cbb7aea6cb69a914cc"
    }
  },
  "enablescrolling": true,
  "id": "flxcheckbox3",
  "info": null,
  "isvisible": true,
  "kuid": "c5e4d68a10a245c288c9223c159e7cc4",
  "layouttype": 2,
  "name": "kony.ui.FlexContainer",
  "parent": "flxSecurityQuestionSetting",
  "pf": "userwidgetmodel",
  "snapgridsize": 10,
  "snaptogrid": true,
  "wType": "FlexContainer",
  "widgetalignment": 1,
  "zindex": 5
}