{
  "DNDConfig": null,
  "__parentReadjusting__": false,
  "_height_": {
    "type": "string",
    "value": "81dp"
  },
  "_left_": {
    "type": "string",
    "value": "5.07%"
  },
  "_margin_": [
    0,
    0,
    0,
    0
  ],
  "_orientation_": 6,
  "_padding_": [
    0,
    0,
    0,
    0
  ],
  "_percent_": true,
  "_skin_": "s0304818ef6b43ee9ffb2c6345011548",
  "_top_": {
    "type": "string",
    "value": "390dp"
  },
  "_width_": {
    "type": "string",
    "value": "89.84%"
  },
  "allboxes": [],
  "autogrowmode": 0,
  "canUpdateUI": true,
  "children": [
    "lblAvailableBalance",
    "lblAccType",
    "lblBalance"
  ],
  "clipbounds": true,
  "containerweight": 100,
  "enablescrolling": true,
  "id": "flxBalance",
  "info": null,
  "isvisible": true,
  "kuid": "ge75c0c617974e90ad0a566742083ed1",
  "layouttype": 2,
  "name": "kony.ui.FlexContainer",
  "parent": "acknowledgment",
  "pf": "userwidgetmodel",
  "snapgridsize": 10,
  "snaptogrid": true,
  "wType": "FlexContainer",
  "widgetalignment": 1,
  "zindex": 1
}