{
  "DNDConfig": null,
  "__parentReadjusting__": false,
  "_height_": {
    "type": "string",
    "value": "1px"
  },
  "_left_": {
    "type": "string",
    "value": "0px"
  },
  "_margin_": [
    0,
    0,
    0,
    0
  ],
  "_orientation_": 6,
  "_padding_": [
    0,
    0,
    0,
    0
  ],
  "_percent_": true,
  "_skin_": "s3bd38ffdb374ddfb5e1cef876b795c1",
  "_top_": {
    "type": "string",
    "value": "60px"
  },
  "_width_": {
    "type": "string",
    "value": "100%"
  },
  "allboxes": [],
  "autogrowmode": 0,
  "canUpdateUI": true,
  "children": [],
  "clipbounds": true,
  "containerweight": 100,
  "enablescrolling": true,
  "id": "flxSeparator",
  "info": null,
  "isvisible": true,
  "kuid": "1b175ee7f94a4d988b37a7107557a083",
  "layouttype": 2,
  "name": "kony.ui.FlexContainer",
  "parent": "acknowledgment",
  "pf": "userwidgetmodel",
  "snapgridsize": 10,
  "snaptogrid": true,
  "wType": "FlexContainer",
  "widgetalignment": 1,
  "zindex": 1
}