{
  "@class": "com.kony.gen.viz.model.component.KVizButton",
  "DNDConfig": null,
  "__parentReadjusting__": false,
  "_height_": {
    "type": "string",
    "value": "100%"
  },
  "_left_": {
    "type": "string",
    "value": "0dp"
  },
  "_margin_": [
    6,
    6,
    6,
    6
  ],
  "_padding_": [
    0,
    0,
    0,
    0
  ],
  "_skin_": "s82771fb0d3040339aab7fd2e47af223",
  "_text_": "",
  "_top_": {
    "type": "string",
    "value": "0dp"
  },
  "_width_": {
    "type": "ref",
    "value": "preferred"
  },
  "canUpdateUI": true,
  "containerId": true,
  "containerweight": 100,
  "contentalignment": 5,
  "disabledSkins": {
    "focusSkin": "sf44d06ca8224832827ea7fdff757013"
  },
  "displaytext": true,
  "id": "btnAction",
  "ide_onClick": "AS_Button_g48ebe54643b41a8b1940ce6974cd95a",
  "info": null,
  "isvisible": true,
  "kuid": "a029a6c10d3d4834914cc3af5b5e6026",
  "name": "kony.ui.Button",
  "parent": "flxExternalAccountsTransfers",
  "pf": "segExternalAccountsTransfersSelected",
  "texti18n": "i18n.transfers.viewReport",
  "tooltip": "VIEW REPORT",
  "wType": "Button",
  "zindex": 1,
  "desktopweb": {
    "psp": {
      "hoverSkin": "s4285319e4d34ae1b45e5ef82d61be6b"
    }
  }
}