{
  "@class": "com.kony.gen.viz.model.component.KVizButton",
  "DNDConfig": null,
  "__parentReadjusting__": false,
  "_height_": {
    "type": "ref",
    "value": "preferred"
  },
  "_left_": {
    "type": "string",
    "value": "0dp"
  },
  "_margin_": [
    6,
    6,
    6,
    6
  ],
  "_padding_": [
    0,
    0,
    0,
    0
  ],
  "_skin_": "s82771fb0d3040339aab7fd2e47af223",
  "_text_": "DELETE",
  "_top_": {
    "type": "string",
    "value": "15dp"
  },
  "_width_": {
    "type": "ref",
    "value": "preferred"
  },
  "canUpdateUI": true,
  "containerId": true,
  "containerweight": 100,
  "contentalignment": 5,
  "disabledSkins": {
    "focusSkin": "sf44d06ca8224832827ea7fdff757013"
  },
  "displaytext": true,
  "id": "btnDelete",
  "ide_onClick": "AS_Button_a61805ca8984455683cd2397f588215f",
  "info": null,
  "isvisible": true,
  "kuid": "d28bf11602634c81abfbd73af187bbf7",
  "name": "kony.ui.Button",
  "parent": "flxActions",
  "pf": "segExternalAccountsTransfersSelected",
  "tooltip": "DELETE",
  "wType": "Button",
  "zindex": 1,
  "desktopweb": {
    "psp": {
      "hoverSkin": "s4285319e4d34ae1b45e5ef82d61be6b"
    }
  }
}