{
  "DNDConfig": null,
  "__parentReadjusting__": false,
  "_height_": {
    "type": "string",
    "value": "100%"
  },
  "_left_": {
    "type": "string",
    "value": "0"
  },
  "_margin_": [
    0,
    0,
    0,
    0
  ],
  "_orientation_": 6,
  "_padding_": [
    0,
    0,
    0,
    0
  ],
  "_percent_": true,
  "_skin_": "sa7d8ee21adb4036b27346c07e0009a9",
  "_top_": {
    "type": "string",
    "value": "0dp"
  },
  "_width_": {
    "type": "string",
    "value": "100%"
  },
  "allboxes": [],
  "autogrowmode": 0,
  "canUpdateUI": true,
  "children": [
    "flxExternalAccountsTransfers",
    "lblSeparator",
    "flxDetail",
    "lblRowSeperator"
  ],
  "clipbounds": true,
  "containerId": true,
  "containerweight": 100,
  "enablescrolling": true,
  "id": "flxSelectedRowWrapper",
  "info": null,
  "isvisible": true,
  "kuid": "cb6617732f244c398727245ffa979afb",
  "layouttype": 4,
  "name": "kony.ui.FlexContainer",
  "parent": "flxExternalAccountsTransfersSelected",
  "pf": "segExternalAccountsTransfersSelected",
  "snapgridsize": 10,
  "snaptogrid": true,
  "wType": "FlexContainer",
  "widgetalignment": 1,
  "zindex": 1
}