{
  "DNDConfig": null,
  "__parentReadjusting__": false,
  "_height_": {
    "type": "ref",
    "value": "preferred"
  },
  "_left_": "0dp",
  "_margin_": [
    0,
    0,
    0,
    0
  ],
  "_orientation_": 6,
  "_padding_": [
    0,
    0,
    0,
    0
  ],
  "_percent_": true,
  "_skin_": "s24c92fc23b14f5484b693ee9b8a9b35",
  "_top_": "0dp",
  "_width_": {
    "type": "string",
    "value": "100%"
  },
  "allboxes": [],
  "autogrowmode": 1,
  "canUpdateUI": true,
  "children": [
    "flxHeader",
    "flxSeparator",
    "flxName",
    "flxNickName",
    "flxContactDetail",
    "flxSeparator2",
    "flxPhoneNumber",
    "flxSeparator3",
    "flxThree",
    "flxSeparator4",
    "flxEmail",
    "flxSeparator5",
    "flxFour",
    "flxSeparator6",
    "flxFive",
    "flxSeparator7",
    "flxButtons"
  ],
  "clipbounds": true,
  "containerweight": 100,
  "enablescrolling": true,
  "id": "AddRecipient",
  "info": null,
  "isvisible": true,
  "kuid": "c0bb9d53e717455088d1000d769034ee",
  "layouttype": 4,
  "name": "kony.ui.FlexContainer",
  "parent": "userwidgetmodel",
  "pf": "userwidgetmodel",
  "snapgridsize": 10,
  "snaptogrid": true,
  "vizProps": {
    "hidewidgethierarchy": false
  },
  "wType": "FlexContainer",
  "widgetalignment": 1
}