{
  "@class": "com.kony.gen.viz.model.component.KVizButton",
  "DNDConfig": null,
  "__markedForDelete__": true,
  "__parentReadjusting__": false,
  "_height_": {
    "type": "string",
    "value": "50dp"
  },
  "_margin_": [
    6,
    6,
    6,
    6
  ],
  "_padding_": [
    0,
    0,
    0,
    0
  ],
  "_right_": {
    "type": "string",
    "value": "305dp"
  },
  "_skin_": "s1f8024e78cb40ff8c9569d6c33b94c9",
  "_text_": "CANCEL",
  "_top_": {
    "type": "string",
    "value": "30dp"
  },
  "_width_": {
    "type": "string",
    "value": "32.36%"
  },
  "canUpdateUI": true,
  "containerweight": 100,
  "contentalignment": 5,
  "disabledSkins": {
    "focusSkin": "s3e5412c60b74900b1a897492d635a34"
  },
  "displaytext": true,
  "id": "btnCancel",
  "ide_onClick": "AS_Button_i07efe89f0d94655806e5b008dd3941d",
  "info": null,
  "isvisible": true,
  "kuid": "b6fc048762fd4029a8af5180c27e43d7",
  "name": "kony.ui.Button",
  "parent": "flxButtons",
  "pf": "userwidgetmodel",
  "wType": "Button",
  "zindex": 2,
  "texti18n": "i18n.transfers.Cancel",
  "tooltip": "Cancel"
}