{
  "DNDConfig": null,
  "__markedForDelete__": true,
  "__parentReadjusting__": false,
  "_height_": {
    "type": "string",
    "value": "35dp"
  },
  "_left_": {
    "type": "string",
    "value": "24%"
  },
  "_margin_": [
    0,
    0,
    0,
    0
  ],
  "_orientation_": 6,
  "_padding_": [
    0,
    0,
    0,
    0
  ],
  "_percent_": true,
  "_skin_": "s77c4e10eae54a4a9240a2531c7ca5eb",
  "_top_": {
    "type": "string",
    "value": "34dp"
  },
  "_width_": {
    "type": "string",
    "value": "20dp"
  },
  "allboxes": [],
  "autogrowmode": 0,
  "canUpdateUI": true,
  "children": [
    "imgAddEmail"
  ],
  "clipbounds": true,
  "containerweight": 100,
  "enablescrolling": true,
  "id": "flximgAddEmail",
  "info": null,
  "isvisible": true,
  "kuid": "bdd7303e5b534f3e81e20b74f9771782",
  "layouttype": 2,
  "name": "kony.ui.FlexContainer",
  "parent": "flxAddBtnEmail",
  "pf": "userwidgetmodel",
  "snapgridsize": 10,
  "snaptogrid": true,
  "wType": "FlexContainer",
  "widgetalignment": 1,
  "zindex": 2
}