{
  "DNDConfig": null,
  "__parentReadjusting__": false,
  "_height_": {
    "type": "string",
    "value": "467dp"
  },
  "_left_": {
    "type": "string",
    "value": "0dp"
  },
  "_margin_": [
    0,
    0,
    0,
    0
  ],
  "_orientation_": 6,
  "_padding_": [
    0,
    0,
    0,
    0
  ],
  "_percent_": true,
  "_skin_": "scbd4cac3526468089bf3013adff0549",
  "_top_": {
    "type": "string",
    "value": "0dp"
  },
  "_width_": {
    "type": "string",
    "value": "100%"
  },
  "allboxes": [],
  "autogrowmode": 0,
  "canUpdateUI": true,
  "children": [
    "flxSeparator2",
    "lblFrom",
    "lblTo",
    "listbxFrom",
    "listbxTo",
    "lblDueAmount",
    "flxtxtbox",
    "flxCalender",
    "lblDueDate",
    "lblSend",
    "lblNote",
    "btnPayAmount",
    "btnCancel",
    "tbxOptional",
    "flxInfoDueDate",
    "flxInfoDueAmount",
    "flxRadioPayDueAmount",
    "flxRadioPayOtherAmount",
    "lblPayDueAmount",
    "lblPayOtherAmount",
    "flxa"
  ],
  "clipbounds": true,
  "containerweight": 100,
  "enablescrolling": true,
  "id": "flxContent",
  "info": null,
  "isvisible": true,
  "kuid": "f5c217b414184fee9bbb2859adf3f562",
  "layouttype": 2,
  "name": "kony.ui.FlexContainer",
  "parent": "PayDueAmount",
  "pf": "userwidgetmodel",
  "snapgridsize": 10,
  "snaptogrid": true,
  "wType": "FlexContainer",
  "widgetalignment": 1,
  "zindex": 1
}