{
  "DNDConfig": null,
  "__parentReadjusting__": false,
  "_height_": {
    "type": "string",
    "value": "20dp"
  },
  "_left_": {
    "type": "string",
    "value": "2.20%"
  },
  "_margin_": [
    0,
    0,
    0,
    0
  ],
  "_orientation_": 6,
  "_padding_": [
    0,
    0,
    0,
    0
  ],
  "_percent_": true,
  "_skin_": "sfcac45814424ff3812e7c3f5f327de4",
  "_top_": {
    "type": "string",
    "value": "98dp"
  },
  "_width_": {
    "type": "string",
    "value": "20px"
  },
  "allboxes": [],
  "autogrowmode": 0,
  "canUpdateUI": true,
  "children": [
    "imgRadioPayDueAmount"
  ],
  "clipbounds": true,
  "containerweight": 100,
  "enablescrolling": true,
  "id": "flxRadioPayDueAmount",
  "info": null,
  "isvisible": true,
  "kuid": "a321469f3875409591c5528748da0e28",
  "layouttype": 2,
  "name": "kony.ui.FlexContainer",
  "parent": "flxContent",
  "pf": "userwidgetmodel",
  "snapgridsize": 10,
  "snaptogrid": true,
  "wType": "FlexContainer",
  "widgetalignment": 1,
  "zindex": 2
}