{
  "DNDConfig": null,
  "__parentReadjusting__": false,
  "_height_": {
    "type": "string",
    "value": "40dp"
  },
  "_left_": {
    "type": "string",
    "value": "2.50%"
  },
  "_margin_": [
    0,
    0,
    0,
    0
  ],
  "_orientation_": 6,
  "_padding_": [
    0,
    0,
    0,
    0
  ],
  "_percent_": true,
  "_skin_": "sbf2ed3278d54e9c81a26849afcaaca0",
  "_top_": {
    "type": "string",
    "value": "128dp"
  },
  "_width_": {
    "type": "string",
    "value": "46.60%"
  },
  "allboxes": [],
  "autogrowmode": 0,
  "canUpdateUI": true,
  "children": [
    "flxDollar",
    "tbxAmount",
    "flxSeperator"
  ],
  "clipbounds": true,
  "containerweight": 100,
  "enablescrolling": true,
  "id": "flxtxtbox",
  "info": null,
  "isvisible": true,
  "kuid": "bc542c36d4324251bff6c4a8b0be50c4",
  "layouttype": 2,
  "name": "kony.ui.FlexContainer",
  "parent": "flxContent",
  "pf": "userwidgetmodel",
  "snapgridsize": 10,
  "snaptogrid": true,
  "wType": "FlexContainer",
  "widgetalignment": 1,
  "zindex": 2
}