{
  "@class": "com.kony.gen.viz.model.component.KVizLabel",
  "DNDConfig": null,
  "__parentReadjusting__": false,
  "_height_": {
    "type": "string",
    "value": "28px"
  },
  "_left_": {
    "type": "string",
    "value": "50.80%"
  },
  "_margin_": [
    1,
    1,
    1,
    1
  ],
  "_padding_": [
    0,
    0,
    0,
    0
  ],
  "_skin_": "s9739fe0569d4851a6e139a20b64dd6e",
  "_text_": "(Due Amount: $1000.00)",
  "_top_": {
    "type": "string",
    "value": "134dp"
  },
  "_width_": {
    "type": "string",
    "value": "25%"
  },
  "_wrapping_": 2,
  "android": {
    "textStyle": {
      "letterSpacing": 0,
      "strikeThrough": false
    }
  },
  "canUpdateUI": true,
  "containerweight": 100,
  "contentalignment": 4,
  "id": "lblDueAmount",
  "info": null,
  "ipad": {
    "psp": {
      "wrapping": 2
    }
  },
  "iphone": {
    "psp": {
      "wrapping": 2
    }
  },
  "isvisible": false,
  "kuid": "c8fdc0c770ee403ca9da70fe4d7a67d2",
  "name": "kony.ui.Label",
  "parent": "flxContent",
  "pf": "userwidgetmodel",
  "tooltip": "",
  "wType": "Label",
  "zindex": 2
}