{
  "@class": "com.kony.gen.viz.model.component.KVizTextBox2",
  "DNDConfig": null,
  "__parentReadjusting__": false,
  "_bottom_": {
    "type": "string",
    "value": "0dp"
  },
  "_height_": {
    "type": "string",
    "value": "100%"
  },
  "_left_": {
    "type": "string",
    "value": "10%"
  },
  "_margin_": [
    0,
    0,
    0,
    0
  ],
  "_padding_": [
    3,
    0,
    0,
    0
  ],
  "_placeholder_": "",
  "_right_": {
    "type": "string",
    "value": "0dp"
  },
  "_skin_": "s447b8a098d345d98076d62c68d73acf",
  "_text_": "1000.00",
  "_top_": {
    "type": "string",
    "value": "0dp"
  },
  "_width_": {
    "type": "string",
    "value": "90%"
  },
  "autocapitalize": "none",
  "autocomplete": false,
  "autocorrect": false,
  "autofilter": false,
  "canUpdateUI": true,
  "containerheight": "",
  "containerheightmode": 1,
  "containerweight": 100,
  "contentalignment": 1,
  "desktopweb": {},
  "focusskin": "s80a8c5539a441ee9b9b49917cc45cc2",
  "id": "tbxAmount",
  "info": null,
  "isvisible": true,
  "keyboardstyle": "A",
  "keyboardtype": "A",
  "kiosk": {
    "psp": {
      "autoFilter": false
    }
  },
  "kuid": "a70bbba8de184ab8a4f6d4c9ce312d0b",
  "maxtextlength": "",
  "mode": "A",
  "name": "kony.ui.TextBox2",
  "paddinginpixel": false,
  "parent": "flxtxtbox",
  "pf": "userwidgetmodel",
  "securetextentry": false,
  "textinputmode": "A",
  "viewtype": "default",
  "wType": "TextField",
  "zindex": 1
}