{
  "@class": "com.kony.gen.viz.model.component.KVizLabel",
  "DNDConfig": null,
  "__parentReadjusting__": false,
  "_height_": {
    "type": "string",
    "value": "20dp"
  },
  "_left_": {
    "type": "string",
    "value": "3.50%"
  },
  "_margin_": [
    1,
    1,
    1,
    1
  ],
  "_padding_": [
    0,
    0,
    0,
    0
  ],
  "_skin_": "sb57ddd930ef42d5b307efc805cba3d6",
  "_text_": "Label",
  "_top_": {
    "type": "string",
    "value": "0dp"
  },
  "_width_": {
    "type": "string",
    "value": "90%"
  },
  "_wrapping_": 2,
  "android": {
    "textStyle": {
      "letterSpacing": 0,
      "strikeThrough": false
    }
  },
  "canUpdateUI": true,
  "containerweight": 100,
  "contentalignment": 4,
  "id": "lblQuestion1",
  "info": null,
  "ipad": {
    "psp": {
      "wrapping": 2
    }
  },
  "iphone": {
    "psp": {
      "wrapping": 2
    }
  },
  "isvisible": true,
  "kuid": "ha829fdc3b624ab597f80dcbe0857f28",
  "name": "kony.ui.Label",
  "parent": "flxQuestion1",
  "pf": "segCustomerFeedbackAck",
  "texti18n": "i18n.CustomerFeedback.HowEasyWasTheMoneyTransferProcess?",
  "tooltip": "",
  "wType": "Label",
  "zindex": 1
}