{
  "@class": "com.kony.gen.viz.model.component.KVizButton",
  "DNDConfig": null,
  "__markedForDelete__": true,
  "__parentReadjusting__": false,
  "_height_": {
    "type": "ref",
    "value": "preferred"
  },
  "_left_": {
    "type": "string",
    "value": "75%"
  },
  "_margin_": [
    6,
    6,
    6,
    6
  ],
  "_padding_": [
    0,
    0,
    0,
    0
  ],
  "_skin_": "sdb9d18f726a491390c0de98860b057a",
  "_text_": "Read More",
  "_top_": {
    "type": "string",
    "value": "111dp"
  },
  "_width_": {
    "type": "ref",
    "value": "preferred"
  },
  "canUpdateUI": true,
  "containerweight": 100,
  "contentalignment": 5,
  "displaytext": true,
  "focusskin": "sf44d06ca8224832827ea7fdff757013",
  "id": "btnReadMore",
  "info": null,
  "isvisible": true,
  "kuid": "d8471f6e8e7b4bc590ba922f0cadf224",
  "name": "kony.ui.Button",
  "parent": "flxCVVDescription",
  "pf": "userwidgetmodel",
  "wType": "Button",
  "zindex": 1
}