{
  "@class": "com.kony.gen.viz.model.component.KVizLabel",
  "DNDConfig": null,
  "__parentReadjusting__": false,
  "_height_": {
    "type": "ref",
    "value": "preferred"
  },
  "_left_": {
    "type": "string",
    "value": "2%"
  },
  "_margin_": [
    1,
    1,
    1,
    1
  ],
  "_padding_": [
    0,
    0,
    0,
    0
  ],
  "_skin_": "sf0cb6e968274aa389aafbf14ff806fd",
  "_text_": "Label",
  "_top_": {
    "type": "string",
    "value": "23dp"
  },
  "_width_": {
    "type": "string",
    "value": "33%"
  },
  "_wrapping_": 2,
  "android": {
    "textStyle": {
      "letterSpacing": 0,
      "strikeThrough": false
    }
  },
  "canUpdateUI": true,
  "containerweight": 100,
  "contentalignment": 4,
  "id": "lblAnswer3",
  "info": null,
  "ipad": {
    "psp": {
      "wrapping": 2
    }
  },
  "iphone": {
    "psp": {
      "wrapping": 2
    }
  },
  "isvisible": true,
  "kuid": "d8b1060a8780494e98a995f1d2fdb1c1",
  "name": "kony.ui.Label",
  "parent": "flxQuestion3",
  "pf": "userwidgetmodel",
  "texti18n": "i18n.CustomerFeedback.userfeedback",
  "tooltip": "",
  "wType": "Label",
  "zindex": 1
}