{
  "DNDConfig": null,
  "__parentReadjusting__": false,
  "_height_": {
    "type": "string",
    "value": "100dp"
  },
  "_left_": {
    "type": "string",
    "value": "0dp"
  },
  "_margin_": [
    0,
    0,
    0,
    0
  ],
  "_orientation_": 6,
  "_padding_": [
    0,
    0,
    0,
    0
  ],
  "_percent_": true,
  "_render_": true,
  "_skin_": "s5a5f3773b7b479c935720bf16debe36",
  "_top_": {
    "type": "string",
    "value": "0dp"
  },
  "_width_": {
    "type": "string",
    "value": "100%"
  },
  "allboxes": [],
  "android": {
    "render": false
  },
  "autogrowmode": 0,
  "canUpdateUI": true,
  "children": [
    "imgProfile",
    "flxWelcome",
    "lblLastLoggedIn"
  ],
  "clipbounds": true,
  "containerweight": 100,
  "enablescrolling": true,
  "id": "flxWelcomeWrapper",
  "info": null,
  "ipad": {
    "render": false
  },
  "isvisible": true,
  "kuid": "de9ba888697a4d959a0ca56515dd9fef",
  "layouttype": 2,
  "name": "kony.ui.FlexContainer",
  "parent": "welcome",
  "pf": "userwidgetmodel",
  "snapgridsize": 10,
  "snaptogrid": true,
  "spaandroidtablet": {
    "render": false
  },
  "spaipad": {
    "render": false
  },
  "spawindowstablet": {
    "render": false
  },
  "wType": "FlexContainer",
  "widgetalignment": 1,
  "windows8": {
    "render": false
  },
  "zindex": 1
}