{
  "@class": "com.kony.gen.viz.model.component.KVizImage2",
  "DNDConfig": null,
  "__parentReadjusting__": false,
  "_base64_": null,
  "_height_": {
    "type": "string",
    "value": "54dp"
  },
  "_left_": {
    "type": "string",
    "value": "20dp"
  },
  "_margin_": [
    0,
    0,
    0,
    0
  ],
  "_padding_": [
    0,
    0,
    0,
    0
  ],
  "_skin_": "s78a5f26c9f14cec9ebed1bb46098f80",
  "_src_": "username_img.png",
  "_width_": {
    "type": "string",
    "value": "54dp"
  },
  "canUpdateUI": true,
  "centery": {
    "type": "string",
    "value": "50%"
  },
  "containerweight": 100,
  "context": {
    "channel": "desktop",
    "formID": "uwuf05a42a52124d868b726e5c2b6798b8",
    "platform": "desktopweb",
    "templateType": "userwidgets",
    "topLevelBox": null
  },
  "id": "imgProfile",
  "imagescalemode": 0,
  "imagewhiledownloading": "img_transparent.png",
  "info": null,
  "isvisible": false,
  "kuid": "f01c6e00b7c04a5cb897306dc2204d69",
  "name": "kony.ui.Image2",
  "parent": "flxWelcomeWrapper",
  "pf": "userwidgetmodel",
  "srcType": 1,
  "wType": "Image",
  "widgetalignment": 5,
  "zindex": 1
}