{
  "@class": "com.kony.gen.viz.model.component.KVizButton",
  "DNDConfig": null,
  "__parentReadjusting__": false,
  "_height_": {
    "type": "string",
    "value": "50dp"
  },
  "_left_": {
    "type": "string",
    "value": "69.12%"
  },
  "_margin_": [
    6,
    6,
    6,
    6
  ],
  "_padding_": [
    0,
    0,
    0,
    0
  ],
  "_skin_": "s5dbba5b9dac4f33998dc76f09b4e9d4",
  "_text_": "",
  "_top_": {
    "type": "string",
    "value": "20dp"
  },
  "_width_": {
    "type": "string",
    "value": "29.47%"
  },
  "canUpdateUI": true,
  "containerweight": 100,
  "contentalignment": 5,
  "desktopweb": {
    "psp": {
      "hoverSkin": "s1adc431d69b4514a216da86d642889f"
    }
  },
  "disabledSkins": {
    "focusSkin": "sf44d06ca8224832827ea7fdff757013"
  },
  "displaytext": true,
  "id": "btnCreateAccountLogin",
  "info": null,
  "isvisible": true,
  "kuid": "a8683e81e7cc423f8d0814db07851eb7",
  "name": "kony.ui.Button",
  "parent": "flxCreateAccountButtons",
  "pf": "userwidgetmodel",
  "texti18n": "i18n.common.login",
  "tooltip": "Login",
  "wType": "Button",
  "zindex": 1
}