{
  "DNDConfig": null,
  "__parentReadjusting__": false,
  "_height_": {
    "type": "string",
    "value": "50dp"
  },
  "_margin_": [
    0,
    0,
    0,
    0
  ],
  "_orientation_": 6,
  "_padding_": [
    0,
    0,
    0,
    0
  ],
  "_percent_": true,
  "_skin_": "s20eb5d866414b68b05b95897a59e24d",
  "_width_": {
    "type": "string",
    "value": "50dp"
  },
  "allboxes": [],
  "autogrowmode": 0,
  "canUpdateUI": true,
  "centerx": {
    "type": "string",
    "value": "43%"
  },
  "centery": {
    "type": "string",
    "value": "43%"
  },
  "children": [],
  "clipbounds": true,
  "containerweight": 100,
  "enablescrolling": true,
  "id": "flximgUserResetWrapper",
  "info": null,
  "isvisible": false,
  "kuid": "h5afd16f67ed47a08d47bc8e38fbe230",
  "layouttype": 2,
  "name": "kony.ui.FlexContainer",
  "parent": "flxResetUserImg",
  "pf": "userwidgetmodel",
  "snapgridsize": 10,
  "snaptogrid": true,
  "wType": "FlexContainer",
  "widgetalignment": 1,
  "zindex": 2
}