{
  "DNDConfig": null,
  "__parentReadjusting__": false,
  "_height_": {
    "type": "string",
    "value": "40dp"
  },
  "_margin_": [
    0,
    0,
    0,
    0
  ],
  "_orientation_": 6,
  "_padding_": [
    0,
    0,
    0,
    0
  ],
  "_percent_": true,
  "_right_": {
    "type": "string",
    "value": "165dp"
  },
  "_skin_": "s44ed4e91f634af69bece269662906ee",
  "_top_": {
    "type": "string",
    "value": "5.28%"
  },
  "_width_": {
    "type": "string",
    "value": "40dp"
  },
  "allboxes": [],
  "autogrowmode": 0,
  "canUpdateUI": true,
  "centery": {
    "type": "string",
    "value": "50%"
  },
  "children": [
    "imgUserBoundary",
    "flximgUserResetWrapper",
    "imgUserReset",
    "imgheaderdefault"
  ],
  "clipbounds": false,
  "containerweight": 100,
  "enablescrolling": true,
  "id": "flxResetUserImg",
  "info": null,
  "isvisible": true,
  "kuid": "b607db11113a48bd98a26d9376fe30ab",
  "layouttype": 2,
  "name": "kony.ui.FlexContainer",
  "parent": "headermenu",
  "pf": "userwidgetmodel",
  "snapgridsize": 10,
  "snaptogrid": true,
  "wType": "FlexContainer",
  "widgetalignment": 1,
  "zindex": 1
}