{
  "@class": "com.kony.gen.viz.model.component.KVizButton",
  "DNDConfig": null,
  "__parentReadjusting__": false,
  "_height_": {
    "type": "string",
    "value": "100%"
  },
  "_left_": {
    "type": "string",
    "value": "-1dp"
  },
  "_margin_": [
    6,
    6,
    6,
    6
  ],
  "_padding_": [
    3,
    0,
    3,
    0
  ],
  "_skin_": "sa60b81658b5497aac2e10b244c830c2",
  "_text_": "ACCOUNT SUMMARY",
  "_width_": {
    "type": "ref",
    "value": "preferred"
  },
  "canUpdateUI": true,
  "centery": {
    "type": "string",
    "value": "50%"
  },
  "containerweight": 100,
  "contentalignment": 5,
  "disabledSkins": {
    "focusSkin": "sf44d06ca8224832827ea7fdff757013"
  },
  "displaytext": true,
  "id": "btnAccountSummary",
  "info": null,
  "isvisible": false,
  "kuid": "fa6785498c4a473ba42c844279febcae",
  "name": "kony.ui.Button",
  "paddingLocked": false,
  "paddinginpixel": false,
  "parent": "flxTabs",
  "pf": "userwidgetmodel",
  "tooltip": "Account Summary",
  "wType": "Button",
  "zindex": 2
}