{
  "BusinessControllerConfig": {
    "BusinessControllerClass": "BillPayModule/BusinessControllers/BusinessController",
    "CommandHandler": [
      {
        "CommandHandler": "BillPayModule/BusinessControllers/createPayee_CommandHandler",
        "CommandId": "com.kony.billpay.createPayee"
      },
      {
        "CommandHandler": "BillPayModule/BusinessControllers/getBillPayees_CommandHandler",
        "CommandHandlerExtension": "BillPayModule/BusinessControllers/getBillPayees_CommandHandler_Extn",
        "CommandId": "com.kony.billpay.getBillPayees"
      },
      {
        "CommandHandler": "BillPayModule/BusinessControllers/updateBillPayee_CommandHandler",
        "CommandId": "com.kony.billpay.updateBillPayee"
      },
      {
        "CommandHandler": "BillPayModule/BusinessControllers/deleteBillPayee_CommandHandler",
        "CommandId": "com.kony.billpay.deleteBillPayee"
      },
      {
        "CommandHandler": "BillPayModule/BusinessControllers/getBillsForUser_CommandHandler",
        "CommandId": "com.kony.billpay.getBillsForUser"
      },
      {
        "CommandHandler": "BillPayModule/BusinessControllers/createBill_CommandHandler",
        "CommandId": "com.kony.billpay.createBill"
      },
      {
        "CommandHandler": "BillPayModule/BusinessControllers/updateBill_CommandHandler",
        "CommandId": "com.kony.billpay.updateBill"
      },
      {
        "CommandHandler": "BillPayModule/BusinessControllers/createPayment_CommandHandler",
        "CommandId": "com.kony.billpay.createPayment"
      },
      {
        "CommandHandler": "BillPayModule/BusinessControllers/getBillerCategories_CommandHandler",
        "CommandId": "com.kony.billpay.getBillerCategories"
      },
      {
        "CommandHandler": "BillPayModule/BusinessControllers/getMasterBillers_CommandHandler",
        "CommandId": "com.kony.billpay.getMasterBillers"
      },
      {
        "CommandHandler": "BillPayModule/BusinessControllers/getBillerByAccountNumber_CommandHandler",
        "CommandId": "com.kony.billpay.getBillerByAccountNumber"
      },
      {
        "CommandHandler": "BillPayModule/BusinessControllers/searchBillerByName_CommandHandler",
        "CommandId": "com.kony.billpay.searchBillerByName"
      },
      {
        "CommandHandler": "BillPayModule/BusinessControllers/getBillsDueForUser_CommandHandler",
        "CommandId": "com.kony.billpay.getBillsDueForUser"
      },
      {
        "CommandHandler": "BillPayModule/BusinessControllers/getBillsScheduledForUser_CommandHandler",
        "CommandId": "com.kony.billpay.getBillsScheduledForUser"
      },
      {
        "CommandHandler": "BillPayModule/BusinessControllers/getUserBillHistory_CommandHandler",
        "CommandId": "com.kony.billpay.getUserBillHistory"
      },
      {
        "CommandHandler": "BillPayModule/BusinessControllers/modifyEbillStatus_CommandHandler",
        "CommandId": "com.kony.billpay.modifyEbillStatus"
      },
      {
        "CommandHandler": "BillPayModule/BusinessControllers/getPayeeBills_CommandHandler",
        "CommandId": "com.kony.billpay.getPayeeBills"
      },
      {
        "CommandHandler": "BillPayModule/BusinessControllers/getPreviousBillsForBiller_CommandHandler",
        "CommandId": "com.kony.billpay.getPreviousBillsForBiller"
      },
      {
        "CommandHandler": "BillPayModule/BusinessControllers/checkBillPayEligibilityForUser_CommandHandler",
        "CommandId": "com.kony.billpay.checkBillPayEligibilityForUser"
      },
      {
        "CommandHandler": "BillPayModule/BusinessControllers/activateBillPaymentForUser_CommandHandler",
        "CommandId": "com.kony.billpay.activateBillPaymentForUser"
      },
      {
        "CommandHandler": "BillPayModule/BusinessControllers/updateUsersPreferredBillPayAccountNumber_CommandHandler",
        "CommandId": "com.kony.billpay.updateUsersPreferredBillPayAccountNumber"
      },
      {
        "CommandHandler": "BillPayModule/BusinessControllers/createBulkBillPay_CommandHandler",
        "CommandHandlerExtension": "BillPayModule/BusinessControllers/createBulkBillPay_CommandHandler_Extn",
        "CommandId": "com.kony.billpay.createBulkBillPay"
      },
      {
        "CommandHandler": "BillPayModule/BusinessControllers/cancelScheduledTransactionOccurrence_CommandHandler",
        "CommandId": "com.kony.billpay.cancelScheduledTransactionOccurrence"
      },
      {
        "CommandHandler": "ProfileModule/BusinessControllers/setDefaultUserAccounts_CommandHandler",
        "CommandId": "com.kony.billpay.setDefaultUserAccounts"
      },
      {
        "CommandHandler": "BillPayModule/BusinessControllers/setShowBillPayFromAccPopUp_CommandHandler",
        "CommandId": "com.kony.billpay.setShowBillPayFromAccPopUp"
      }
    ]
  },
  "Forms": {
    "desktop": {
      "frmAcknowledgement": {
        "Controller": "BillPayModule/frmAcknowledgementController",
        "ControllerExtensions": [
          "frmAcknowledgementController_Extn"
        ],
        "FormController": "kony.mvc.MDAFormController",
        "FormName": "BillPayModule/frmAcknowledgement",
        "friendlyName": "frmAcknowledgement"
      },
      "frmBillPay": {
        "Controller": "BillPayModule/frmBillPayController",
        "ControllerExtensions": [
          "frmBillPayController_Extn"
        ],
        "FormController": "kony.mvc.MDAFormController",
        "FormName": "BillPayModule/frmBillPay",
        "friendlyName": "frmBillPay"
      },
      "frmConfirm": {
        "Controller": "BillPayModule/frmConfirmController",
        "ControllerExtensions": [
          "frmConfirmController_Extn"
        ],
        "FormController": "kony.mvc.MDAFormController",
        "FormName": "BillPayModule/frmConfirm",
        "friendlyName": "frmConfirm"
      },
      "frmPrintTransfer": {
        "Controller": "AccountsModule/frmPrintTransferController",
        "ControllerExtensions": [],
        "FormController": "kony.mvc.MDAFormController",
        "FormName": "AccountsModule/frmPrintTransfer",
        "friendlyName": "frmPrintTransfer"
      }
    }
  },
  "ModuleName": "BillPayModule",
  "PresentationControllerConfig": {
    "Default": {
      "PresentationControllerClass": "BillPayModule/PresentationControllers/PresentationController",
      "PresentationExtensions": [
        "BillPayModule/PresentationControllers/PresentationController_Extn",
        "TopBarModule/PresentationControllers/PresentationController",
        "SideMenuModule/PresentationControllers/PresentationController"
      ]
    }
  }
}