{
  "@class": "com.kony.gen.viz.model.component.KVizButton",
  "DNDConfig": null,
  "__parentReadjusting__": false,
  "_height_": {
    "type": "string",
    "value": "8.09%"
  },
  "_margin_": [
    6,
    6,
    6,
    6
  ],
  "_padding_": [
    0,
    0,
    0,
    0
  ],
  "_skin_": "sfbbba35ede4457b94eb681b72349b98",
  "_text_": "",
  "_top_": {
    "type": "string",
    "value": "12.87%"
  },
  "_width_": {
    "type": "string",
    "value": "85%"
  },
  "canUpdateUI": true,
  "centerx": {
    "type": "string",
    "value": "50%"
  },
  "containerweight": 100,
  "contentalignment": 5,
  "desktopweb": {
    "blockedUISkin": "s6296ebeb163492d973121eb1c4b9727",
    "psp": {
      "hoverSkin": "s81054b5e2b74f17a5261991df565427"
    }
  },
  "displaytext": true,
  "focusskin": "s5a4f67acd3e47b9be6d6910a7a6686f",
  "id": "btnSend",
  "info": null,
  "isvisible": true,
  "kuid": "c4097b4c835c4f659680acf88644f47a",
  "name": "kony.ui.Button",
  "parent": "sendOTP1",
  "pf": "userwidgetmodel",
  "texti18n": "i18n.common.send",
  "tooltip": "Send",
  "wType": "Button",
  "zindex": 1
}