{
  "DNDConfig": null,
  "_height_": {
    "type": "string",
    "value": "20dp"
  },
  "_margin_": [
    0,
    0,
    0,
    0
  ],
  "_orientation_": 6,
  "_padding_": [
    0,
    0,
    0,
    0
  ],
  "_percent_": true,
  "_skin_": "sf86c22f23e6468f9c0b2ab60b35bfe1",
  "allboxes": [],
  "autogrowmode": 0,
  "canUpdateUI": true,
  "children": [
    "imgDot",
    "lblInfo"
  ],
  "clipbounds": true,
  "containerId": true,
  "containerweight": 100,
  "controllerInfo": {
    "default": {
      "channel": "desktop",
      "name": "flxRulesViewInfoController"
    }
  },
  "desktopweb": {
    "psp": {
      "hoverSkin": "s824f3ac025e47cfaf75ba9696b5ae0f"
    }
  },
  "disabledSkins": {},
  "enablescrolling": true,
  "focusskin": "s824f3ac025e47cfaf75ba9696b5ae0f",
  "id": "flxRulesViewInfo",
  "info": null,
  "isTemplate": true,
  "isvisible": true,
  "kuid": "cea0d1fe1cf140289df41d742ae3af6b",
  "layouttype": 2,
  "name": "kony.ui.FlexContainer",
  "parent": "segAccountTypesWireTransfer",
  "pf": "segAccountTypesWireTransfer",
  "snapgridsize": 10,
  "snaptogrid": true,
  "wType": "FlexContainer",
  "widgetalignment": 1
}