{
  "DNDConfig": null,
  "__parentReadjusting__": false,
  "_height_": {
    "type": "string",
    "value": "50dp"
  },
  "_left_": {
    "type": "string",
    "value": "0dp"
  },
  "_margin_": [
    0,
    0,
    0,
    0
  ],
  "_orientation_": 6,
  "_padding_": [
    0,
    0,
    0,
    0
  ],
  "_percent_": true,
  "_skin_": "sec6a31ace8e4d1d8b093e2542d6b6d2",
  "_top_": {
    "type": "string",
    "value": "0dp"
  },
  "_width_": {
    "type": "string",
    "value": "100%"
  },
  "allboxes": [],
  "autogrowmode": 0,
  "canUpdateUI": true,
  "centerx": {
    "type": "string",
    "value": "50.00%"
  },
  "children": [
    "flxImgContainer",
    "rtxCVV"
  ],
  "clipbounds": true,
  "containerweight": 100,
  "enablescrolling": true,
  "id": "AlterneteActionsP",
  "info": null,
  "isvisible": true,
  "kuid": "6dcc20c15f8b483f870f827f1f9121da",
  "layouttype": 3,
  "name": "kony.ui.FlexContainer",
  "parent": "userwidgetmodel",
  "pf": "userwidgetmodel",
  "snapgridsize": 10,
  "snaptogrid": true,
  "vizProps": {
    "hidewidgethierarchy": false
  },
  "wType": "FlexContainer",
  "widgetalignment": 1
}