{
  "@class": "com.kony.gen.viz.model.component.KVizButton",
  "DNDConfig": null,
  "__parentReadjusting__": false,
  "_height_": {
    "type": "string",
    "value": "50dp"
  },
  "_margin_": [
    6,
    6,
    6,
    6
  ],
  "_padding_": [
    0,
    0,
    0,
    0
  ],
  "_right_": {
    "type": "string",
    "value": "21.20%"
  },
  "_skin_": "s32f67802321463884107a44440d62c8",
  "_text_": "",
  "_width_": {
    "type": "string",
    "value": "18.81%"
  },
  "canUpdateUI": true,
  "centery": {
    "type": "string",
    "value": "50%"
  },
  "containerweight": 100,
  "contentalignment": 5,
  "desktopweb": {
    "psp": {
      "hoverSkin": "s81054b5e2b74f17a5261991df565427"
    }
  },
  "displaytext": true,
  "focusskin": "s5a4f67acd3e47b9be6d6910a7a6686f",
  "id": "btnBackToAccoutnDetails",
  "info": null,
  "isvisible": true,
  "kuid": "b75e078af9564aa186366890825d26ab",
  "name": "kony.ui.Button",
  "parent": "flxAckButtons",
  "pf": "userwidgetmodel",
  "texti18n": "i18n.ViewStatements.BackToAccountDetails",
  "tooltip": "Back to Account Details",
  "wType": "Button",
  "zindex": 1
}