{
  "@class": "com.kony.gen.viz.model.container.KVizSegment2",
  "DNDConfig": null,
  "__markedForDelete__": true,
  "__parentReadjusting__": false,
  "_data_": [
    {},
    {},
    {}
  ],
  "_height_": {
    "type": "ref",
    "value": "preferred"
  },
  "_indicator_": "none",
  "_left_": {
    "type": "string",
    "value": "0dp"
  },
  "_margin_": [
    0,
    0,
    0,
    0
  ],
  "_orientation_": 2,
  "_padding_": [
    0,
    0,
    0,
    0
  ],
  "_top_": {
    "type": "string",
    "value": "0dp"
  },
  "_width_": {
    "type": "string",
    "value": "100%"
  },
  "autogrowmode": 1,
  "canUpdateUI": true,
  "containerweight": 100,
  "counter": "01",
  "desktop": {
    "_data_": [
      {
        "lblAmount1": {
          "@class": "com.viz.ide.model.segment.SimpleTextSegmentData",
          "i18nkey": "i18n.StopCheckPayments.Amount$",
          "text": "Recipient Name :"
        },
        "lblAmount2": {
          "@class": "com.viz.ide.model.segment.SimpleTextSegmentData",
          "i18nkey": "i18n.StopCheckPayments.Amount$",
          "text": "Recipient Name :"
        },
        "lblDate1": {
          "@class": "com.viz.ide.model.segment.SimpleTextSegmentData",
          "i18nkey": "i18n.StopCheckPayments.Date",
          "text": "Recipient Name :"
        },
        "lblDate2": {
          "@class": "com.viz.ide.model.segment.SimpleTextSegmentData",
          "i18nkey": "i18n.StopCheckPayments.Date",
          "text": "Recipient Name :"
        },
        "lblFrom1": {
          "@class": "com.viz.ide.model.segment.SimpleTextSegmentData",
          "i18nkey": "i18n.StopCheckPayments.from",
          "text": "Recipient Name :"
        },
        "lblFrom2": {
          "@class": "com.viz.ide.model.segment.SimpleTextSegmentData",
          "i18nkey": "i18n.StopCheckPayments.from",
          "text": "Recipient Name :"
        },
        "lblNotes1": {
          "@class": "com.viz.ide.model.segment.SimpleTextSegmentData",
          "i18nkey": "i18n.StopCheckPayments.Notes",
          "text": "Recipient Name :"
        },
        "lblNotes2": {
          "@class": "com.viz.ide.model.segment.SimpleTextSegmentData",
          "i18nkey": "i18n.StopCheckPayments.Notes",
          "text": "Recipient Name :"
        },
        "lblPayee1": {
          "@class": "com.viz.ide.model.segment.SimpleTextSegmentData",
          "i18nkey": "i18n.StopCheckPayments.Payee",
          "text": "Recipient Name :"
        },
        "lblPayee2": {
          "@class": "com.viz.ide.model.segment.SimpleTextSegmentData",
          "i18nkey": "i18n.StopCheckPayments.Payee",
          "text": "Recipient Name :"
        },
        "lblReferenceNumber1": {
          "@class": "com.viz.ide.model.segment.SimpleTextSegmentData",
          "i18nkey": "i18n.StopCheckPayments.Referenceno",
          "text": "Recipient Name :"
        },
        "lblReferenceNumber2": {
          "@class": "com.viz.ide.model.segment.SimpleTextSegmentData",
          "i18nkey": "i18n.StopCheckPayments.Referenceno",
          "text": "Recipient Name :"
        },
        "lblType1": {
          "@class": "com.viz.ide.model.segment.SimpleTextSegmentData",
          "text": "Type:"
        },
        "lblType2": {
          "@class": "com.viz.ide.model.segment.SimpleTextSegmentData",
          "text": "Type:"
        },
        "rtxAmount1": {
          "@class": "com.viz.ide.model.segment.SimpleTextSegmentData",
          "text": "$ 98.44\n"
        },
        "rtxAmount2": {
          "@class": "com.viz.ide.model.segment.SimpleTextSegmentData",
          "text": "$ 98.44\n"
        },
        "rtxDate1": {
          "@class": "com.viz.ide.model.segment.SimpleTextSegmentData",
          "text": "06/05/2017\n"
        },
        "rtxDate2": {
          "@class": "com.viz.ide.model.segment.SimpleTextSegmentData",
          "text": "06/05/2017\n"
        },
        "rtxFrom1": {
          "@class": "com.viz.ide.model.segment.SimpleTextSegmentData",
          "text": "Personal Checking….1234\n"
        },
        "rtxFrom2": {
          "@class": "com.viz.ide.model.segment.SimpleTextSegmentData",
          "text": "Personal Checking….1234\n"
        },
        "rtxNotes1": {
          "@class": "com.viz.ide.model.segment.SimpleTextSegmentData",
          "text": "Time Warner Cable On-Line\n"
        },
        "rtxNotes2": {
          "@class": "com.viz.ide.model.segment.SimpleTextSegmentData",
          "text": "Time Warner Cable On-Line\n"
        },
        "rtxPayee1": {
          "@class": "com.viz.ide.model.segment.SimpleTextSegmentData",
          "text": "Time Warner\n"
        },
        "rtxPayee2": {
          "@class": "com.viz.ide.model.segment.SimpleTextSegmentData",
          "text": "Time Warner\n"
        },
        "rtxReferenceNumber1": {
          "@class": "com.viz.ide.model.segment.SimpleTextSegmentData",
          "text": "9845121"
        },
        "rtxReferenceNumber2": {
          "@class": "com.viz.ide.model.segment.SimpleTextSegmentData",
          "text": "9845121"
        },
        "rtxType1": {
          "@class": "com.viz.ide.model.segment.SimpleTextSegmentData",
          "text": "Bill Pay\n"
        },
        "rtxType2": {
          "@class": "com.viz.ide.model.segment.SimpleTextSegmentData",
          "text": "Bill Pay\n"
        }
      },
      {
        "lblAmount1": {
          "@class": "com.viz.ide.model.segment.SimpleTextSegmentData",
          "i18nkey": "i18n.StopCheckPayments.Amount$",
          "text": "Recipient Name :"
        },
        "lblAmount2": {
          "@class": "com.viz.ide.model.segment.SimpleTextSegmentData",
          "i18nkey": "i18n.StopCheckPayments.Amount$",
          "text": "Recipient Name :"
        },
        "lblDate1": {
          "@class": "com.viz.ide.model.segment.SimpleTextSegmentData",
          "i18nkey": "i18n.StopCheckPayments.Date",
          "text": "Recipient Name :"
        },
        "lblDate2": {
          "@class": "com.viz.ide.model.segment.SimpleTextSegmentData",
          "i18nkey": "i18n.StopCheckPayments.Date",
          "text": "Recipient Name :"
        },
        "lblFrom1": {
          "@class": "com.viz.ide.model.segment.SimpleTextSegmentData",
          "i18nkey": "i18n.StopCheckPayments.from",
          "text": "Recipient Name :"
        },
        "lblFrom2": {
          "@class": "com.viz.ide.model.segment.SimpleTextSegmentData",
          "i18nkey": "i18n.StopCheckPayments.from",
          "text": "Recipient Name :"
        },
        "lblNotes1": {
          "@class": "com.viz.ide.model.segment.SimpleTextSegmentData",
          "i18nkey": "i18n.StopCheckPayments.Notes",
          "text": "Recipient Name :"
        },
        "lblNotes2": {
          "@class": "com.viz.ide.model.segment.SimpleTextSegmentData",
          "i18nkey": "i18n.StopCheckPayments.Notes",
          "text": "Recipient Name :"
        },
        "lblPayee1": {
          "@class": "com.viz.ide.model.segment.SimpleTextSegmentData",
          "i18nkey": "i18n.StopCheckPayments.Payee",
          "text": "Recipient Name :"
        },
        "lblPayee2": {
          "@class": "com.viz.ide.model.segment.SimpleTextSegmentData",
          "i18nkey": "i18n.StopCheckPayments.Payee",
          "text": "Recipient Name :"
        },
        "lblReferenceNumber1": {
          "@class": "com.viz.ide.model.segment.SimpleTextSegmentData",
          "i18nkey": "i18n.StopCheckPayments.Referenceno",
          "text": "Recipient Name :"
        },
        "lblReferenceNumber2": {
          "@class": "com.viz.ide.model.segment.SimpleTextSegmentData",
          "i18nkey": "i18n.StopCheckPayments.Referenceno",
          "text": "Recipient Name :"
        },
        "lblType1": {
          "@class": "com.viz.ide.model.segment.SimpleTextSegmentData",
          "text": "Type:"
        },
        "lblType2": {
          "@class": "com.viz.ide.model.segment.SimpleTextSegmentData",
          "text": "Type:"
        },
        "rtxAmount1": {
          "@class": "com.viz.ide.model.segment.SimpleTextSegmentData",
          "text": "$ 98.44\n"
        },
        "rtxAmount2": {
          "@class": "com.viz.ide.model.segment.SimpleTextSegmentData",
          "text": "$ 98.44\n"
        },
        "rtxDate1": {
          "@class": "com.viz.ide.model.segment.SimpleTextSegmentData",
          "text": "06/05/2017\n"
        },
        "rtxDate2": {
          "@class": "com.viz.ide.model.segment.SimpleTextSegmentData",
          "text": "06/05/2017\n"
        },
        "rtxFrom1": {
          "@class": "com.viz.ide.model.segment.SimpleTextSegmentData",
          "text": "Personal Checking….1234\n"
        },
        "rtxFrom2": {
          "@class": "com.viz.ide.model.segment.SimpleTextSegmentData",
          "text": "Personal Checking….1234\n"
        },
        "rtxNotes1": {
          "@class": "com.viz.ide.model.segment.SimpleTextSegmentData",
          "text": "Time Warner Cable On-Line\n"
        },
        "rtxNotes2": {
          "@class": "com.viz.ide.model.segment.SimpleTextSegmentData",
          "text": "Time Warner Cable On-Line\n"
        },
        "rtxPayee1": {
          "@class": "com.viz.ide.model.segment.SimpleTextSegmentData",
          "text": "Time Warner\n"
        },
        "rtxPayee2": {
          "@class": "com.viz.ide.model.segment.SimpleTextSegmentData",
          "text": "Time Warner\n"
        },
        "rtxReferenceNumber1": {
          "@class": "com.viz.ide.model.segment.SimpleTextSegmentData",
          "text": "9845121"
        },
        "rtxReferenceNumber2": {
          "@class": "com.viz.ide.model.segment.SimpleTextSegmentData",
          "text": "9845121"
        },
        "rtxType1": {
          "@class": "com.viz.ide.model.segment.SimpleTextSegmentData",
          "text": "Bill Pay\n"
        },
        "rtxType2": {
          "@class": "com.viz.ide.model.segment.SimpleTextSegmentData",
          "text": "Bill Pay\n"
        }
      }
    ],
    "rowTemplateId": "f28d3afe21174aa4be652db9e9b006c6",
    "rowtemplate": "flxDetails",
    "sectionHeaderTemplateId": null,
    "selectionBehaviorConfig": null,
    "widgetdatamap": {
      "flxAmount1": "flxAmount1",
      "flxAmount2": "flxAmount2",
      "flxDate1": "flxDate1",
      "flxDate2": "flxDate2",
      "flxDetails": "flxDetails",
      "flxFrom1": "flxFrom1",
      "flxFrom2": "flxFrom2",
      "flxNotes1": "flxNotes1",
      "flxNotes2": "flxNotes2",
      "flxPayee1": "flxPayee1",
      "flxPayee2": "flxPayee2",
      "flxRecipientDetails1": "flxRecipientDetails1",
      "flxRecipientDetails2": "flxRecipientDetails2",
      "flxReferenceNumber1": "flxReferenceNumber1",
      "flxReferenceNumber2": "flxReferenceNumber2",
      "flxType1": "flxType1",
      "flxType2": "flxType2",
      "lblAmount1": "lblAmount1",
      "lblAmount2": "lblAmount2",
      "lblDate1": "lblDate1",
      "lblDate2": "lblDate2",
      "lblFrom1": "lblFrom1",
      "lblFrom2": "lblFrom2",
      "lblNotes1": "lblNotes1",
      "lblNotes2": "lblNotes2",
      "lblPayee1": "lblPayee1",
      "lblPayee2": "lblPayee2",
      "lblReferenceNumber1": "lblReferenceNumber1",
      "lblReferenceNumber2": "lblReferenceNumber2",
      "lblType1": "lblType1",
      "lblType2": "lblType2",
      "rtxAmount1": "rtxAmount1",
      "rtxAmount2": "rtxAmount2",
      "rtxDate1": "rtxDate1",
      "rtxDate2": "rtxDate2",
      "rtxFrom1": "rtxFrom1",
      "rtxFrom2": "rtxFrom2",
      "rtxNotes1": "rtxNotes1",
      "rtxNotes2": "rtxNotes2",
      "rtxPayee1": "rtxPayee1",
      "rtxPayee2": "rtxPayee2",
      "rtxReferenceNumber1": "rtxReferenceNumber1",
      "rtxReferenceNumber2": "rtxReferenceNumber2",
      "rtxType1": "rtxType1",
      "rtxType2": "rtxType2"
    }
  },
  "focusedindex": null,
  "focuseditem": null,
  "groupcells": false,
  "hasSections": false,
  "id": "segConfirmDetails",
  "info": null,
  "ipad": {
    "psp": {
      "indicator": "rowselect"
    }
  },
  "iphone": {
    "psp": {
      "indicator": "rowselect"
    }
  },
  "isvisible": true,
  "kuid": "g7977bca4b704a458d88f8b7256ebfcc",
  "masterdata": {},
  "mobile": {
    "rowTemplateId": null,
    "rowtemplate": null,
    "sectionHeaderTemplateId": null
  },
  "name": "kony.ui.SegmentedUI2",
  "needpageindicator": true,
  "pageoffdotimage": "pageoffdot.png",
  "pageondotimage": "pageondot.png",
  "paginationconfig": {
    "position": "bottom",
    "vdistance": 1
  },
  "parent": "ConfirmDetailsSingleMultiple",
  "pf": "userwidgetmodel",
  "retainselection": false,
  "rowcounter": 1,
  "rowfocusskin": "s9f69e977910472eb44c62ae28c41fe1",
  "rowskin": "s76d2ce1ed0442cf8ec1d5e836e4a361",
  "rowtemplate": "flxSegTransactionRowSelected",
  "screenlevelwidget": false,
  "seccounter": 0,
  "sectionheaderskin": "sdc4ff4ed1584272be2ae69045dfb29d",
  "sectionheadertemplate": "flxSegTransactionHeader",
  "selectedRows": null,
  "selectedState": false,
  "selectedindex": null,
  "selectedindices": null,
  "selecteditems": null,
  "selectedsectionindex": 0,
  "selectionbehavior": "default",
  "separatorrequired": false,
  "showscrollbars": false,
  "swipeContext": {
    "currentPage": 0,
    "imageWidth": 1400,
    "widthRatio": 0
  },
  "viewtype": "tableview",
  "wType": "Segment",
  "widgetalignment": 5,
  "widgetdatamap": {
    "flxAmount1": "flxAmount1",
    "flxAmount2": "flxAmount2",
    "flxDate1": "flxDate1",
    "flxDate2": "flxDate2",
    "flxDetails": "flxDetails",
    "flxFrom1": "flxFrom1",
    "flxFrom2": "flxFrom2",
    "flxNotes1": "flxNotes1",
    "flxNotes2": "flxNotes2",
    "flxPayee1": "flxPayee1",
    "flxPayee2": "flxPayee2",
    "flxRecipientDetails1": "flxRecipientDetails1",
    "flxRecipientDetails2": "flxRecipientDetails2",
    "flxReferenceNumber1": "flxReferenceNumber1",
    "flxReferenceNumber2": "flxReferenceNumber2",
    "flxType1": "flxType1",
    "flxType2": "flxType2",
    "lblAmount1": "lblAmount1",
    "lblAmount2": "lblAmount2",
    "lblDate1": "lblDate1",
    "lblDate2": "lblDate2",
    "lblFrom1": "lblFrom1",
    "lblFrom2": "lblFrom2",
    "lblNotes1": "lblNotes1",
    "lblNotes2": "lblNotes2",
    "lblPayee1": "lblPayee1",
    "lblPayee2": "lblPayee2",
    "lblReferenceNumber1": "lblReferenceNumber1",
    "lblReferenceNumber2": "lblReferenceNumber2",
    "lblType1": "lblType1",
    "lblType2": "lblType2",
    "rtxAmount1": "rtxAmount1",
    "rtxAmount2": "rtxAmount2",
    "rtxDate1": "rtxDate1",
    "rtxDate2": "rtxDate2",
    "rtxFrom1": "rtxFrom1",
    "rtxFrom2": "rtxFrom2",
    "rtxNotes1": "rtxNotes1",
    "rtxNotes2": "rtxNotes2",
    "rtxPayee1": "rtxPayee1",
    "rtxPayee2": "rtxPayee2",
    "rtxReferenceNumber1": "rtxReferenceNumber1",
    "rtxReferenceNumber2": "rtxReferenceNumber2",
    "rtxType1": "rtxType1",
    "rtxType2": "rtxType2"
  },
  "zindex": 1
}