{
  "@class": "com.kony.gen.viz.model.component.KVizLabel",
  "DNDConfig": null,
  "__parentReadjusting__": false,
  "_height_": {
    "type": "ref",
    "value": "preferred"
  },
  "_margin_": [
    1,
    1,
    1,
    1
  ],
  "_padding_": [
    0,
    0,
    1,
    1
  ],
  "_skin_": "s2d800e3e18244b3b0795e5e5d6a0f77",
  "_text_": "Label",
  "_top_": {
    "type": "string",
    "value": "5.28%"
  },
  "_width_": {
    "type": "string",
    "value": "90%"
  },
  "_wrapping_": 2,
  "android": {
    "textStyle": {
      "letterSpacing": 0,
      "strikeThrough": false
    }
  },
  "canUpdateUI": true,
  "centerx": {
    "type": "string",
    "value": "50%"
  },
  "containerweight": 100,
  "contentalignment": 5,
  "id": "lblProvideBasicInfo",
  "info": null,
  "ipad": {
    "psp": {
      "wrapping": 2
    }
  },
  "iphone": {
    "psp": {
      "wrapping": 2
    }
  },
  "isvisible": false,
  "kuid": "i1937b5907504a07923b3a637f4d4a45",
  "name": "kony.ui.Label",
  "paddinginpixel": false,
  "parent": "MFAFlow",
  "pf": "userwidgetmodel",
  "texti18n": "i18n.login.BlockedMessage",
  "tooltip": "",
  "wType": "Label",
  "zindex": 1
}