{
  "BusinessControllerConfig": {
    "BusinessControllerClass": "AddPayeeModule/BusinessControllers/BusinessController",
    "CommandHandler": [
      {
        "CommandHandler": "BillPayModule/BusinessControllers/searchBillerByName_CommandHandler",
        "CommandId": "com.kony.billpay.searchBillerByName"
      },
      {
        "CommandHandler": "BillPayModule/BusinessControllers/createPayee_CommandHandler",
        "CommandId": "com.kony.billpay.createPayee"
      },
      {
        "CommandHandler": "BillPayModule/BusinessControllers/getBillPayees_CommandHandler",
        "CommandId": "com.kony.billpay.getRegisteredPayees"
      },
      {
        "CommandHandler": "BillPayModule/BusinessControllers/updateBill_CommandHandler",
        "CommandId": "com.kony.billpay.updateOneTimePayment"
      },
      {
        "CommandHandler": "BillPayModule/BusinessControllers/validateBillerAccount_CommandHandler",
        "CommandId": "com.kony.billpay.validateBillerAccount"
      }
    ]
  },
  "Forms": {
    "desktop": {
      "frmAddPayee": {
        "Controller": "AddPayeeModule/frmAddPayeeController",
        "ControllerExtensions": [
          "frmAddPayeeController_Extn"
        ],
        "FormController": "kony.mvc.MDAFormController",
        "FormName": "AddPayeeModule/frmAddPayee",
        "friendlyName": "frmAddPayee"
      }
    }
  },
  "ModuleName": "AddPayeeModule",
  "PresentationControllerConfig": {
    "Default": {
      "PresentationControllerClass": "AddPayeeModule/PresentationControllers/PresentationController",
      "PresentationExtensions": [
        "TopBarModule/PresentationControllers/PresentationController",
        "SideMenuModule/PresentationControllers/PresentationController",
        "AddPayeeModule/PresentationControllers/PresentationController_EXtn"
      ]
    }
  }
}