{
  "@class": "com.kony.gen.viz.model.component.KVizButton",
  "DNDConfig": null,
  "__parentReadjusting__": false,
  "_height_": {
    "type": "ref",
    "value": "preferred"
  },
  "_margin_": [
    6,
    6,
    6,
    6
  ],
  "_padding_": [
    0,
    0,
    0,
    0
  ],
  "_right_": {
    "type": "string",
    "value": "20dp"
  },
  "_skin_": "s3520057cf1d44d7a88a5ec926038e8c",
  "_text_": "",
  "_width_": {
    "type": "ref",
    "value": "preferred"
  },
  "canUpdateUI": true,
  "centery": {
    "type": "string",
    "value": "50%"
  },
  "containerweight": 100,
  "contentalignment": 5,
  "disabledSkins": {
    "focusSkin": "sf44d06ca8224832827ea7fdff757013"
  },
  "displaytext": true,
  "id": "btnClose",
  "ide_onClick": "AS_Button_eaa2cd1747784b5d8f7177438b1eec0e",
  "info": null,
  "isvisible": true,
  "kuid": "f961398649d0423685c5be4d60bedd90",
  "name": "kony.ui.Button",
  "parent": "flxHeader",
  "pf": "userwidgetmodel",
  "wType": "Button",
  "zindex": 1
}