{
  "@class": "com.kony.gen.viz.model.component.KVizUserWidget",
  "DNDConfig": null,
  "__parentReadjusting__": false,
  "_children_": [],
  "_height_": {
    "type": "string",
    "value": "380dp"
  },
  "_left_": {
    "type": "string",
    "value": "0dp"
  },
  "_margin_": [
    0,
    0,
    0,
    0
  ],
  "_orientation_": 1,
  "_padding_": [
    0,
    0,
    0,
    0
  ],
  "_percent_": true,
  "_render_": true,
  "_skin_": "s4f295c6755849a8ada803af434f162b",
  "_top_": {
    "type": "string",
    "value": "0dp"
  },
  "_width_": {
    "type": "string",
    "value": "100%"
  },
  "areflexpropsreferenced": false,
  "autogrowmode": 0,
  "canUpdateUI": true,
  "clipbounds": false,
  "containerweight": 0,
  "dataDiffs": {
    "EnrollAlert": {
      "__events__": {},
      "__info__": {
        "isRoot": true,
        "kuid": "ha419122064a4852a489d6280e5fad01",
        "srcKUID": "ee3deacff03c42e1aec4c400b664be9e",
        "wType": "FlexContainer"
      },
      "autogrowMode": 0,
      "height": {
        "Default": {
          "type": "string",
          "value": "380dp"
        }
      }
    },
    "btnBackToLogin": {
      "__events__": {},
      "__info__": {
        "kuid": "a10cd760b17243e8a43d5fd24ff1e8ee",
        "srcKUID": "dd40b1427455401ab18fd695ea81360b",
        "wType": "Button"
      },
      "i18n_text": "i18n.common.HowToEnroll",
      "zIndex": {
        "Default": 1
      }
    },
    "btnEnroll": {
      "__events__": {},
      "__info__": {
        "kuid": "fc167e182a9542adb34fc8012ed81aae",
        "srcKUID": "d7b4457ad12d4995a5e216e17659083a",
        "wType": "Button"
      },
      "i18n_text": "i18n.common.EnrollLabel"
    },
    "imgEnroll": {
      "__events__": {},
      "__info__": {
        "kuid": "ddb1fee699b24a84b91f25b334de44d2",
        "srcKUID": "hc8a4faa750b46e48d812f2cde021e04",
        "wType": "Image"
      },
      "src": "enroll_error.png"
    },
    "lblAppTitle": {
      "__events__": {},
      "__info__": {
        "kuid": "eb0dd1cebb154512b10cd01befb84d7b",
        "srcKUID": "d5ff2501a9f4406196644facea6b731b",
        "wType": "Label"
      }
    },
    "lblHowToEnroll": {
      "__events__": {},
      "__info__": {
        "kuid": "eda046e978784cbc9d59afda2974e92b",
        "srcKUID": "i153217e20f14b7c93c07a2d2aa196b2",
        "wType": "Label"
      }
    },
    "lblNotYetEnrolledOrError": {
      "__events__": {},
      "__info__": {
        "kuid": "bbe33fac2d5c488781834b09437e693c",
        "srcKUID": "if92671d622945cd9ff31874c2e608ff",
        "wType": "Label"
      }
    },
    "rtxServerError": {
      "__events__": {},
      "__info__": {
        "kuid": "eae48dcc482c4e67baf442e6b130441c",
        "srcKUID": "c34b04f6deb54d29807f28caa8576e53",
        "wType": "RichText"
      },
      "i18n_text": "i18n.login.EnrollAlert"
    }
  },
  "id": "EnrollPromptScreen",
  "info": null,
  "isdatareferenced": false,
  "isvisible": true,
  "kuid": "d247d4d3446640f6a740bd27340c6fdd",
  "layouttype": 4,
  "masterType": 0,
  "name": "kony.ui.UserWidgetInstance",
  "parent": "flxEnroll",
  "pf": "frmEnrollNow",
  "snaptogrid": true,
  "sourceUserWidget": "ee3deacff03c42e1aec4c400b664be9e",
  "wType": "UserWidgetInstance"
}