{
  "@class": "com.kony.gen.viz.model.component.KVizLabel",
  "DNDConfig": null,
  "__parentReadjusting__": false,
  "_height_": {
    "type": "ref",
    "value": "preferred"
  },
  "_margin_": [
    1,
    1,
    1,
    1
  ],
  "_padding_": [
    3,
    0,
    3,
    0
  ],
  "_skin_": "s1479fa717444db6b49648e6b8b80f1a",
  "_text_": "Label",
  "_top_": {
    "type": "string",
    "value": "5.28%"
  },
  "_width_": {
    "type": "string",
    "value": "77%"
  },
  "_wrapping_": 2,
  "android": {
    "textStyle": {
      "letterSpacing": 0,
      "strikeThrough": false
    }
  },
  "canUpdateUI": true,
  "centerx": {
    "type": "string",
    "value": "50%"
  },
  "containerweight": 100,
  "contentalignment": 2,
  "id": "lblVerificationNotice",
  "info": null,
  "ipad": {
    "psp": {
      "wrapping": 2
    }
  },
  "iphone": {
    "psp": {
      "wrapping": 2
    }
  },
  "isvisible": true,
  "kuid": "h9306b7c7d0948149dd58c032467fb6c",
  "name": "kony.ui.Label",
  "paddinginpixel": false,
  "parent": "flxResetPasswordOptions",
  "pf": "frmEnrollNow",
  "texti18n": "i18n.enrollNow.VerificationNotice",
  "tooltip": "",
  "wType": "Label",
  "zindex": 1
}