{
  "@class": "com.kony.gen.viz.model.component.KVizButton",
  "DNDConfig": null,
  "__parentReadjusting__": false,
  "_height_": {
    "type": "string",
    "value": "50dp"
  },
  "_margin_": [
    6,
    6,
    6,
    6
  ],
  "_padding_": [
    0,
    0,
    0,
    0
  ],
  "_right_": {
    "type": "string",
    "value": "300dp"
  },
  "_skin_": "s83729feaa224e359d660d5af05c4bac",
  "_text_": "CANCEL",
  "_top_": {
    "type": "string",
    "value": "0dp"
  },
  "_width_": {
    "type": "string",
    "value": "260dp"
  },
  "canUpdateUI": true,
  "containerId": true,
  "containerweight": 100,
  "contentalignment": 5,
  "disabledSkins": {
    "focusSkin": "sf44d06ca8224832827ea7fdff757013"
  },
  "displaytext": true,
  "id": "btnCancel",
  "ide_onClick": "AS_Button_cb2a2a920d354faab021f223d6829833",
  "info": null,
  "isvisible": true,
  "kuid": "gb132ed8bf914f22ac38e9e11b072954",
  "name": "kony.ui.Button",
  "parent": "flxActions",
  "pf": "segExternalAccountsTransfersEdit",
  "tooltip": "CANCEL",
  "wType": "Button",
  "zindex": 1
}