{
  "@class": "com.kony.gen.viz.model.component.KVizButton",
  "DNDConfig": null,
  "__parentReadjusting__": false,
  "_height_": {
    "type": "string",
    "value": "50dp"
  },
  "_margin_": [
    6,
    6,
    6,
    6
  ],
  "_padding_": [
    0,
    0,
    0,
    0
  ],
  "_right_": {
    "type": "string",
    "value": "20dp"
  },
  "_skin_": "s5dbba5b9dac4f33998dc76f09b4e9d4",
  "_text_": "SAVE",
  "_top_": {
    "type": "string",
    "value": "0"
  },
  "_width_": {
    "type": "string",
    "value": "260dp"
  },
  "canUpdateUI": true,
  "containerId": true,
  "containerweight": 100,
  "contentalignment": 5,
  "disabledSkins": {
    "focusSkin": "sf44d06ca8224832827ea7fdff757013"
  },
  "displaytext": true,
  "id": "btnSave",
  "ide_onClick": "AS_Button_c79e87609f5049ec877b5fc57822bf44",
  "info": null,
  "isvisible": true,
  "kuid": "e59b4c76573348f2a7be1685e2a12262",
  "name": "kony.ui.Button",
  "parent": "flxActions",
  "pf": "segExternalAccountsTransfersEdit",
  "tooltip": "SAVE",
  "wType": "Button",
  "zindex": 1
}