{
    "@class": "com.kony.gen.viz.model.component.KVizUserWidget",
    "DNDConfig": null,
    "__parentReadjusting__": false,
    "_children_": [],
    "_height_": {
        "type": "string",
        "value": "10.66%"
    },
    "_left_": "0dp",
    "_margin_": [
        0,
        0,
        0,
        0
    ],
    "_orientation_": 1,
    "_padding_": [
        0,
        0,
        0,
        0
    ],
    "_percent_": true,
    "_render_": true,
    "_skin_": "s344c789f0e54a0c99d41580f99e6746",
    "_top_": {
        "type": "string",
        "value": "5.28%"
    },
    "_width_": {
        "type": "string",
        "value": "85%"
    },
    "areflexpropsreferenced": false,
    "autogrowmode": 0,
    "canUpdateUI": true,
    "centerx": {
        "type": "string",
        "value": "50.00%"
    },
    "clipbounds": true,
    "containerweight": 0,
    "dataDiffs": {
        "AlterneteActions": {
            "__events__": {
                "ide_onTouchStart": "AS_UWI_ffc83bb67a2f49f294b4ff3fbdc9d418"
            },
            "__info__": {
                "isRoot": true,
                "kuid": "i90237103f6f4c9fbe7452cdb35cf33f",
                "srcKUID": "ba68e7f06305436fa6ebfcbc05efdfaf",
                "wType": "FlexContainer"
            },
            "autogrowMode": 0,
            "height": {
                "Default": {
                    "type": "string",
                    "value": "10.66%"
                }
            },
            "top": {
                "Default": {
                    "type": "string",
                    "value": "5.28%"
                }
            }
        },
        "flcVerticalBar": {
            "__events__": {},
            "__info__": {
                "kuid": "ge63faadaf7f4abb85abf0907d265575",
                "srcKUID": "c1e3a82dec2c494da32fadaf2ab509f8",
                "wType": "FlexContainer"
            }
        },
        "flxImgContainer": {
            "__events__": {},
            "__info__": {
                "kuid": "f30c45dd798847149d7c95e45b9310f4",
                "srcKUID": "a5b043f56ff04c68b0d8766aeb55b239",
                "wType": "FlexContainer"
            },
            "autogrowMode": 0,
            "height": {
                "Default": {
                    "type": "string",
                    "value": "100%"
                }
            },
            "left": {
                "Default": {
                    "type": "string",
                    "value": "1dp"
                }
            }
        },
        "flxImgMain": {
            "__events__": {},
            "__info__": {
                "kuid": "bc49197381e3499bb64ae40cb078883a",
                "srcKUID": "b04cedab42e84d7dae9726a221da10c1",
                "wType": "FlexContainer"
            }
        },
        "imgOptionKA": {
            "__events__": {},
            "__info__": {
                "kuid": "f178e12e049d48e2b4c94b864a468c39",
                "srcKUID": "a1d6b1a537f741ed86fe089d4f49bfdb",
                "wType": "Image"
            },
            "src": "reset_password.png"
        },
        "imgRightTip": {
            "__events__": {},
            "__info__": {
                "kuid": "f333e70dd39447b28e4fcab7ce28592b",
                "srcKUID": "fd6a5a99442143d381c3d4fc2afbaf67",
                "wType": "Image"
            }
        },
        "rtxCVV": {
            "__events__": {},
            "__info__": {
                "kuid": "af07b38e1c9b400c918b06a25ab6f22a",
                "srcKUID": "h34b4091f7d347fcb7805380e64df24f",
                "wType": "RichText"
            },
            "centerX": {
                "Default": {
                    "type": "string",
                    "value": ""
                }
            },
            "centerY": {
                "Default": {
                    "type": "string",
                    "value": "50%"
                }
            },
            "i18n_text": "i18n.login.ResetMyPassword",
            "top": {
                "Default": {
                    "type": "string",
                    "value": ""
                }
            }
        }
    },
    "focusskin": "sf1574277292476397ab9eb9b65c1761",
    "id": "AlterneteActionsResetPassword",
    "ide_onTouchStart": "AS_UWI_ffc83bb67a2f49f294b4ff3fbdc9d418",
    "info": null,
    "isdatareferenced": false,
    "isvisible": true,
    "kuid": "g9c7bb4491594fb4972b326b42443a3a",
    "layouttype": 2,
    "masterType": 0,
    "name": "kony.ui.UserWidgetInstance",
    "ontouchstart": "AS_UWI_ffc83bb67a2f49f294b4ff3fbdc9d418",
    "parent": "flxWelcomeBack",
    "pf": "frmLogin",
    "snaptogrid": true,
    "sourceUserWidget": "ba68e7f06305436fa6ebfcbc05efdfaf",
    "wType": "UserWidgetInstance"
}