{
    "@class": "com.kony.gen.viz.model.component.KVizUserWidget",
    "DNDConfig": null,
    "__parentReadjusting__": false,
    "_children_": [],
    "_height_": {
        "type": "string",
        "value": "14%"
    },
    "_left_": "0dp",
    "_margin_": [
        0,
        0,
        0,
        0
    ],
    "_orientation_": 1,
    "_padding_": [
        0,
        0,
        0,
        0
    ],
    "_percent_": true,
    "_render_": true,
    "_skin_": "s344c789f0e54a0c99d41580f99e6746",
    "_top_": {
        "type": "string",
        "value": "8.80%"
    },
    "_width_": {
        "type": "string",
        "value": "85%"
    },
    "areflexpropsreferenced": false,
    "autogrowmode": 0,
    "canUpdateUI": true,
    "centerx": {
        "type": "string",
        "value": "50.00%"
    },
    "clipbounds": true,
    "containerweight": 0,
    "dataDiffs": {
        "AlterneteActions": {
            "__events__": {
                "ide_onTouchStart": "AS_UWI_j8e4dc92e90d444580d8bc0280eec93a"
            },
            "__info__": {
                "isRoot": true,
                "kuid": "ea3070e1a32148e885cc62a722b81869",
                "srcKUID": "ba68e7f06305436fa6ebfcbc05efdfaf",
                "wType": "FlexContainer"
            },
            "autogrowMode": 0,
            "height": {
                "Default": {
                    "type": "string",
                    "value": "14%"
                }
            },
            "top": {
                "Default": {
                    "type": "string",
                    "value": "8.80%"
                }
            }
        },
        "flcVerticalBar": {
            "__events__": {},
            "__info__": {
                "kuid": "j8eff04f20d54eaa933d60d518662a79",
                "srcKUID": "c1e3a82dec2c494da32fadaf2ab509f8",
                "wType": "FlexContainer"
            }
        },
        "flxImgContainer": {
            "__events__": {},
            "__info__": {
                "kuid": "b440bc4649f04df48492bb0b39d4984e",
                "srcKUID": "a5b043f56ff04c68b0d8766aeb55b239",
                "wType": "FlexContainer"
            }
        },
        "flxImgMain": {
            "__events__": {},
            "__info__": {
                "kuid": "f0e95733ecee488fb47c1b601443006c",
                "srcKUID": "b04cedab42e84d7dae9726a221da10c1",
                "wType": "FlexContainer"
            }
        },
        "imgOptionKA": {
            "__events__": {},
            "__info__": {
                "kuid": "f50baa7430564c50b1d6e7ccfe1df311",
                "srcKUID": "a1d6b1a537f741ed86fe089d4f49bfdb",
                "wType": "Image"
            },
            "src": "active_cvv_icon.png"
        },
        "imgRightTip": {
            "__events__": {},
            "__info__": {
                "kuid": "c162ac1248ef493e9afe5316e085bee0",
                "srcKUID": "fd6a5a99442143d381c3d4fc2afbaf67",
                "wType": "Image"
            }
        },
        "rtxCVV": {
            "__events__": {},
            "__info__": {
                "kuid": "gd63778269704574a7cc4902da13821e",
                "srcKUID": "h34b4091f7d347fcb7805380e64df24f",
                "wType": "RichText"
            },
            "i18n_text": "i18n.login.EnterCvvCodeInfo",
            "left": {
                "Default": {
                    "type": "string",
                    "value": "85dp"
                }
            },
            "width": {
                "Default": {
                    "type": "string",
                    "value": "61.90%"
                }
            }
        }
    },
    "focusskin": "sf1574277292476397ab9eb9b65c1761",
    "id": "AlterneteActionsEnterCVV",
    "ide_onTouchStart": "AS_UWI_j8e4dc92e90d444580d8bc0280eec93a",
    "info": null,
    "isdatareferenced": false,
    "isvisible": true,
    "kuid": "if1e209ff8584cafaf22a45b14fcd16c",
    "layouttype": 2,
    "masterType": 0,
    "name": "kony.ui.UserWidgetInstance",
    "ontouchstart": "AS_UWI_j8e4dc92e90d444580d8bc0280eec93a",
    "parent": "flxResetPasswordOptions",
    "pf": "frmLogin",
    "snapgridsize": 10,
    "snaptogrid": true,
    "sourceUserWidget": "ba68e7f06305436fa6ebfcbc05efdfaf",
    "wType": "UserWidgetInstance"
}