{
    "@class": "com.kony.gen.viz.model.component.KVizLabel",
    "DNDConfig": null,
    "__parentReadjusting__": false,
    "_height_": {
        "type": "ref",
        "value": "preferred"
    },
    "_margin_": [
        1,
        1,
        1,
        1
    ],
    "_padding_": [
        0,
        0,
        0,
        0
    ],
    "_right_": {
        "type": "string",
        "value": "12%"
    },
    "_skin_": "seb042f60a6445619a292de4c7cc1b30",
    "_text_": "",
    "_width_": {
        "type": "ref",
        "value": "preferred"
    },
    "_wrapping_": 2,
    "android": {
        "textStyle": {
            "letterSpacing": 0,
            "strikeThrough": false
        }
    },
    "canUpdateUI": true,
    "centery": {
        "type": "string",
        "value": "50%"
    },
    "containerweight": 100,
    "contentalignment": 4,
    "id": "lblLanguage",
    "ide_onTouchEnd": "AS_Label_bf8f6b3c9e744371b2d69642561a70dc",
    "info": null,
    "ipad": {
        "psp": {
            "wrapping": 2
        }
    },
    "iphone": {
        "psp": {
            "wrapping": 2
        }
    },
    "isvisible": true,
    "kuid": "gcdd58688cdb4330a73d337d7a8b3dc1",
    "name": "kony.ui.Label",
    "paddinginpixel": false,
    "parent": "flxDropdown",
    "pf": "frmLogin",
    "texti18n": "i18n.common.English",
    "tooltip": "ENGLISH",
    "wType": "Label",
    "zindex": 1
}