{
    "@class": "com.kony.gen.viz.model.component.KVizLabel",
    "DNDConfig": null,
    "__parentReadjusting__": false,
    "_height_": {
        "type": "ref",
        "value": "preferred"
    },
    "_margin_": [
        1,
        1,
        1,
        1
    ],
    "_padding_": [
        3,
        0,
        3,
        0
    ],
    "_skin_": "s88b3db7b8744179a645e63daf90e49e",
    "_text_": "Label",
    "_top_": {
        "type": "string",
        "value": "3.52%"
    },
    "_width_": {
        "type": "ref",
        "value": "preferred"
    },
    "_wrapping_": 2,
    "android": {
        "textStyle": {
            "letterSpacing": 0,
            "strikeThrough": false
        }
    },
    "canUpdateUI": true,
    "centerx": {
        "type": "string",
        "value": "50%"
    },
    "containerweight": 100,
    "contentalignment": 5,
    "id": "lblResetYourPassword",
    "info": null,
    "ipad": {
        "psp": {
            "wrapping": 2
        }
    },
    "iphone": {
        "psp": {
            "wrapping": 2
        }
    },
    "isvisible": true,
    "kuid": "ef2838b80bc64f3581f36af7ec990f85",
    "name": "kony.ui.Label",
    "paddinginpixel": false,
    "parent": "flxResetPasswordOptions",
    "pf": "frmLogin",
    "texti18n": "i18n.login.ResetPassword",
    "tooltip": "",
    "wType": "Label",
    "zindex": 1
}