{
    "@class": "com.kony.gen.viz.model.component.KVizLabel",
    "DNDConfig": null,
    "__parentReadjusting__": false,
    "_height_": {
        "type": "ref",
        "value": "preferred"
    },
    "_margin_": [
        1,
        1,
        1,
        1
    ],
    "_padding_": [
        3,
        0,
        3,
        0
    ],
    "_skin_": "sfc804c74cbf4285b3364b91ea7d3c4e",
    "_text_": "Label",
    "_top_": {
        "type": "string",
        "value": "6.16%"
    },
    "_width_": {
        "type": "ref",
        "value": "preferred"
    },
    "_wrapping_": 2,
    "android": {
        "textStyle": {
            "letterSpacing": 0,
            "strikeThrough": false
        }
    },
    "canUpdateUI": true,
    "centerx": {
        "type": "string",
        "value": "50%"
    },
    "containerweight": 100,
    "contentalignment": 5,
    "id": "lblYourUsername",
    "info": null,
    "ipad": {
        "psp": {
            "wrapping": 2
        }
    },
    "iphone": {
        "psp": {
            "wrapping": 2
        }
    },
    "isvisible": true,
    "kuid": "e035672c989f423d84e8bc5d27b62077",
    "name": "kony.ui.Label",
    "paddinginpixel": false,
    "parent": "flxWelcomeBack",
    "pf": "frmLogin",
    "texti18n": "i18n.login.YourUsernameIs",
    "tooltip": "",
    "wType": "Label",
    "zindex": 1
}