{
  "@class": "com.kony.gen.viz.model.component.KVizButton",
  "DNDConfig": null,
  "__parentReadjusting__": false,
  "_height_": {
    "type": "string",
    "value": "50dp"
  },
  "_margin_": [
    6,
    6,
    6,
    6
  ],
  "_padding_": [
    0,
    0,
    0,
    0
  ],
  "_right_": {
    "type": "string",
    "value": "52dp"
  },
  "_skin_": "s82771fb0d3040339aab7fd2e47af223",
  "_text_": "KNOW MORE...",
  "_top_": {
    "type": "string",
    "value": "-55dp"
  },
  "_width_": {
    "type": "ref",
    "value": "preferred"
  },
  "canUpdateUI": true,
  "containerId": true,
  "containerweight": 100,
  "contentalignment": 5,
  "desktopweb": {
    "psp": {}
  },
  "disabledSkins": {
    "focusSkin": "sf44d06ca8224832827ea7fdff757013",
    "hoverSkin": "s14e5f4459414366a95c5a71c1f39486"
  },
  "displaytext": true,
  "id": "btnKnowMore",
  "ide_onClick": "AS_Button_g413108cbdaf4439928dcef97cd9d84f",
  "info": null,
  "iscustomlayout": false,
  "isvisible": true,
  "kuid": "f89d85b72c2a46d2a40cf7369aa1bb71",
  "name": "kony.ui.Button",
  "parent": "flxRight",
  "pf": "segSelectProductsNUO",
  "retaincontentalignment": false,
  "retainflexpositionproperties": false,
  "texti18n": "i18n.NUO.KnowMore",
  "tooltip": "Know More",
  "wType": "Button",
  "zindex": 1
}