{
  "@class": "com.kony.gen.viz.model.component.KVizLabel",
  "DNDConfig": null,
  "__parentReadjusting__": false,
  "_height_": {
    "type": "ref",
    "value": "preferred"
  },
  "_margin_": [
    1,
    1,
    1,
    1
  ],
  "_padding_": [
    0,
    0,
    0,
    0
  ],
  "_skin_": "s785ae7fa62b4b609e85a0511af98fea",
  "_text_": "C",
  "_width_": {
    "type": "ref",
    "value": "preferred"
  },
  "_wrapping_": 2,
  "android": {
    "textStyle": {
      "letterSpacing": 0,
      "strikeThrough": false
    }
  },
  "canUpdateUI": true,
  "centerx": {
    "type": "string",
    "value": "50%"
  },
  "centery": {
    "type": "string",
    "value": "50%"
  },
  "containerId": true,
  "containerweight": 100,
  "contentalignment": 4,
  "id": "lblCheckBox",
  "info": null,
  "ipad": {
    "psp": {
      "wrapping": 2
    }
  },
  "iphone": {
    "psp": {
      "wrapping": 2
    }
  },
  "isvisible": true,
  "kuid": "a6771bea6c344613a731ef9ad32b93d9",
  "name": "kony.ui.Label",
  "parent": "flxCheckBox",
  "pf": "segSelectProductsNUO",
  "tooltip": "Select Product",
  "wType": "Label",
  "zindex": 1
}