{
  "@class": "com.kony.gen.viz.model.component.KVizRichText",
  "DNDConfig": null,
  "__parentReadjusting__": false,
  "_bottom_": {
    "type": "string",
    "value": "10dp"
  },
  "_height_": {
    "type": "ref",
    "value": "preferred"
  },
  "_left_": {
    "type": "string",
    "value": "1%"
  },
  "_margin_": [
    0,
    0,
    0,
    0
  ],
  "_padding_": [
    0,
    0,
    0,
    0
  ],
  "_skin_": "sc4cc30bc71442ee9f8b2e9230a973fa",
  "_text_": "Monthly service fee  \u003cbr\u003e                                                                          $5                \u003cbr\u003e                                                                             Avoid the monthly service fee when you maintain one  of these options. A $300 minimum daily balance OR a  recurring, automatic savings.",
  "_top_": {
    "type": "string",
    "value": "4dp"
  },
  "_width_": {
    "type": "string",
    "value": "88%"
  },
  "_wrapping_": 2,
  "canUpdateUI": true,
  "containerId": true,
  "containerweight": 100,
  "contentalignment": 1,
  "id": "lblMonthlyServiceFee",
  "info": null,
  "iscustomlayout": false,
  "isvisible": true,
  "kuid": "ied3300a9f5b4509a473353c7c30f7c8",
  "linkskin": "s68be632cc934210829c785f1cfb09f0",
  "name": "kony.ui.RichText",
  "parent": "flxRight",
  "pf": "segSelectProductsNUO",
  "retaincontentalignment": false,
  "retainflexpositionproperties": false,
  "wType": "RichText",
  "watchos": {
    "render": false
  },
  "widgetalignment": 5,
  "windows10": {
    "render": false
  },
  "winphone10": {
    "render": false
  },
  "zindex": 1
}