{
  "@class": "com.kony.gen.viz.model.component.KVizRichText",
  "DNDConfig": null,
  "__parentReadjusting__": false,
  "_height_": {
    "type": "ref",
    "value": "preferred"
  },
  "_left_": {
    "type": "string",
    "value": "2%"
  },
  "_margin_": [
    0,
    0,
    0,
    0
  ],
  "_padding_": [
    0,
    0,
    0,
    0
  ],
  "_skin_": "sc4cc30bc71442ee9f8b2e9230a973fa",
  "_text_": "Overdraft protection1 for your checking account.                        ",
  "_top_": {
    "type": "string",
    "value": "4dp"
  },
  "_width_": {
    "type": "string",
    "value": "96%"
  },
  "_wrapping_": 2,
  "canUpdateUI": true,
  "containerId": true,
  "containerweight": 100,
  "contentalignment": 1,
  "id": "lblRule3",
  "info": null,
  "iscustomlayout": false,
  "isvisible": true,
  "kuid": "jfaef812c486457bb3a837d193cac09a",
  "linkskin": "s68be632cc934210829c785f1cfb09f0",
  "name": "kony.ui.RichText",
  "parent": "flxRule3",
  "pf": "segSelectProductsNUO",
  "retaincontentalignment": false,
  "retainflexpositionproperties": false,
  "wType": "RichText",
  "watchos": {
    "render": false
  },
  "widgetalignment": 5,
  "windows10": {
    "render": false
  },
  "winphone10": {
    "render": false
  },
  "zindex": 1
}