{
  "@class": "com.kony.gen.viz.model.component.KVizImage2",
  "DNDConfig": null,
  "__parentReadjusting__": false,
  "_base64_": null,
  "_height_": {
    "type": "string",
    "value": "20dp"
  },
  "_left_": {
    "type": "string",
    "value": "0dp"
  },
  "_margin_": [
    0,
    0,
    0,
    0
  ],
  "_padding_": [
    0,
    0,
    0,
    0
  ],
  "_skin_": "s78a5f26c9f14cec9ebed1bb46098f80",
  "_src_": "checked_box.png",
  "_top_": {
    "type": "string",
    "value": "0dp"
  },
  "_width_": {
    "type": "string",
    "value": "20dp"
  },
  "canUpdateUI": true,
  "centery": {
    "type": "string",
    "value": "50%"
  },
  "containerId": true,
  "containerweight": 100,
  "context": {
    "channel": "desktop",
    "platform": "desktopweb",
    "templateType": "segments",
    "topLevelBox": null
  },
  "id": "imgCheckBox",
  "imagescalemode": 1,
  "imagewhiledownloading": "img_transparent.png",
  "info": null,
  "invokedProperty": "src",
  "isvisible": true,
  "kuid": "f60544f342b8477baa03bda4c8ca4a2a",
  "name": "kony.ui.Image2",
  "parent": "flxCheckbox",
  "pf": "segBulkUpdatePFMTransactionsSelected",
  "srcType": 1,
  "wType": "Image",
  "widgetalignment": 5,
  "zindex": 1
}