{
  "@class": "com.kony.gen.viz.model.component.KVizLabel",
  "DNDConfig": null,
  "__markedForDelete__": true,
  "__parentReadjusting__": false,
  "_height_": {
    "type": "ref",
    "value": "preferred"
  },
  "_left_": {
    "type": "string",
    "value": "0dp"
  },
  "_margin_": [
    1,
    1,
    1,
    1
  ],
  "_padding_": [
    0,
    0,
    2,
    0
  ],
  "_skin_": "sd9fada740124e4a99edc1f0a05ec2d0",
  "_text_": "To",
  "_top_": {
    "type": "string",
    "value": "0dp"
  },
  "_width_": {
    "type": "ref",
    "value": "preferred"
  },
  "_wrapping_": 2,
  "android": {
    "textStyle": {
      "letterSpacing": 0,
      "strikeThrough": false
    }
  },
  "canUpdateUI": true,
  "containerId": true,
  "containerweight": 100,
  "contentalignment": 4,
  "id": "lblToValuetitle",
  "info": null,
  "ipad": {
    "psp": {
      "wrapping": 2
    }
  },
  "iphone": {
    "psp": {
      "wrapping": 2
    }
  },
  "isvisible": true,
  "kuid": "e70c96aa4082474a8ce6b01977746315",
  "name": "kony.ui.Label",
  "paddinginpixel": false,
  "parent": "flxToTitle",
  "pf": "segPFMTransactionsMainSelected",
  "tooltip": "",
  "wType": "Label",
  "zindex": 1
}