{
  "@class": "com.kony.gen.viz.model.component.KVizButton",
  "DNDConfig": null,
  "__parentReadjusting__": false,
  "_height_": {
    "type": "string",
    "value": "7.04%"
  },
  "_margin_": [
    6,
    6,
    6,
    6
  ],
  "_padding_": [
    0,
    0,
    0,
    0
  ],
  "_skin_": "s3681a7211a345fba79d7013af78ba93",
  "_text_": "",
  "_top_": {
    "type": "string",
    "value": "5.28%"
  },
  "_width_": {
    "type": "string",
    "value": "85%"
  },
  "canUpdateUI": true,
  "centerx": {
    "type": "string",
    "value": "50%"
  },
  "containerweight": 100,
  "contentalignment": 5,
  "desktopweb": {
    "blockedUISkin": "s6296ebeb163492d973121eb1c4b9727",
    "psp": {
      "hoverSkin": "s81054b5e2b74f17a5261991df565427"
    }
  },
  "displaytext": true,
  "focusskin": "s5a4f67acd3e47b9be6d6910a7a6686f",
  "id": "btnProceed",
  "info": null,
  "isvisible": true,
  "kuid": "f971375b96d24d13ab7b6c5cd7d9dcf8",
  "name": "kony.ui.Button",
  "parent": "letsverify1",
  "pf": "userwidgetmodel",
  "texti18n": "i18n.common.proceed",
  "tooltip": "Proceed",
  "wType": "Button",
  "zindex": 1
}