{
  "@class": "com.kony.gen.viz.model.component.KVizTextBox2",
  "DNDConfig": null,
  "__markedForDelete__": true,
  "__parentReadjusting__": false,
  "_height_": {
    "type": "string",
    "value": "7.04%"
  },
  "_margin_": [
    0,
    0,
    0,
    0
  ],
  "_padding_": [
    3,
    0,
    0,
    0
  ],
  "_placeholder_": "",
  "_skin_": "s2176287b62f4273bd3e8aee5ed69aca",
  "_text_": "",
  "_top_": {
    "type": "string",
    "value": "1.23%"
  },
  "_width_": {
    "type": "string",
    "value": "85%"
  },
  "autocapitalize": "none",
  "autocomplete": false,
  "autocorrect": false,
  "autofilter": false,
  "canUpdateUI": true,
  "centerx": {
    "type": "string",
    "value": "50%"
  },
  "containerheight": "",
  "containerheightmode": 1,
  "containerweight": 100,
  "contentalignment": 4,
  "focusskin": "s80a8c5539a441ee9b9b49917cc45cc2",
  "id": "tbxLastName",
  "info": null,
  "isvisible": true,
  "keyboardtype": "A",
  "kuid": "37cc1a94ccba4c20a22ef288f9051b97",
  "mode": "A",
  "name": "kony.ui.TextBox2",
  "parent": "letsverify1",
  "pf": "userwidgetmodel",
  "placeholderi18n": "i18n.login.Lastname",
  "securetextentry": false,
  "textinputmode": "A",
  "viewtype": "default",
  "wType": "TextField",
  "zindex": 1
}