{
  "@class": "com.kony.gen.viz.model.component.KVizRichText",
  "DNDConfig": null,
  "__parentReadjusting__": false,
  "_height_": {
    "type": "ref",
    "value": "preferred"
  },
  "_left_": {
    "type": "string",
    "value": "184dp"
  },
  "_margin_": [
    0,
    0,
    0,
    0
  ],
  "_padding_": [
    0,
    0,
    0,
    0
  ],
  "_right_": {
    "type": "number",
    "value": "0"
  },
  "_skin_": "sc4cc30bc71442ee9f8b2e9230a973fa",
  "_text_": "1/06/2018",
  "_top_": {
    "type": "string",
    "value": "0dp"
  },
  "_wrapping_": 2,
  "canUpdateUI": true,
  "containerweight": 100,
  "contentalignment": 1,
  "id": "rtxValue1",
  "info": null,
  "isvisible": true,
  "kuid": "g5592ce240f94c61bc964c9faa14a326",
  "name": "kony.ui.RichText",
  "parent": "flxDetailsRow1",
  "pf": "segTravelNotificationsCollapsed",
  "wType": "RichText",
  "watchos": {
    "render": false
  },
  "widgetalignment": 5,
  "windows10": {
    "render": false
  },
  "winphone10": {
    "render": false
  },
  "zindex": 1
}