{
  "@class": "com.kony.gen.viz.model.component.KVizButton",
  "DNDConfig": null,
  "__parentReadjusting__": false,
  "_height_": {
    "type": "string",
    "value": "25dp"
  },
  "_margin_": [
    6,
    6,
    6,
    6
  ],
  "_padding_": [
    0,
    0,
    0,
    0
  ],
  "_right_": {
    "type": "string",
    "value": "24dp"
  },
  "_skin_": "s535287da20848b2970f91721ae239fd",
  "_text_": "",
  "_top_": {
    "type": "string",
    "value": "0px"
  },
  "_width_": {
    "type": "string",
    "value": "36dp"
  },
  "canUpdateUI": true,
  "centery": {
    "type": "string",
    "value": "50%"
  },
  "containerId": true,
  "containerweight": 100,
  "contentalignment": 5,
  "disabledSkins": {
    "focusSkin": "sf44d06ca8224832827ea7fdff757013"
  },
  "displaytext": true,
  "id": "btnEbill",
  "ide_onClick": "AS_Button_c3188a5cccd34d228033f0570e7f348e",
  "info": null,
  "isvisible": true,
  "kuid": "j060783b77ba416f9511b44790a62c94",
  "name": "kony.ui.Button",
  "parent": "flxPayee",
  "pf": "segBillPayAllPayeesSelectedTemp",
  "tooltip": "eBill",
  "wType": "Button",
  "zindex": 5
}