{
  "@class": "com.kony.gen.viz.model.component.KVizDateField",
  "DNDConfig": null,
  "Image": "calender.png",
  "__id": "segBillPayAllPayeesSelected_calSendOn",
  "__input": "calSendOn",
  "__markedForDelete__": true,
  "__parentReadjusting__": false,
  "_data_": null,
  "_date_": "25/7/2017",
  "_height_": {
    "type": "string",
    "value": "40dp"
  },
  "_left_": {
    "type": "string",
    "value": "0dp"
  },
  "_margin_": [
    0,
    0,
    0,
    0
  ],
  "_padding_": [
    3,
    1,
    5,
    0
  ],
  "_skin_": "sa8931d21c78443195a881b65efcfdff",
  "_top_": {
    "type": "string",
    "value": "0dp"
  },
  "_width_": {
    "type": "string",
    "value": "130dp"
  },
  "advview": "default",
  "calendaricon": "calbtn.png",
  "canUpdateUI": true,
  "containerId": true,
  "containerweight": 100,
  "contentalignment": 5,
  "datecomponents": [
    25,
    7,
    2017,
    0,
    0,
    0
  ],
  "dateeditable": true,
  "dateformat": "dd/MM/yyyy",
  "datesGroup": [],
  "datesState": 0,
  "day": 25,
  "daytextalignmentincell": 5,
  "desktopweb": {
    "calendarIcon": "calender.png"
  },
  "displayedMonths": [
    7,
    2017
  ],
  "entereddate": [
    25,
    7,
    2017,
    0,
    0,
    0
  ],
  "format": "dd/MM/yyyy",
  "formatteddate": "25/07/2017",
  "gridCellInactiveDaysSkin": "sd35029800e247beb86f04d6851b1b8d",
  "gridCellSelectedSkin": "se25cb8945064b57bbc9a41b3cd425f7",
  "gridCellSkin": "s5f875a55e8d4ce4bd8a22d01f285405",
  "gridCellTodaySkin": "s544d961e8084f759a5352dec12df3c8",
  "gridCellWeekendSkin": "s5f875a55e8d4ce4bd8a22d01f285405",
  "gridSkin": "s996ecb9dbc14113a367b19b028a1ef4",
  "hidedaysheader": false,
  "hidemonthsheader": false,
  "hour": 0,
  "id": "calSendOn",
  "info": null,
  "invokedProperty": "rightNavigationImage",
  "isvisible": true,
  "kiosk": {
    "render": false
  },
  "kuid": "eed0a0f065f343c893a3051ded51b4cb",
  "minutes": 0,
  "month": 7,
  "monthsinrow": 3,
  "name": "kony.ui.Calendar",
  "navigatorAlert": "Invalid Selection",
  "noofmonths": 1,
  "paddinginpixel": false,
  "pagedate": "/2017",
  "parent": "flxSendOnCalendar",
  "pf": "segBillPayAllPayeesSelectedTemp",
  "popupHeight": "auto",
  "popupWidth": "auto",
  "seconds": 0,
  "selectdate": "//2017",
  "startDay": 0,
  "viewconfig": {
    "gridConfig": {
      "gridCellInactiveDaysSkin": "sd35029800e247beb86f04d6851b1b8d",
      "gridCellSelectedSkin": "se25cb8945064b57bbc9a41b3cd425f7",
      "gridCellSkin": "s5f875a55e8d4ce4bd8a22d01f285405",
      "gridCellTodaySkin": "s544d961e8084f759a5352dec12df3c8",
      "gridCellWeekendSkin": "s5f875a55e8d4ce4bd8a22d01f285405",
      "gridSkin": "s996ecb9dbc14113a367b19b028a1ef4",
      "leftNavigationImage": "arrow_left.png",
      "rightNavigationImage": "arrow_right.png"
    }
  },
  "viewtype": "default",
  "wType": "Calendar",
  "watchos": {
    "render": false
  },
  "widgetalignment": 5,
  "widths": [
    "14.2857%;",
    "14.2857%;",
    "14.2857%;",
    "14.2857%;",
    "14.2857%;",
    "14.2857%;",
    "14.2857%;"
  ],
  "windows10": {
    "render": false
  },
  "winphone10": {
    "render": false
  },
  "year": 2017,
  "zindex": 1
}