{
  "DNDConfig": null,
  "__parentReadjusting__": false,
  "_height_": {
    "type": "string",
    "value": "100%"
  },
  "_left_": {
    "type": "string",
    "value": "0dp"
  },
  "_margin_": [
    0,
    0,
    0,
    0
  ],
  "_orientation_": 6,
  "_padding_": [
    0,
    0,
    0,
    0
  ],
  "_percent_": true,
  "_skin_": "s24c92fc23b14f5484b693ee9b8a9b35",
  "_top_": {
    "type": "string",
    "value": "0dp"
  },
  "_width_": {
    "type": "string",
    "value": "8%"
  },
  "allboxes": [],
  "autogrowmode": 0,
  "canUpdateUI": true,
  "children": [
    "imgDropdown",
    "imgErrorSelected"
  ],
  "clipbounds": false,
  "containerId": true,
  "containerweight": 100,
  "enablescrolling": true,
  "id": "flxDropdown",
  "ide_onClick": "AS_FlexContainer_e986845eb762471fae3f4b896a73332e",
  "info": null,
  "isvisible": true,
  "kuid": "d0f93b1f00c648a5846fa6aca1fe78b9",
  "layouttype": 4,
  "name": "kony.ui.FlexContainer",
  "parent": "flxBillPayAllPayeesWrapper",
  "pf": "segBillPayAllPayeesSelectedTemp",
  "snapgridsize": 10,
  "snaptogrid": true,
  "wType": "FlexContainer",
  "widgetalignment": 1,
  "zindex": 1
}