{
  "@class": "com.kony.gen.viz.model.component.KVizButton",
  "DNDConfig": null,
  "__parentReadjusting__": false,
  "_height_": {
    "type": "string",
    "value": "50dp"
  },
  "_left_": {
    "type": "string",
    "value": "76%"
  },
  "_margin_": [
    6,
    6,
    6,
    6
  ],
  "_padding_": [
    0,
    0,
    0,
    0
  ],
  "_skin_": "s0ef9c1b01ec4042b2c041d6c8b3722a",
  "_text_": "CONFIRM",
  "_top_": {
    "type": "string",
    "value": "-50dp"
  },
  "_width_": {
    "type": "string",
    "value": "21.50%"
  },
  "canUpdateUI": true,
  "containerweight": 100,
  "contentalignment": 5,
  "desktopweb": {
    "psp": {
      "hoverSkin": "s81054b5e2b74f17a5261991df565427"
    }
  },
  "disabledSkins": {
    "focusSkin": "s35b7bf536354ff18a4f7f8e988f00e5"
  },
  "displaytext": true,
  "id": "btnConfirm",
  "info": null,
  "isvisible": true,
  "kuid": "093ebe59e9dd4e14b0fe41b1f89e3843",
  "name": "kony.ui.Button",
  "parent": "Activatep2p",
  "pf": "userwidgetmodel",
  "wType": "Button",
  "zindex": 2,
  "texti18n": "i18n.transfers.Confirm",
  "tooltip": "Confirm"
}