{
  "DNDConfig": null,
  "__parentReadjusting__": false,
  "_height_": {
    "type": "string",
    "value": "50dp"
  },
  "_left_": {
    "type": "string",
    "value": "0dp"
  },
  "_margin_": [
    0,
    0,
    0,
    0
  ],
  "_orientation_": 6,
  "_padding_": [
    0,
    0,
    0,
    0
  ],
  "_percent_": true,
  "_skin_": "s4995784b84b413d87744b0fd64eb5f9",
  "_top_": {
    "type": "string",
    "value": "10dp"
  },
  "_width_": {
    "type": "string",
    "value": "100%"
  },
  "allboxes": [],
  "autogrowmode": 0,
  "canUpdateUI": true,
  "children": [
    "lblDefaultAccountforSending",
    "imgInfo2",
    "listbxAccFrSending",
    "lblDefaultSendingAccountValue",
    "flximgInfoIconsend"
  ],
  "clipbounds": true,
  "containerweight": 100,
  "enablescrolling": true,
  "id": "flxAccoFrSending",
  "info": null,
  "isvisible": true,
  "kuid": "88b597d72ae548ca9664c3f08d6405de",
  "layouttype": 2,
  "name": "kony.ui.FlexContainer",
  "parent": "Activatep2p",
  "pf": "userwidgetmodel",
  "snapgridsize": 10,
  "snaptogrid": true,
  "wType": "FlexContainer",
  "widgetalignment": 1,
  "zindex": 1
}