{
  "@class": "com.kony.gen.viz.model.component.KVizTextBox2",
  "DNDConfig": null,
  "__parentReadjusting__": false,
  "_height_": {
    "type": "string",
    "value": "50dp"
  },
  "_left_": {
    "type": "string",
    "value": "25.30%"
  },
  "_margin_": [
    0,
    0,
    0,
    0
  ],
  "_padding_": [
    1,
    0,
    0,
    0
  ],
  "_placeholder_": "",
  "_skin_": "sf6858a6dd7e428e8d24a7cfbe51c8c1",
  "_text_": "John.Bailey",
  "_top_": {
    "type": "string",
    "value": "0dp"
  },
  "_width_": {
    "type": "string",
    "value": "49.20%"
  },
  "autocapitalize": "none",
  "autocomplete": false,
  "autocorrect": false,
  "autofilter": false,
  "canUpdateUI": true,
  "containerheight": "",
  "containerheightmode": 1,
  "containerweight": 100,
  "contentalignment": 4,
  "desktopweb": {},
  "id": "tbxNameValue",
  "info": null,
  "isvisible": false,
  "keyboardtype": "A",
  "kuid": "11228fe2d3d94cbf9c34c668b6f246af",
  "mode": "A",
  "name": "kony.ui.TextBox2",
  "paddinginpixel": false,
  "parent": "flxName",
  "pf": "userwidgetmodel",
  "securetextentry": false,
  "textinputmode": "A",
  "viewtype": "default",
  "wType": "TextField",
  "zindex": 1
}