{
  "@class": "com.kony.gen.viz.model.container.KVizForm",
  "DNDConfig": null,
  "_margin_": [
    0,
    0,
    0,
    0
  ],
  "_orientation_": 1,
  "_padding_": [
    0,
    0,
    0,
    0
  ],
  "_percent_": true,
  "_skin_": "s1a48dcde6f8403bbbecd5a1b1dedf94",
  "_title_": null,
  "addWidgetsdone": false,
  "allboxes": [],
  "canUpdateUI": true,
  "canvasWidth": 1200,
  "children": [
    "Activatep2p"
  ],
  "containerweight": 100,
  "currentLocale": "default",
  "device": "desktopweb",
  "displayorientation": 3,
  "enabledforidletimeout": false,
  "globalUserWidgetRefs": [],
  "id": "userwidgetmodel",
  "info": null,
  "initdone": false,
  "inputaccessoryviewtype": 4,
  "intransitionconfig": {
    "formTransition": "None"
  },
  "isvisible": true,
  "kuid": "5514daf4719841ebb059096e6ebef5c8",
  "layouttype": 2,
  "masterType": 0,
  "name": "kony.ui.Form2",
  "needappmenu": true,
  "outtransitionconfig": {
    "formTransition": "None"
  },
  "paddinginpixel": false,
  "platform": "desktopweb",
  "prevDevice": "iPhone6",
  "prevPlatform": "iphone",
  "retainscrollposition": false,
  "shellCSS": "desktop",
  "titleBarSkin": "s86d11f188b24d0c94eb3493dab9698d",
  "titlebar": true,
  "type": 3,
  "wType": "Form"
}