{
  "@class": "com.kony.gen.viz.model.component.KVizUserWidget",
  "DNDConfig": null,
  "__parentReadjusting__": false,
  "_children_": [],
  "_height_": {
    "type": "string",
    "value": "103px"
  },
  "_left_": {
    "type": "string",
    "value": "0dp"
  },
  "_margin_": [
    0,
    0,
    0,
    0
  ],
  "_orientation_": 1,
  "_padding_": [
    0,
    0,
    0,
    0
  ],
  "_percent_": true,
  "_render_": true,
  "_skin_": "s4b3bfcb27c14526bcdce6dec3972d8d",
  "_top_": {
    "type": "string",
    "value": "0dp"
  },
  "_width_": {
    "type": "string",
    "value": "100%"
  },
  "areflexpropsreferenced": false,
  "autogrowmode": 0,
  "canUpdateUI": true,
  "clipbounds": true,
  "containerweight": 0,
  "dataDiffs": {
    "btnCancel": {
      "__events__": {},
      "__info__": {
        "kuid": "bc26507eef6a4a1c84056cffbce435f4",
        "srcKUID": "fe63955edbd24a4ea6b8cae6b9dc4e9d",
        "wType": "Button"
      },
      "isVisible": false
    },
    "btnConfirm": {
      "__events__": {},
      "__info__": {
        "kuid": "j5bce1f0a8f344898900fa4df22a1870",
        "srcKUID": "fce03529e50d441ea6385939a861c275",
        "wType": "Button"
      },
      "width": {
        "Default": {
          "type": "string",
          "value": "30%"
        }
      }
    },
    "btnModify": {
      "__events__": {},
      "__info__": {
        "kuid": "dc5e5112861f475baf974aa82a972c15",
        "srcKUID": "b0db2b5c6b0b4deb89afff129dc620f7",
        "wType": "Button"
      },
      "right": {
        "Default": {
          "type": "string",
          "value": "35.18%"
        }
      },
      "width": {
        "Default": {
          "type": "string",
          "value": "30%"
        }
      }
    },
    "confirmButtons": {
      "__events__": {},
      "__info__": {
        "isRoot": true,
        "kuid": "c58f814ab09d44ff89cad9571019e980",
        "srcKUID": "ddfb5a99e80b4d01b3e3abf4c1af4adc",
        "wType": "FlexContainer"
      }
    },
    "flxHorizontalLine": {
      "__events__": {},
      "__info__": {
        "kuid": "e60d6c0a914a4ec79ab369a4355cc36f",
        "srcKUID": "ac533aa67f084f63ae00d6834110ffa8",
        "wType": "FlexContainer"
      }
    }
  },
  "id": "confirmButtons",
  "info": null,
  "iscustomlayout": false,
  "isdatareferenced": false,
  "isvisible": true,
  "kuid": "c58f814ab09d44ff89cad9571019e980",
  "layouttype": 2,
  "masterType": 0,
  "name": "kony.ui.UserWidgetInstance",
  "parent": "flxMain",
  "pf": "userwidgetmodel",
  "retaincontentalignment": false,
  "retainflexpositionproperties": false,
  "snaptogrid": true,
  "sourceUserWidget": "ddfb5a99e80b4d01b3e3abf4c1af4adc",
  "wType": "UserWidgetInstance"
}