{
  "DNDConfig": null,
  "__markedForDelete__": true,
  "__parentReadjusting__": false,
  "_height_": {
    "type": "string",
    "value": "150dp"
  },
  "_margin_": [
    0,
    0,
    0,
    0
  ],
  "_orientation_": 6,
  "_padding_": [
    0,
    0,
    0,
    0
  ],
  "_percent_": true,
  "_skin_": "s39310895c2245a0831bc010c4328d70",
  "_top_": {
    "type": "string",
    "value": "0dp"
  },
  "_width_": {
    "type": "string",
    "value": "50%"
  },
  "allboxes": [],
  "autogrowmode": 0,
  "canUpdateUI": true,
  "centerx": {
    "type": "string",
    "value": "75%"
  },
  "children": [],
  "clipbounds": false,
  "containerweight": 100,
  "enablescrolling": true,
  "id": "flxrightcontainer",
  "info": null,
  "isvisible": true,
  "kuid": "ecdee963982a4a9195ed0fe0c5e80b83",
  "layouttype": 2,
  "name": "kony.ui.FlexContainer",
  "parent": "flxfootercontainer",
  "pf": "frmContactUsPrivacyTandC",
  "snapgridsize": 10,
  "snaptogrid": true,
  "wType": "FlexContainer",
  "widgetalignment": 1,
  "zindex": 1
}