{
  "DNDConfig": null,
  "__markedForDelete__": true,
  "__parentReadjusting__": false,
  "_bottom_": {
    "type": "string",
    "value": "30px"
  },
  "_height_": {
    "type": "ref",
    "value": "preferred"
  },
  "_margin_": [
    0,
    0,
    0,
    0
  ],
  "_orientation_": 6,
  "_padding_": [
    0,
    0,
    0,
    0
  ],
  "_percent_": true,
  "_skin_": "s24c92fc23b14f5484b693ee9b8a9b35",
  "_top_": {
    "type": "string",
    "value": "30dp"
  },
  "_width_": {
    "type": "string",
    "value": "1200px"
  },
  "allboxes": [],
  "autogrowmode": 1,
  "canUpdateUI": true,
  "centerx": {
    "type": "string",
    "value": "50%"
  },
  "children": [
    "termsAndConditions"
  ],
  "clipbounds": true,
  "containerweight": 100,
  "enablescrolling": true,
  "id": "flxTermsAndConditions",
  "info": null,
  "isvisible": false,
  "kuid": "a4b6c6e0042049a3b470bf8ca786f061",
  "layouttype": 2,
  "name": "kony.ui.FlexContainer",
  "parent": "flxMainContainer",
  "pf": "frmContactUsPrivacyTandC",
  "snapgridsize": 10,
  "snaptogrid": true,
  "wType": "FlexContainer",
  "widgetalignment": 1,
  "zindex": 2
}