{
  "@class": "com.kony.gen.viz.model.component.KVizButton",
  "DNDConfig": null,
  "__parentReadjusting__": false,
  "_height_": {
    "type": "string",
    "value": "50dp"
  },
  "_margin_": [
    6,
    6,
    6,
    6
  ],
  "_padding_": [
    0,
    0,
    0,
    0
  ],
  "_right_": {
    "type": "string",
    "value": "300dp"
  },
  "_skin_": "s83729feaa224e359d660d5af05c4bac",
  "_text_": "CANCEL",
  "_top_": {
    "type": "string",
    "value": "30dp"
  },
  "_width_": {
    "type": "string",
    "value": "260dp"
  },
  "canUpdateUI": true,
  "containerweight": 100,
  "contentalignment": 5,
  "desktopweb": {
    "psp": {
      "hoverSkin": "sf08132a50a44464a71b5c40f6b71ca1"
    }
  },
  "disabledSkins": {
    "focusSkin": "s07baf83ddf44201beb2d97fe8f96867"
  },
  "displaytext": true,
  "id": "btnCancel",
  "info": null,
  "isvisible": true,
  "kuid": "bbbc810c9730470281ed8394dc66bfa0",
  "name": "kony.ui.Button",
  "parent": "flxActions",
  "pf": "userwidgetmodel",
  "tooltip": "Cancel",
  "wType": "Button",
  "zindex": 2,
  "texti18n": "i18n.transfers.Cancel"
}