{
  "@class": "com.kony.gen.viz.model.component.KVizButton",
  "DNDConfig": null,
  "__parentReadjusting__": false,
  "_height_": {
    "type": "string",
    "value": "50dp"
  },
  "_left_": {
    "type": "string",
    "value": "75.80%"
  },
  "_margin_": [
    6,
    6,
    6,
    6
  ],
  "_padding_": [
    0,
    0,
    0,
    0
  ],
  "_skin_": "sfbbba35ede4457b94eb681b72349b98",
  "_text_": "PROCEED",
  "_top_": {
    "type": "string",
    "value": "30dp"
  },
  "_width_": {
    "type": "string",
    "value": "260dp"
  },
  "canUpdateUI": true,
  "containerweight": 100,
  "contentalignment": 5,
  "desktopweb": {
    "psp": {
      "hoverSkin": "s81054b5e2b74f17a5261991df565427"
    }
  },
  "disabledSkins": {
    "focusSkin": "s07baf83ddf44201beb2d97fe8f96867"
  },
  "displaytext": true,
  "id": "btnProceed",
  "info": null,
  "isvisible": true,
  "kuid": "h0da13dbbb5144998518840309f16adb",
  "name": "kony.ui.Button",
  "parent": "flxActions",
  "pf": "userwidgetmodel",
  "tooltip": "Proceed",
  "wType": "Button",
  "zindex": 2,
  "texti18n": "i18n.common.proceed"
}