{
  "@class": "com.kony.gen.viz.model.component.KVizTextBox2",
  "DNDConfig": null,
  "__markedForDelete__": true,
  "__parentReadjusting__": false,
  "_height_": {
    "type": "string",
    "value": "84%"
  },
  "_left_": {
    "type": "string",
    "value": "3.40%"
  },
  "_margin_": [
    0,
    0,
    0,
    0
  ],
  "_padding_": [
    0,
    0,
    0,
    0
  ],
  "_placeholder_": "",
  "_right_": {
    "type": "string",
    "value": "14%"
  },
  "_skin_": "s125de0fb2094e22a73b3ac2549fb05c",
  "_text_": "",
  "autocapitalize": "none",
  "autocomplete": false,
  "autocorrect": false,
  "autofilter": false,
  "canUpdateUI": true,
  "centery": {
    "type": "string",
    "value": "50%"
  },
  "containerheight": "",
  "containerheightmode": 1,
  "containerweight": 100,
  "contentalignment": 4,
  "desktopweb": {
    "ide_onEndEditing": "AS_TextField_bca5e3946c0c41259f94f9e6790d2d2b",
    "ide_onKeyUp": "AS_TextField_eee992061bdc4154a0ea08d7738ba6a9"
  },
  "focusskin": "s125de0fb2094e22a73b3ac2549fb05c",
  "id": "tbxEnterCVVCode",
  "info": null,
  "isvisible": true,
  "keyboardtype": "A",
  "kiosk": {
    "psp": {
      "toolTip": ""
    }
  },
  "kuid": "cb9766c1c3f04360a92ceff47354243a",
  "mode": "A",
  "name": "kony.ui.TextBox2",
  "paddinginpixel": false,
  "parent": "flxEnterCVVCodes",
  "pf": "userwidgetmodel",
  "placeholderi18n": "i18n.MFA.EnterSecureAccessCode",
  "securetextentry": true,
  "textinputmode": "A",
  "viewtype": "default",
  "wType": "TextField",
  "zindex": 1
}