{
  "@class": "com.kony.gen.viz.model.container.KVizForm",
  "DNDConfig": null,
  "_margin_": [
    0,
    0,
    0,
    0
  ],
  "_orientation_": 1,
  "_padding_": [
    0,
    0,
    0,
    0
  ],
  "_percent_": true,
  "_skin_": "s22ef4d30a4f45188bbb4fb09c4f7e29",
  "_title_": null,
  "addWidgetsdone": false,
  "allboxes": [],
  "canUpdateUI": true,
  "canvasWidth": 1200,
  "children": [
    "SecureAccessCode"
  ],
  "containerweight": 100,
  "currentLocale": "default",
  "device": "desktopweb",
  "displayorientation": 3,
  "enabledforidletimeout": false,
  "globalUserWidgetRefs": [],
  "id": "userwidgetmodel",
  "info": null,
  "initdone": false,
  "inputaccessoryviewtype": 4,
  "intransitionconfig": {
    "formTransition": "None"
  },
  "isvisible": true,
  "kuid": "ea3a95957cf94774a685c1ad71b6def9",
  "layouttype": 2,
  "masterType": 0,
  "name": "kony.ui.Form2",
  "needappmenu": true,
  "outtransitionconfig": {
    "formTransition": "None"
  },
  "paddinginpixel": false,
  "platform": "desktopweb",
  "prevDevice": "iPhone6",
  "prevPlatform": "iphone",
  "retainscrollposition": false,
  "shellCSS": "desktop",
  "titleBarSkin": "sb023d69404747b9968115a8a660ab21",
  "titlebar": true,
  "type": 3,
  "wType": "Form"
}