{
    "DNDConfig": null,
    "__parentReadjusting__": false,
    "_height_": {
        "type": "string",
        "value": "0dp"
    },
    "_left_": {
        "type": "string",
        "value": "0dp"
    },
    "_margin_": [
        0,
        0,
        0,
        0
    ],
    "_orientation_": 6,
    "_padding_": [
        0,
        0,
        0,
        0
    ],
    "_percent_": true,
    "_skin_": "s24c92fc23b14f5484b693ee9b8a9b35",
    "_top_": {
        "type": "string",
        "value": "0"
    },
    "_width_": {
        "type": "string",
        "value": "100%"
    },
    "allboxes": [],
    "autogrowmode": 0,
    "canUpdateUI": true,
    "children": [
        "flxMyAccounts",
        "flxAddRecipient",
        "CopyflxMyAccounts0fb3509ebda8a4d",
        "CopyflxMyAccounts0b54df1795b674c",
        "CopyflxMyAccounts0d2a58860676d43",
        "CopyflxMyAccounts0f8a8e9530ccc43",
        "flxStatements",
        "flxAddExternalBankAccounts",
        "flxCardManagement",
        "flxStopPaymentRequests",
        "flxPFM"
    ],
    "clipbounds": true,
    "containerweight": 100,
    "enablescrolling": true,
    "id": "flxAccountsSubMenu",
    "info": null,
    "isvisible": true,
    "kuid": "aa191a8ef8f046ad9e6dc08e222f541f",
    "layouttype": 4,
    "name": "kony.ui.FlexContainer",
    "parent": "flxMenuWrapper",
    "pf": "userwidgetmodel",
    "snapgridsize": 10,
    "snaptogrid": true,
    "wType": "FlexContainer",
    "widgetalignment": 1,
    "zindex": 1
}