{
    "DNDConfig": null,
    "__parentReadjusting__": false,
    "_height_": {
        "type": "string",
        "value": "23px"
    },
    "_left_": {
        "type": "string",
        "value": "92%"
    },
    "_margin_": [
        0,
        0,
        0,
        0
    ],
    "_orientation_": 6,
    "_padding_": [
        0,
        0,
        0,
        0
    ],
    "_percent_": true,
    "_right_": {
        "type": "string",
        "value": "3.27%"
    },
    "_skin_": "s24c92fc23b14f5484b693ee9b8a9b35",
    "allboxes": [],
    "autogrowmode": 0,
    "canUpdateUI": true,
    "centery": {
        "type": "string",
        "value": "50%"
    },
    "children": [
        "imgAboutUsCollapse"
    ],
    "clipbounds": true,
    "containerweight": 100,
    "enablescrolling": true,
    "id": "flxAboutUsCollapse",
    "info": null,
    "isvisible": true,
    "kuid": "ac814462476d40fa9458d448985181b1",
    "layouttype": 2,
    "name": "kony.ui.FlexContainer",
    "parent": "flxAboutUs",
    "pf": "userwidgetmodel",
    "snapgridsize": 10,
    "snaptogrid": true,
    "wType": "FlexContainer",
    "widgetalignment": 1,
    "zindex": 1
}