{
    "DNDConfig": null,
    "__parentReadjusting__": false,
    "_height_": {
        "type": "string",
        "value": "60dp"
    },
    "_left_": {
        "type": "string",
        "value": "0dp"
    },
    "_margin_": [
        0,
        0,
        0,
        0
    ],
    "_orientation_": 6,
    "_padding_": [
        0,
        0,
        0,
        0
    ],
    "_percent_": true,
    "_skin_": "s85276800c964d0eb854a1bf18b1828b",
    "_top_": {
        "type": "string",
        "value": "0dp"
    },
    "_width_": {
        "type": "string",
        "value": "100%"
    },
    "allboxes": [],
    "autogrowmode": 0,
    "canUpdateUI": true,
    "children": [
        "CopylblMyPayee0dcb9e690692a4f",
        "CopyflxSeperator0bd0b5a0f50074d"
    ],
    "clipbounds": true,
    "containerweight": 100,
    "desktopweb": {
        "psp": {
            "hoverSkin": "s8be1958f0c74cfda5ca279b8413dd6d"
        }
    },
    "enablescrolling": true,
    "id": "flxAccountSettings",
    "info": null,
    "isvisible": true,
    "kuid": "jcd2e2467d9d4e07950534116a8220b0",
    "layouttype": 2,
    "name": "kony.ui.FlexContainer",
    "parent": "flxProfileManagementSubMenu",
    "pf": "userwidgetmodel",
    "snapgridsize": 10,
    "snaptogrid": true,
    "wType": "FlexContainer",
    "widgetalignment": 1,
    "zindex": 1
}