{
    "DNDConfig": null,
    "__parentReadjusting__": false,
    "_height_": {
        "type": "string",
        "value": "60dp"
    },
    "_left_": {
        "type": "string",
        "value": "0dp"
    },
    "_margin_": [
        0,
        0,
        0,
        0
    ],
    "_orientation_": 6,
    "_padding_": [
        0,
        0,
        0,
        0
    ],
    "_percent_": true,
    "_skin_": "scbd4cac3526468089bf3013adff0549",
    "_top_": {
        "type": "string",
        "value": "0dp"
    },
    "_width_": {
        "type": "string",
        "value": "100%"
    },
    "allboxes": [],
    "autogrowmode": 0,
    "canUpdateUI": true,
    "children": [
        "CopylblAddPayee0bee2cf73d22b4d",
        "CopyflxSeperator0ef41d1ef612f4a"
    ],
    "clipbounds": true,
    "containerweight": 100,
    "desktopweb": {
        "psp": {
            "hoverSkin": "s8be1958f0c74cfda5ca279b8413dd6d"
        }
    },
    "enablescrolling": true,
    "id": "flxMyRecipients",
    "info": null,
    "isvisible": true,
    "kuid": "e6adc76911b0433ab4754380c59f96b2",
    "layouttype": 2,
    "name": "kony.ui.FlexContainer",
    "parent": "flxPayAPersonSubMenu",
    "pf": "userwidgetmodel",
    "snapgridsize": 10,
    "snaptogrid": true,
    "wType": "FlexContainer",
    "widgetalignment": 1,
    "zindex": 1
}