{
  "DNDConfig": null,
  "__markedForDelete__": true,
  "__parentReadjusting__": false,
  "_height_": {
    "type": "ref",
    "value": "preferred"
  },
  "_left_": {
    "type": "string",
    "value": "2.20%"
  },
  "_margin_": [
    0,
    0,
    0,
    0
  ],
  "_orientation_": 6,
  "_padding_": [
    0,
    0,
    0,
    0
  ],
  "_percent_": true,
  "_skin_": "s24c92fc23b14f5484b693ee9b8a9b35",
  "_top_": {
    "type": "string",
    "value": "0dp"
  },
  "_width_": {
    "type": "string",
    "value": "18%"
  },
  "allboxes": [],
  "autogrowmode": 1,
  "canUpdateUI": true,
  "children": [
    "lblKeyTo"
  ],
  "clipbounds": true,
  "containerweight": 100,
  "enablescrolling": true,
  "id": "flxKeyTo",
  "info": null,
  "isvisible": true,
  "kuid": "h924e21f5bb347aa9c05c5953c5b21d9",
  "layouttype": 2,
  "name": "kony.ui.FlexContainer",
  "parent": "flxContainerTo",
  "pf": "userwidgetmodel",
  "snapgridsize": 10,
  "snaptogrid": true,
  "wType": "FlexContainer",
  "widgetalignment": 1,
  "zindex": 1
}