{
  "BusinessControllerConfig": {
    "BusinessControllerClass": "PersonalFinanceManagementModule/BusinessControllers/BusinessController",
    "CommandHandler": [
      {
        "CommandHandler": "PersonalFinanceManagementModule/BusinessControllers/getMonthlySpending_commandHandler",
        "CommandId": "com.kony.PersonalFinanceManagement.getMonthlySpending"
      },
      {
        "CommandHandler": "PersonalFinanceManagementModule/BusinessControllers/getYearlySpending_commandHandler",
        "CommandId": "com.kony.PersonalFinanceManagement.getYearlySpending"
      },
      {
        "CommandHandler": "PersonalFinanceManagementModule/BusinessControllers/getSelecetdPFMAccounts_commandHandler",
        "CommandId": "com.kony.PersonalFinanceManagement.getSelecetdPFMAccounts"
      },
      {
        "CommandHandler": "PersonalFinanceManagementModule/BusinessControllers/getYearlyBudgetData_commandHandler",
        "CommandId": "com.kony.PersonalFinanceManagement.getYearlyBudgetData"
      },
      {
        "CommandHandler": "PersonalFinanceManagementModule/BusinessControllers/getMonthlyCategorizedTransactions_commandHandler",
        "CommandId": "com.kony.PersonalFinanceManagement.getMonthlyCategorizedTransactions"
      },
      {
        "CommandHandler": "PersonalFinanceManagementModule/BusinessControllers/getUncategorizedTransactions_commandHandler",
        "CommandId": "com.kony.PersonalFinanceManagement.getUncategorizedTransactions"
      },
      {
        "CommandHandler": "PersonalFinanceManagementModule/BusinessControllers/bulkUpdateTransactions_commandHandler",
        "CommandId": "com.kony.PersonalFinanceManagement.bulkUpdateTransactions"
      },
      {
        "CommandHandler": "PersonalFinanceManagementModule/BusinessControllers/getCategoryList_commandHandler",
        "CommandId": "com.kony.PersonalFinanceManagement.getCalegoryList"
      }
    ]
  },
  "Forms": {
    "desktop": {
      "frmPersonalFinanceManagement": {
        "Controller": "PersonalFinanceManagementModule/frmPersonalFinanceManagementController",
        "ControllerExtensions": [],
        "FormController": "kony.mvc.MDAFormController",
        "FormName": "PersonalFinanceManagementModule/frmPersonalFinanceManagement",
        "friendlyName": "frmPersonalFinanceManagement"
      }
    }
  },
  "ModuleName": "PersonalFinanceManagementModule",
  "PresentationControllerConfig": {
    "Default": {
      "PresentationControllerClass": "PersonalFinanceManagementModule/PresentationControllers/PresentationController",
      "PresentationExtensions": [
        "TopBarModule/PresentationControllers/PresentationController",
        "SideMenuModule/PresentationControllers/PresentationController"
      ]
    }
  }
}