{
  "@class": "com.kony.gen.viz.model.component.KVizLabel",
  "DNDConfig": null,
  "__parentReadjusting__": false,
  "_height_": {
    "type": "ref",
    "value": "preferred"
  },
  "_left_": {
    "type": "string",
    "value": "0"
  },
  "_margin_": [
    1,
    1,
    1,
    1
  ],
  "_padding_": [
    0,
    0,
    5,
    0
  ],
  "_skin_": "se56454286124fef97a46e7249497088",
  "_text_": "Benjamin Das",
  "_width_": {
    "type": "ref",
    "value": "preferred"
  },
  "_wrapping_": 2,
  "android": {
    "textStyle": {
      "letterSpacing": 0,
      "strikeThrough": false
    }
  },
  "canUpdateUI": true,
  "centery": {
    "type": "string",
    "value": "50%"
  },
  "containerId": true,
  "containerweight": 100,
  "contentalignment": 4,
  "id": "CopylblAccountName0c48b485260754c",
  "info": null,
  "ipad": {
    "psp": {
      "wrapping": 2
    }
  },
  "iphone": {
    "psp": {
      "wrapping": 2
    }
  },
  "isvisible": true,
  "kuid": "bb645bc591d6476f9ff77ea5058c83ab",
  "name": "kony.ui.Label",
  "paddinginpixel": false,
  "parent": "flxStatus",
  "pf": "segExternalAccountsTransfersUnselected",
  "tooltip": "",
  "wType": "Label",
  "zindex": 1
}