{
  "DNDConfig": null,
  "__parentReadjusting__": false,
  "_height_": {
    "type": "string",
    "value": "100%"
  },
  "_margin_": [
    0,
    0,
    0,
    0
  ],
  "_orientation_": 6,
  "_padding_": [
    0,
    0,
    0,
    0
  ],
  "_percent_": true,
  "_skin_": "s24c92fc23b14f5484b693ee9b8a9b35",
  "_width_": {
    "type": "string",
    "value": "100%"
  },
  "allboxes": [],
  "autogrowmode": 0,
  "canUpdateUI": true,
  "centerx": {
    "type": "string",
    "value": "50%"
  },
  "centery": {
    "type": "string",
    "value": "50%"
  },
  "children": [],
  "clipbounds": true,
  "containerweight": 100,
  "enablescrolling": true,
  "id": "FlexContainer0f1496209679448",
  "info": null,
  "isvisible": true,
  "kuid": "cd364d9fcd9147228f1682fd67a71e13",
  "layouttype": 2,
  "name": "kony.ui.FlexContainer",
  "parent": "flexcheckuncheck",
  "pf": "userwidgetmodel",
  "snapgridsize": 10,
  "snaptogrid": true,
  "wType": "FlexContainer",
  "widgetalignment": 1,
  "zindex": 1
}