{
  "@class": "com.kony.gen.viz.model.component.KVizLabel",
  "DNDConfig": null,
  "__markedForDelete__": true,
  "__parentReadjusting__": false,
  "_height_": {
    "type": "ref",
    "value": "preferred"
  },
  "_margin_": [
    1,
    1,
    1,
    1
  ],
  "_padding_": [
    1,
    0,
    1,
    0
  ],
  "_skin_": "sacd76e4942f44e0859c88c1cb9f762d",
  "_text_": "",
  "_top_": {
    "type": "string",
    "value": "0.81%"
  },
  "_width_": {
    "type": "string",
    "value": "85%"
  },
  "_wrapping_": 2,
  "android": {
    "textStyle": {
      "letterSpacing": 0,
      "strikeThrough": false
    }
  },
  "canUpdateUI": true,
  "centerx": {
    "type": "string",
    "value": "50%"
  },
  "containerweight": 100,
  "contentalignment": 5,
  "id": "lblWelcome",
  "info": null,
  "ipad": {
    "psp": {
      "wrapping": 2
    }
  },
  "iphone": {
    "psp": {
      "wrapping": 2
    }
  },
  "isvisible": true,
  "kuid": "b0658895f2464a41bd8dbb6d495aedd5",
  "name": "kony.ui.Label",
  "paddinginpixel": false,
  "parent": "flxContainer",
  "pf": "userwidgetmodel",
  "texti18n": "i18n.login.WelcomeBack",
  "tooltip": "",
  "wType": "Label",
  "zindex": 1
}