{
  "DNDConfig": null,
  "__parentReadjusting__": false,
  "_height_": {
    "type": "ref",
    "value": "preferred"
  },
  "_left_": {
    "type": "string",
    "value": "0dp"
  },
  "_margin_": [
    0,
    0,
    0,
    0
  ],
  "_orientation_": 6,
  "_padding_": [
    0,
    0,
    0,
    0
  ],
  "_percent_": true,
  "_skin_": "sf03a484e4464cd193694fea4d2c6532",
  "_top_": {
    "type": "string",
    "value": "0dp"
  },
  "_width_": {
    "type": "string",
    "value": "794dp"
  },
  "allboxes": [],
  "autogrowmode": 1,
  "canUpdateUI": true,
  "children": [
    "flxHeader",
    "flxSeparator",
    "flxDetails",
    "flxSeparatorDetails",
    "flxSort",
    "flxsorttransfers",
    "flxSeparatorSort",
    "flxSegment",
    "flxSegmentBillPay",
    "flxNoRecords",
    "tablePaginationWireTransfer"
  ],
  "clipbounds": true,
  "containerweight": 100,
  "enablescrolling": true,
  "id": "flxtransferActivityWrapper",
  "info": null,
  "isvisible": true,
  "kuid": "ece61d08bf5c4801b84c53ae53115efe",
  "layouttype": 4,
  "name": "kony.ui.FlexContainer",
  "parent": "WireTransferActivityWindow",
  "pf": "userwidgetmodel",
  "snapgridsize": 10,
  "snaptogrid": true,
  "wType": "FlexContainer",
  "widgetalignment": 1,
  "zindex": 1
}