{
  "@class": "com.kony.gen.viz.model.component.KVizUserWidget",
  "DNDConfig": null,
  "__markedForDelete__": true,
  "__parentReadjusting__": false,
  "_bottom_": {
    "Default": {
      "type": "string",
      "value": ""
    }
  },
  "_children_": [],
  "_height_": {
    "type": "string",
    "value": "60dp"
  },
  "_left_": {
    "Default": {
      "type": "string",
      "value": "0dp"
    }
  },
  "_margin_": [
    0,
    0,
    0,
    0
  ],
  "_orientation_": 1,
  "_padding_": [
    0,
    0,
    0,
    0
  ],
  "_percent_": true,
  "_render_": true,
  "_skin_": "s24c92fc23b14f5484b693ee9b8a9b35",
  "_top_": {
    "Default": {
      "type": "string",
      "value": "-40dp"
    }
  },
  "_width_": {
    "type": "string",
    "value": "100%"
  },
  "areflexpropsreferenced": false,
  "canUpdateUI": true,
  "clipbounds": true,
  "containerweight": 0,
  "dataDiffs": {
    "flxPaginationFirst": {
      "__events__": {},
      "__info__": {
        "kuid": "c8e29f3b383b41dc85e26f55e53446ac",
        "srcKUID": "dc5425bcffde40bba077f3ef27070e02",
        "wType": "FlexContainer"
      },
      "left": {
        "Default": {
          "Default": {
            "type": "string",
            "value": "30dp"
          }
        }
      }
    },
    "flxPaginationLast": {
      "__events__": {},
      "__info__": {
        "kuid": "c16de52fc1684f2b9c9b755a7ea0f36b",
        "srcKUID": "e5732cffb816477cbfc5cacac88a046a",
        "wType": "FlexContainer"
      }
    },
    "flxPaginationNext": {
      "__events__": {},
      "__info__": {
        "kuid": "f20cab020dc04665bab6257a4cee1f32",
        "srcKUID": "f98d1324102c48ce890e02e4539c1c49",
        "wType": "FlexContainer"
      }
    },
    "flxPaginationPrevious": {
      "__events__": {},
      "__info__": {
        "kuid": "de409efd2bc347e182ee9747285862f5",
        "srcKUID": "h7d55c477073421abc369f7b38c6c8ac",
        "wType": "FlexContainer"
      }
    },
    "tablePagination": {
      "__events__": {},
      "__info__": {
        "isRoot": true,
        "kuid": "j74a58d8c9f24c82b94ca6521aba02bc",
        "srcKUID": "d0682091242b4be393889732aa217f2b",
        "wType": "FlexContainer"
      },
      "bottom": {
        "Default": {
          "Default": {
            "type": "string",
            "value": ""
          }
        }
      },
      "isVisible": false,
      "left": {
        "Default": {
          "Default": {
            "type": "string",
            "value": "0dp"
          }
        }
      },
      "top": {
        "Default": {
          "Default": {
            "type": "string",
            "value": "-40dp"
          }
        }
      }
    }
  },
  "id": "tablePaginationWireTransfer",
  "info": null,
  "isdatareferenced": false,
  "isvisible": false,
  "kuid": "g312474218b948789aec22d511eebb43",
  "layouttype": 2,
  "masterType": 0,
  "name": "kony.ui.UserWidgetInstance",
  "parent": "flxtransferActivityWrapper",
  "pf": "userwidgetmodel",
  "snaptogrid": true,
  "sourceUserWidget": "d0682091242b4be393889732aa217f2b",
  "wType": "UserWidgetInstance"
}