{
  "@class": "com.kony.gen.viz.model.component.KVizButton",
  "DNDConfig": null,
  "__parentReadjusting__": false,
  "_height_": {
    "type": "string",
    "value": "60dp"
  },
  "_left_": {
    "type": "string",
    "value": "0dp"
  },
  "_margin_": [
    6,
    6,
    6,
    6
  ],
  "_padding_": [
    1,
    0,
    1,
    0
  ],
  "_skin_": "sa36ab97255641859b9973479782cf35",
  "_text_": "",
  "_top_": {
    "type": "string",
    "value": "0dp"
  },
  "_width_": {
    "type": "ref",
    "value": "preferred"
  },
  "canUpdateUI": true,
  "containerweight": 100,
  "contentalignment": 5,
  "desktopweb": {},
  "disabledSkins": {
    "focusSkin": "sf44d06ca8224832827ea7fdff757013"
  },
  "displaytext": true,
  "focusskin": null,
  "id": "btnDisputedChecks",
  "info": null,
  "isvisible": true,
  "kuid": "j3c0ddab6ece4c909f490f708d5f1ddf",
  "name": "kony.ui.Button",
  "paddingLocked": false,
  "paddinginpixel": false,
  "parent": "flxTabs",
  "pf": "userwidgetmodel",
  "texti18n": "i18n.StopCheckPayments.DisputedChecks",
  "wType": "Button",
  "zindex": 1,
  "tooltip": "Disputed Checks"
}