{
  "@class": "com.kony.gen.viz.model.container.KVizSegment2",
  "DNDConfig": null,
  "__parentReadjusting__": false,
  "_data_": [
    {},
    {},
    {}
  ],
  "_height_": {
    "type": "ref",
    "value": "preferred"
  },
  "_indicator_": "none",
  "_left_": {
    "type": "string",
    "value": "0dp"
  },
  "_margin_": [
    0,
    0,
    0,
    0
  ],
  "_orientation_": 2,
  "_padding_": [
    0,
    0,
    0,
    0
  ],
  "_top_": {
    "type": "string",
    "value": "0dp"
  },
  "_width_": {
    "type": "string",
    "value": "100%"
  },
  "autogrowmode": 1,
  "canUpdateUI": true,
  "containerweight": 100,
  "counter": "03",
  "desktop": {
    "_data_": [
      {
        "imgDropDown": {
          "@class": "com.viz.ide.model.segment.ImageSegmentData",
          "src": "arrow_down.png"
        },
        "lblAmount": {
          "@class": "com.viz.ide.model.segment.SimpleTextSegmentData",
          "text": "$98.44"
        },
        "lblDate": {
          "@class": "com.viz.ide.model.segment.SimpleTextSegmentData",
          "text": "06/05/2017"
        },
        "lblDescription": {
          "@class": "com.viz.ide.model.segment.SimpleTextSegmentData",
          "text": "ABC. Inc Direct Deposit"
        },
        "lblReferenceNo": {
          "@class": "com.viz.ide.model.segment.SimpleTextSegmentData",
          "text": "100687435"
        },
        "lblSeparator2": {
          "@class": "com.viz.ide.model.segment.SimpleTextSegmentData",
          "text": " "
        },
        "lblStatus": {
          "@class": "com.viz.ide.model.segment.SimpleTextSegmentData",
          "text": "Request Expired"
        },
        "lblSeparator": {
          "@class": "com.viz.ide.model.segment.SimpleTextSegmentData",
          "text": " a"
        }
      }
    ],
    "rowTemplateId": "f225e4812f2749b5a702790d59b59ad4",
    "rowtemplate": "flxDisputedChecksUnSelectedWrapper",
    "sectionHeaderTemplateId": null,
    "selectionBehaviorConfig": null,
    "widgetdatamap": {
      "flxAmount": "flxAmount",
      "flxDate": "flxDate",
      "flxDropdown": "flxDropdown",
      "flxLeft": "flxLeft",
      "flxReferenceNo": "flxReferenceNo",
      "flxRight": "flxRight",
      "flxSegDisputedTransactionRowWrapper": "flxSegDisputedTransactionRowWrapper",
      "flxSegDisputedTransactionRowWrappers": "flxSegDisputedTransactionRowWrappers",
      "flxSelectedRowWrapper": "flxSelectedRowWrapper",
      "flxStatus": "flxStatus",
      "flxTransactionDescription": "flxTransactionDescription",
      "flxWrapper": "flxWrapper",
      "imgDropDown": "imgDropDown",
      "lblAmount": "lblAmount",
      "lblDate": "lblDate",
      "lblDescription": "lblDescription",
      "lblReferenceNo": "lblReferenceNo",
      "lblSeparator2": "lblSeparator2",
      "lblStatus": "lblStatus",
      "flxDisputedChecksUnSelectedWrapper": "flxDisputedChecksUnSelectedWrapper",
      "lblSeparator": "lblSeparator"
    }
  },
  "focusedindex": null,
  "focuseditem": null,
  "groupcells": false,
  "hasSections": false,
  "id": "segTransactions",
  "info": null,
  "ipad": {
    "psp": {
      "indicator": "rowselect"
    }
  },
  "iphone": {
    "psp": {
      "indicator": "rowselect"
    }
  },
  "isvisible": true,
  "kuid": "c1b6668dc3ca4f15986fe80fc70f41b0",
  "masterdata": {},
  "mobile": {
    "rowTemplateId": null,
    "rowtemplate": null,
    "sectionHeaderTemplateId": null
  },
  "name": "kony.ui.SegmentedUI2",
  "needpageindicator": true,
  "pageoffdotimage": "pageoffdot.png",
  "pageondotimage": "pageondot.png",
  "paginationconfig": {
    "position": "bottom",
    "vdistance": 1
  },
  "parent": "flxSegmentContainer",
  "pf": "userwidgetmodel",
  "retainselection": false,
  "rowcounter": 3,
  "rowfocusskin": "s9f69e977910472eb44c62ae28c41fe1",
  "rowskin": "s76d2ce1ed0442cf8ec1d5e836e4a361",
  "rowtemplate": "flxSegTransactionRowSelected",
  "screenlevelwidget": false,
  "seccounter": 0,
  "sectionheaderskin": "sdc4ff4ed1584272be2ae69045dfb29d",
  "sectionheadertemplate": "flxSegTransactionHeader",
  "selectedRows": null,
  "selectedState": false,
  "selectedindex": null,
  "selectedindices": null,
  "selecteditems": null,
  "selectedsectionindex": 0,
  "selectionbehavior": "default",
  "separatorrequired": false,
  "showscrollbars": false,
  "swipeContext": {
    "currentPage": 0,
    "imageWidth": 1400,
    "widthRatio": 0
  },
  "viewtype": "tableview",
  "wType": "Segment",
  "widgetalignment": 5,
  "widgetdatamap": {
    "flxAmount": "flxAmount",
    "flxDate": "flxDate",
    "flxDropdown": "flxDropdown",
    "flxLeft": "flxLeft",
    "flxReferenceNo": "flxReferenceNo",
    "flxRight": "flxRight",
    "flxSegDisputedTransactionRowWrapper": "flxSegDisputedTransactionRowWrapper",
    "flxSegDisputedTransactionRowWrappers": "flxSegDisputedTransactionRowWrappers",
    "flxSelectedRowWrapper": "flxSelectedRowWrapper",
    "flxStatus": "flxStatus",
    "flxTransactionDescription": "flxTransactionDescription",
    "flxWrapper": "flxWrapper",
    "imgDropDown": "imgDropDown",
    "lblAmount": "lblAmount",
    "lblDate": "lblDate",
    "lblDescription": "lblDescription",
    "lblReferenceNo": "lblReferenceNo",
    "lblSeparator2": "lblSeparator2",
    "lblStatus": "lblStatus",
    "flxDisputedChecksUnSelectedWrapper": "flxDisputedChecksUnSelectedWrapper",
    "lblSeparator": "lblSeparator"
  },
  "zindex": 1
}