{
  "@class": "com.kony.gen.viz.model.component.KVizButton",
  "DNDConfig": null,
  "__parentReadjusting__": false,
  "_height_": {
    "type": "string",
    "value": "25dp"
  },
  "_left_": {
    "type": "string",
    "value": "0%"
  },
  "_margin_": [
    6,
    6,
    6,
    6
  ],
  "_padding_": [
    0,
    0,
    0,
    0
  ],
  "_skin_": "s41199c8c0df41048cbf47d26a9026d5",
  "_text_": "SEND",
  "_top_": {
    "type": "string",
    "value": "13px"
  },
  "_width_": {
    "type": "ref",
    "value": "preferred"
  },
  "canUpdateUI": true,
  "containerId": true,
  "containerweight": 100,
  "contentalignment": 5,
  "disabledSkins": {
    "focusSkin": "sf44d06ca8224832827ea7fdff757013"
  },
  "displaytext": true,
  "id": "btnSend",
  "ide_onClick": "AS_Button_b9f14703785c419a85ea58c6db247e5e",
  "info": null,
  "isvisible": true,
  "kuid": "b7ad49f4b98f43d8877669c31d1ab284",
  "name": "kony.ui.Button",
  "parent": "flxSendAction",
  "pf": "segSendRequestSelected",
  "wType": "Button",
  "zindex": 1,
  "desktopweb": {
    "psp": {
      "hoverSkin": "s4285319e4d34ae1b45e5ef82d61be6b"
    }
  }
}