{
  "customComponent": {
    "libraryName": "imageUpload",
    "i18nSupported": "true",
    "marginSupported": "true",
    "property": [
      {
        "categoryType": "Custom",
        "propertyName": "",
        "defaultValue": "false",
        "propertySelection": "false",
        "name": "openDialog",
        "options": "",
        "jsDataType": "",
        "exclude": "false",
        "propertyValue": "",
        "type": "Boolean",
        "value": "false",
        "uniqueID": "jsSPACustomWidgetPSP117777158110"
      },
      {
        "categoryType": "Event",
        "propertyName": "",
        "defaultValue": "",
        "propertySelection": "false",
        "name": "onBase64GeneratedListener",
        "options": "",
        "jsDataType": "",
        "exclude": "false",
        "propertyValue": "",
        "type": "Event",
        "value": "",
        "uniqueID": "jsSPACustomWidgetPSP117777158111"
      }
    ],
    "isOverride": "false",
    "name": "imageUpload",
    "paddingSupported": "true",
    "id": "jsSPACustomWidget11777715819",
    "platformID": "0",
    "konyWrapperFiles": "resources\\thirdpartywidgets\\widgetwrapper\\imageUpload.js"
  }
}