{
  "@class": "com.kony.gen.viz.model.component.KVizLabel",
  "DNDConfig": null,
  "__parentReadjusting__": false,
  "_height_": {
    "type": "ref",
    "value": "preferred"
  },
  "_left_": {
    "type": "string",
    "value": "-10dp"
  },
  "_margin_": [
    1,
    1,
    1,
    1
  ],
  "_padding_": [
    1,
    1,
    1,
    1
  ],
  "_skin_": "se9dd890b24543cc95c85a784f89ad6a",
  "_text_": "",
  "_width_": {
    "type": "ref",
    "value": "preferred"
  },
  "_wrapping_": 2,
  "android": {
    "textStyle": {
      "letterSpacing": 0,
      "strikeThrough": false
    }
  },
  "canUpdateUI": true,
  "centery": {
    "type": "string",
    "value": "50%"
  },
  "containerId": true,
  "containerweight": 100,
  "contentalignment": 1,
  "id": "lblAvailableAlerts",
  "info": null,
  "ipad": {
    "psp": {
      "wrapping": 2
    }
  },
  "iphone": {
    "psp": {
      "wrapping": 2
    }
  },
  "isvisible": false,
  "kuid": "a4378ee9158942639b63c569d0cd13a6",
  "name": "kony.ui.Label",
  "paddinginpixel": false,
  "parent": "flxAlertsAccountsList",
  "pf": "segAlertsAccountsList",
  "tooltip": "Label",
  "wType": "Label",
  "zindex": 1
}