{
  "DNDConfig": null,
  "__parentReadjusting__": false,
  "_height_": {
    "type": "string",
    "value": "100%"
  },
  "_left_": {
    "type": "string",
    "value": "0dp"
  },
  "_margin_": [
    0,
    0,
    0,
    0
  ],
  "_orientation_": 6,
  "_padding_": [
    0,
    0,
    0,
    0
  ],
  "_percent_": true,
  "_skin_": "s344174b66d24a22be7a954acfcdefc5",
  "_top_": {
    "type": "string",
    "value": "0dp"
  },
  "_width_": {
    "type": "string",
    "value": "100%"
  },
  "allboxes": [],
  "autogrowmode": 0,
  "canUpdateUI": true,
  "children": [
    "confirmHeaders",
    "flxHorizontalLine",
    "flxContainerFrom",
    "flxContainerTo",
    "flxContainerAmount",
    "flxContainerDate",
    "flxContainerDescription",
    "flxContainerPenalty",
    "flxContainerPartial",
    "flxPartial"
  ],
  "clipbounds": true,
  "containerweight": 100,
  "enablescrolling": true,
  "id": "flxMain",
  "info": null,
  "isvisible": true,
  "kuid": "bccdf5998bef414b9588207b188b5b22",
  "layouttype": 4,
  "name": "kony.ui.FlexContainer",
  "parent": "confirmDialog",
  "pf": "userwidgetmodel",
  "snapgridsize": 10,
  "snaptogrid": true,
  "wType": "FlexContainer",
  "widgetalignment": 1,
  "zindex": 1
}