{
  "@class": "com.kony.gen.viz.model.component.KVizButton",
  "DNDConfig": null,
  "__parentReadjusting__": false,
  "_height_": {
    "type": "ref",
    "value": "preferred"
  },
  "_left_": {
    "type": "string",
    "value": "5dp"
  },
  "_margin_": [
    6,
    6,
    6,
    6
  ],
  "_padding_": [
    0,
    0,
    0,
    0
  ],
  "_skin_": "sefaec1c283048808788386f6160e4d0",
  "_text_": "Button",
  "_top_": {
    "type": "string",
    "value": "0dp"
  },
  "_width_": {
    "type": "ref",
    "value": "preferred"
  },
  "canUpdateUI": true,
  "containerweight": 100,
  "contentalignment": 5,
  "desktopweb": {
    "psp": {
      "hoverSkin": "sdf98a3f7dd64c2f8e01e58a9a452498"
    }
  },
  "displaytext": true,
  "focusskin": "sefaec1c283048808788386f6160e4d0",
  "id": "btnLoginLater",
  "info": null,
  "isvisible": true,
  "kuid": "hc8a8e2f83db408d9139bfe9a8c7d6f1",
  "name": "kony.ui.Button",
  "parent": "flxDoneLoginLater",
  "pf": "userwidgetmodel",
  "texti18n": "i18n.login.LoginLater",
  "tooltip": "Login Later",
  "wType": "Button",
  "zindex": 1
}