{
  "@class": "com.kony.gen.viz.model.component.KVizLabel",
  "DNDConfig": null,
  "__parentReadjusting__": false,
  "_height_": {
    "type": "ref",
    "value": "preferred"
  },
  "_margin_": [
    1,
    1,
    1,
    1
  ],
  "_padding_": [
    0,
    0,
    0,
    0
  ],
  "_skin_": "s88b3db7b8744179a645e63daf90e49e",
  "_text_": "Congratulations!",
  "_top_": {
    "type": "string",
    "value": "4.91%"
  },
  "_width_": {
    "type": "ref",
    "value": "preferred"
  },
  "_wrapping_": 2,
  "android": {
    "textStyle": {
      "letterSpacing": 0,
      "strikeThrough": false
    }
  },
  "canUpdateUI": true,
  "centerx": {
    "type": "string",
    "value": "50%"
  },
  "containerweight": 100,
  "contentalignment": 5,
  "id": "lblCongrats",
  "info": null,
  "ipad": {
    "psp": {
      "wrapping": 2
    }
  },
  "iphone": {
    "psp": {
      "wrapping": 2
    }
  },
  "isvisible": true,
  "kuid": "a892f75f43dd430da5572fe6d1b3a806",
  "name": "kony.ui.Label",
  "parent": "passwordresetsuccess",
  "pf": "userwidgetmodel",
  "texti18n": "i18n.login.Congratulations",
  "tooltip": "",
  "wType": "Label",
  "zindex": 1
}