{
  "@class": "com.kony.gen.viz.model.component.KVizButton",
  "DNDConfig": null,
  "__parentReadjusting__": false,
  "_height_": {
    "type": "ref",
    "value": "preferred"
  },
  "_left_": {
    "type": "string",
    "value": "0dp"
  },
  "_margin_": [
    6,
    6,
    6,
    6
  ],
  "_padding_": [
    0,
    0,
    0,
    0
  ],
  "_skin_": "s82771fb0d3040339aab7fd2e47af223",
  "_text_": "VIEW ACTIVITY",
  "_top_": {
    "type": "string",
    "value": "0dp"
  },
  "_width_": {
    "type": "ref",
    "value": "preferred"
  },
  "canUpdateUI": true,
  "containerId": true,
  "containerweight": 100,
  "contentalignment": 5,
  "disabledSkins": {
    "focusSkin": "sf44d06ca8224832827ea7fdff757013"
  },
  "displaytext": true,
  "id": "btnMakeTransfer",
  "ide_onClick": "AS_Button_hcb3f2b3207c40f6a785f196ba328291",
  "info": null,
  "isvisible": true,
  "kuid": "ff99fe2d28c841b0a90a66013eab1f23",
  "name": "kony.ui.Button",
  "parent": "flxRowOne",
  "pf": "segManageRecipientsWireTransfersSelected",
  "texti18n": "i18n.WireTransfer.MakeTransfer",
  "tooltip": "VIEW ACTIVITY",
  "wType": "Button",
  "zindex": 1,
  "desktopweb": {
    "psp": {
      "hoverSkin": "sd36babbd8f6461f8b492698ab830d13"
    }
  }
}