{
  "@class": "com.kony.gen.viz.model.component.KVizButton",
  "DNDConfig": null,
  "__parentReadjusting__": false,
  "_height_": {
    "type": "string",
    "value": "100%"
  },
  "_left_": {
    "type": "string",
    "value": "0dp"
  },
  "_margin_": [
    6,
    6,
    6,
    6
  ],
  "_padding_": [
    0,
    0,
    0,
    0
  ],
  "_skin_": "s82771fb0d3040339aab7fd2e47af223",
  "_text_": "Button",
  "_top_": {
    "type": "string",
    "value": "0dp"
  },
  "_width_": {
    "type": "ref",
    "value": "preferred"
  },
  "canUpdateUI": true,
  "containerId": true,
  "containerweight": 100,
  "contentalignment": 5,
  "disabledSkins": {
    "focusSkin": "sf44d06ca8224832827ea7fdff757013"
  },
  "displaytext": true,
  "id": "btnAction",
  "info": null,
  "isvisible": true,
  "kuid": "c92fd585ecce469381726d1ac1dd5dc6",
  "name": "kony.ui.Button",
  "parent": "flxRow",
  "pf": "segManageRecipientsWireTransfersUnselected",
  "texti18n": "i18n.billPay.Edit",
  "tooltip": "Edit",
  "wType": "Button",
  "zindex": 1,
  "desktopweb": {
    "psp": {
      "hoverSkin": "sd36babbd8f6461f8b492698ab830d13"
    }
  }
}