{
  "@class": "com.kony.gen.viz.model.component.KVizLabel",
  "DNDConfig": null,
  "__parentReadjusting__": false,
  "_height_": {
    "type": "ref",
    "value": "preferred"
  },
  "_left_": {
    "type": "string",
    "value": "7.45%"
  },
  "_margin_": [
    1,
    1,
    1,
    1
  ],
  "_padding_": [
    0,
    0,
    0,
    0
  ],
  "_skin_": "sd9fada740124e4a99edc1f0a05ec2d0",
  "_text_": "Label",
  "_top_": {
    "type": "string",
    "value": "3.52%"
  },
  "_width_": {
    "type": "ref",
    "value": "preferred"
  },
  "_wrapping_": 2,
  "android": {
    "textStyle": {
      "letterSpacing": 0,
      "strikeThrough": false
    }
  },
  "canUpdateUI": true,
  "containerweight": 100,
  "contentalignment": 4,
  "id": "lblDOB",
  "info": null,
  "ipad": {
    "psp": {
      "wrapping": 2
    }
  },
  "iphone": {
    "psp": {
      "wrapping": 2
    }
  },
  "isvisible": true,
  "kuid": "e8735069e3ba47359c2d8fbc40604a6a",
  "name": "kony.ui.Label",
  "paddinginpixel": false,
  "parent": "letsverify",
  "pf": "userwidgetmodel",
  "texti18n": "i18n.common.DOB",
  "tooltip": "",
  "wType": "Label",
  "zindex": 1
}