{
  "@class": "com.kony.gen.viz.model.component.KVizUserWidget",
  "DNDConfig": null,
  "__parentReadjusting__": false,
  "_children_": [],
  "_height_": {
    "type": "ref",
    "value": "preferred"
  },
  "_left_": {
    "type": "string",
    "value": "6%"
  },
  "_margin_": [
    0,
    0,
    0,
    0
  ],
  "_orientation_": 1,
  "_padding_": [
    0,
    0,
    0,
    0
  ],
  "_percent_": true,
  "_render_": true,
  "_skin_": "s16996c8c50c41c9a071c5e40350da14",
  "_top_": "0dp",
  "_width_": {
    "type": "string",
    "value": "58%"
  },
  "areflexpropsreferenced": false,
  "autogrowmode": 0,
  "canUpdateUI": true,
  "centerx": {
    "type": "string",
    "value": ""
  },
  "clipbounds": false,
  "containerweight": 0,
  "dataDiffs": {
    "CurrentBalanceNew": {
      "__events__": {},
      "__info__": {
        "kuid": "b9f44e994ed44993ba508936d6b29a8f",
        "srcKUID": "f2b20b3e0ce440ebbe7585e3bbead4bd",
        "wType": "Image"
      }
    },
    "btnAccountSummary": {
      "__events__": {},
      "__info__": {
        "kuid": "c2e49ec1d80749388e5aca3008d142f7",
        "srcKUID": "fa6785498c4a473ba42c844279febcae",
        "wType": "Button"
      },
      "i18n_text": "i18n.AccountsAggregation.AccountSummary"
    },
    "btnBalanceDetails": {
      "__events__": {},
      "__info__": {
        "kuid": "f361732dfb0a4724a023bc6afe265a01",
        "srcKUID": "b43ff4ccf7ac4994a9f8bb3a3ea404d7",
        "wType": "Button"
      },
      "i18n_text": "i18n.accountDetail.balanceAndInterestDetail"
    },
    "btnDummy": {
      "__events__": {},
      "__info__": {
        "kuid": "afaef4621cac4079a170ae2c3032e467",
        "srcKUID": "bf877015198b4997944db2ccf89968a2",
        "wType": "Button"
      }
    },
    "flxAvailableBalance": {
      "__events__": {},
      "__info__": {
        "kuid": "i5b2436b5ddb4920a46096526bcf5d38",
        "srcKUID": "i2be294dc7864772be8dc662dd7e5ab1",
        "wType": "FlexContainer"
      }
    },
    "flxBalanceDetailDesktop": {
      "__events__": {},
      "__info__": {
        "kuid": "ae2e705f8823447f82e9c2b9871e542b",
        "srcKUID": "ba215157cd4e47568e623fba49389e5f",
        "wType": "FlexContainer"
      }
    },
    "flxBalanceDetailsLeft": {
      "__events__": {},
      "__info__": {
        "kuid": "e49f0ef9412942c5ad4ee6e0ebcc1464",
        "srcKUID": "cdb80a912b6147d98e05190e05da7f3d",
        "wType": "FlexContainer"
      }
    },
    "flxBalanceDetailsRight": {
      "__events__": {},
      "__info__": {
        "kuid": "fcf91dd0b1514038a53767c8881aac9f",
        "srcKUID": "f16cfadbdc304404a97616c21bf9e22d",
        "wType": "FlexContainer"
      }
    },
    "flxCurrentBalance": {
      "__events__": {},
      "__info__": {
        "kuid": "c029877f43e04c319d79ddb5d35bb289",
        "srcKUID": "b7ce147aa3dd4fc88c751866fa01f7a4",
        "wType": "FlexContainer"
      }
    },
    "flxCurrentBalanceNew": {
      "__events__": {},
      "__info__": {
        "kuid": "fd6d0c1894f44327b16b8a486285cb4e",
        "srcKUID": "dee486091f2a4de1a9f0f3a1d00c0b4c",
        "wType": "FlexContainer"
      }
    },
    "flxDividentRate": {
      "__events__": {},
      "__info__": {
        "kuid": "ac02d1c488274d27a8c7cbe3cd23e886",
        "srcKUID": "d69a3e503fe64515ab3f6d6bfd61e76c",
        "wType": "FlexContainer"
      }
    },
    "flxDividentRateYTD": {
      "__events__": {},
      "__info__": {
        "kuid": "dae9dc3f85234de4aeb66e1ea087564b",
        "srcKUID": "adb8c14c56d54b2fac1931aa8b27b2c4",
        "wType": "FlexContainer"
      }
    },
    "flxDummyOne": {
      "__events__": {},
      "__info__": {
        "kuid": "a1ce6da23d5b46a99393c48da48b7a6e",
        "srcKUID": "d2822e000b1e4d39aebaa2bbac335844",
        "wType": "FlexContainer"
      }
    },
    "flxDummyTwo": {
      "__events__": {},
      "__info__": {
        "kuid": "bafd99f4977142348d75050977a5e55c",
        "srcKUID": "e3a605e227dc4892b6b406834471825b",
        "wType": "FlexContainer"
      }
    },
    "flxExtraField": {
      "__events__": {},
      "__info__": {
        "kuid": "ie02ca76d17d4a38bb9e4e6bfc48c4ac",
        "srcKUID": "c0baf1ca494f4a3f907a6a94191e7559",
        "wType": "FlexContainer"
      }
    },
    "flxIdentifier": {
      "__events__": {},
      "__info__": {
        "kuid": "g1d7cc5e05b94fbfa17a65eabb85aaca",
        "srcKUID": "fac94f33826c4b80affa699262bb792a",
        "wType": "FlexContainer"
      }
    },
    "flxInfo": {
      "__events__": {},
      "__info__": {
        "kuid": "d578be5dcb504937bbbeef220a64c6c3",
        "srcKUID": "efd4d6ef28ce4c1da06af9371e62678e",
        "wType": "FlexContainer"
      }
    },
    "flxInfoNew": {
      "__events__": {},
      "__info__": {
        "kuid": "bad862f130d24ff9a69ab426d2362534",
        "srcKUID": "c47bba75c7834fbfa3288c4e898f5cc1",
        "wType": "FlexContainer"
      }
    },
    "flxLastDividentPaid": {
      "__events__": {},
      "__info__": {
        "kuid": "aa2a5e6990a44082b600722593aa4214",
        "srcKUID": "eabeb86b014944d1b31198e8a20def97",
        "wType": "FlexContainer"
      }
    },
    "flxLeft": {
      "__events__": {},
      "__info__": {
        "kuid": "b7bb611b11d248dc9fd14960f625f014",
        "srcKUID": "e64f41a5e1a449eeacd753703ff869c7",
        "wType": "FlexContainer"
      }
    },
    "flxMainDesktop": {
      "__events__": {},
      "__info__": {
        "kuid": "f00c13f28a9f44ef9d445eff970fd325",
        "srcKUID": "ead44e6ca2ed4f7d84a4dadfafb522f5",
        "wType": "FlexContainer"
      }
    },
    "flxPaidOn": {
      "__events__": {},
      "__info__": {
        "kuid": "b0074f34b87f4b76a48dcb7357b5d681",
        "srcKUID": "ha5d5791e78e423ba1b6d76b88495565",
        "wType": "FlexContainer"
      }
    },
    "flxPendingDeposits": {
      "__events__": {},
      "__info__": {
        "kuid": "f7f755133e594c3689ea058d1b285aa0",
        "srcKUID": "gb563e41322249a3b0de8b58ec1cce29",
        "wType": "FlexContainer"
      }
    },
    "flxPendingWithdrawals": {
      "__events__": {},
      "__info__": {
        "kuid": "f512836b73bd458a824d27f54ea8c251",
        "srcKUID": "b7a40a5be59b4d9f9cfeb25ade29826d",
        "wType": "FlexContainer"
      }
    },
    "flxRight": {
      "__events__": {},
      "__info__": {
        "kuid": "e961d4a645814ace8d0c06ca71489d3f",
        "srcKUID": "e82b5b752aa74e15a30895a89ec252dc",
        "wType": "FlexContainer"
      }
    },
    "flxSeparator": {
      "__events__": {},
      "__info__": {
        "kuid": "b587777e22bf4714a72d206813db6729",
        "srcKUID": "g32d6325d4d14beb80f290ae73673acd",
        "wType": "FlexContainer"
      }
    },
    "flxSeparatorCurrentBalance": {
      "__events__": {},
      "__info__": {
        "kuid": "d184b7fbc31c471bae8a0e432ec4bfef",
        "srcKUID": "c1f1c386351e45c3856690e5456769db",
        "wType": "FlexContainer"
      }
    },
    "flxSeparatorPendingDeposits": {
      "__events__": {},
      "__info__": {
        "kuid": "da433e33d0e0454e9d4dee228bc9fbd9",
        "srcKUID": "h3d9a0a11d7d4c8ea4ba1cf76400cc46",
        "wType": "FlexContainer"
      }
    },
    "flxSeparatorPendingWithdrawals": {
      "__events__": {},
      "__info__": {
        "kuid": "c425b6071efb43f6a831af653e144ac7",
        "srcKUID": "f51acb5aebfc45738e08542286e4e45c",
        "wType": "FlexContainer"
      }
    },
    "flxShadow": {
      "__events__": {},
      "__info__": {
        "kuid": "d55b19cd5aab45eda74876851d126958",
        "srcKUID": "g84c70f3bfc74a348c2a12822570eb63",
        "wType": "FlexContainer"
      },
      "autogrowMode": 0,
      "height": {
        "Default": {
          "type": "string",
          "value": "2dp"
        }
      }
    },
    "flxSummaryDesktop": {
      "__events__": {},
      "__info__": {
        "kuid": "e257e43ea5804fda97155952b512e6b3",
        "srcKUID": "f92ded4a7add46f28d491eecc3178c86",
        "wType": "FlexContainer"
      }
    },
    "flxTabs": {
      "__events__": {},
      "__info__": {
        "kuid": "a9fc93ee3c9c495e997d1057eb6c502d",
        "srcKUID": "f282b9f3e1aa44449706c8b47a2b4d89",
        "wType": "FlexContainer"
      }
    },
    "flxTotalCredits": {
      "__events__": {},
      "__info__": {
        "kuid": "b0040d0796454a89b3b3f4a293d8d278",
        "srcKUID": "fbb25db1a8a545d6a3b924cd6813f35e",
        "wType": "FlexContainer"
      }
    },
    "flxTotalDebts": {
      "__events__": {},
      "__info__": {
        "kuid": "eaeb99cc87064d7887c037dab51da222",
        "srcKUID": "f796d34ca5614e819efd283a1bfc017e",
        "wType": "FlexContainer"
      }
    },
    "imgAvailableBalance": {
      "__events__": {},
      "__info__": {
        "kuid": "f596c0f4776f4064ae022beda1098304",
        "srcKUID": "b320231c20e147e294fdf5cf791ffa2a",
        "wType": "Image"
      }
    },
    "imgInfo": {
      "__events__": {},
      "__info__": {
        "kuid": "d8966a0d99ec4503b1426674e1895e14",
        "srcKUID": "edc9b7bfde914fb7b1627fc1d1d753d7",
        "wType": "Image"
      }
    },
    "imgInfo0fcNew5a83b7432c40": {
      "__events__": {},
      "__info__": {
        "kuid": "a60847a45dd8409ea53c3565326db03f",
        "srcKUID": "c83a63afc68d473f8cfec54bfd8f6a75",
        "wType": "Image"
      }
    },
    "lblAccountSummary": {
      "__events__": {},
      "__info__": {
        "kuid": "d93fb8bfb5de4ce9a633ec3ac9df7518",
        "srcKUID": "cfd3f0202c6348ff8f6f7816d24e17b8",
        "wType": "Label"
      }
    },
    "lblAsOf": {
      "__events__": {},
      "__info__": {
        "kuid": "d773df7212b54bddb1cc76cf72bf3f45",
        "srcKUID": "c9cb71ced7bb447cbaa99eb485d8a4d3",
        "wType": "Label"
      },
      "i18n_text": "i18n.AccountsDetails.Asof21June2017"
    },
    "lblAvailableBalanceTitle": {
      "__events__": {},
      "__info__": {
        "kuid": "f870b556be12497f89e1136697eb25c1",
        "srcKUID": "b95fcfe278b74c8b8a04e4bf7c45407d",
        "wType": "Label"
      },
      "i18n_text": "i18n.accounts.availableBalance"
    },
    "lblAvailableBalanceValue": {
      "__events__": {},
      "__info__": {
        "kuid": "a957fb119bd84d129a73ac82be06d6a5",
        "srcKUID": "g0edbb99e71a4041b8bebe3e9fa678d9",
        "wType": "Label"
      }
    },
    "lblCurrentBalanceTitle": {
      "__events__": {},
      "__info__": {
        "kuid": "d5b8e342efd04caabc72960fd2eda541",
        "srcKUID": "h16646bbda154cbc9d4c9332e3f8b2f2",
        "wType": "Label"
      },
      "i18n_text": "i18n.accounts.currentBalance"
    },
    "lblCurrentBalanceTitleNew": {
      "__events__": {},
      "__info__": {
        "kuid": "d79c638fe559438e93bfc4f9f2f56250",
        "srcKUID": "e8828a5fe4374a63aaf6e7e189f84f0d",
        "wType": "Label"
      }
    },
    "lblCurrentBalanceValue": {
      "__events__": {},
      "__info__": {
        "kuid": "d08263fddd3543c8877c8b1fc1c19890",
        "srcKUID": "j6052bd66a3f48e5b3618e5e9d7fb0e2",
        "wType": "Label"
      }
    },
    "lblCurrentBalanceValueNew": {
      "__events__": {},
      "__info__": {
        "kuid": "j2d0a7cc9dcc41f58e0c3725e46529b2",
        "srcKUID": "cb469173d9a34dfdb37b8013f0c4c012",
        "wType": "Label"
      }
    },
    "lblDividentRateColon": {
      "__events__": {},
      "__info__": {
        "kuid": "acbb2af46c6d4980bfb12aba56350f1e",
        "srcKUID": "d9fac752900f4e6e9cb75090b80149dd",
        "wType": "Label"
      }
    },
    "lblDividentRateTitle": {
      "__events__": {},
      "__info__": {
        "kuid": "hf4d5da9cde34eca868318693ee916d8",
        "srcKUID": "d363177cb842404c87140a37b534987a",
        "wType": "Label"
      },
      "i18n_text": "i18n.accountDetail.dividendRate"
    },
    "lblDividentRateValue": {
      "__events__": {},
      "__info__": {
        "kuid": "d60ba60f20564ea59525cdf383d863fe",
        "srcKUID": "g5920289ab7f41fd806fb984fe67c7a0",
        "wType": "Label"
      }
    },
    "lblDividentRateYTDColon": {
      "__events__": {},
      "__info__": {
        "kuid": "a547852f85f34fff83cf3b900257b3e4",
        "srcKUID": "ccd636b3f3634398948c14802052d7e2",
        "wType": "Label"
      }
    },
    "lblDividentRateYTDTitle": {
      "__events__": {},
      "__info__": {
        "kuid": "g30e9bf9ac6340c0a738e79bebf38dfc",
        "srcKUID": "e8ab55a4158d4c52b3cd858e3cd64421",
        "wType": "Label"
      },
      "i18n_text": "i18n.accountDetail.dividendPaidYDT"
    },
    "lblDividentRateYTDValue": {
      "__events__": {},
      "__info__": {
        "kuid": "hbbb48e7ea3e428d9246a9b6ac512da7",
        "srcKUID": "g16ee9ddb8444850b832aff87ce2262e",
        "wType": "Label"
      },
      "text": "$324.01"
    },
    "lblDummyOneColon": {
      "__events__": {},
      "__info__": {
        "kuid": "f62bfcd62daf48af849d908d3592d78b",
        "srcKUID": "f8cd64445cd94ef49e2393ae3a7d0e74",
        "wType": "Label"
      }
    },
    "lblDummyOneTitle": {
      "__events__": {},
      "__info__": {
        "kuid": "g0e7e5cd801d4deea3760fe53cb1cfc2",
        "srcKUID": "e340e587988045ba94bbf76de2ba7627",
        "wType": "Label"
      },
      "i18n_text": "i18n.accountDetail.originalDate",
      "left": {
        "Default": {
          "type": "string",
          "value": "20dp"
        }
      },
      "text": "Original Date"
    },
    "lblDummyOneValue": {
      "__events__": {},
      "__info__": {
        "kuid": "a27eb0c3c47541ef895c116fd33731a3",
        "srcKUID": "i37f5d642d5f48a2952b6fa331e666e8",
        "wType": "Label"
      }
    },
    "lblDummyTwoColon": {
      "__events__": {},
      "__info__": {
        "kuid": "b4b15218b377419da0c59164cdbd41f4",
        "srcKUID": "d0e8b4e2c746413281c502c8f78ce43a",
        "wType": "Label"
      }
    },
    "lblDummyTwoTitle": {
      "__events__": {},
      "__info__": {
        "kuid": "a350a417e1ac4c239bd919786eb2125b",
        "srcKUID": "ida431016e7849dfbdca9db0e36dbdf3",
        "wType": "Label"
      },
      "left": {
        "Default": {
          "type": "string",
          "value": "20dp"
        }
      },
      "i18n_text": "i18n.loan.payOffAmount"
    },
    "lblDummyTwoValue": {
      "__events__": {},
      "__info__": {
        "kuid": "g690c9e6c8384c6e96ceaa4c7332f097",
        "srcKUID": "a22dc3bf519d4809b8db878aa747a1f3",
        "wType": "Label"
      }
    },
    "lblExtraFieldTitle": {
      "__events__": {},
      "__info__": {
        "kuid": "a97a5fe9ed7e4e8990fdd554d667d64a",
        "srcKUID": "cd30b34cb1a14f5cae1f2435f5107894",
        "wType": "Label"
      },
      "i18n_text": "i18n.accounts.availableBalance"
    },
    "lblExtraFieldValue": {
      "__events__": {},
      "__info__": {
        "kuid": "c1bfc8df2a2e4240b740181de154324f",
        "srcKUID": "j48b0366af1a41b19f2ce2a9459e221a",
        "wType": "Label"
      }
    },
    "lblLastDividentPaidColon": {
      "__events__": {},
      "__info__": {
        "kuid": "hde2d4578a2e4e258bc1ff920554eba1",
        "srcKUID": "ja65c6b695c845ae8182c376fc5f3e70",
        "wType": "Label"
      }
    },
    "lblLastDividentPaidTitle": {
      "__events__": {},
      "__info__": {
        "kuid": "g6dd5f56c4a043b195b64576f8b349f7",
        "srcKUID": "c4ff0c8defb14893a8e26f551055f1f4",
        "wType": "Label"
      },
      "i18n_text": "i18n.accountDetail.lastDividendPaid",
      "left": {
        "Default": {
          "type": "string",
          "value": "20dp"
        }
      }
    },
    "lblLastDividentPaidValue": {
      "__events__": {},
      "__info__": {
        "kuid": "a23ac900c16445ba9c8d63c0b0af15e3",
        "srcKUID": "a95bfb3981704ab79e3bea0263a7726c",
        "wType": "Label"
      }
    },
    "lblPaidOnColon": {
      "__events__": {},
      "__info__": {
        "kuid": "d181dbff1dbf4fbfaff9f3cb9c6ce035",
        "srcKUID": "h25df9be05534a1e9f286583fed5bb08",
        "wType": "Label"
      }
    },
    "lblPaidOnTitle": {
      "__events__": {},
      "__info__": {
        "kuid": "f82670cd476b43de95be66fabd8235ed",
        "srcKUID": "fc232824023c47e7924d67b5495f4f9e",
        "wType": "Label"
      },
      "i18n_text": "i18n.accountDetail.paidOn",
      "left": {
        "Default": {
          "type": "string",
          "value": "20dp"
        }
      }
    },
    "lblPaidOnValue": {
      "__events__": {},
      "__info__": {
        "kuid": "j4a380c8c7e848119be4c43890e42dc1",
        "srcKUID": "f5d040e88f304f23ad0b35f229480771",
        "wType": "Label"
      }
    },
    "lblPendingDepositsTitle": {
      "__events__": {},
      "__info__": {
        "kuid": "e596d306953e4d7a9788a65ec7940ce8",
        "srcKUID": "ga7357d2aa044e43904a5001855e37e1",
        "wType": "Label"
      },
      "text": "Pending Deposits",
      "i18n_text": "i18n.accountDetail.pendingDeposit"
    },
    "lblPendingDepositsValue": {
      "__events__": {},
      "__info__": {
        "kuid": "d1804212278e4fc6b46e93e116993ee4",
        "srcKUID": "d679525b000d4f6897335a45e49f96e5",
        "wType": "Label"
      }
    },
    "lblPendingWithdrawalsTitle": {
      "__events__": {},
      "__info__": {
        "kuid": "he2e926b041d4713b4973737e842655e",
        "srcKUID": "id1a3bde82eb4b68aa313068338f78ab",
        "wType": "Label"
      },
      "i18n_text": "i18n.accountDetail.pendingWithdrawals"
    },
    "lblPendingWithdrawalsValue": {
      "__events__": {},
      "__info__": {
        "kuid": "gdeb80ea2efa4a6b9163c90075017697",
        "srcKUID": "ed77ff3a03374e478c8357b1acc644c7",
        "wType": "Label"
      }
    },
    "lblTotalCreditsColon": {
      "__events__": {},
      "__info__": {
        "kuid": "fb888ead3e4144e28377a09cab68c047",
        "srcKUID": "a25f7ce8d38846b6bd0af87b034f51f5",
        "wType": "Label"
      }
    },
    "lblTotalCreditsTitle": {
      "__events__": {},
      "__info__": {
        "kuid": "e491300608cb43e2928ad24f9f3d9945",
        "srcKUID": "f259e7bb5afb450e8ad7c5cc36a0a35e",
        "wType": "Label"
      },
      "i18n_text": "i18n.accountDetail.totalCredits"
    },
    "lblTotalCreditsValue": {
      "__events__": {},
      "__info__": {
        "kuid": "b01abe40e6934f6f8b5d1e1f4329a1d5",
        "srcKUID": "fd929671e33d46c8a4c063a756b6d2c2",
        "wType": "Label"
      }
    },
    "lblTotalDebtsColon": {
      "__events__": {},
      "__info__": {
        "kuid": "a048fd61ce7b4e06b6467349e646bf28",
        "srcKUID": "j8440d6b480e49099fb4cdd8a67f2899",
        "wType": "Label"
      }
    },
    "lblTotalDebtsTitle": {
      "__events__": {},
      "__info__": {
        "kuid": "bc30210a82ad4bf39b70e2dbfc069a4a",
        "srcKUID": "cfcbe94561d942ba809d383a5947e943",
        "wType": "Label"
      },
      "i18n_text": "i18n.accountDetail.totalDebts"
    },
    "lblTotalDebtsValue": {
      "__events__": {},
      "__info__": {
        "kuid": "fd890669322942328b40c5e80ce93af4",
        "srcKUID": "j8c5774988b8473fafa9a721ebe26874",
        "wType": "Label"
      }
    },
    "summary": {
      "__events__": {},
      "__info__": {
        "isRoot": true,
        "kuid": "ca6c7d353b8d47fe93f13408e8395350",
        "srcKUID": "a88decff9f54430c98263cc56098e32f",
        "wType": "FlexContainer"
      },
      "autogrowMode": 1,
      "centerX": {
        "Default": {
          "type": "string",
          "value": ""
        }
      },
      "height": {
        "Default": {
          "type": "ref",
          "value": "preferred"
        }
      },
      "isVisible": true,
      "left": {
        "Default": {
          "type": "string",
          "value": "6%"
        }
      },
      "minHeight": {
        "Default": {
          "type": "string",
          "value": ""
        }
      },
      "width": {
        "Default": {
          "type": "string",
          "value": "58%"
        }
      }
    }
  },
  "id": "accountSummary",
  "info": null,
  "isdatareferenced": false,
  "isvisible": true,
  "kuid": "j407cec8865c47d5814cac820d27503e",
  "layouttype": 2,
  "masterType": 0,
  "minheight": {
    "type": "string",
    "value": ""
  },
  "name": "kony.ui.UserWidgetInstance",
  "parent": "flxAccountSummaryAndActions",
  "pf": "frmAccountsDetails",
  "snaptogrid": true,
  "sourceUserWidget": "a88decff9f54430c98263cc56098e32f",
  "wType": "UserWidgetInstance"
}