{
  "@class": "com.kony.gen.viz.model.component.KVizButton",
  "DNDConfig": null,
  "__parentReadjusting__": false,
  "_height_": {
    "type": "string",
    "value": "50dp"
  },
  "_left_": {
    "type": "string",
    "value": "20dp"
  },
  "_margin_": [
    6,
    6,
    6,
    6
  ],
  "_padding_": [
    0,
    0,
    0,
    0
  ],
  "_skin_": "s55b84dca2454feda7c7ebea7678efa9",
  "_text_": "MAKE A TRANSFER",
  "_top_": {
    "type": "string",
    "value": "0dp"
  },
  "_width_": {
    "type": "string",
    "value": "90%"
  },
  "canUpdateUI": true,
  "containerweight": 100,
  "contentalignment": 4,
  "disabledSkins": {
    "focusSkin": "sf44d06ca8224832827ea7fdff757013"
  },
  "displaytext": true,
  "id": "btnMakeTransfer",
  "ide_onClick": "AS_Button_b86f0b9fb79344678e17324a5ce90e5a",
  "info": null,
  "isvisible": true,
  "kuid": "a1669fe18f20447cad5080c8c289aa8f",
  "name": "kony.ui.Button",
  "parent": "flxPrimaryActions",
  "pf": "frmAccountsDetails",
  "texti18n": "i18n.accounts.makeATransfer",
  "tooltip": "Make  A Transfer",
  "wType": "Button",
  "zindex": 1
}