{
  "DNDConfig": null,
  "__parentReadjusting__": false,
  "_bottom_": {
    "type": "string",
    "value": "0dp"
  },
  "_height_": {
    "type": "string",
    "value": "500dp"
  },
  "_left_": {
    "type": "string",
    "value": "15dp"
  },
  "_margin_": [
    0,
    0,
    0,
    0
  ],
  "_orientation_": 6,
  "_padding_": [
    0,
    0,
    0,
    0
  ],
  "_percent_": true,
  "_skin_": "s5b9b3b444c442ea9057493a50557287",
  "_top_": {
    "type": "string",
    "value": "30dp"
  },
  "_width_": {
    "type": "string",
    "value": "46.85%"
  },
  "allboxes": [],
  "autogrowmode": 0,
  "canUpdateUI": true,
  "children": [
    "flxHeaderMySpending",
    "flxSeparatorMySpending",
    "flxMySpendingWrapper",
    "flxMySpendingWrapperdataUnavailable",
    "flxSeperatorMySpending"
  ],
  "clipbounds": true,
  "containerweight": 100,
  "enablescrolling": true,
  "id": "flxPFMContainerMySpending",
  "info": null,
  "isvisible": true,
  "kuid": "dceb7e76a76c41d1982a6a115c0a841f",
  "layouttype": 4,
  "name": "kony.ui.FlexContainer",
  "parent": "flxPFMContainer1",
  "pf": "frmAccountsDetails",
  "snapgridsize": 10,
  "snaptogrid": true,
  "wType": "FlexContainer",
  "widgetalignment": 1,
  "zindex": 1
}