{
  "DNDConfig": null,
  "__parentReadjusting__": false,
  "_height_": {
    "type": "string",
    "value": "60dp"
  },
  "_left_": {
    "type": "string",
    "value": "16dp"
  },
  "_margin_": [
    0,
    0,
    0,
    0
  ],
  "_orientation_": 6,
  "_padding_": [
    0,
    0,
    0,
    0
  ],
  "_percent_": true,
  "_skin_": "saec8ad43b0e4b4c8f3bbda23f4bb18a",
  "_top_": {
    "type": "string",
    "value": "0dp"
  },
  "_width_": {
    "type": "string",
    "value": "28.50%"
  },
  "allboxes": [],
  "autogrowmode": 0,
  "canUpdateUI": true,
  "children": [
    "lblSecondaryActions",
    "imgSecondaryActions"
  ],
  "clipbounds": false,
  "containerweight": 100,
  "desktopweb": {
    "psp": {
      "hoverSkin": "s4138ea038244f2ab3e8be74656d0653"
    }
  },
  "enablescrolling": true,
  "id": "flxSecondaryActions",
  "info": null,
  "isvisible": true,
  "kuid": "aa2221f3c0284c95a628b5060ef83aa3",
  "layouttype": 2,
  "name": "kony.ui.FlexContainer",
  "parent": "flxActions",
  "pf": "frmAccountsDetails",
  "snapgridsize": 10,
  "snaptogrid": true,
  "wType": "FlexContainer",
  "widgetalignment": 1,
  "zindex": 1
}