{
  "DNDConfig": null,
  "__parentReadjusting__": false,
  "_bottom_": {
    "type": "string",
    "value": "30dp"
  },
  "_height_": {
    "type": "ref",
    "value": "preferred"
  },
  "_margin_": [
    0,
    0,
    0,
    0
  ],
  "_orientation_": 6,
  "_padding_": [
    0,
    0,
    0,
    0
  ],
  "_percent_": true,
  "_skin_": "s24c92fc23b14f5484b693ee9b8a9b35",
  "_top_": {
    "type": "string",
    "value": "30dp"
  },
  "_width_": {
    "type": "string",
    "value": "1200dp"
  },
  "allboxes": [],
  "autogrowmode": 1,
  "canUpdateUI": true,
  "centerx": {
    "type": "string",
    "value": "50%"
  },
  "children": [
    "ViewDocument"
  ],
  "clipbounds": true,
  "containerweight": 100,
  "enablescrolling": true,
  "id": "flxViewDocuments",
  "info": null,
  "isvisible": false,
  "kuid": "i10176d0669b49718aa426a9cd18c462",
  "layouttype": 3,
  "minheight": {
    "type": "string",
    "value": "240dp"
  },
  "name": "kony.ui.FlexContainer",
  "parent": "flxMain",
  "pf": "frmAccountsDetails",
  "snapgridsize": 10,
  "snaptogrid": true,
  "wType": "FlexContainer",
  "widgetalignment": 1,
  "zindex": 1
}