{
  "@class": "com.kony.gen.viz.model.component.KVizImage2",
  "DNDConfig": null,
  "__parentReadjusting__": false,
  "_base64_": null,
  "_height_": {
    "type": "string",
    "value": "75%"
  },
  "_left_": {
    "type": "string",
    "value": "20dp"
  },
  "_margin_": [
    0,
    0,
    0,
    0
  ],
  "_padding_": [
    0,
    0,
    0,
    0
  ],
  "_skin_": "s8ee487de5774c1eb668e74bf92f5cdd",
  "_src_": "close_big.png",
  "_width_": {
    "type": "string",
    "value": "5%"
  },
  "canUpdateUI": true,
  "centery": {
    "type": "string",
    "value": "50%"
  },
  "containerweight": 100,
  "context": {
    "channel": "desktop",
    "formID": "frmAccountsDetails",
    "platform": "desktopweb",
    "templateType": "forms",
    "topLevelBox": null
  },
  "id": "imgCloseDowntimeWarning",
  "imagescalemode": 1,
  "imagewhiledownloading": "img_transparent.png",
  "info": null,
  "invokedProperty": "src",
  "isvisible": true,
  "kuid": "df84b3c8a0b14d4a8801c39742fc0fd7",
  "name": "kony.ui.Image2",
  "parent": "flxDowntimeWarning",
  "pf": "frmAccountsDetails",
  "srcType": 1,
  "wType": "Image",
  "widgetalignment": 5,
  "zindex": 1,
  "tooltip": "Close"
}