{
  "@class": "com.kony.gen.viz.model.component.KVizImage2",
  "DNDConfig": null,
  "__parentReadjusting__": false,
  "_base64_": null,
  "_height_": {
    "type": "string",
    "value": "28dp"
  },
  "_left_": {
    "type": "string",
    "value": "1.50%"
  },
  "_margin_": [
    0,
    0,
    0,
    0
  ],
  "_padding_": [
    0,
    0,
    0,
    0
  ],
  "_skin_": "s78a5f26c9f14cec9ebed1bb46098f80",
  "_src_": "info_large.png",
  "_top_": {
    "type": "string",
    "value": "13dp"
  },
  "_width_": {
    "type": "string",
    "value": "28dp"
  },
  "canUpdateUI": true,
  "containerweight": 100,
  "context": {
    "channel": "desktop",
    "formID": "frmAccountsDetails",
    "platform": "desktopweb",
    "templateType": "forms",
    "topLevelBox": null
  },
  "id": "imgInfoMySpending",
  "imagescalemode": 1,
  "imagewhiledownloading": "img_transparent.png",
  "info": null,
  "invokedProperty": "src",
  "isvisible": true,
  "kuid": "d6a08a526d4c41da824d893f39033141",
  "name": "kony.ui.Image2",
  "parent": "flxNoTransactionsMySpending",
  "pf": "frmAccountsDetails",
  "srcType": 1,
  "wType": "Image",
  "widgetalignment": 5,
  "zindex": 1
}