{
  "@class": "com.kony.gen.viz.model.component.KVizUserWidget",
  "DNDConfig": null,
  "__parentReadjusting__": false,
  "_children_": [],
  "_height_": {
    "type": "ref",
    "value": "preferred"
  },
  "_left_": {
    "type": "string",
    "value": "65%"
  },
  "_margin_": [
    0,
    0,
    0,
    0
  ],
  "_orientation_": 1,
  "_padding_": [
    0,
    0,
    0,
    0
  ],
  "_percent_": true,
  "_render_": true,
  "_skin_": "s1c10698f564431499c2fef2fbd861d4",
  "_top_": {
    "type": "string",
    "value": "350dp"
  },
  "_width_": {
    "type": "string",
    "value": "28.48%"
  },
  "areflexpropsreferenced": false,
  "autogrowmode": 1,
  "canUpdateUI": true,
  "clipbounds": false,
  "containerweight": 0,
  "dataDiffs": {
    "accountTypes": {
      "__events__": {},
      "__info__": {
        "isRoot": true,
        "kuid": "c1f427c35ff54bdda615e20e69fc2e24",
        "srcKUID": "b62c12eb1c8d4c288d0cc6b63f1eb6bb",
        "wType": "FlexContainer"
      },
      "autogrowMode": 1,
      "height": {
        "Default": {
          "type": "ref",
          "value": "preferred"
        }
      },
      "isVisible": false,
      "left": {
        "Default": {
          "type": "string",
          "value": "65%"
        }
      },
      "top": {
        "Default": {
          "type": "string",
          "value": "350dp"
        }
      },
      "vizProps": {
        "hide": true
      },
      "width": {
        "Default": {
          "type": "string",
          "value": "28.48%"
        }
      },
      "zIndex": {
        "Default": 10
      }
    },
    "flxAccountTypesSegment": {
      "__events__": {},
      "__info__": {
        "kuid": "e8c9ee625ddc47b09e07d1cfecd89ee9",
        "srcKUID": "012bfaa77f29418e90e76556de8e6db8",
        "wType": "FlexContainer"
      },
      "autogrowMode": 1,
      "height": {
        "Default": {
          "type": "ref",
          "value": "preferred"
        }
      }
    },
    "imgToolTip": {
      "__events__": {},
      "__info__": {
        "kuid": "h3dcc3ac2bfd4d578915bb33372523c8",
        "srcKUID": "38b535966b4c476e9b87c15b828b2245",
        "wType": "Image"
      },
      "left": {
        "Default": {
          "type": "string",
          "value": "86.50%"
        }
      }
    },
    "segAccountTypes": {
      "__events__": {},
      "__info__": {
        "kuid": "ac1e2b3dc3504832a9ab97d176c74327",
        "srcKUID": "d42b5ca698e0494ca8a5e305a01a9418",
        "wType": "Segment"
      },
      "autogrowMode": 1,
      "height": {
        "Default": {
          "type": "ref",
          "value": "preferred"
        }
      },
      "maxHeight": {
        "Default": {
          "type": "string",
          "value": ""
        }
      },
      "width": {
        "Default": {
          "type": "string",
          "value": "100%"
        }
      }
    }
  },
  "id": "moreActionsDup",
  "info": null,
  "isdatareferenced": false,
  "isvisible": false,
  "kuid": "d5ccb2099f754e4c8de24406eef619b7",
  "layouttype": 4,
  "masterType": 0,
  "name": "kony.ui.UserWidgetInstance",
  "parent": "flxMainWrapper",
  "pf": "frmAccountsDetails",
  "snaptogrid": true,
  "sourceUserWidget": "b62c12eb1c8d4c288d0cc6b63f1eb6bb",
  "vizProps": {
    "hide": true
  },
  "wType": "UserWidgetInstance",
  "zindex": 10
}