{
  "DNDConfig": null,
  "_height_": {
    "type": "string",
    "value": "40dp"
  },
  "_margin_": [
    0,
    0,
    0,
    0
  ],
  "_orientation_": 6,
  "_padding_": [
    0,
    0,
    0,
    0
  ],
  "_percent_": true,
  "_skin_": "s0f4f8e59bc64cd4b234d01e9b337e51",
  "allboxes": [],
  "autogrowmode": 0,
  "canUpdateUI": true,
  "children": [
    "lblDummy"
  ],
  "clipbounds": true,
  "containerId": true,
  "containerweight": 100,
  "controllerInfo": {
    "default": {
      "channel": "desktop",
      "name": "flxPrintTransferSpaceController"
    }
  },
  "enablescrolling": true,
  "id": "flxPrintTransferSpace",
  "info": null,
  "isvisible": true,
  "kuid": "f81b08320de14a8b946bcb68e20dcd25",
  "layouttype": 2,
  "name": "kony.ui.FlexContainer",
  "parent": "segPrintTransferSpace",
  "pf": "segPrintTransferSpace",
  "snapgridsize": 10,
  "snaptogrid": true,
  "wType": "FlexContainer",
  "widgetalignment": 1
}