{
  "@class": "com.kony.gen.viz.model.component.KVizUserWidget",
  "DNDConfig": null,
  "__parentReadjusting__": false,
  "_children_": [],
  "_height_": {
    "type": "ref",
    "value": "preferred"
  },
  "_left_": {
    "type": "string",
    "value": "0dp"
  },
  "_margin_": [
    0,
    0,
    0,
    0
  ],
  "_orientation_": 1,
  "_padding_": [
    0,
    0,
    0,
    0
  ],
  "_percent_": true,
  "_render_": true,
  "_skin_": "s5f47d3d23644a0995e185bc89f4e056",
  "_top_": {
    "type": "string",
    "value": "0dp"
  },
  "_width_": {
    "type": "string",
    "value": "100%"
  },
  "areflexpropsreferenced": false,
  "autogrowmode": 1,
  "canUpdateUI": true,
  "clipbounds": true,
  "containerweight": 100,
  "dataDiffs": {
    "AddRecipientAccount": {
      "__events__": {},
      "__info__": {
        "isRoot": true,
        "kuid": "ecbdf88d30f0464790b66f9ff695f5ea",
        "srcKUID": "cf0659e5a2e847d58611ef339405cd5e",
        "wType": "FlexContainer"
      }
    },
    "btnAddRecipent": {
      "__events__": {},
      "__info__": {
        "kuid": "dbe9f252af1b4ad79b35d2cfe9be7cc9",
        "srcKUID": "gfd015c40e204eda83b70d40556a6f1e",
        "wType": "Button"
      },
      "i18n_text": "i18n.PayAPerson.AddRecipient"
    },
    "btnBack": {
      "__events__": {},
      "__info__": {
        "kuid": "g72bae34d9b4487b808ac56dd06c99d7",
        "srcKUID": "i680f2d3d0dc4468b628c09dc3945f05",
        "wType": "Button"
      },
      "i18n_text": "i18n.ProfileManagement.BACK"
    },
    "btnCancel": {
      "__events__": {},
      "__info__": {
        "kuid": "g27ff3c38c174547b6f7a4799adc6666",
        "srcKUID": "i7edbea81152460db53fe67e8f327aae",
        "wType": "Button"
      },
      "i18n_text": "i18n.transfers.Cancel"
    },
    "btnDomesticAccount": {
      "__events__": {},
      "__info__": {
        "kuid": "faec3d858b2943d08270a4390988b3cc",
        "srcKUID": "fa9a03ed5a39422eb4f23372f547c9b0",
        "wType": "Button"
      },
      "i18n_text": "i18n.WireTransfer.DomesticAccount"
    },
    "btnInternationalAccount": {
      "__events__": {},
      "__info__": {
        "kuid": "c5d7aada851840cca0384f4a83cac039",
        "srcKUID": "aa877669679b4b3db88d9a79515663de",
        "wType": "Button"
      },
      "i18n_text": "i18n.WireTransfer.InternationalAccount"
    },
    "btnProceed": {
      "__events__": {},
      "__info__": {
        "kuid": "h865a6aec98540a08eb52bcc6a1edda8",
        "srcKUID": "ce218a963b2c42aebf6195336192e81c",
        "wType": "Button"
      },
      "i18n_text": "i18n.common.proceed"
    },
    "btnStep2Cancel": {
      "__events__": {},
      "__info__": {
        "kuid": "b4080b8e148b49a6bef77669d4409259",
        "srcKUID": "c36244a6565e44bdaf3aa49187efea9f",
        "wType": "Button"
      },
      "i18n_text": "i18n.transfers.Cancel"
    },
    "flxAccountNumber": {
      "__events__": {},
      "__info__": {
        "kuid": "c534d4f9cd1c44dba4ef415b193108d0",
        "srcKUID": "f204ac53ea764acf8df4abb8eb82c023",
        "wType": "FlexContainer"
      }
    },
    "flxBankAddress1": {
      "__events__": {},
      "__info__": {
        "kuid": "fddcc00398b0497fbe8de8fa9d2778a4",
        "srcKUID": "cffe624f095b498491a04a4c69d9aec2",
        "wType": "FlexContainer"
      }
    },
    "flxBankCityStateZipcode": {
      "__events__": {},
      "__info__": {
        "kuid": "g28b6c70efb3487da99f1878f706834d",
        "srcKUID": "d10f7ae865f1428591dc2027528d8b2b",
        "wType": "FlexContainer"
      }
    },
    "flxBankName": {
      "__events__": {},
      "__info__": {
        "kuid": "b6cc7decb45941a3b3fa0ff895ba3120",
        "srcKUID": "d0d2aa46b3c3472a8fc27dc7faf81233",
        "wType": "FlexContainer"
      }
    },
    "flxButtonSeperator": {
      "__events__": {},
      "__info__": {
        "kuid": "h52863183b394e3cb47f15a9d0e14415",
        "srcKUID": "d5e158e7926a4452aec0c5e8674172fe",
        "wType": "FlexContainer"
      }
    },
    "flxCityStateZipcode": {
      "__events__": {},
      "__info__": {
        "kuid": "ea6a62a7493343bfbbc97fa7bacb4a43",
        "srcKUID": "gc4b357351544473a50dda463078f5a1",
        "wType": "FlexContainer"
      }
    },
    "flxCountry": {
      "__events__": {},
      "__info__": {
        "kuid": "ge6e0f53356a4e6ea8d7f2a0bd6d6346",
        "srcKUID": "g169560f5bb34ad78354457d8ee2e6a1",
        "wType": "FlexContainer"
      },
      "isVisible": false,
      "width": {
        "Default": {
          "type": "string",
          "value": "100%"
        }
      }
    },
    "flxError": {
      "__events__": {},
      "__info__": {
        "kuid": "i115530533484646aa4f6db0757b05aa",
        "srcKUID": "b95093d3fa67401b8cc51b39a6aaeef7",
        "wType": "FlexContainer"
      },
      "isVisible": false
    },
    "flxNameAndType": {
      "__events__": {},
      "__info__": {
        "kuid": "geab2601324540af86a9887c04ec330e",
        "srcKUID": "f40b401e6fde496a940969f1bbd8fbf7",
        "wType": "FlexContainer"
      }
    },
    "flxNickName": {
      "__events__": {},
      "__info__": {
        "kuid": "g9ac77754d834a829c1847c9ca25eb4d",
        "srcKUID": "c49f804340d84ce48e4ae6ef964deb49",
        "wType": "FlexContainer"
      }
    },
    "flxReAccountNumber": {
      "__events__": {},
      "__info__": {
        "kuid": "cccdb0cdd5c542be91686ea4411a3c70",
        "srcKUID": "e9fef7736f654286807aff177e44067f",
        "wType": "FlexContainer"
      }
    },
    "flxRecipientAddress": {
      "__events__": {},
      "__info__": {
        "kuid": "c0c290a6cd734da8b06771c8aa11bded",
        "srcKUID": "b36f608f0f914ffa8c8274d15d269cfe",
        "wType": "FlexContainer"
      }
    },
    "flxRecipientTypeRadioButtons": {
      "__events__": {},
      "__info__": {
        "kuid": "b74aac24c3b44dc1968d50e0ba825ecd",
        "srcKUID": "d7ebac2268ab402da53a6872967b0564",
        "wType": "FlexContainer"
      }
    },
    "flxStep1": {
      "__events__": {},
      "__info__": {
        "kuid": "d447772e4a424493ba02ed9ded047669",
        "srcKUID": "d4d601d5d9bc4b419a2c1e2053d11ce2",
        "wType": "FlexContainer"
      }
    },
    "flxStep1Buttons": {
      "__events__": {},
      "__info__": {
        "kuid": "f24ceea1533148e28f4b39cabd36e07b",
        "srcKUID": "e6e34a11a9ce4c86972d167a5c2e46fa",
        "wType": "FlexContainer"
      }
    },
    "flxStep1Header": {
      "__events__": {},
      "__info__": {
        "kuid": "f43f712ffa2e42fcb4ce703e430e9ae8",
        "srcKUID": "a0e5c0d6a17c4eb491038213baab7ef0",
        "wType": "FlexContainer"
      }
    },
    "flxStep1Seperator": {
      "__events__": {},
      "__info__": {
        "kuid": "c03bc348330b447297f14118af938555",
        "srcKUID": "ff66a030e1524bb28ba121ee49565d0e",
        "wType": "FlexContainer"
      }
    },
    "flxStep2": {
      "__events__": {},
      "__info__": {
        "kuid": "e69f61c8a4a3437393a8b66bd72aff9f",
        "srcKUID": "i626d364f5cc4e5db9288884d4398733",
        "wType": "FlexContainer"
      },
      "isVisible": false,
      "width": {
        "Default": {
          "type": "string",
          "value": "100%"
        }
      }
    },
    "flxStep2ButtonSeperator": {
      "__events__": {},
      "__info__": {
        "kuid": "db77126204de44bc80d0bfa6819b870a",
        "srcKUID": "geb2ca6cc0314773a04d26ddfc24fac5",
        "wType": "FlexContainer"
      }
    },
    "flxStep2Buttons": {
      "__events__": {},
      "__info__": {
        "kuid": "be1d563789a54b7a9fd03058cf0d2e52",
        "srcKUID": "df9e4e866da141aa87cefc7819bc7fa3",
        "wType": "FlexContainer"
      }
    },
    "flxStep2Header": {
      "__events__": {},
      "__info__": {
        "kuid": "ecccf1ef7bec41dfb958cb24745ddd58",
        "srcKUID": "f7faa86ed684481b94e544c18e8b99ba",
        "wType": "FlexContainer"
      }
    },
    "flxStep2Seperator": {
      "__events__": {},
      "__info__": {
        "kuid": "e2eedc7f31724c21abc929be28ad7c0d",
        "srcKUID": "a2af21b05afb4feebf071b61aa70ba2e",
        "wType": "FlexContainer"
      }
    },
    "flxSwiftCode": {
      "__events__": {},
      "__info__": {
        "kuid": "af4b543d931a44b7a70ee82dffa4a1a8",
        "srcKUID": "e31debea02034dab84bb5e11dbac6539",
        "wType": "FlexContainer"
      }
    },
    "flxTabs": {
      "__events__": {},
      "__info__": {
        "kuid": "e337bc5b73a54620bb1d68332b149782",
        "srcKUID": "gf06598d81664976a49f3c8d4edb75c4",
        "wType": "FlexContainer"
      }
    },
    "flxTabsBottomBorder1": {
      "__events__": {},
      "__info__": {
        "kuid": "g47b4541db454480ada3f1a0b7fbd1dc",
        "srcKUID": "ff2a370d4ea740c5bc0ba42797c32424",
        "wType": "FlexContainer"
      }
    },
    "flxTabsBottomBorder2": {
      "__events__": {},
      "__info__": {
        "kuid": "fd3f62d01b1b4d458291f5c08d1b95be",
        "srcKUID": "c8d3b83e8fff43339ea34c518fa3748d",
        "wType": "FlexContainer"
      }
    },
    "flxTabsSeperator1": {
      "__events__": {},
      "__info__": {
        "kuid": "bda33ead397a4920b03e3123e0b8ee3d",
        "srcKUID": "d77b26f39372414e9b582486fe649e15",
        "wType": "FlexContainer"
      }
    },
    "flxTabsSeperator2": {
      "__events__": {},
      "__info__": {
        "kuid": "b721a5a45e9c487794ad3ef75394e22c",
        "srcKUID": "h40039cb1ae147b2895a83ab2b758ccc",
        "wType": "FlexContainer"
      }
    },
    "flxTabsSeperator3": {
      "__events__": {},
      "__info__": {
        "kuid": "i3ac7698e3f3413e9031ee331f68cafb",
        "srcKUID": "f9148c53ce86419f91bc431a7518e7f2",
        "wType": "FlexContainer"
      }
    },
    "flxTypeRadio1": {
      "__events__": {},
      "__info__": {
        "kuid": "if1cbc47675748fda30f658c743fcd7a",
        "srcKUID": "h06ead58bd604124a066d946f80e4dab",
        "wType": "FlexContainer"
      }
    },
    "flxTypeRadio2": {
      "__events__": {},
      "__info__": {
        "kuid": "j6a20c49b7b24d4496ebbfdb675b9833",
        "srcKUID": "e3c4a82ed0fa4f4cac5374c6e0639607",
        "wType": "FlexContainer"
      }
    },
    "imgRadioBtnRecipientType1": {
      "__events__": {},
      "__info__": {
        "kuid": "a7bb5755bdbf4ef787a6caf4de4b0789",
        "srcKUID": "f24a95e288da4ac9bfbe1190755a4063",
        "wType": "Label"
      }
    },
    "imgRadioBtnRecipientType2": {
      "__events__": {},
      "__info__": {
        "kuid": "a451b479fb9f48e1a7132f048255d595",
        "srcKUID": "b56b12a24a224411903fdc4982b14a14",
        "wType": "Label"
      }
    },
    "imgTypeRadio1": {
      "__events__": {},
      "__info__": {
        "kuid": "afa0cfdb6f57405fa3c7e91c4c645676",
        "srcKUID": "g68ec08170c6439fb2af8129eb6dfcda",
        "wType": "Image"
      }
    },
    "imgTypeRadio2": {
      "__events__": {},
      "__info__": {
        "kuid": "i9b69345db804c038108391049e10c6d",
        "srcKUID": "e5d3787b122744e8ad257f0f0f44a64d",
        "wType": "Image"
      }
    },
    "lblAccountNumber": {
      "__events__": {},
      "__info__": {
        "kuid": "f3b7542b89b84f1cb6c849a29c1d2436",
        "srcKUID": "f131b1245b514ef499929b556fb9e556",
        "wType": "Label"
      },
      "i18n_text": "i18n.WireTransfer.recipientAccountNumber"
    },
    "lblBankAddress": {
      "__events__": {},
      "__info__": {
        "kuid": "a650806a35db479291779f99dc0a96d9",
        "srcKUID": "cdedacf970ca471bb1bc8af2db576cec",
        "wType": "Label"
      },
      "i18n_text": "i18n.transfers.bankAddress"
    },
    "lblBankCity": {
      "__events__": {},
      "__info__": {
        "kuid": "j71ff42b37c34a0988e3d076d6fd730b",
        "srcKUID": "ac5139f90bfa4c3d8979affeddfb3e98",
        "wType": "Label"
      },
      "i18n_text": "i18n.common.city"
    },
    "lblBankName": {
      "__events__": {},
      "__info__": {
        "kuid": "e8c4d3403c4646d9951f2e99459366b2",
        "srcKUID": "g8f6e3a085c64eb9a6a78296f9dfd963",
        "wType": "Label"
      },
      "i18n_text": "i18n.WireTransfers.RecipientBankName"
    },
    "lblBankState": {
      "__events__": {},
      "__info__": {
        "kuid": "a3c43dca38de46f78df300d7bd30962f",
        "srcKUID": "h008e43153f84856b39f65b437850397",
        "wType": "Label"
      },
      "i18n_text": "i18n.common.state"
    },
    "lblBankZipcode": {
      "__events__": {},
      "__info__": {
        "kuid": "d0c106dc5c24495fa6cca6caf7d8f1ec",
        "srcKUID": "c85bc7fa988e4fe9beb74ef652f3d115",
        "wType": "Label"
      },
      "i18n_text": "i18n.common.zipcode"
    },
    "lblCity": {
      "__events__": {},
      "__info__": {
        "kuid": "iaec3f9292f5430bad7ab871648ddd48",
        "srcKUID": "d185ead46c3d4bf6868ec2290388b76d",
        "wType": "Label"
      },
      "i18n_text": "i18n.common.city"
    },
    "lblCountry": {
      "__events__": {},
      "__info__": {
        "kuid": "a65bb1080f3a4a11b7be2cd2855b622c",
        "srcKUID": "g58b9609b26a4634ad50e163a7ad5260",
        "wType": "Label"
      },
      "i18n_text": "i18n.WireTransfer.Country"
    },
    "lblError": {
      "__events__": {},
      "__info__": {
        "kuid": "ie667a34e142481185568d024b31e153",
        "srcKUID": "e9e6188970eb458e9cefa69cece477df",
        "wType": "Label"
      },
      "i18n_text": "i18n.transfers.accNoDoNotMatch",
      "text": ""
    },
    "lblIBANOrIRC": {
      "__events__": {},
      "__info__": {
        "kuid": "e63876987f784daa9f1dbcded4b54829",
        "srcKUID": "cdf1a51487d74599969c776afcd5259e",
        "wType": "Label"
      },
      "i18n_text": "i18n.WireTransfers.InternationalBankAccountNumberBAN"
    },
    "lblNickName": {
      "__events__": {},
      "__info__": {
        "kuid": "c356bfb0637e422583b139097f7b49c0",
        "srcKUID": "i792b30db5014e92884d206914028286",
        "wType": "Label"
      },
      "i18n_text": "i18n.transfers.accountNickName"
    },
    "lblRadioOpt1": {
      "__events__": {},
      "__info__": {
        "kuid": "ad1b2c8c78c94a14a321ec7a1cd87c10",
        "srcKUID": "f0636b101ec84c50bf4222c9851d959a",
        "wType": "Label"
      },
      "i18n_text": "i18n.WireTransfer.Individual"
    },
    "lblRadioOpt2": {
      "__events__": {},
      "__info__": {
        "kuid": "g5b16175fd89402595102c1f7d34979d",
        "srcKUID": "g857f45a08cf45ed9b936658bb987667",
        "wType": "Label"
      },
      "i18n_text": "i18n.WireTransfer.Business"
    },
    "lblReAccountNumber": {
      "__events__": {},
      "__info__": {
        "kuid": "ca9186fbd1e14bbc847fd88d24205880",
        "srcKUID": "f59cf7670f484b7593033c02835a8043",
        "wType": "Label"
      },
      "i18n_text": "i18n.WireTransfers.ReEnterAccountNumber"
    },
    "lblRecipientAddress": {
      "__events__": {},
      "__info__": {
        "kuid": "fb701a781ee4449aa7b5a16e6eca8768",
        "srcKUID": "d531d0835e4e4919bfd43f1373af2f55",
        "wType": "Label"
      },
      "i18n_text": "i18n.WireTransfer.RecipientAddress"
    },
    "lblRecipientName": {
      "__events__": {},
      "__info__": {
        "kuid": "ed500c56eeb046c48637cc3156602c36",
        "srcKUID": "jf9bba387c2c4a30a9221fdfc8bd2760",
        "wType": "Label"
      },
      "i18n_text": "i18n.PayPerson.recipientName"
    },
    "lblRecipientType": {
      "__events__": {},
      "__info__": {
        "kuid": "ibebdc9c41124aa3b31e0832b3aac2f6",
        "srcKUID": "g29a2fa839e849b3a2b41a6df16b813c",
        "wType": "Label"
      },
      "i18n_text": "i18n.WireTransfer.SelectRecipientType"
    },
    "lblState": {
      "__events__": {},
      "__info__": {
        "kuid": "a9e3067645454571b141f7c602a43002",
        "srcKUID": "h996c0972cbc4edc828c30f171f46a25",
        "wType": "Label"
      },
      "i18n_text": "i18n.common.state"
    },
    "lblStep1": {
      "__events__": {},
      "__info__": {
        "kuid": "fd8171b24ef14324bd71753e1545c948",
        "srcKUID": "be9eaf0f984a46fb95cefc9d04fa3d71",
        "wType": "Label"
      },
      "i18n_text": "i18n.WireTransfer.Step1RecipientDetails"
    },
    "lblStep2": {
      "__events__": {},
      "__info__": {
        "kuid": "j381671dc30440328c49e77367c4b919",
        "srcKUID": "h55956d55ea742d2b586a01b15a73b6b",
        "wType": "Label"
      },
      "i18n_text": "i18n.WireTransfer.Step2RecipientAccountDetails"
    },
    "lblSwiftCode": {
      "__events__": {},
      "__info__": {
        "kuid": "h181ec5b9ae34b9d87de9051b3c4f4aa",
        "srcKUID": "eeedab9731c24d56baed155a718433e6",
        "wType": "Label"
      }
    },
    "lblZipcode": {
      "__events__": {},
      "__info__": {
        "kuid": "cd80d4aaf47842e5af29e9045630daff",
        "srcKUID": "ea793e582794420f85d17d8344a56b9f",
        "wType": "Label"
      },
      "i18n_text": "i18n.WireTransfer.ZipCode"
    },
    "lbxBankState": {
      "__events__": {},
      "__info__": {
        "kuid": "gdfa469ad2f24fb7ad36ed9b82da5ae6",
        "srcKUID": "dc0af7677b024f449bfa0688141d932a",
        "wType": "ListBox"
      }
    },
    "lbxCountry": {
      "__events__": {},
      "__info__": {
        "kuid": "a4a517a82e89437681bdad3d486f7ee4",
        "srcKUID": "bacf01370cb04cf7a9a7276dcd3f6789",
        "wType": "ListBox"
      },
      "masterData": []
    },
    "lbxState": {
      "__events__": {},
      "__info__": {
        "kuid": "i86cef77b7484ecb978c509759405bdc",
        "srcKUID": "c2bccaf3d8204c199b178b15bc44f430",
        "wType": "ListBox"
      }
    },
    "tbxAccountNumber": {
      "__events__": {},
      "__info__": {
        "kuid": "ddd232d457cd44a49bc83e19db49ded2",
        "srcKUID": "g089cf44e5d34a49a279c9a34a593cc7",
        "wType": "TextField"
      },
      "placeholder": "Enter Recipient Account Number"
    },
    "tbxAddressLine1": {
      "__events__": {},
      "__info__": {
        "kuid": "gb18676c089648cfb44c549ada923c8a",
        "srcKUID": "af6013cf2eff4c4b995a582e78fc2032",
        "wType": "TextField"
      },
      "i18n_placeholder": "i18n.WireTransfer.AddressLine1"
    },
    "tbxAddressLine2": {
      "__events__": {},
      "__info__": {
        "kuid": "a67ab3b48eff4d63a20c10dd52987d58",
        "srcKUID": "b66c9b33d05b4078969cba023e8cca16",
        "wType": "TextField"
      },
      "i18n_placeholder": "i18n.WireTransfer.AddressLine2"
    },
    "tbxBankAddressLine1": {
      "__events__": {},
      "__info__": {
        "kuid": "aae4e632c1b44ca1952bcf5da6081b06",
        "srcKUID": "d809bc4c4b4c4b79bc4989dd544648a2",
        "wType": "TextField"
      }
    },
    "tbxBankAddressLine2": {
      "__events__": {},
      "__info__": {
        "kuid": "b92818e79b2b4f359d8dd629c63f6389",
        "srcKUID": "c1fbefbb1d6b4519a5fa7689ca9f0acd",
        "wType": "TextField"
      },
      "i18n_placeholder": "i18n.WireTransfer.AddressLine2"
    },
    "tbxBankCity": {
      "__events__": {},
      "__info__": {
        "kuid": "e5056d9e4cb54c8b9d7a59f477b8776c",
        "srcKUID": "f46ebcc49d73422cab3481ca1e3742f0",
        "wType": "TextField"
      },
      "i18n_placeholder": "i18n.WireTransfer.CityName"
    },
    "tbxBankName": {
      "__events__": {},
      "__info__": {
        "kuid": "a1660ed04748480988403063571ab8e2",
        "srcKUID": "f6aefcc5988f41b4b73733ea83ea88d6",
        "wType": "TextField"
      },
      "placeholder": "Enter Recipient Bank Name",
      "i18n_placeholder": "i18n.WireTransfers.EnterRecipientBankName",
      "i18n_text": null
    },
    "tbxBankZipcode": {
      "__events__": {},
      "__info__": {
        "kuid": "ddf5ade4c8744c6c8c0839c34b752702",
        "srcKUID": "ae6a58ac09254ef4b08b19e4d28b3f12",
        "wType": "TextField"
      },
      "i18n_placeholder": "i18n.WireTransfer.ZipCode",
      "i18n_text": null
    },
    "tbxCity": {
      "__events__": {},
      "__info__": {
        "kuid": "ha282047fd73495fa65fab34227dabf3",
        "srcKUID": "a283063bde4346ae8798fcb15c696c59",
        "wType": "TextField"
      },
      "i18n_placeholder": "i18n.WireTransfer.CityName"
    },
    "tbxIBANOrIRC": {
      "__events__": {},
      "__info__": {
        "kuid": "d223b2a91144468dbb88bbf5adb32007",
        "srcKUID": "fcdf3cfa1e6c42f5b76688d8f53b406f",
        "wType": "TextField"
      },
      "i18n_placeholder": "i18n.WireTransfers.EnterInternationalBankAccountNumber"
    },
    "tbxNickName": {
      "__events__": {},
      "__info__": {
        "kuid": "jc26b175505c4f39be3456697067da4d",
        "srcKUID": "h37e5b8c6ab04892aef251cdc564e3d9",
        "wType": "TextField"
      },
      "placeholder": "Enter Account Nick Name"
    },
    "tbxReAccountNumber": {
      "__events__": {},
      "__info__": {
        "kuid": "ca0a2559d195466594564f6d0a172296",
        "srcKUID": "e67dfa2201544f26b9e79be5746e3cdf",
        "wType": "TextField"
      },
      "placeholder": "Enter Re-Enter Account Number",
      "i18n_placeholder": "i18n.WireTransfers.ReEnterAccountNumber",
      "i18n_text": null
    },
    "tbxRecipientName": {
      "__events__": {},
      "__info__": {
        "kuid": "hc60349bdb3f4e2ead9265efc61cfb70",
        "srcKUID": "ied9d728c1294f398e4a9675b9132198",
        "wType": "TextField"
      },
      "i18n_placeholder": "i18n.PayPerson.recipientName",
      "i18n_text": null
    },
    "tbxSwiftCode": {
      "__events__": {},
      "__info__": {
        "kuid": "e2ce8c965f4b4cc59727e5f6c1b932c8",
        "srcKUID": "dba9769f5d3649c6895b8bf982b48493",
        "wType": "TextField"
      },
      "placeholder": "Enter Swift Code"
    },
    "tbxZipcode": {
      "__events__": {},
      "__info__": {
        "kuid": "da86cbc568514f36b5347d7f64c0e104",
        "srcKUID": "ife419686f97489bbd07a7bfab083202",
        "wType": "TextField"
      },
      "i18n_placeholder": "i18n.common.zipcode",
      "i18n_text": null
    }
  },
  "id": "AddRecipientAccount",
  "info": null,
  "isdatareferenced": false,
  "isvisible": true,
  "kuid": "i307300e84c5490683b8919c71bec230",
  "layouttype": 4,
  "masterType": 0,
  "name": "kony.ui.UserWidgetInstance",
  "parent": "flxAddRecipientsWindow",
  "pf": "frmWireTransfer",
  "snaptogrid": true,
  "sourceUserWidget": "cf0659e5a2e847d58611ef339405cd5e",
  "wType": "UserWidgetInstance"
}