{
  "@class": "com.kony.gen.viz.model.component.KVizButton",
  "DNDConfig": null,
  "__parentReadjusting__": false,
  "_height_": {
    "type": "string",
    "value": "50dp"
  },
  "_margin_": [
    6,
    6,
    6,
    6
  ],
  "_padding_": [
    0,
    0,
    0,
    0
  ],
  "_right_": {
    "type": "string",
    "value": "25.2%"
  },
  "_skin_": "s32f67802321463884107a44440d62c8",
  "_text_": "",
  "_width_": {
    "type": "string",
    "value": "23.83%"
  },
  "canUpdateUI": true,
  "centery": {
    "type": "string",
    "value": "70%"
  },
  "containerweight": 100,
  "contentalignment": 5,
  "desktopweb": {
    "psp": {
      "hoverSkin": "s32f67802321463884107a44440d62c8"
    }
  },
  "displaytext": true,
  "focusskin": "s5a4f67acd3e47b9be6d6910a7a6686f",
  "id": "btnMakeAnotherWireTransfer",
  "info": null,
  "isvisible": true,
  "kuid": "c1210d441ca744768684b92ca5719b4a",
  "name": "kony.ui.Button",
  "parent": "flxbuttons",
  "pf": "frmWireTransfer",
  "texti18n": "i18n.WireTranfers.MakeAnotherWireTransfer",
  "tooltip": "",
  "wType": "Button",
  "zindex": 1
}