{
  "DNDConfig": null,
  "__parentReadjusting__": false,
  "_height_": {
    "type": "ref",
    "value": "preferred"
  },
  "_left_": {
    "type": "string",
    "value": "0dp"
  },
  "_margin_": [
    0,
    0,
    0,
    0
  ],
  "_orientation_": 6,
  "_padding_": [
    0,
    0,
    0,
    0
  ],
  "_percent_": true,
  "_skin_": "s24c92fc23b14f5484b693ee9b8a9b35",
  "_top_": {
    "type": "string",
    "value": "0dp"
  },
  "_width_": {
    "type": "string",
    "value": "100%"
  },
  "allboxes": [],
  "autogrowmode": 1,
  "canUpdateUI": true,
  "children": [
    "customheader"
  ],
  "clipbounds": false,
  "containerweight": 100,
  "enablescrolling": true,
  "id": "flxHeader",
  "info": null,
  "isvisible": true,
  "kuid": "c6e3fb46d41a430b83d1701d176ddd3b",
  "layouttype": 2,
  "name": "kony.ui.FlexContainer",
  "parent": "frmWireTransfer",
  "pf": "frmWireTransfer",
  "snapgridsize": 10,
  "snaptogrid": true,
  "wType": "FlexContainer",
  "widgetalignment": 1,
  "zindex": 1000
}