{
  "DNDConfig": null,
  "__parentReadjusting__": false,
  "_bottom_": {
    "type": "string",
    "value": "0dp"
  },
  "_height_": {
    "type": "string",
    "value": "100px"
  },
  "_left_": {
    "type": "string",
    "value": "0dp"
  },
  "_margin_": [
    0,
    0,
    0,
    0
  ],
  "_orientation_": 6,
  "_padding_": [
    0,
    0,
    0,
    0
  ],
  "_percent_": true,
  "_skin_": "s4b3bfcb27c14526bcdce6dec3972d8d",
  "_top_": {
    "type": "string",
    "value": "10dp"
  },
  "_width_": {
    "type": "string",
    "value": "100%"
  },
  "allboxes": [],
  "autogrowmode": 0,
  "canUpdateUI": true,
  "children": [
    "imgAcknowledged",
    "lblSuccessAcknowledgement",
    "lblRefrenceNumber",
    "lblRefrenceNumberValue"
  ],
  "clipbounds": true,
  "containerweight": 100,
  "enablescrolling": true,
  "id": "flxSuccessMessage",
  "info": null,
  "isvisible": false,
  "kuid": "eff3706abfc04d7ab17a5abbf3701260",
  "layouttype": 2,
  "name": "kony.ui.FlexContainer",
  "parent": "flxConfirmDetails",
  "pf": "frmWireTransfer",
  "snapgridsize": 10,
  "snaptogrid": true,
  "wType": "FlexContainer",
  "widgetalignment": 1,
  "zindex": 1
}