{
  "DNDConfig": null,
  "__parentReadjusting__": false,
  "_height_": {
    "type": "string",
    "value": "560px"
  },
  "_left_": {
    "type": "string",
    "value": "0dp"
  },
  "_margin_": [
    0,
    0,
    0,
    0
  ],
  "_orientation_": 6,
  "_padding_": [
    0,
    0,
    0,
    0
  ],
  "_percent_": true,
  "_skin_": "s478e2d8fc6a49af93d0ad43306aeacd",
  "_top_": {
    "type": "string",
    "value": "0dp"
  },
  "_width_": {
    "type": "string",
    "value": "100%"
  },
  "allboxes": [],
  "allowhorizontalbounce": false,
  "allowverticalbounce": true,
  "bounces": true,
  "canUpdateUI": true,
  "children": [
    "flxDummy",
    "rtxTC"
  ],
  "clipbounds": true,
  "containerweight": 100,
  "decelerat": false,
  "dragg": false,
  "enablescrolling": true,
  "horizontalscrollindicator": true,
  "id": "flxTCContents",
  "info": null,
  "isvisible": true,
  "kuid": "dc6e1a5790aa40ac9499a8604d7573f6",
  "layouttype": 4,
  "name": "kony.ui.FlexScrollContainer",
  "pagingenabled": false,
  "parent": "flxTC",
  "pf": "frmWireTransfer",
  "scrolldirection": 2,
  "snapgridsize": 10,
  "snaptogrid": true,
  "track": false,
  "verticalscrollindicator": true,
  "wType": "FlexScrollContainer",
  "widgetalignment": 1,
  "zindex": 1
}