{
  "@class": "com.kony.gen.viz.model.component.KVizImage2",
  "DNDConfig": null,
  "__parentReadjusting__": false,
  "_base64_": null,
  "_height_": {
    "type": "string",
    "value": "47dp"
  },
  "_left_": {
    "type": "string",
    "value": "2.65%"
  },
  "_margin_": [
    0,
    0,
    0,
    0
  ],
  "_padding_": [
    0,
    0,
    0,
    0
  ],
  "_skin_": "s0e330a2d46c4204a6f3fd3c41f0e934",
  "_src_": "success_green.png",
  "_top_": {
    "type": "string",
    "value": "15dp"
  },
  "_width_": {
    "type": "string",
    "value": "47dp"
  },
  "canUpdateUI": true,
  "centery": {
    "type": "string",
    "value": "50%"
  },
  "containerweight": 100,
  "context": {
    "channel": "desktop",
    "formID": "frmWireTransfer",
    "platform": "desktopweb",
    "templateType": "forms",
    "topLevelBox": null
  },
  "id": "imgAcknowledged",
  "imagescalemode": 1,
  "imagewhiledownloading": "img_transparent.png",
  "info": null,
  "invokedProperty": "src",
  "isvisible": true,
  "kuid": "i55964372c70458d9389ff5ebe49f4a0",
  "name": "kony.ui.Image2",
  "parent": "flxSuccessMessage",
  "pf": "frmWireTransfer",
  "srcType": 1,
  "wType": "Image",
  "widgetalignment": 5,
  "zindex": 1
}