{
  "@class": "com.kony.gen.viz.model.component.KVizImage2",
  "DNDConfig": null,
  "__parentReadjusting__": false,
  "_base64_": null,
  "_height_": {
    "type": "string",
    "value": "25dp"
  },
  "_margin_": [
    0,
    0,
    0,
    0
  ],
  "_padding_": [
    0,
    0,
    0,
    0
  ],
  "_skin_": "s78a5f26c9f14cec9ebed1bb46098f80",
  "_src_": "print_blue.png",
  "_width_": {
    "type": "string",
    "value": "25dp"
  },
  "canUpdateUI": true,
  "centerx": {
    "type": "string",
    "value": "50%"
  },
  "centery": {
    "type": "string",
    "value": "50%"
  },
  "containerweight": 100,
  "context": {
    "channel": "desktop",
    "formID": "frmWireTransfer",
    "platform": "desktopweb",
    "templateType": "forms",
    "topLevelBox": null
  },
  "id": "imgPrint",
  "imagescalemode": 1,
  "info": null,
  "invokedProperty": "src",
  "isvisible": true,
  "kuid": "a8383540b125497c92b6f6e35db016b7",
  "name": "kony.ui.Image2",
  "parent": "flxPrint",
  "pf": "frmWireTransfer",
  "srcType": 1,
  "tooltip": "Print",
  "wType": "Image",
  "widgetalignment": 5,
  "zindex": 1
}