{
  "@class": "com.kony.gen.viz.model.component.KVizUserWidget",
  "DNDConfig": null,
  "__parentReadjusting__": false,
  "_children_": [],
  "_height_": {
    "type": "string",
    "value": "538dp"
  },
  "_left_": {
    "type": "string",
    "value": "0dp"
  },
  "_margin_": [
    0,
    0,
    0,
    0
  ],
  "_orientation_": 1,
  "_padding_": [
    0,
    0,
    0,
    0
  ],
  "_percent_": true,
  "_render_": true,
  "_skin_": "s24c92fc23b14f5484b693ee9b8a9b35",
  "_top_": {
    "type": "string",
    "value": "0dp"
  },
  "_width_": {
    "type": "string",
    "value": "100%"
  },
  "areflexpropsreferenced": false,
  "autogrowmode": 0,
  "canUpdateUI": true,
  "clipbounds": true,
  "containerweight": 0,
  "dataDiffs": {
    "NoRecipientsWindow": {
      "__events__": {},
      "__info__": {
        "isRoot": true,
        "kuid": "be006f7951fa45c6822c72682244405f",
        "srcKUID": "dbac954f9e3a4f2db4ac8ec37854cf33",
        "wType": "FlexContainer"
      },
      "autogrowMode": {
        "Default": 0
      },
      "height": {
        "Default": {
          "type": "string",
          "value": "538dp"
        }
      }
    },
    "btnRequestMoney": {
      "__events__": {},
      "__info__": {
        "kuid": "b46bd0a26e5f45ddad3d0800de9777d7",
        "srcKUID": "j7a8f8d5f91f4d7b955389d13b048603",
        "wType": "Button"
      }
    },
    "btnSendMoney": {
      "__events__": {},
      "__info__": {
        "kuid": "i2f552404ee24d819d1a7ff57b07cb21",
        "srcKUID": "f9bf8db338e8469c870542033747e98e",
        "wType": "Button"
      }
    },
    "flxButtons": {
      "__events__": {},
      "__info__": {
        "kuid": "f27826c79a644c0ca639709c8043711b",
        "srcKUID": "c436bb3c80954c3aaa161aac27c365fa",
        "wType": "FlexContainer"
      }
    },
    "flxDetails": {
      "__events__": {},
      "__info__": {
        "kuid": "bc9c8739f27149eeb8d47bc66c46fdf6",
        "srcKUID": "jec1287f14724a78a6dc4b62a2d70fdc",
        "wType": "FlexContainer"
      }
    },
    "flxHeader": {
      "__events__": {},
      "__info__": {
        "kuid": "c97510dc9ccb4e569eae2077dca6b047",
        "srcKUID": "gc9235344c4945ad938d3d71ed5bff1c",
        "wType": "FlexContainer"
      }
    },
    "flxMain": {
      "__events__": {},
      "__info__": {
        "kuid": "b57239cc23fe477295f55270a860c330",
        "srcKUID": "e7a2aad701fc4d70a5fa86a4a74ebc27",
        "wType": "FlexContainer"
      }
    },
    "flxMessage": {
      "__events__": {},
      "__info__": {
        "kuid": "a0719bdf9b174612bb8732903edc8be8",
        "srcKUID": "f02395d97182416893b81e41d62e6c16",
        "wType": "FlexContainer"
      }
    },
    "flxSeperator": {
      "__events__": {},
      "__info__": {
        "kuid": "dd8603aaed6946acb39eb6a5d5dffe84",
        "srcKUID": "fd1138d8574a447ba30d40fc35551e0f",
        "wType": "FlexContainer"
      }
    },
    "flxSeperator2": {
      "__events__": {},
      "__info__": {
        "kuid": "g44611c0acd549758e5e6c916ae918ed",
        "srcKUID": "je48e996da52428e8ba9b07b6a1ef05f",
        "wType": "FlexContainer"
      }
    },
    "imgError": {
      "__events__": {},
      "__info__": {
        "kuid": "b726015257b041199c1f8fcfdee2c6cc",
        "srcKUID": "d5d989ad6ec0440594c671974037543b",
        "wType": "Image"
      }
    },
    "lblHeader": {
      "__events__": {},
      "__info__": {
        "kuid": "hb45b04c47dc485587323a46d53d4858",
        "srcKUID": "b4cf279279404850b38435eb50dc2863",
        "wType": "Label"
      }
    },
    "lblNoRecipientsWarning": {
      "__events__": {},
      "__info__": {
        "kuid": "c74af81350aa484fa8620bf25d60f39d",
        "srcKUID": "h12a58963df64bd6a34b6c2857ba06c4",
        "wType": "Label"
      },
      "width": {
        "Default": {
          "type": "string",
          "value": "85%"
        }
      }
    }
  },
  "id": "NoRecipientsWindow",
  "info": null,
  "isdatareferenced": false,
  "isvisible": true,
  "kuid": "d6cffe5336384d178cc5529bca73e278",
  "layouttype": 2,
  "masterType": 0,
  "name": "kony.ui.UserWidgetInstance",
  "parent": "flxNoRecipients",
  "pf": "frmWireTransfer",
  "snaptogrid": true,
  "sourceUserWidget": "dbac954f9e3a4f2db4ac8ec37854cf33",
  "wType": "UserWidgetInstance"
}