{
  "DNDConfig": null,
  "__parentReadjusting__": false,
  "_height_": {
    "type": "string",
    "value": "80%"
  },
  "_left_": {
    "type": "string",
    "value": "3.95%"
  },
  "_margin_": [
    0,
    0,
    0,
    0
  ],
  "_orientation_": 6,
  "_padding_": [
    0,
    0,
    0,
    0
  ],
  "_percent_": true,
  "_skin_": "s24c92fc23b14f5484b693ee9b8a9b35",
  "_top_": {
    "type": "string",
    "value": "10%"
  },
  "_width_": {
    "type": "string",
    "value": "4%"
  },
  "allboxes": [],
  "autogrowmode": 0,
  "canUpdateUI": true,
  "centery": {
    "type": "string",
    "value": "50%"
  },
  "children": [
    "imgCheckBox"
  ],
  "clipbounds": true,
  "containerId": true,
  "containerweight": 100,
  "enablescrolling": true,
  "id": "flximg",
  "ide_onClick": "AS_FlexContainer_iae2c3d66ec341d5bf34bf3898bf9606",
  "info": null,
  "isvisible": true,
  "kuid": "b1bcd070a1844a8e953523d257fd3328",
  "layouttype": 2,
  "name": "kony.ui.FlexContainer",
  "parent": "flxOption",
  "pf": "segViewsAndFilters",
  "snapgridsize": 10,
  "snaptogrid": true,
  "wType": "FlexContainer",
  "widgetalignment": 1,
  "zindex": 1
}