{
  "@class": "com.kony.gen.viz.model.component.KVizLabel",
  "DNDConfig": null,
  "__parentReadjusting__": false,
  "_height_": {
    "type": "ref",
    "value": "preferred"
  },
  "_left_": {
    "type": "string",
    "value": "60dp"
  },
  "_margin_": [
    1,
    1,
    1,
    1
  ],
  "_padding_": [
    1,
    1,
    1,
    1
  ],
  "_skin_": "se56454286124fef97a46e7249497088",
  "_text_": "Label",
  "_width_": {
    "type": "ref",
    "value": "preferred"
  },
  "_wrapping_": 2,
  "android": {
    "textStyle": {
      "letterSpacing": 0,
      "strikeThrough": false
    }
  },
  "canUpdateUI": true,
  "centery": {
    "type": "string",
    "value": "50%"
  },
  "containerId": true,
  "containerweight": 100,
  "contentalignment": 1,
  "id": "lblUsers",
  "info": null,
  "ipad": {
    "psp": {
      "wrapping": 2
    }
  },
  "iphone": {
    "psp": {
      "wrapping": 2
    }
  },
  "isvisible": true,
  "kuid": "e901f5e5240c435288484e72c9160bcb",
  "name": "kony.ui.Label",
  "paddinginpixel": false,
  "parent": "flxBankNames",
  "pf": "segBankNames",
  "tooltip": "Label",
  "wType": "Label",
  "zindex": 1
}