{
  "DNDConfig": null,
  "__parentReadjusting__": false,
  "_height_": {
    "type": "string",
    "value": "1dp"
  },
  "_left_": {
    "type": "string",
    "value": "0dp"
  },
  "_margin_": [
    0,
    0,
    0,
    0
  ],
  "_orientation_": 6,
  "_padding_": [
    0,
    0,
    0,
    0
  ],
  "_percent_": true,
  "_skin_": "s7eea1452197407e9f10e3546bb83332",
  "_top_": {
    "type": "string",
    "value": "0dp"
  },
  "_width_": {
    "type": "string",
    "value": "100%"
  },
  "allboxes": [],
  "autogrowmode": 0,
  "canUpdateUI": true,
  "children": [],
  "clipbounds": true,
  "containerweight": 100,
  "enablescrolling": true,
  "id": "flxSeparatorSort",
  "info": null,
  "isvisible": false,
  "kuid": "da216faff5584cbfb11f8ec249be9491",
  "layouttype": 2,
  "name": "kony.ui.FlexContainer",
  "parent": "Transactions",
  "pf": "userwidgetmodel",
  "snapgridsize": 10,
  "snaptogrid": true,
  "wType": "FlexContainer",
  "widgetalignment": 1,
  "zindex": 1
}