{
  "DNDConfig": null,
  "__parentReadjusting__": false,
  "_height_": {
    "type": "string",
    "value": "225px"
  },
  "_left_": {
    "type": "string",
    "value": "0dp"
  },
  "_margin_": [
    0,
    0,
    0,
    0
  ],
  "_orientation_": 6,
  "_padding_": [
    0,
    0,
    0,
    0
  ],
  "_percent_": true,
  "_skin_": "s4b5ad27f86e4f7c8aaa9a78bf7cc838",
  "_top_": {
    "type": "string",
    "value": "0dp"
  },
  "_width_": {
    "type": "string",
    "value": "100%"
  },
  "allboxes": [],
  "autogrowmode": 0,
  "canUpdateUI": true,
  "children": [
    "flxIdentifier",
    "flxSelectedRowWrapper"
  ],
  "clipbounds": true,
  "containerId": true,
  "containerweight": 100,
  "controllerInfo": {
    "default": {
      "channel": "desktop",
      "name": "flxRecentTransfersSelectedController"
    }
  },
  "enablescrolling": true,
  "id": "flxRecentTransfersSelected",
  "info": null,
  "isTemplate": true,
  "isvisible": true,
  "kuid": "ic548903bc4843418bc087818409e64c",
  "layouttype": 2,
  "name": "kony.ui.FlexContainer",
  "parent": "segRecentTransfersSelected",
  "pf": "segRecentTransfersSelected",
  "snapgridsize": 10,
  "snaptogrid": true,
  "wType": "FlexContainer",
  "widgetalignment": 1,
  "zindex": 2
}