{
  "DNDConfig": null,
  "__parentReadjusting__": false,
  "_height_": {
    "type": "string",
    "value": "40dp"
  },
  "_left_": {
    "type": "string",
    "value": "7.40%"
  },
  "_margin_": [
    0,
    0,
    0,
    0
  ],
  "_orientation_": 6,
  "_padding_": [
    0,
    0,
    0,
    0
  ],
  "_percent_": true,
  "_skin_": "sbf2ed3278d54e9c81a26849afcaaca0",
  "_top_": {
    "type": "string",
    "value": "35dp"
  },
  "_width_": {
    "type": "string",
    "value": "90.68%"
  },
  "allboxes": [],
  "autogrowmode": 0,
  "canUpdateUI": true,
  "children": [
    "clndrSendOn"
  ],
  "clipbounds": true,
  "containerweight": 100,
  "enablescrolling": true,
  "id": "flxCalender",
  "info": null,
  "isvisible": true,
  "kuid": "b3ac0c00f4c94dd2868ca41fee9bc09f",
  "layouttype": 2,
  "name": "kony.ui.FlexContainer",
  "parent": "flxSendOn",
  "pf": "userwidgetmodel",
  "snapgridsize": 10,
  "snaptogrid": true,
  "wType": "FlexContainer",
  "widgetalignment": 1,
  "zindex": 1
}