{
  "@class": "com.kony.gen.viz.model.component.KVizListBox",
  "DNDConfig": null,
  "__parentReadjusting__": false,
  "_height_": {
    "type": "string",
    "value": "40dp"
  },
  "_left_": {
    "type": "string",
    "value": "1.76%"
  },
  "_margin_": [
    0,
    0,
    0,
    0
  ],
  "_padding_": [
    0,
    0,
    0,
    0
  ],
  "_skin_": "s75f6ba84f4e4ef7a57963870d9bcd48",
  "_top_": {
    "type": "string",
    "value": "50dp"
  },
  "_width_": {
    "type": "string",
    "value": "90.68%"
  },
  "canUpdateUI": true,
  "containerweight": 100,
  "contentalignment": 4,
  "context": {
    "channel": "desktop",
    "formID": "uwu8c12d9698aa482685fc1eaaa675578e",
    "platform": "desktopweb",
    "templateType": "userwidgets",
    "topLevelBox": null
  },
  "groupcells": false,
  "id": "listbxSentby",
  "info": null,
  "isvisible": true,
  "kuid": "hb40b382ea684adf8fc83d6e0d9f9da8",
  "masterdata": [],
  "name": "kony.ui.ListBox",
  "parent": "flxSentBy",
  "pf": "userwidgetmodel",
  "selectedkeys": null,
  "selectedkeyvalue": null,
  "selectedkeyvalues": null,
  "size": 18,
  "viewconfig": {
    "toggleViewConfig": {
      "viewStyle": 0
    }
  },
  "viewtype": 0,
  "wType": "ListBox",
  "zindex": 1
}