{
  "DNDConfig": null,
  "__parentReadjusting__": false,
  "_height_": {
    "type": "string",
    "value": "606px"
  },
  "_left_": {
    "type": "string",
    "value": "0dp"
  },
  "_margin_": [
    0,
    0,
    0,
    0
  ],
  "_orientation_": 6,
  "_padding_": [
    0,
    0,
    0,
    0
  ],
  "_percent_": true,
  "_skin_": "sefe4ebb8f4145df8b137c766f7810ab",
  "_top_": {
    "type": "string",
    "value": "0dp"
  },
  "_width_": {
    "type": "string",
    "value": "100%"
  },
  "allboxes": [],
  "autogrowmode": 0,
  "canUpdateUI": true,
  "children": [
    "flxSeparator",
    "flxSeparator2",
    "lblPayto",
    "lblPaytoValue",
    "flxFrom",
    "flxSentBy",
    "flxFrequency",
    "flxSendOn",
    "flxHowLong",
    "flxNoOfRecurrences",
    "flxAmount",
    "lblNote",
    "tbxOptional",
    "btnCancel",
    "btnSendMoney"
  ],
  "clipbounds": true,
  "containerweight": 100,
  "enablescrolling": true,
  "id": "SendMoney",
  "info": null,
  "isvisible": true,
  "kuid": "e8b07b5dbcc74666a33ba21b4d5b1d69",
  "layouttype": 2,
  "name": "kony.ui.FlexContainer",
  "parent": "userwidgetmodel",
  "pf": "userwidgetmodel",
  "snapgridsize": 10,
  "snaptogrid": true,
  "vizProps": {
    "hidewidgethierarchy": false
  },
  "wType": "FlexContainer",
  "widgetalignment": 1
}