{
  "DNDConfig": null,
  "__parentReadjusting__": false,
  "_height_": {
    "type": "string",
    "value": "100%"
  },
  "_left_": {
    "type": "string",
    "value": "0dp"
  },
  "_margin_": [
    0,
    0,
    0,
    0
  ],
  "_orientation_": 6,
  "_padding_": [
    0,
    0,
    0,
    0
  ],
  "_percent_": true,
  "_skin_": "s680c9bafb594fe4bfa388d84acc43b2",
  "_top_": {
    "type": "string",
    "value": "0dp"
  },
  "_width_": {
    "type": "string",
    "value": "8%"
  },
  "allboxes": [],
  "autogrowmode": 0,
  "canUpdateUI": true,
  "children": [
    "imgDropdown"
  ],
  "clipbounds": true,
  "containerId": true,
  "containerweight": 100,
  "desktopweb": {
    "psp": {
      "hoverSkin": "s1ad686327314f4ebd664a20730ba9d4"
    }
  },
  "enablescrolling": true,
  "id": "flxDropdown",
  "ide_onClick": "AS_FlexContainer_g7726ef40a524f3aa4ae7e5c8bb14ad3",
  "info": null,
  "isvisible": true,
  "kuid": "g457f296316a4d9fb3cee88fd9dfa151",
  "layouttype": 3,
  "name": "kony.ui.FlexContainer",
  "parent": "flxBillPayAllPayeesWrapper",
  "pf": "segBillPayManagePayees",
  "snapgridsize": 10,
  "snaptogrid": true,
  "wType": "FlexContainer",
  "widgetalignment": 1,
  "zindex": 1
}