{
  "@class": "com.kony.gen.viz.model.component.KVizLabel",
  "DNDConfig": null,
  "__markedForDelete__": true,
  "__parentReadjusting__": false,
  "_height_": {
    "type": "ref",
    "value": "preferred"
  },
  "_left_": {
    "type": "string",
    "value": "0dp"
  },
  "_margin_": [
    1,
    1,
    1,
    1
  ],
  "_padding_": [
    0,
    0,
    0,
    0
  ],
  "_skin_": "sfa1ca6a200e45e28cf82443ff19b25d",
  "_text_": "Due Date : 05/05/2017",
  "_top_": {
    "type": "string",
    "value": "0dp"
  },
  "_width_": {
    "type": "ref",
    "value": "preferred"
  },
  "_wrapping_": 2,
  "android": {
    "textStyle": {
      "letterSpacing": 0,
      "strikeThrough": false
    }
  },
  "canUpdateUI": true,
  "containerId": true,
  "containerweight": 100,
  "contentalignment": 4,
  "id": "lblNextBillDate",
  "info": null,
  "ipad": {
    "psp": {
      "wrapping": 2
    }
  },
  "iphone": {
    "psp": {
      "wrapping": 2
    }
  },
  "isvisible": true,
  "kuid": "e5d6142cd038411cb439739ca69115d6",
  "name": "kony.ui.Label",
  "parent": "flxNextBill",
  "pf": "segBillPayManagePayees",
  "tooltip": "",
  "wType": "Label",
  "zindex": 1
}