{
  "@class": "com.kony.gen.viz.model.component.KVizLabel",
  "DNDConfig": null,
  "__parentReadjusting__": false,
  "_height_": {
    "type": "ref",
    "value": "preferred"
  },
  "_left_": {
    "type": "string",
    "value": "25dp"
  },
  "_margin_": [
    1,
    1,
    1,
    1
  ],
  "_padding_": [
    0,
    0,
    0,
    0
  ],
  "_skin_": "s9b31b8c637a493eb541061f894ca8c5",
  "_text_": "Label",
  "_width_": {
    "type": "ref",
    "value": "preferred"
  },
  "_wrapping_": 2,
  "android": {
    "textStyle": {
      "letterSpacing": 0,
      "strikeThrough": false
    }
  },
  "canUpdateUI": true,
  "centery": {
    "type": "string",
    "value": "50%"
  },
  "containerId": true,
  "containerweight": 100,
  "contentalignment": 4,
  "desktopweb": {
    "psp": {}
  },
  "disabledSkins": {
    "hoverSkin": "s76df7f3bd3e447e856d147baf020fc6"
  },
  "id": "lblListBoxValues",
  "info": null,
  "ipad": {
    "psp": {
      "wrapping": 2
    }
  },
  "iphone": {
    "psp": {
      "wrapping": 2
    }
  },
  "isvisible": true,
  "kuid": "b08b1a756d714874b59f441fbc279a77",
  "name": "kony.ui.Label",
  "parent": "flxCustomListBox",
  "pf": "segCustomListBox",
  "tooltip": "",
  "wType": "Label",
  "zindex": 1
}