{
  "@class": "com.kony.gen.viz.model.component.KVizLabel",
  "DNDConfig": null,
  "__parentReadjusting__": false,
  "_height_": {
    "type": "string",
    "value": "18px"
  },
  "_left_": {
    "type": "string",
    "value": "30dp"
  },
  "_margin_": [
    1,
    1,
    1,
    1
  ],
  "_padding_": [
    0,
    0,
    0,
    0
  ],
  "_skin_": "sd9fada740124e4a99edc1f0a05ec2d0",
  "_text_": "Recipient Name :",
  "_top_": {
    "type": "string",
    "value": "27dp"
  },
  "_width_": {
    "type": "ref",
    "value": "preferred"
  },
  "_wrapping_": 2,
  "android": {
    "textStyle": {
      "letterSpacing": 0,
      "strikeThrough": false
    }
  },
  "canUpdateUI": true,
  "containerId": true,
  "containerweight": 100,
  "contentalignment": 4,
  "id": "lblPayee1",
  "info": null,
  "ipad": {
    "psp": {
      "wrapping": 2
    }
  },
  "iphone": {
    "psp": {
      "wrapping": 2
    }
  },
  "isvisible": true,
  "kuid": "d22c0d34c6be441f8834aba9da883fd4",
  "name": "kony.ui.Label",
  "parent": "flxPayee1",
  "pf": "segDisputeTransactionConfirmDetails",
  "texti18n": "i18n.StopCheckPayments.Payee",
  "tooltip": "",
  "wType": "Label",
  "zindex": 1
}