{
  "@class": "com.kony.gen.viz.model.component.KVizUserWidget",
  "DNDConfig": null,
  "__parentReadjusting__": false,
  "_children_": [],
  "_height_": {
    "type": "ref",
    "value": "preferred"
  },
  "_left_": {
    "type": "string",
    "value": "0dp"
  },
  "_margin_": [
    0,
    0,
    0,
    0
  ],
  "_orientation_": 1,
  "_padding_": [
    0,
    0,
    0,
    0
  ],
  "_percent_": true,
  "_render_": true,
  "_skin_": "s4d6392bface4761840338d65d827a61",
  "_top_": {
    "type": "string",
    "value": "0dp"
  },
  "_width_": {
    "type": "string",
    "value": "100%"
  },
  "areflexpropsreferenced": false,
  "autogrowmode": 1,
  "canUpdateUI": true,
  "clipbounds": false,
  "containerweight": 0,
  "dataDiffs": {
    "confirmButtons": {
      "__events__": {},
      "__info__": {
        "kuid": "f1949f85d40c46319bab9ffed0e84414",
        "srcKUID": "dae49f78c3f9473ab14fbd0c451865a6",
        "wType": "UserWidgetInstance"
      }
    },
    "confirmButtons.btnCancel": {
      "__events__": {},
      "__info__": {
        "kuid": "ecc0098620a44cf391b0b324d389b586",
        "srcKUID": "c69dd70537134dca91d79ecfae2ab801",
        "wType": "Button"
      },
      "right": {
        "Default": {
          "type": "string",
          "value": "42.80%"
        }
      }
    },
    "confirmButtons.btnConfirm": {
      "__events__": {},
      "__info__": {
        "kuid": "e593acb065954a8988cc2e49acbe3fe6",
        "srcKUID": "id4ed79fda4946d7b788005be824b480",
        "wType": "Button"
      },
      "centerY": {
        "Default": {
          "type": "string",
          "value": "50.32%"
        }
      },
      "right": {
        "Default": {
          "type": "string",
          "value": "2.49%"
        }
      }
    },
    "confirmButtons.btnModify": {
      "__events__": {},
      "__info__": {
        "kuid": "c0ef640cab7f47059d0994081b7464dc",
        "srcKUID": "ib356fc7a2664bdfa2d82ba1e6d9bf5a",
        "wType": "Button"
      },
      "right": {
        "Default": {
          "type": "string",
          "value": "22.70%"
        }
      }
    },
    "confirmButtons.flxHorizontalLine": {
      "__events__": {},
      "__info__": {
        "kuid": "j9745b5f74554c2f917c809627541203",
        "srcKUID": "daa090bb00594a999e8dd106a8d4f9ec",
        "wType": "FlexContainer"
      }
    },
    "confirmDialog": {
      "__events__": {},
      "__info__": {
        "isRoot": true,
        "kuid": "f6a10ec95b914bc086231d5baefddadc",
        "srcKUID": "h98cde72801b440a9b31cf23ded2cf90",
        "wType": "FlexContainer"
      },
      "autogrowMode": {
        "Default": 1
      },
      "height": {
        "Default": {
          "type": "ref",
          "value": "preferred"
        }
      },
      "width": {
        "Default": {
          "type": "string",
          "value": "100%"
        }
      }
    },
    "confirmHeaders": {
      "__events__": {},
      "__info__": {
        "kuid": "jafd945ad98046aeae1fc272a60cc241",
        "srcKUID": "e24550f8d402490a8262759a4ba49d12",
        "wType": "UserWidgetInstance"
      }
    },
    "confirmHeaders.flxHeader": {
      "__events__": {},
      "__info__": {
        "kuid": "d9d12f79bd7045d3a2616ad0de33800b",
        "srcKUID": "bfbfb9f59a6f415880f5ba35fbddd249",
        "wType": "FlexContainer"
      }
    },
    "confirmHeaders.lblHeading": {
      "__events__": {},
      "__info__": {
        "kuid": "e6cf8edf93b94f119d834dd14b38e84f",
        "srcKUID": "b632c5d3e7934929bf29a1aa5ab625f2",
        "wType": "Label"
      }
    },
    "flxHorizontalLine": {
      "__events__": {},
      "__info__": {
        "kuid": "h26160fe26a246b6b5019756abcff9b3",
        "srcKUID": "ja9d383ccdbf4fd381eec16b183c5f52",
        "wType": "FlexContainer"
      }
    },
    "flxMain": {
      "__events__": {},
      "__info__": {
        "kuid": "a37e00e52e7e48d1b3800fafc2b5b04e",
        "srcKUID": "e6ee261117d2403383ae859a587c5442",
        "wType": "FlexContainer"
      }
    },
    "flxaddress": {
      "__events__": {},
      "__info__": {
        "kuid": "cbd96f17b8194af6826ede3de578fc66",
        "srcKUID": "abbb3c3351294e06abaf6e01026b1121",
        "wType": "FlexContainer"
      }
    },
    "flxdeliverby": {
      "__events__": {},
      "__info__": {
        "kuid": "a96cd1aaf1c046b7b6adde2ea3911ade",
        "srcKUID": "jdfd9b3c01894318ba54c5da986c0ff2",
        "wType": "UserWidgetInstance"
      }
    },
    "flxdeliverby.flxContainer": {
      "__events__": {},
      "__info__": {
        "kuid": "hb1465fb6d794404b5c3a73fe36d1198",
        "srcKUID": "h23eb4b71a574ff4a83e0fae3c65c584",
        "wType": "FlexContainer"
      }
    },
    "flxdeliverby.flxKey": {
      "__events__": {},
      "__info__": {
        "kuid": "a04ab8abbbba4e90880ed8a1ba1da877",
        "srcKUID": "f24d364c30b842b2b7627be4feb200eb",
        "wType": "FlexContainer"
      }
    },
    "flxdeliverby.flxValue": {
      "__events__": {},
      "__info__": {
        "kuid": "e087a2eb3eb14af8ba5c64c53fd5c5ce",
        "srcKUID": "f28f644431fe4577b2a8479d3a04122c",
        "wType": "FlexContainer"
      },
      "width": {
        "Default": {
          "type": "string",
          "value": "75%"
        }
      }
    },
    "flxdeliverby.lblColon": {
      "__events__": {},
      "__info__": {
        "kuid": "ae81a6e7e52246198bbb6124c60578d5",
        "srcKUID": "gfb8eb0d954944edb2b9a3f9e3a1f936",
        "wType": "Label"
      }
    },
    "flxdeliverby.lblKey": {
      "__events__": {},
      "__info__": {
        "kuid": "eb9de6ed51df41c18309bedf53687ea9",
        "srcKUID": "dbb6296baaa84d15b088097126ac59d4",
        "wType": "Label"
      }
    },
    "flxdeliverby.lblValue": {
      "__events__": {},
      "__info__": {
        "kuid": "a4998ee4c0e24b54a660b9be473dad5e",
        "srcKUID": "f98efb97007f4777ab5731d97faeb223",
        "wType": "Label"
      },
      "width": {
        "Default": {
          "type": "string",
          "value": "100%"
        }
      }
    },
    "keyValueAddress": {
      "__events__": {},
      "__info__": {
        "kuid": "i1f93606dc1142968269e01829f65048",
        "srcKUID": "f3ec874f35534e388b4b2660d19faa74",
        "wType": "UserWidgetInstance"
      }
    },
    "keyValueAddress.flxContainer": {
      "__events__": {},
      "__info__": {
        "kuid": "c1e78c15e4974cd383053015e31b93b2",
        "srcKUID": "h7bdb7c990c44dc3b0cc486047664544",
        "wType": "FlexContainer"
      }
    },
    "keyValueAddress.flxKey": {
      "__events__": {},
      "__info__": {
        "kuid": "af90f94a34a84696a4d4a60933969ec9",
        "srcKUID": "e84c3ad6f7a84dd6bef39d407f7dabc2",
        "wType": "FlexContainer"
      }
    },
    "keyValueAddress.flxValue": {
      "__events__": {},
      "__info__": {
        "kuid": "bef8393d848f4ccb9c1128853b3bd938",
        "srcKUID": "g154b7e2769b43ba886411b388cf46cd",
        "wType": "FlexContainer"
      },
      "width": {
        "Default": {
          "type": "string",
          "value": "75%"
        }
      }
    },
    "keyValueAddress.lblColon": {
      "__events__": {},
      "__info__": {
        "kuid": "d05fbdd58cf042b19ffcca3664fc9b16",
        "srcKUID": "ibd8c460c4e34ffca58923721a8647fc",
        "wType": "Label"
      }
    },
    "keyValueAddress.lblKey": {
      "__events__": {},
      "__info__": {
        "kuid": "i871bc3822254316baef32cfe4e2f003",
        "srcKUID": "c060f9c4cea943e8b42651c8d23d78b7",
        "wType": "Label"
      }
    },
    "keyValueAddress.lblValue": {
      "__events__": {},
      "__info__": {
        "kuid": "d7b1fa0f308d4814a7e3b575c41fb031",
        "srcKUID": "ac788403c6a245b7afc02bddfb1bec53",
        "wType": "Label"
      },
      "width": {
        "Default": {
          "type": "string",
          "value": "100%"
        }
      }
    },
    "keyValueAmount": {
      "__events__": {},
      "__info__": {
        "kuid": "hc1a2827bdb44e42bb653c03a504efb9",
        "srcKUID": "a411bed3418b4f3d82f9b6da9aee953b",
        "wType": "UserWidgetInstance"
      }
    },
    "keyValueFrequency": {
      "__events__": {},
      "__info__": {
        "kuid": "jf116d850abf403c974e69db0434ac65",
        "srcKUID": "i304d0611db94cfe826f9c9183b3a964",
        "wType": "UserWidgetInstance"
      }
    },
    "keyValueFrequencyType": {
      "__events__": {},
      "__info__": {
        "kuid": "ib7cb80f00d94510a8ecf5ee23e55d35",
        "srcKUID": "f96221bee940411eb0d263db6ae7ed56",
        "wType": "UserWidgetInstance"
      }
    },
    "keyValueFrequencyType.flxContainer": {
      "__events__": {},
      "__info__": {
        "kuid": "d6173c7e6fe14bd4841536dbd9f84259",
        "srcKUID": "e67bab4b58ff419b88ede6a03819e863",
        "wType": "FlexContainer"
      }
    },
    "keyValueFrequencyType.flxKey": {
      "__events__": {},
      "__info__": {
        "kuid": "j84dc00f0ad448669af87787045de33f",
        "srcKUID": "c9b515b3885242489043cead5aa46be4",
        "wType": "FlexContainer"
      }
    },
    "keyValueFrequencyType.flxValue": {
      "__events__": {},
      "__info__": {
        "kuid": "h2f45d70c77745488dd8f3da931aba65",
        "srcKUID": "j3e6ba6281ff40e8831cf50d10390c76",
        "wType": "FlexContainer"
      },
      "width": {
        "Default": {
          "type": "string",
          "value": "75%"
        }
      }
    },
    "keyValueFrequencyType.lblColon": {
      "__events__": {},
      "__info__": {
        "kuid": "babe10b3e926497e97f09d219b8c23c7",
        "srcKUID": "ee0cfc684ce645788153f2955f5292aa",
        "wType": "Label"
      }
    },
    "keyValueFrequencyType.lblKey": {
      "__events__": {},
      "__info__": {
        "kuid": "i7dcca1a41fa43d3bc781ff66141904f",
        "srcKUID": "i685ab48983f4485a038d48f894aa312",
        "wType": "Label"
      }
    },
    "keyValueFrequencyType.lblValue": {
      "__events__": {},
      "__info__": {
        "kuid": "d1f99dec2cac4dab82209ec4070fb234",
        "srcKUID": "ed001f966eb847d8b1339d9d50e41fb0",
        "wType": "Label"
      },
      "width": {
        "Default": {
          "type": "string",
          "value": "100%"
        }
      }
    },
    "keyValueFrom": {
      "__events__": {},
      "__info__": {
        "kuid": "da915ad613e944779d7964d86a673131",
        "srcKUID": "a22a1ef763294ebfa9168e940894c357",
        "wType": "UserWidgetInstance"
      }
    },
    "keyValueNote": {
      "__events__": {},
      "__info__": {
        "kuid": "h7f5d8afce4b4d648a7bfd9a9fe18480",
        "srcKUID": "c82f254174a8469c96ec7aa59aa087b8",
        "wType": "UserWidgetInstance"
      }
    },
    "keyValuePaymentDate": {
      "__events__": {},
      "__info__": {
        "kuid": "fd780d7a80a04c6ba78efb8604b91f40",
        "srcKUID": "f50a7d96634a4bbe892d26c3c6bb46d8",
        "wType": "UserWidgetInstance"
      }
    },
    "keyValueTo": {
      "__events__": {},
      "__info__": {
        "kuid": "afa942863bdb462bb8a01e43d1e6bcfd",
        "srcKUID": "ae714394b2bf4755b0a820fd255a9828",
        "wType": "UserWidgetInstance"
      }
    },
    "flxdeliverby.flxInfo": {
      "__events__": {},
      "__info__": {
        "kuid": "fcf7ef3b3156488b8d05182177dd741e",
        "srcKUID": "hd8f4f1ab3f748c4afa8d4907e25d15a",
        "wType": "FlexContainer"
      }
    },
    "flxdeliverby.imgWhatIsSSN": {
      "__events__": {},
      "__info__": {
        "kuid": "c70eec797ec84367b2d011a28be36fe5",
        "srcKUID": "ic265e6791a046178ba2ea4ed31b0e52",
        "wType": "Image"
      }
    },
    "keyValueAddress.flxInfo": {
      "__events__": {},
      "__info__": {
        "kuid": "ae87e54926054f8cbab1a2ccac5fa143",
        "srcKUID": "he91db2ffab64642b9b2cb346f7b4d40",
        "wType": "FlexContainer"
      }
    },
    "keyValueAddress.imgWhatIsSSN": {
      "__events__": {},
      "__info__": {
        "kuid": "f5055f9226364926b30f55473d536aba",
        "srcKUID": "e774dfb9b7914332a09c7453ad7efcd0",
        "wType": "Image"
      }
    },
    "keyValueAmount.flxContainer": {
      "__events__": {},
      "__info__": {
        "kuid": "b6e36ef689d2471a95924ab23d458173",
        "srcKUID": "d567ce646fe94ac79399b9416191cd69",
        "wType": "FlexContainer"
      }
    },
    "keyValueAmount.flxInfo": {
      "__events__": {},
      "__info__": {
        "kuid": "c3c1e8b4eae8456f9849b54b42e3be11",
        "srcKUID": "e338bfc61f9e49e7911948f17f2adbbd",
        "wType": "FlexContainer"
      }
    },
    "keyValueAmount.flxKey": {
      "__events__": {},
      "__info__": {
        "kuid": "a096b700828f4a49872e8816a549a7fe",
        "srcKUID": "j7cae37097ce4cbd92f2f138209130c5",
        "wType": "FlexContainer"
      }
    },
    "keyValueAmount.flxValue": {
      "__events__": {},
      "__info__": {
        "kuid": "fb051f630199466c8fe68becdb6580c8",
        "srcKUID": "e97c170540e54f9384a5791e431054fd",
        "wType": "FlexContainer"
      },
      "width": {
        "Default": {
          "type": "string",
          "value": "75%"
        }
      }
    },
    "keyValueAmount.imgWhatIsSSN": {
      "__events__": {},
      "__info__": {
        "kuid": "c55ae46cedbd48578b3c9694b62572c3",
        "srcKUID": "c6d81355afa14be28450061fb2eca98c",
        "wType": "Image"
      }
    },
    "keyValueAmount.lblColon": {
      "__events__": {},
      "__info__": {
        "kuid": "c8a0fa51c2784836ad1ce5ad730ca22f",
        "srcKUID": "ae64cdfeff7441f0ba7f265bed03ad70",
        "wType": "Label"
      }
    },
    "keyValueAmount.lblKey": {
      "__events__": {},
      "__info__": {
        "kuid": "eedf74d1f1d64ec09bf7f01571849e0f",
        "srcKUID": "ed5099b3c381499497e1773aabd83685",
        "wType": "Label"
      }
    },
    "keyValueAmount.lblValue": {
      "__events__": {},
      "__info__": {
        "kuid": "c99f7bf79b98415687958a85f96dd0c6",
        "srcKUID": "d86215b98d5b455ebaedde9ce960a851",
        "wType": "Label"
      }
    },
    "keyValueFrequency.flxContainer": {
      "__events__": {},
      "__info__": {
        "kuid": "d19d822bcc354b57946bd87a8d29a1da",
        "srcKUID": "d1571b44b2784eedb7e7935427fda840",
        "wType": "FlexContainer"
      }
    },
    "keyValueFrequency.flxInfo": {
      "__events__": {},
      "__info__": {
        "kuid": "c39b055b1dc242faaa658eeaba977330",
        "srcKUID": "i7b0e784ae18438493b500f8fa6aed2a",
        "wType": "FlexContainer"
      }
    },
    "keyValueFrequency.flxKey": {
      "__events__": {},
      "__info__": {
        "kuid": "e463f3ad96c040009ce64054ffe2fd9b",
        "srcKUID": "he5904cc80124f4497e795e561055b03",
        "wType": "FlexContainer"
      }
    },
    "keyValueFrequency.flxValue": {
      "__events__": {},
      "__info__": {
        "kuid": "a557c9255b3944d890a7677d17b4ce86",
        "srcKUID": "b4110976647f4b378d88aa133e0187bd",
        "wType": "FlexContainer"
      },
      "width": {
        "Default": {
          "type": "string",
          "value": "75%"
        }
      }
    },
    "keyValueFrequency.imgWhatIsSSN": {
      "__events__": {},
      "__info__": {
        "kuid": "i0593f89749c4aec8cd302fa5bd18019",
        "srcKUID": "h3f3ed39aa384b808ce1336d43067f8e",
        "wType": "Image"
      }
    },
    "keyValueFrequency.lblColon": {
      "__events__": {},
      "__info__": {
        "kuid": "b331355bb6b447d6a7159b62dde7b226",
        "srcKUID": "e857a4e72f574bdf98bfe99848b9251a",
        "wType": "Label"
      }
    },
    "keyValueFrequency.lblKey": {
      "__events__": {},
      "__info__": {
        "kuid": "g994fd4212ce4c34a9eb545b4a3429e2",
        "srcKUID": "i4c0053e0b084e51b4a862ee7657ded7",
        "wType": "Label"
      }
    },
    "keyValueFrequency.lblValue": {
      "__events__": {},
      "__info__": {
        "kuid": "ac28e553f693457c8968c124582d841a",
        "srcKUID": "j248fb9d8f934312b23c7149863f9d34",
        "wType": "Label"
      },
      "width": {
        "Default": {
          "type": "string",
          "value": "100%"
        }
      }
    },
    "keyValueFrequencyType.flxInfo": {
      "__events__": {},
      "__info__": {
        "kuid": "f04ceaa5ac7e40ea87552bc6b361ca36",
        "srcKUID": "a8ace0b270f44919bd7fb0250747bb65",
        "wType": "FlexContainer"
      }
    },
    "keyValueFrequencyType.imgWhatIsSSN": {
      "__events__": {},
      "__info__": {
        "kuid": "b9604b2c3826476192b1b939c11825eb",
        "srcKUID": "d2e5f98ae2794c10b94d3f9145774103",
        "wType": "Image"
      }
    },
    "keyValueFrom.flxContainer": {
      "__events__": {},
      "__info__": {
        "kuid": "ecf82e21ea254b94a79b469c5cce8d12",
        "srcKUID": "df3fca97b5944da4b71458a9d4d38f93",
        "wType": "FlexContainer"
      }
    },
    "keyValueFrom.flxInfo": {
      "__events__": {},
      "__info__": {
        "kuid": "g05a284c82934f0e88d0dc510465f7b1",
        "srcKUID": "b285c38b0ef746ad8de90d860b12072e",
        "wType": "FlexContainer"
      },
      "isVisible": false
    },
    "keyValueFrom.flxKey": {
      "__events__": {},
      "__info__": {
        "kuid": "e0755cd9e1ee465191e0346fe47022cf",
        "srcKUID": "g687cdaed4554bf2b79243ba15955a74",
        "wType": "FlexContainer"
      }
    },
    "keyValueFrom.flxValue": {
      "__events__": {},
      "__info__": {
        "kuid": "i2c0d042c31748f396f795ed8b722e06",
        "srcKUID": "e780c25af1b54a5e939437c8e4c160c2",
        "wType": "FlexContainer"
      },
      "width": {
        "Default": {
          "type": "string",
          "value": "75%"
        }
      }
    },
    "keyValueFrom.imgWhatIsSSN": {
      "__events__": {},
      "__info__": {
        "kuid": "e2efa49504e7483f9f925bfc54612282",
        "srcKUID": "d1cb9bc33b9e441daeea93de1b58f6c0",
        "wType": "Image"
      }
    },
    "keyValueFrom.lblColon": {
      "__events__": {},
      "__info__": {
        "kuid": "a1e4629609a44aa7bede9b01d49b9ef1",
        "srcKUID": "a41e6919283d4ac1bb48812352fa06da",
        "wType": "Label"
      }
    },
    "keyValueFrom.lblKey": {
      "__events__": {},
      "__info__": {
        "kuid": "e4b243ca665e407fbbfabbf6a15543c6",
        "srcKUID": "e7c0d7a6cb4d4361bd846506a78769e8",
        "wType": "Label"
      }
    },
    "keyValueFrom.lblValue": {
      "__events__": {},
      "__info__": {
        "kuid": "f141c5f1ca3742628a56e87fc24855d3",
        "srcKUID": "ebcad4cf1d2b4537bf7359be280b2a58",
        "wType": "Label"
      },
      "text": "Bank Of America",
      "width": {
        "Default": {
          "type": "ref",
          "value": "preferred"
        }
      }
    },
    "keyValueNote.flxContainer": {
      "__events__": {},
      "__info__": {
        "kuid": "a6d810297cd641728e4a43454c712375",
        "srcKUID": "af841be489334f9fbdd6c62a307b69e8",
        "wType": "FlexContainer"
      }
    },
    "keyValueNote.flxInfo": {
      "__events__": {},
      "__info__": {
        "kuid": "d6d347071bc34e9094544615a7cfebb7",
        "srcKUID": "h0f9b75a7b4d4cbf93c0c4eb271735a6",
        "wType": "FlexContainer"
      }
    },
    "keyValueNote.flxKey": {
      "__events__": {},
      "__info__": {
        "kuid": "h7c4a4c5313240b1bc3732744ddebf1f",
        "srcKUID": "c15f3713024d45169c5f40e8ba5e3f93",
        "wType": "FlexContainer"
      }
    },
    "keyValueNote.flxValue": {
      "__events__": {},
      "__info__": {
        "kuid": "ba0a8ebfaf1e4c0db7fbc1a3de289594",
        "srcKUID": "fc0f3d103da0487cbcd65392cd00ae1a",
        "wType": "FlexContainer"
      },
      "width": {
        "Default": {
          "type": "string",
          "value": "75%"
        }
      }
    },
    "keyValueNote.imgWhatIsSSN": {
      "__events__": {},
      "__info__": {
        "kuid": "h09c27de0d41451aaaac3313cf79b1be",
        "srcKUID": "aef11e7dfe2b4744a48d2de3ad23853a",
        "wType": "Image"
      }
    },
    "keyValueNote.lblColon": {
      "__events__": {},
      "__info__": {
        "kuid": "a03280fbf5404ba99b88e3c248399dc8",
        "srcKUID": "gca0e285f2d143f8b78f03d9a9afc045",
        "wType": "Label"
      }
    },
    "keyValueNote.lblKey": {
      "__events__": {},
      "__info__": {
        "kuid": "e5f544483ed74751a3e1286534b21e77",
        "srcKUID": "f48d5d4a29694cfe8cb09dcad61dc38e",
        "wType": "Label"
      }
    },
    "keyValueNote.lblValue": {
      "__events__": {},
      "__info__": {
        "kuid": "c7cdb1dbbd71408fb8a129718d2d9fb8",
        "srcKUID": "fea597d5c1854bd8b06382314bea3d7e",
        "wType": "Label"
      },
      "width": {
        "Default": {
          "type": "string",
          "value": "100%"
        }
      }
    },
    "keyValuePaymentDate.flxContainer": {
      "__events__": {},
      "__info__": {
        "kuid": "ic33a8d0f02b472d8e1aeef8ce7ed88a",
        "srcKUID": "d62e8bcd90d6424cb416e9cae13213b9",
        "wType": "FlexContainer"
      }
    },
    "keyValuePaymentDate.flxInfo": {
      "__events__": {},
      "__info__": {
        "kuid": "d5c14a9a682046ff913863469878b762",
        "srcKUID": "c22a00db2fa04da482059fcd734c2987",
        "wType": "FlexContainer"
      }
    },
    "keyValuePaymentDate.flxKey": {
      "__events__": {},
      "__info__": {
        "kuid": "a043e05b1efe464e93b488689b80afd0",
        "srcKUID": "d9683bd46fab45fa8f75f920b65133f3",
        "wType": "FlexContainer"
      }
    },
    "keyValuePaymentDate.flxValue": {
      "__events__": {},
      "__info__": {
        "kuid": "f4484c27b43e4c93b9e2bafcac41276e",
        "srcKUID": "jba60477ef8e4d1f8381865bdca7138f",
        "wType": "FlexContainer"
      },
      "width": {
        "Default": {
          "type": "string",
          "value": "75%"
        }
      }
    },
    "keyValuePaymentDate.imgWhatIsSSN": {
      "__events__": {},
      "__info__": {
        "kuid": "da0db991d2224a88bec98d3abab102a2",
        "srcKUID": "d96b9b09ffd8411896c24dc4d21e7967",
        "wType": "Image"
      }
    },
    "keyValuePaymentDate.lblColon": {
      "__events__": {},
      "__info__": {
        "kuid": "eb21c6aa72da446586ec1ebc9c5dbb7c",
        "srcKUID": "df5e94d112b3438ebdb06511cdbdee99",
        "wType": "Label"
      }
    },
    "keyValuePaymentDate.lblKey": {
      "__events__": {},
      "__info__": {
        "kuid": "ba390b3037b64a4f98ea03f4ad7df159",
        "srcKUID": "be177026f995496bb8364e59c77966f3",
        "wType": "Label"
      }
    },
    "keyValuePaymentDate.lblValue": {
      "__events__": {},
      "__info__": {
        "kuid": "ie72382822c6447d8337f618430fea4e",
        "srcKUID": "cbabed6cdde34c7b9fc687dc7eeba7d0",
        "wType": "Label"
      },
      "width": {
        "Default": {
          "type": "string",
          "value": "100%"
        }
      }
    },
    "keyValueTo.flxContainer": {
      "__events__": {},
      "__info__": {
        "kuid": "je5b9b66b3204bc9adf04341b2e4ed9f",
        "srcKUID": "aad170df77c24b4baeddece37f872410",
        "wType": "FlexContainer"
      }
    },
    "keyValueTo.flxInfo": {
      "__events__": {},
      "__info__": {
        "kuid": "ha227f21b2f2406488c084a798f9f9d1",
        "srcKUID": "ac4208c97c9b490aaedd672a81a69eb5",
        "wType": "FlexContainer"
      }
    },
    "keyValueTo.flxKey": {
      "__events__": {},
      "__info__": {
        "kuid": "j3715031ccb345a6907b70cce6e28fc3",
        "srcKUID": "eb47a14df1c84c9cb7be416f721dccb5",
        "wType": "FlexContainer"
      }
    },
    "keyValueTo.flxValue": {
      "__events__": {},
      "__info__": {
        "kuid": "c2f45021e70c41caa4ee7e3ed03b8df5",
        "srcKUID": "be1a0d4555974b449edbd55ac7e205e3",
        "wType": "FlexContainer"
      },
      "width": {
        "Default": {
          "type": "string",
          "value": "75%"
        }
      }
    },
    "keyValueTo.imgWhatIsSSN": {
      "__events__": {},
      "__info__": {
        "kuid": "c7f5b3bed8fd423793598a4f948b3723",
        "srcKUID": "b566728ff44546309c5061ea38d7a1c2",
        "wType": "Image"
      }
    },
    "keyValueTo.lblColon": {
      "__events__": {},
      "__info__": {
        "kuid": "hf46ca73c03e4d79a9c64533c9b758b6",
        "srcKUID": "dc01b1cc73274c119369c0e1fc5f2637",
        "wType": "Label"
      }
    },
    "keyValueTo.lblKey": {
      "__events__": {},
      "__info__": {
        "kuid": "i07958a1f71a47bb84f7de99a1aa21de",
        "srcKUID": "fc30ea9c1a6545ada1a75b911f32d41a",
        "wType": "Label"
      }
    },
    "keyValueTo.lblValue": {
      "__events__": {},
      "__info__": {
        "kuid": "d715ff581f5449b690420e8f3292262a",
        "srcKUID": "jb025dc5e04645cc86095ca034d911bf",
        "wType": "Label"
      },
      "width": {
        "Default": {
          "type": "string",
          "value": "100%"
        }
      }
    }
  },
  "id": "confirmDialog",
  "info": null,
  "isdatareferenced": false,
  "isvisible": true,
  "kuid": "d3f412ef312143ee9206342fa6cffeba",
  "layouttype": 2,
  "masterType": 0,
  "name": "kony.ui.UserWidgetInstance",
  "parent": "flxConfirmContainer",
  "pf": "frmConfirm",
  "snaptogrid": true,
  "sourceUserWidget": "h98cde72801b440a9b31cf23ded2cf90",
  "wType": "UserWidgetInstance"
}