{
  "@class": "com.kony.gen.viz.model.component.KVizUserWidget",
  "DNDConfig": null,
  "__parentReadjusting__": false,
  "_children_": [],
  "_height_": {
    "type": "string",
    "value": "110px"
  },
  "_left_": "0dp",
  "_margin_": [
    0,
    0,
    0,
    0
  ],
  "_orientation_": 1,
  "_padding_": [
    0,
    0,
    0,
    0
  ],
  "_percent_": true,
  "_render_": true,
  "_skin_": "s4b3bfcb27c14526bcdce6dec3972d8d",
  "_top_": {
    "type": "string",
    "value": "0dp"
  },
  "_width_": {
    "type": "string",
    "value": "88%"
  },
  "areflexpropsreferenced": false,
  "autogrowmode": 0,
  "canUpdateUI": true,
  "centerx": {
    "type": "string",
    "value": "50%"
  },
  "clipbounds": true,
  "containerweight": 0,
  "dataDiffs": {
    "btnCancel": {
      "__events__": {},
      "__info__": {
        "kuid": "e1c03e09889240ecb86e3477d17d1f80",
        "srcKUID": "fe63955edbd24a4ea6b8cae6b9dc4e9d",
        "wType": "Button"
      },
      "i18n_text": "i18n.transfers.Cancel",
      "right": {
        "Default": {
          "type": "string",
          "value": "39.87%"
        }
      }
    },
    "btnConfirm": {
      "__events__": {},
      "__info__": {
        "kuid": "ffe9ca326c104cc79e9e513c6f1b6078",
        "srcKUID": "fce03529e50d441ea6385939a861c275",
        "wType": "Button"
      },
      "i18n_text": "i18n.transfers.Confirm",
      "right": {
        "Default": {
          "type": "string",
          "value": "0%"
        }
      },
      "width": {
        "Default": {
          "type": "string",
          "value": "18.80%"
        }
      }
    },
    "btnModify": {
      "__events__": {},
      "__info__": {
        "kuid": "ca277a5e33de49b693c2377f7006844c",
        "srcKUID": "b0db2b5c6b0b4deb89afff129dc620f7",
        "wType": "Button"
      },
      "i18n_text": "i18n.transfers.Modify",
      "right": {
        "Default": {
          "type": "string",
          "value": "19.90%"
        }
      },
      "text": ""
    },
    "confirmButtons": {
      "__events__": {},
      "__info__": {
        "isRoot": true,
        "kuid": "bfeb664b719b441b83aebf0e5afa2225",
        "srcKUID": "ddfb5a99e80b4d01b3e3abf4c1af4adc",
        "wType": "FlexContainer"
      },
      "autogrowMode": 0,
      "centerX": {
        "Default": {
          "type": "string",
          "value": "50%"
        }
      },
      "height": {
        "Default": {
          "type": "string",
          "value": "110px"
        }
      },
      "width": {
        "Default": {
          "type": "string",
          "value": "88%"
        }
      }
    },
    "flxHorizontalLine": {
      "__events__": {},
      "__info__": {
        "kuid": "a6529af8c3c04edab48aa5a0d54b5e81",
        "srcKUID": "ac533aa67f084f63ae00d6834110ffa8",
        "wType": "FlexContainer"
      }
    }
  },
  "id": "confirmButtons",
  "info": null,
  "isdatareferenced": false,
  "isvisible": true,
  "kuid": "ec75c4fe88644e1ca280e6716984793c",
  "layouttype": 2,
  "masterType": 0,
  "name": "kony.ui.UserWidgetInstance",
  "parent": "flxMainBulkPay",
  "pf": "frmConfirm",
  "snaptogrid": true,
  "sourceUserWidget": "ddfb5a99e80b4d01b3e3abf4c1af4adc",
  "wType": "UserWidgetInstance"
}