{
  "@class": "com.kony.gen.viz.model.component.KVizUserWidget",
  "DNDConfig": null,
  "__parentReadjusting__": false,
  "_children_": [],
  "_height_": {
    "type": "string",
    "value": "150dp"
  },
  "_left_": {
    "type": "string",
    "value": "0dp"
  },
  "_margin_": [
    0,
    0,
    0,
    0
  ],
  "_orientation_": 1,
  "_padding_": [
    0,
    0,
    0,
    0
  ],
  "_percent_": true,
  "_render_": true,
  "_skin_": "s5e4481a3c944709a3f40dd22558173a",
  "_top_": {
    "type": "string",
    "value": "0dp"
  },
  "_width_": {
    "type": "string",
    "value": "1366dp"
  },
  "areflexpropsreferenced": false,
  "canUpdateUI": true,
  "centerx": {
    "type": "string",
    "value": "50%"
  },
  "clipbounds": true,
  "containerweight": 0,
  "dataDiffs": {
    "btnContactUs": {
      "__events__": {},
      "__info__": {
        "kuid": "db2ad3ccffce48e3b98799948191ec6a",
        "srcKUID": "c47b0c9af1b84e63aa01af59eb52124a",
        "wType": "Button"
      }
    },
    "btnFaqs": {
      "__events__": {},
      "__info__": {
        "kuid": "a9164e82c19e4a69af1e06999d929291",
        "srcKUID": "ced702d00bc5426892e4632faec9df5d",
        "wType": "Button"
      }
    },
    "btnLocateUs": {
      "__events__": {},
      "__info__": {
        "kuid": "a5daac8f528940a09713a859b7cb569b",
        "srcKUID": "i52587cdcb68471f9e389671ddc5f138",
        "wType": "Button"
      }
    },
    "btnNMLS": {
      "__events__": {},
      "__info__": {
        "kuid": "b3df18f9e23e41298acb8d7bff39972b",
        "srcKUID": "dd794b8c9b8948de910093e93695d9da",
        "wType": "Button"
      }
    },
    "btnPrivacy": {
      "__events__": {},
      "__info__": {
        "kuid": "g76646e9d8cf4d0ba30e375933b84c81",
        "srcKUID": "c3810888a2304c409e04db4cd519b8ee",
        "wType": "Button"
      }
    },
    "btnPrivacyNote": {
      "__events__": {},
      "__info__": {
        "kuid": "e3a8994242bf482bb64053e2dbfa4f65",
        "srcKUID": "ffe6d34ddebe42abb2fa3fa994d8578f",
        "wType": "Button"
      }
    },
    "btnRouting": {
      "__events__": {},
      "__info__": {
        "kuid": "ec72a8f27cdc400da318fa08cc90b1ce",
        "srcKUID": "c0ef76fac81742ff9d56ebd42f636563",
        "wType": "Button"
      }
    },
    "btnTermsAndConditions": {
      "__events__": {},
      "__info__": {
        "kuid": "f33448c21d1f42eca201453ca3c10971",
        "srcKUID": "baf7c8f817b34b618b7e1f148f49770a",
        "wType": "Button"
      }
    },
    "customfooter": {
      "__events__": {},
      "__info__": {
        "isRoot": true,
        "kuid": "baf8f52464394cd1b0e0b730a1f3db1a",
        "srcKUID": "a142e816812a4b5b80f84484dcef7232",
        "wType": "FlexContainer"
      },
      "centerX": {
        "Default": {
          "type": "string",
          "value": "50%"
        }
      },
      "width": {
        "Default": {
          "type": "string",
          "value": "1366dp"
        }
      },
      "zIndex": {
        "Default": 2
      }
    },
    "flxFooterMenu": {
      "__events__": {},
      "__info__": {
        "kuid": "fe5441780c5d459c9fe42a5f35d84b98",
        "srcKUID": "e6b5bc6faf00428680c4dedfe25a0b9a",
        "wType": "FlexContainer"
      },
      "centerX": {
        "Default": {
          "type": "string",
          "value": "50%"
        }
      },
      "left": {
        "Default": {
          "type": "string",
          "value": ""
        }
      },
      "width": {
        "Default": {
          "type": "string",
          "value": "1200dp"
        }
      }
    },
    "flxVBar1": {
      "__events__": {},
      "__info__": {
        "kuid": "ga411da77f3a4b40890d1468cff093d1",
        "srcKUID": "f31fd58a22cc496a93899a924cf2927d",
        "wType": "FlexContainer"
      }
    },
    "flxVBar2": {
      "__events__": {},
      "__info__": {
        "kuid": "f524c5f87b794140af4d0baccc0d8a4a",
        "srcKUID": "j39a662286e64bbc9be78a96bb491e27",
        "wType": "FlexContainer"
      }
    },
    "flxVBar3": {
      "__events__": {},
      "__info__": {
        "kuid": "e02f1263836440e89dc56eb0e2ed3b5a",
        "srcKUID": "a6990ffd77914b8e8757540cb40cad1a",
        "wType": "FlexContainer"
      }
    },
    "flxVBar4": {
      "__events__": {},
      "__info__": {
        "kuid": "aa4825d7802447d5bb518997a967fab6",
        "srcKUID": "e75f96d248634147afa5b6848252df6e",
        "wType": "FlexContainer"
      }
    },
    "imgFooterIconOne": {
      "__events__": {},
      "__info__": {
        "kuid": "j7ee09a66b22414fa7f2faea103716ba",
        "srcKUID": "f2305e3d65bb448e9d68f5608421f28a",
        "wType": "Image"
      }
    },
    "imgFooterIconThree": {
      "__events__": {},
      "__info__": {
        "kuid": "jce4e85952a648dcb696e2eda2dec207",
        "srcKUID": "hc27193bc4d14f24b60f03ac3c2bddb7",
        "wType": "Image"
      }
    },
    "imgFooterIconTwo": {
      "__events__": {},
      "__info__": {
        "kuid": "h960a4558f3d4bc5b64aeba259a3be12",
        "srcKUID": "cf67ed169e364ace9f62b5aa10dcf1d8",
        "wType": "Image"
      }
    },
    "lblCopyright": {
      "__events__": {},
      "__info__": {
        "kuid": "g8b6251695294d9dac93eb9abed22e22",
        "srcKUID": "a696ff4e198a4124810242908deae798",
        "wType": "Label"
      },
      "centerX": {
        "Default": {
          "type": "string",
          "value": ""
        }
      },
      "left": {
        "Default": {
          "type": "string",
          "value": "83dp"
        }
      },
      "width": {
        "Default": {
          "type": "string",
          "value": "60%"
        }
      }
    },
    "lblImgText": {
      "__events__": {},
      "__info__": {
        "kuid": "c1b776beb8034af2a798016b73b75535",
        "srcKUID": "c7ccba35746440ed997e9d567978ec4d",
        "wType": "Label"
      }
    }
  },
  "id": "CustomFooterMain",
  "info": null,
  "isdatareferenced": false,
  "isvisible": true,
  "kuid": "h1d9fda0958441b683164d0d7149ce3f",
  "layouttype": 2,
  "masterType": 0,
  "name": "kony.ui.UserWidgetInstance",
  "parent": "flxFooter",
  "pf": "frmConfirm",
  "snaptogrid": true,
  "sourceUserWidget": "a142e816812a4b5b80f84484dcef7232",
  "wType": "UserWidgetInstance",
  "zindex": 2
}