{
  "@class": "com.kony.gen.viz.model.component.KVizLabel",
  "DNDConfig": null,
  "__parentReadjusting__": false,
  "_height_": {
    "type": "ref",
    "value": "preferred"
  },
  "_margin_": [
    1,
    1,
    1,
    1
  ],
  "_padding_": [
    0,
    0,
    0,
    2
  ],
  "_right_": {
    "type": "string",
    "value": "200dp"
  },
  "_skin_": "sdc1c9d26ae54b5b946cc5bcd1ff6465",
  "_text_": "Label",
  "_top_": {
    "type": "string",
    "value": "21dp"
  },
  "_width_": {
    "type": "ref",
    "value": "preferred"
  },
  "_wrapping_": 2,
  "android": {
    "textStyle": {
      "letterSpacing": 0,
      "strikeThrough": false
    }
  },
  "canUpdateUI": true,
  "centery": {
    "type": "string",
    "value": "70%"
  },
  "containerweight": 100,
  "contentalignment": 4,
  "id": "lblTotalAMountPaid",
  "info": null,
  "ipad": {
    "psp": {
      "wrapping": 2
    }
  },
  "iphone": {
    "psp": {
      "wrapping": 2
    }
  },
  "isvisible": true,
  "kuid": "f37e2fb9437642f3acaa4d6a65e7e421",
  "name": "kony.ui.Label",
  "paddinginpixel": false,
  "parent": "flxTotalAmount",
  "pf": "frmConfirm",
  "texti18n": "i18n.billPay.TotalAmountPaid",
  "tooltip": "",
  "wType": "Label",
  "zindex": 1
}