{
  "@class": "com.kony.gen.viz.model.component.KVizButton",
  "DNDConfig": null,
  "__parentReadjusting__": false,
  "_height_": {
    "type": "string",
    "value": "50dp"
  },
  "_margin_": [
    6,
    6,
    6,
    6
  ],
  "_padding_": [
    0,
    0,
    0,
    0
  ],
  "_right_": {
    "type": "string",
    "value": "28dp"
  },
  "_skin_": "s32f67802321463884107a44440d62c8",
  "_text_": "Continue",
  "_width_": {
    "type": "string",
    "value": "257dp"
  },
  "canUpdateUI": true,
  "centery": {
    "type": "string",
    "value": "50%"
  },
  "containerweight": 100,
  "contentalignment": 5,
  "desktopweb": {},
  "disabledSkins": {
    "blockedUISkin": "s1400c825f384a46b15a0f8d6829ecef",
    "focusSkin": "sf44d06ca8224832827ea7fdff757013"
  },
  "displaytext": true,
  "focusskin": null,
  "id": "btnContinue",
  "info": null,
  "isvisible": true,
  "kuid": "ad36eca82653436eaca7fbb708ba39c6",
  "name": "kony.ui.Button",
  "parent": "flxEligibleCardsButtons",
  "pf": "userwidgetmodel",
  "texti18n": "i18n.common.continue",
  "tooltip": "Proceed",
  "wType": "Button",
  "zindex": 1
}