{
  "@class": "com.kony.gen.viz.model.component.KVizButton",
  "DNDConfig": null,
  "__markedForDelete__": true,
  "__parentReadjusting__": false,
  "_height_": {
    "type": "string",
    "value": "50dp"
  },
  "_left_": {
    "type": "string",
    "value": "50.65%"
  },
  "_margin_": [
    6,
    6,
    6,
    6
  ],
  "_padding_": [
    0,
    0,
    0,
    0
  ],
  "_skin_": "s5dbba5b9dac4f33998dc76f09b4e9d4",
  "_text_": "BACK TO ACCOUNT DETAIL",
  "_top_": {
    "type": "string",
    "value": "590dp"
  },
  "_width_": {
    "type": "string",
    "value": "20.86%"
  },
  "canUpdateUI": true,
  "containerweight": 100,
  "contentalignment": 5,
  "disabledSkins": {
    "focusSkin": "sf44d06ca8224832827ea7fdff757013"
  },
  "displaytext": true,
  "id": "btnBackToAccountDeatil",
  "info": null,
  "isvisible": true,
  "kuid": "a4ae3f19c01c4d9296247bb5a005d761",
  "name": "kony.ui.Button",
  "parent": "flxAcknowledgement",
  "pf": "frmPayDueAmount",
  "wType": "Button",
  "zindex": 1,
  "texti18n": "i18n.ViewStatements.BackToAccountDetails",
  "tooltip": "Back To Account Deatil"
}