{
  "@class": "com.kony.gen.viz.model.component.KVizButton",
  "DNDConfig": null,
  "__markedForDelete__": true,
  "__parentReadjusting__": false,
  "_height_": {
    "type": "string",
    "value": "60dp"
  },
  "_left_": {
    "type": "string",
    "value": "20dp"
  },
  "_margin_": [
    6,
    6,
    6,
    6
  ],
  "_padding_": [
    0,
    0,
    0,
    0
  ],
  "_skin_": "s55b84dca2454feda7c7ebea7678efa9",
  "_text_": "VIEW STATEMENT",
  "_top_": {
    "type": "string",
    "value": "0dp"
  },
  "_width_": {
    "type": "string",
    "value": "90%"
  },
  "canUpdateUI": true,
  "containerweight": 100,
  "contentalignment": 4,
  "disabledSkins": {
    "focusSkin": "sf44d06ca8224832827ea7fdff757013"
  },
  "displaytext": true,
  "id": "btnViewStatement",
  "info": null,
  "isvisible": false,
  "kuid": "fee842f96fd3459282f00d222f8dff36",
  "name": "kony.ui.Button",
  "parent": "flxPrimaryActions",
  "pf": "frmPayDueAmount",
  "tooltip": "View Statements",
  "wType": "Button",
  "zindex": 1,
  "texti18n": "i18n.ViewStatements.STATEMENTS"
}