{
  "@class": "com.kony.gen.viz.model.component.KVizUserWidget",
  "DNDConfig": null,
  "__parentReadjusting__": false,
  "_children_": [],
  "_height_": {
    "type": "string",
    "value": "268px"
  },
  "_left_": "0dp",
  "_margin_": [
    0,
    0,
    0,
    0
  ],
  "_orientation_": 1,
  "_padding_": [
    0,
    0,
    0,
    0
  ],
  "_percent_": true,
  "_render_": true,
  "_skin_": "s4b3bfcb27c14526bcdce6dec3972d8d",
  "_top_": {
    "type": "string",
    "value": "361dp"
  },
  "_width_": {
    "type": "string",
    "value": "43.27%"
  },
  "areflexpropsreferenced": false,
  "autogrowmode": 0,
  "canUpdateUI": true,
  "centerx": {
    "type": "string",
    "value": "50%"
  },
  "clipbounds": false,
  "containerweight": 0,
  "dataDiffs": {
    "CustomPopup": {
      "__events__": {},
      "__info__": {
        "isRoot": true,
        "kuid": "b90df42bdf3d4096807273299f3cd33a",
        "srcKUID": "eb2d311dcb4744a7b05aa4f5428a6c53",
        "wType": "FlexContainer"
      },
      "centerX": {
        "Default": {
          "type": "string",
          "value": "50%"
        }
      },
      "top": {
        "Default": {
          "type": "string",
          "value": "361dp"
        }
      },
      "width": {
        "Default": {
          "type": "string",
          "value": "43.27%"
        }
      }
    },
    "btnNo": {
      "__events__": {},
      "__info__": {
        "kuid": "b552d596784c4728bf22c889c3a4a743",
        "srcKUID": "h61577b4448c4e22a2636221e8fe0d6d",
        "wType": "Button"
      }
    },
    "btnYes": {
      "__events__": {},
      "__info__": {
        "kuid": "ad92a87ec168450aa2308fb9325861b5",
        "srcKUID": "e1c11d09edb846848d4aaf921cb1e5a0",
        "wType": "Button"
      }
    },
    "flxCross": {
      "__events__": {
        "ide_onClick": "AS_FlexContainer_f1159265018c413fb008a253c33c686f"
      },
      "__info__": {
        "kuid": "b5d34cf94cc4477cb3bdcc488364912b",
        "srcKUID": "e896a8d6e1244397be41e1011101c6ec",
        "wType": "FlexContainer"
      }
    },
    "flxHeader": {
      "__events__": {},
      "__info__": {
        "kuid": "b33b395db9914842b4c13d7e0a41137d",
        "srcKUID": "b6d465d7232a428eba11c466c6843856",
        "wType": "FlexContainer"
      }
    },
    "flxSeperator": {
      "__events__": {},
      "__info__": {
        "kuid": "b7a91ba4fead443ca53b2aead6a578e2",
        "srcKUID": "b469cc45156e429d8fa47b9786168d10",
        "wType": "FlexContainer"
      }
    },
    "flxSeperator2": {
      "__events__": {},
      "__info__": {
        "kuid": "a4c7e602bb4f4aa2821177066d2f5ee7",
        "srcKUID": "e909e4e4b4a145b1aa92b22ece7050d3",
        "wType": "FlexContainer"
      }
    },
    "imgCross": {
      "__events__": {},
      "__info__": {
        "kuid": "d136682043d848568c46dfc15570fc39",
        "srcKUID": "ja13bba308404016b1cd223dbcdf01ae",
        "wType": "Image"
      }
    },
    "lblHeading": {
      "__events__": {},
      "__info__": {
        "kuid": "d72e1410b73f4b75bbb40beb5cfdf8b0",
        "srcKUID": "f97c1408984847af9f3cd9984a260c74",
        "wType": "Label"
      },
      "text": "QUIT PAYMENT",
      "i18n_text": "i18n.PayDueAmount.QUITPAYMENT"
    },
    "lblPopupMessage": {
      "__events__": {},
      "__info__": {
        "kuid": "e64c10f1e6b74b8aaca3e36ab272b584",
        "srcKUID": "f7c7509dccf24b88aeb13dc3d34fcc6b",
        "wType": "Label"
      },
      "i18n_text": "i18n.Transfers.Areyousureyouwanttocancelthistransaction"
    }
  },
  "desktopweb": {
    "render": true
  },
  "id": "CustomPopup1",
  "info": null,
  "isdatareferenced": false,
  "isvisible": true,
  "kiosk": {
    "render": true
  },
  "kuid": "b90df42bdf3d4096807273299f3cd33a",
  "layouttype": 2,
  "masterType": 0,
  "name": "kony.ui.UserWidgetInstance",
  "parent": "flxQuitPayment",
  "pf": "frmPayDueAmount",
  "snaptogrid": true,
  "sourceUserWidget": "eb2d311dcb4744a7b05aa4f5428a6c53",
  "wType": "UserWidgetInstance"
}