{
  "@class": "com.kony.gen.viz.model.component.KVizLabel",
  "DNDConfig": null,
  "__parentReadjusting__": false,
  "_height_": {
    "type": "ref",
    "value": "preferred"
  },
  "_left_": {
    "type": "string",
    "value": "6.07%"
  },
  "_margin_": [
    1,
    1,
    1,
    1
  ],
  "_padding_": [
    0,
    0,
    0,
    0
  ],
  "_skin_": "sce0b35518854e75a37c9b4748984986",
  "_text_": "Loan Due Payment",
  "_top_": {
    "type": "string",
    "value": "25dp"
  },
  "_width_": {
    "type": "ref",
    "value": "preferred"
  },
  "_wrapping_": 2,
  "android": {
    "textStyle": {
      "letterSpacing": 0,
      "strikeThrough": false
    }
  },
  "canUpdateUI": true,
  "containerweight": 100,
  "contentalignment": 4,
  "id": "lblAcknowledgementTitle",
  "info": null,
  "ipad": {
    "psp": {
      "wrapping": 2
    }
  },
  "iphone": {
    "psp": {
      "wrapping": 2
    }
  },
  "isvisible": true,
  "kuid": "abc708fab2ae44989070588667335e1d",
  "name": "kony.ui.Label",
  "parent": "flxAcknowledgement",
  "pf": "frmPayDueAmount",
  "tooltip": "",
  "wType": "Label",
  "zindex": 1
}