{
  "@class": "com.kony.gen.viz.model.component.KVizRichText",
  "DNDConfig": null,
  "__parentReadjusting__": false,
  "_height_": {
    "type": "ref",
    "value": "preferred"
  },
  "_left_": {
    "type": "string",
    "value": "20dp"
  },
  "_margin_": [
    0,
    0,
    0,
    0
  ],
  "_padding_": [
    0,
    0,
    0,
    0
  ],
  "_skin_": "sf9eda51ff18423180d6643f182ca4b3",
  "_text_": "There is some error in the server.\u003c/br\u003e\nWe could not complete your request of adding the account.",
  "_width_": {
    "type": "string",
    "value": "85%"
  },
  "_wrapping_": 2,
  "canUpdateUI": true,
  "centery": {
    "type": "string",
    "value": "50%"
  },
  "containerweight": 100,
  "contentalignment": 4,
  "id": "rtxDowntimeWarning",
  "info": null,
  "isvisible": true,
  "kuid": "e7c983de33074936a50fed46f785296e",
  "name": "kony.ui.RichText",
  "parent": "flxDownTimeWarning",
  "pf": "frmPayDueAmount",
  "texti18n": "i18n.Transfers.ThereisomeerrorintheserverWecouldnotcompleteyourrequestofaddingtheaccount",
  "wType": "RichText",
  "widgetalignment": 5,
  "zindex": 1
}