{
  "@class": "com.kony.gen.viz.model.component.KVizButton",
  "DNDConfig": null,
  "__parentReadjusting__": false,
  "_height_": {
    "type": "string",
    "value": "50dp"
  },
  "_margin_": [
    6,
    6,
    6,
    6
  ],
  "_padding_": [
    0,
    0,
    0,
    0
  ],
  "_right_": {
    "type": "number",
    "value": "20"
  },
  "_skin_": "sfbbba35ede4457b94eb681b72349b98",
  "_text_": "Button",
  "_width_": {
    "type": "string",
    "value": "257dp"
  },
  "canUpdateUI": true,
  "centery": {
    "type": "string",
    "value": "50%"
  },
  "containerweight": 100,
  "contentalignment": 5,
  "disabledSkins": {
    "focusSkin": "sf44d06ca8224832827ea7fdff757013"
  },
  "displaytext": true,
  "focusskin": null,
  "id": "btnEnableAlerts",
  "info": null,
  "isvisible": false,
  "kuid": "be73c12e81b848f89e1e2e0162d0819f",
  "name": "kony.ui.Button",
  "parent": "flxButtons",
  "pf": "userwidgetmodel",
  "texti18n": "i18n.Alerts.ENABLEALERTS",
  "wType": "Button",
  "zindex": 1
}