{
  "@class": "com.kony.gen.viz.model.component.KVizButton",
  "DNDConfig": null,
  "__parentReadjusting__": false,
  "_height_": {
    "type": "ref",
    "value": "preferred"
  },
  "_margin_": [
    6,
    6,
    6,
    6
  ],
  "_padding_": [
    0,
    0,
    0,
    0
  ],
  "_right_": {
    "type": "string",
    "value": "20px"
  },
  "_skin_": "s41199c8c0df41048cbf47d26a9026d5",
  "_text_": "NAME CHANGE REQUEST",
  "_top_": {
    "type": "string",
    "value": "0dp"
  },
  "_width_": {
    "type": "ref",
    "value": "preferred"
  },
  "canUpdateUI": true,
  "centery": {
    "type": "string",
    "value": "50%"
  },
  "containerweight": 100,
  "contentalignment": 5,
  "disabledSkins": {
    "focusSkin": "sf44d06ca8224832827ea7fdff757013"
  },
  "displaytext": true,
  "focusskin": null,
  "id": "btnModifyAlerts",
  "info": null,
  "isvisible": true,
  "kuid": "c37ecdd47fea41f2b3b501670b26a871",
  "name": "kony.ui.Button",
  "parent": "flxAlertsHeader",
  "pf": "userwidgetmodel",
  "texti18n": "i18n.transfers.Modify",
  "tooltip": "Modify",
  "wType": "Button",
  "zindex": 1
}