{
  "DNDConfig": null,
  "__parentReadjusting__": false,
  "_bottom_": {
    "type": "number",
    "value": "0"
  },
  "_left_": {
    "type": "string",
    "value": "0dp"
  },
  "_margin_": [
    0,
    0,
    0,
    0
  ],
  "_orientation_": 6,
  "_padding_": [
    0,
    0,
    0,
    0
  ],
  "_percent_": true,
  "_skin_": "s24c92fc23b14f5484b693ee9b8a9b35",
  "_top_": {
    "type": "string",
    "value": "50dp"
  },
  "_width_": {
    "type": "string",
    "value": "100%"
  },
  "allboxes": [],
  "autogrowmode": 0,
  "canUpdateUI": true,
  "children": [],
  "clipbounds": true,
  "containerweight": 100,
  "enablescrolling": true,
  "id": "flxClickBlocker",
  "info": null,
  "isvisible": false,
  "kuid": "bba5676c5d134f8587e6db53085da2ba",
  "layouttype": 2,
  "name": "kony.ui.FlexContainer",
  "parent": "alerts",
  "pf": "userwidgetmodel",
  "snapgridsize": 10,
  "snaptogrid": true,
  "wType": "FlexContainer",
  "widgetalignment": 1,
  "zindex": 3
}