{
  "@class": "com.kony.gen.viz.model.container.KVizSegment2",
  "DNDConfig": null,
  "__parentReadjusting__": false,
  "_data_": [
    {},
    {},
    {}
  ],
  "_height_": {
    "type": "ref",
    "value": "preferred"
  },
  "_indicator_": "none",
  "_left_": {
    "type": "string",
    "value": "0dp"
  },
  "_margin_": [
    0,
    0,
    0,
    0
  ],
  "_orientation_": 2,
  "_padding_": [
    0,
    0,
    0,
    0
  ],
  "_top_": {
    "type": "string",
    "value": "1dp"
  },
  "_width_": {
    "type": "string",
    "value": "100%"
  },
  "autogrowmode": 1,
  "canUpdateUI": true,
  "containerweight": 100,
  "counter": "02",
  "desktop": {
    "_data_": [
      {
        "lblAlertsStatusCheckBox": {
          "@class": "com.viz.ide.model.segment.SimpleTextSegmentData",
          "text": "C"
        },
        "lblChannel1": {
          "@class": "com.viz.ide.model.segment.SimpleTextSegmentData",
          "i18nkey": "i18n.ProfileManagement.Phone",
          "text": "Enabled"
        },
        "lblChannel2": {
          "@class": "com.viz.ide.model.segment.SimpleTextSegmentData",
          "i18nkey": "i18n.Alerts.Email",
          "text": "Enabled"
        },
        "lblChannel3": {
          "@class": "com.viz.ide.model.segment.SimpleTextSegmentData",
          "i18nkey": "i18n.Alerts.Notifications",
          "text": "Enabled"
        },
        "lblCheckBoxChannel1": {
          "@class": "com.viz.ide.model.segment.SimpleTextSegmentData",
          "text": "C"
        },
        "lblCheckBoxChannel2": {
          "@class": "com.viz.ide.model.segment.SimpleTextSegmentData",
          "text": "C"
        },
        "lblCheckBoxChannel3": {
          "@class": "com.viz.ide.model.segment.SimpleTextSegmentData",
          "text": "C"
        },
        "lblCurrencySymbol": {
          "@class": "com.viz.ide.model.segment.SimpleTextSegmentData",
          "text": "$"
        },
        "lblEnableAlerts": {
          "@class": "com.viz.ide.model.segment.SimpleTextSegmentData",
          "i18nkey": "i18n.Alerts.EnableAlerts",
          "text": "Enable Alerts:"
        },
        "lblSelectMethods": {
          "@class": "com.viz.ide.model.segment.SimpleTextSegmentData",
          "i18nkey": "i18n.Alerts.SelectedMethodForThisAlert",
          "text": "Select Methods:"
        },
        "lblSeperator": {
          "@class": "com.viz.ide.model.segment.SimpleTextSegmentData",
          "text": "\u0027"
        },
        "tbxAmount": {
          "@class": "com.viz.ide.model.segment.ComplexTextSegmentData",
          "text": "1000.00"
        }
      },
      {
        "lblAlertsStatusCheckBox": {
          "@class": "com.viz.ide.model.segment.SimpleTextSegmentData",
          "text": "C"
        },
        "lblChannel1": {
          "@class": "com.viz.ide.model.segment.SimpleTextSegmentData",
          "i18nkey": "i18n.ProfileManagement.Phone",
          "text": "Enabled"
        },
        "lblChannel2": {
          "@class": "com.viz.ide.model.segment.SimpleTextSegmentData",
          "i18nkey": "i18n.Alerts.Email",
          "text": "Enabled"
        },
        "lblChannel3": {
          "@class": "com.viz.ide.model.segment.SimpleTextSegmentData",
          "i18nkey": "i18n.Alerts.Notifications",
          "text": "Enabled"
        },
        "lblCheckBoxChannel1": {
          "@class": "com.viz.ide.model.segment.SimpleTextSegmentData",
          "text": "C"
        },
        "lblCheckBoxChannel2": {
          "@class": "com.viz.ide.model.segment.SimpleTextSegmentData",
          "text": "C"
        },
        "lblCheckBoxChannel3": {
          "@class": "com.viz.ide.model.segment.SimpleTextSegmentData",
          "text": "C"
        },
        "lblCurrencySymbol": {
          "@class": "com.viz.ide.model.segment.SimpleTextSegmentData",
          "text": "$"
        },
        "lblEnableAlerts": {
          "@class": "com.viz.ide.model.segment.SimpleTextSegmentData",
          "i18nkey": "i18n.Alerts.EnableAlerts",
          "text": "Enable Alerts:"
        },
        "lblSelectMethods": {
          "@class": "com.viz.ide.model.segment.SimpleTextSegmentData",
          "i18nkey": "i18n.Alerts.SelectedMethodForThisAlert",
          "text": "Select Methods:"
        },
        "lblSeperator": {
          "@class": "com.viz.ide.model.segment.SimpleTextSegmentData",
          "text": "\u0027"
        },
        "tbxAmount": {
          "@class": "com.viz.ide.model.segment.ComplexTextSegmentData",
          "text": "1000.00"
        }
      },
      {
        "lblAlertsStatusCheckBox": {
          "@class": "com.viz.ide.model.segment.SimpleTextSegmentData",
          "text": "C"
        },
        "lblChannel1": {
          "@class": "com.viz.ide.model.segment.SimpleTextSegmentData",
          "i18nkey": "i18n.ProfileManagement.Phone",
          "text": "Enabled"
        },
        "lblChannel2": {
          "@class": "com.viz.ide.model.segment.SimpleTextSegmentData",
          "i18nkey": "i18n.Alerts.Email",
          "text": "Enabled"
        },
        "lblChannel3": {
          "@class": "com.viz.ide.model.segment.SimpleTextSegmentData",
          "i18nkey": "i18n.Alerts.Notifications",
          "text": "Enabled"
        },
        "lblCheckBoxChannel1": {
          "@class": "com.viz.ide.model.segment.SimpleTextSegmentData",
          "text": "C"
        },
        "lblCheckBoxChannel2": {
          "@class": "com.viz.ide.model.segment.SimpleTextSegmentData",
          "text": "C"
        },
        "lblCheckBoxChannel3": {
          "@class": "com.viz.ide.model.segment.SimpleTextSegmentData",
          "text": "C"
        },
        "lblCurrencySymbol": {
          "@class": "com.viz.ide.model.segment.SimpleTextSegmentData",
          "text": "$"
        },
        "lblEnableAlerts": {
          "@class": "com.viz.ide.model.segment.SimpleTextSegmentData",
          "i18nkey": "i18n.Alerts.EnableAlerts",
          "text": "Enable Alerts:"
        },
        "lblSelectMethods": {
          "@class": "com.viz.ide.model.segment.SimpleTextSegmentData",
          "i18nkey": "i18n.Alerts.SelectedMethodForThisAlert",
          "text": "Select Methods:"
        },
        "lblSeperator": {
          "@class": "com.viz.ide.model.segment.SimpleTextSegmentData",
          "text": "\u0027"
        },
        "tbxAmount": {
          "@class": "com.viz.ide.model.segment.ComplexTextSegmentData",
          "text": "1000.00"
        }
      }
    ],
    "rowTemplateId": "eb674782726c4fea8f158138f4905c59",
    "rowtemplate": "flxAlerts",
    "widgetdatamap": {
      "flxAlerts": "flxAlerts",
      "flxAlertsCheckBoxChannels": "flxAlertsCheckBoxChannels",
      "flxAlertsStatusCheckbox": "flxAlertsStatusCheckbox",
      "flxChannel1": "flxChannel1",
      "flxChannel2": "flxChannel2",
      "flxChannel3": "flxChannel3",
      "flxRow1": "flxRow1",
      "flxRow2": "flxRow2",
      "flxSeperator": "flxSeperator",
      "flxTextbox": "flxTextbox",
      "lblAlertsStatusCheckBox": "lblAlertsStatusCheckBox",
      "lblChannel1": "lblChannel1",
      "lblChannel2": "lblChannel2",
      "lblChannel3": "lblChannel3",
      "lblCheckBoxChannel1": "lblCheckBoxChannel1",
      "lblCheckBoxChannel2": "lblCheckBoxChannel2",
      "lblCheckBoxChannel3": "lblCheckBoxChannel3",
      "lblCurrencySymbol": "lblCurrencySymbol",
      "lblEnableAlerts": "lblEnableAlerts",
      "lblSelectMethods": "lblSelectMethods",
      "lblSeperator": "lblSeperator",
      "tbxAmount": "tbxAmount"
    }
  },
  "focusedindex": null,
  "focuseditem": null,
  "groupcells": false,
  "hasSections": false,
  "id": "segAlerts",
  "info": null,
  "ipad": {
    "psp": {
      "indicator": "rowselect"
    }
  },
  "iphone": {
    "psp": {
      "indicator": "rowselect"
    }
  },
  "isvisible": true,
  "kuid": "jd1922433850450eaa4fa0208792c700",
  "masterdata": {},
  "mobile": {
    "rowTemplateId": null,
    "rowtemplate": null,
    "sectionHeaderTemplateId": null
  },
  "name": "kony.ui.SegmentedUI2",
  "needpageindicator": true,
  "pageoffdotimage": "pageoffdot.png",
  "pageondotimage": "pageondot.png",
  "paginationconfig": {
    "position": "bottom"
  },
  "parent": "flxAlertsSegment",
  "pf": "userwidgetmodel",
  "retainselection": false,
  "rowcounter": 2,
  "rowfocusskin": "s9f69e977910472eb44c62ae28c41fe1",
  "rowskin": "scf5f90f6ac04976ab88b2a4f7153285",
  "rowtemplate": "flxAlerts",
  "screenlevelwidget": false,
  "seccounter": 0,
  "sectionheaderskin": "sdc4ff4ed1584272be2ae69045dfb29d",
  "selectedRows": null,
  "selectedState": false,
  "selectedindex": null,
  "selectedindices": null,
  "selecteditems": null,
  "selectedsectionindex": 0,
  "selectionbehavior": "default",
  "separatorcolor": "64646400",
  "separatorrequired": false,
  "separatorthickness": 0,
  "showscrollbars": false,
  "viewtype": "tableview",
  "wType": "Segment",
  "widgetalignment": 5,
  "widgetdatamap": {
    "flxAlerts": "flxAlerts",
    "flxAlertsCheckBoxChannels": "flxAlertsCheckBoxChannels",
    "flxAlertsStatusCheckbox": "flxAlertsStatusCheckbox",
    "flxChannel1": "flxChannel1",
    "flxChannel2": "flxChannel2",
    "flxChannel3": "flxChannel3",
    "flxRow1": "flxRow1",
    "flxRow2": "flxRow2",
    "flxSeperator": "flxSeperator",
    "flxTextbox": "flxTextbox",
    "lblAlertsStatusCheckBox": "lblAlertsStatusCheckBox",
    "lblChannel1": "lblChannel1",
    "lblChannel2": "lblChannel2",
    "lblChannel3": "lblChannel3",
    "lblCheckBoxChannel1": "lblCheckBoxChannel1",
    "lblCheckBoxChannel2": "lblCheckBoxChannel2",
    "lblCheckBoxChannel3": "lblCheckBoxChannel3",
    "lblCurrencySymbol": "lblCurrencySymbol",
    "lblEnableAlerts": "lblEnableAlerts",
    "lblSelectMethods": "lblSelectMethods",
    "lblSeperator": "lblSeperator",
    "tbxAmount": "tbxAmount"
  },
  "zindex": 1
}