{
  "DNDConfig": null,
  "__parentReadjusting__": false,
  "_bottom_": {
    "type": "string",
    "value": "2dp"
  },
  "_height_": {
    "type": "string",
    "value": "5dp"
  },
  "_left_": {
    "type": "string",
    "value": "1dp"
  },
  "_margin_": [
    0,
    0,
    0,
    0
  ],
  "_orientation_": 6,
  "_padding_": [
    0,
    0,
    0,
    0
  ],
  "_percent_": true,
  "_skin_": "sd0f006baa8642f1a253ed4fcdc621ae",
  "_width_": {
    "type": "string",
    "value": "60%"
  },
  "allboxes": [],
  "autogrowmode": 0,
  "canUpdateUI": true,
  "children": [],
  "clipbounds": true,
  "containerweight": 100,
  "enablescrolling": true,
  "id": "flxColorLine",
  "info": null,
  "isvisible": true,
  "kuid": "d954d40485b84d79a0c4dfcd928a7afd",
  "layouttype": 2,
  "name": "kony.ui.FlexContainer",
  "parent": "flxHeaderFinancialInfo",
  "pf": "userwidgetmodel",
  "snapgridsize": 10,
  "snaptogrid": true,
  "wType": "FlexContainer",
  "widgetalignment": 1,
  "zindex": 5
}