{
  "DNDConfig": null,
  "__parentReadjusting__": false,
  "_bottom_": {
    "type": "string",
    "value": "1dp"
  },
  "_height_": {
    "type": "ref",
    "value": "preferred"
  },
  "_left_": {
    "type": "string",
    "value": "0dp"
  },
  "_margin_": [
    0,
    0,
    0,
    0
  ],
  "_orientation_": 6,
  "_padding_": [
    0,
    0,
    0,
    0
  ],
  "_percent_": true,
  "_skin_": "scbd4cac3526468089bf3013adff0549",
  "_top_": {
    "type": "string",
    "value": "10dp"
  },
  "_width_": {
    "type": "string",
    "value": "100%"
  },
  "allboxes": [],
  "autogrowmode": 1,
  "canUpdateUI": true,
  "children": [
    "flxRow1",
    "flxRow2",
    "flxRow3",
    "flxRow4",
    "flxRow5"
  ],
  "clipbounds": true,
  "containerweight": 100,
  "enablescrolling": true,
  "id": "flxPersonalInfo",
  "info": null,
  "isvisible": true,
  "kuid": "j47bc48e1c4d43d3aa14fd236f0a8424",
  "layouttype": 4,
  "name": "kony.ui.FlexContainer",
  "parent": "UserInformationForm",
  "pf": "userwidgetmodel",
  "snapgridsize": 10,
  "snaptogrid": true,
  "wType": "FlexContainer",
  "widgetalignment": 1,
  "zindex": 5
}