{
  "DNDConfig": null,
  "__parentReadjusting__": false,
  "_height_": {
    "type": "string",
    "value": "21dp"
  },
  "_left_": {
    "type": "string",
    "value": "6.5%"
  },
  "_margin_": [
    0,
    0,
    0,
    0
  ],
  "_orientation_": 6,
  "_padding_": [
    0,
    0,
    0,
    0
  ],
  "_percent_": true,
  "_skin_": "s24c92fc23b14f5484b693ee9b8a9b35",
  "_top_": {
    "type": "string",
    "value": "0dp"
  },
  "_width_": {
    "type": "string",
    "value": "21dp"
  },
  "allboxes": [],
  "autogrowmode": 0,
  "canUpdateUI": true,
  "centery": {
    "type": "string",
    "value": "50%"
  },
  "children": [
    "lblFemale"
  ],
  "clipbounds": true,
  "containerweight": 100,
  "desktopweb": {
    "psp": {
      "hoverSkin": "s3e0ac30f9774278a868cb7c73908a76"
    }
  },
  "enablescrolling": true,
  "id": "flxRadioBtnFemale",
  "info": null,
  "isvisible": true,
  "kuid": "efa694c9488e4ac2ab387549e54952f8",
  "layouttype": 2,
  "name": "kony.ui.FlexContainer",
  "parent": "flxGenderRadioBtns",
  "pf": "userwidgetmodel",
  "snapgridsize": 10,
  "snaptogrid": true,
  "wType": "FlexContainer",
  "widgetalignment": 1,
  "zindex": 1
}