{
  "@class": "com.kony.gen.viz.model.component.KVizButton",
  "DNDConfig": null,
  "__parentReadjusting__": false,
  "_height_": {
    "type": "string",
    "value": "50dp"
  },
  "_margin_": [
    6,
    6,
    6,
    6
  ],
  "_padding_": [
    0,
    0,
    0,
    0
  ],
  "_right_": {
    "type": "string",
    "value": "308dp"
  },
  "_skin_": "s83729feaa224e359d660d5af05c4bac",
  "_text_": "NO THANKS",
  "_top_": {
    "type": "string",
    "value": "30dp"
  },
  "_width_": {
    "type": "string",
    "value": "258dp"
  },
  "canUpdateUI": true,
  "centery": {
    "type": "string",
    "value": "50%"
  },
  "containerweight": 100,
  "contentalignment": 5,
  "desktopweb": {
    "psp": {
      "hoverSkin": "s81054b5e2b74f17a5261991df565427"
    }
  },
  "disabledSkins": {
    "focusSkin": "s07baf83ddf44201beb2d97fe8f96867"
  },
  "displaytext": true,
  "id": "btnCancel",
  "info": null,
  "isvisible": false,
  "kuid": "e355f5b95d28415ea056f01ca9d6f39f",
  "name": "kony.ui.Button",
  "parent": "flxButtons",
  "pf": "userwidgetmodel",
  "wType": "Button",
  "zindex": 2,
  "texti18n": "i18n.BillPay.NOTHANKS",
  "tooltip": "No Thanks"
}