{
  "DNDConfig": null,
  "__markedForDelete__": true,
  "__parentReadjusting__": false,
  "_height_": {
    "type": "string",
    "value": "26px"
  },
  "_left_": {
    "type": "string",
    "value": "2.50%"
  },
  "_margin_": [
    0,
    0,
    0,
    0
  ],
  "_orientation_": 6,
  "_padding_": [
    0,
    0,
    0,
    0
  ],
  "_percent_": true,
  "_skin_": "sd8d02531529489a8d85487257bc0ccb",
  "_top_": {
    "type": "string",
    "value": "3dp"
  },
  "_width_": {
    "type": "string",
    "value": "100%"
  },
  "allboxes": [],
  "autogrowmode": 0,
  "canUpdateUI": true,
  "children": [
    "flxbullet2",
    "lblIns2"
  ],
  "clipbounds": true,
  "containerweight": 100,
  "enablescrolling": true,
  "id": "flxtwo",
  "info": null,
  "isvisible": true,
  "kuid": "3f87036962b44e0f87fa3a9e76ebd1d4",
  "layouttype": 3,
  "name": "kony.ui.FlexContainer",
  "parent": "flxActivateMain",
  "pf": "userwidgetmodel",
  "snapgridsize": 10,
  "snaptogrid": true,
  "wType": "FlexContainer",
  "widgetalignment": 1,
  "zindex": 1
}