{
  "@class": "com.kony.gen.viz.model.component.KVizImage2",
  "DNDConfig": null,
  "__parentReadjusting__": false,
  "_base64_": null,
  "_height_": {
    "type": "string",
    "value": "20dp"
  },
  "_margin_": [
    0,
    0,
    0,
    0
  ],
  "_padding_": [
    0,
    0,
    0,
    0
  ],
  "_right_": {
    "type": "string",
    "value": "19%"
  },
  "_skin_": "s78a5f26c9f14cec9ebed1bb46098f80",
  "_src_": "arrow_left_grey.png",
  "_top_": {
    "type": "string",
    "value": "0dp"
  },
  "_width_": {
    "type": "string",
    "value": "20dp"
  },
  "canUpdateUI": true,
  "centery": {
    "type": "string",
    "value": "50%"
  },
  "containerId": true,
  "containerweight": 100,
  "context": {
    "channel": "desktop",
    "platform": "desktopweb",
    "templateType": "segments",
    "topLevelBox": null
  },
  "id": "imgChevron",
  "imagescalemode": 1,
  "info": null,
  "invokedProperty": "src",
  "isvisible": true,
  "kuid": "ceca5848da2b44c1bb82f02977607ac9",
  "name": "kony.ui.Image2",
  "parent": "flxArrow",
  "pf": "segAccountAlertsList",
  "srcType": 1,
  "wType": "Image",
  "widgetalignment": 5,
  "zindex": 1
}