{
  "@class": "com.kony.gen.viz.model.component.KVizLabel",
  "DNDConfig": null,
  "__parentReadjusting__": false,
  "_height_": {
    "type": "ref",
    "value": "preferred"
  },
  "_left_": {
    "type": "string",
    "value": "0dp"
  },
  "_margin_": [
    1,
    1,
    1,
    1
  ],
  "_padding_": [
    1,
    1,
    1,
    1
  ],
  "_skin_": "se9dd890b24543cc95c85a784f89ad6a",
  "_text_": "",
  "_width_": {
    "type": "ref",
    "value": "preferred"
  },
  "_wrapping_": 2,
  "android": {
    "textStyle": {
      "letterSpacing": 0,
      "strikeThrough": false
    }
  },
  "canUpdateUI": true,
  "centery": {
    "type": "string",
    "value": "90%"
  },
  "containerId": true,
  "containerweight": 100,
  "contentalignment": 1,
  "id": "lblProductType",
  "info": null,
  "ipad": {
    "psp": {
      "wrapping": 2
    }
  },
  "iphone": {
    "psp": {
      "wrapping": 2
    }
  },
  "isvisible": false,
  "kuid": "d7bad3c8919e4c51a6ec59c74fd074a5",
  "name": "kony.ui.Label",
  "paddinginpixel": false,
  "parent": "flxAccountAlertsList",
  "pf": "segAccountAlertsList",
  "tooltip": "Label",
  "wType": "Label",
  "zindex": 1
}