{
  "@class": "com.kony.gen.viz.model.component.KVizImage2",
  "DNDConfig": null,
  "__parentReadjusting__": false,
  "_base64_": null,
  "_height_": {
    "type": "string",
    "value": "15px"
  },
  "_left_": {
    "type": "string",
    "value": "46.15%"
  },
  "_margin_": [
    0,
    0,
    0,
    0
  ],
  "_padding_": [
    0,
    0,
    0,
    0
  ],
  "_skin_": "s78a5f26c9f14cec9ebed1bb46098f80",
  "_src_": "arrow_down.png",
  "_width_": {
    "type": "string",
    "value": "15px"
  },
  "canUpdateUI": true,
  "centery": {
    "type": "string",
    "value": "50%"
  },
  "containerId": true,
  "containerweight": 100,
  "context": {
    "channel": "desktop",
    "platform": "desktopweb",
    "templateType": "segments",
    "topLevelBox": null
  },
  "id": "imgDropdown",
  "imagescalemode": 1,
  "imagewhiledownloading": "img_transparent.png",
  "info": null,
  "invokedProperty": "src",
  "isvisible": true,
  "kuid": "cd7f5b2875ef418b8c0009cb28c60ca6",
  "name": "kony.ui.Image2",
  "parent": "flxDropdown",
  "pf": "segMyRequests",
  "srcType": 1,
  "tooltip": "View Request Details",
  "wType": "Image",
  "widgetalignment": 5,
  "zindex": 1
}