{
  "DNDConfig": null,
  "__parentReadjusting__": false,
  "_height_": {
    "type": "ref",
    "value": "preferred"
  },
  "_left_": {
    "type": "string",
    "value": "6.07%"
  },
  "_margin_": [
    0,
    0,
    0,
    0
  ],
  "_orientation_": 6,
  "_padding_": [
    0,
    0,
    0,
    0
  ],
  "_percent_": true,
  "_skin_": "s6d8c75751884844a837655162215f93",
  "_top_": {
    "type": "string",
    "value": "40dp"
  },
  "_width_": {
    "type": "string",
    "value": "87.84%"
  },
  "allboxes": [],
  "autogrowmode": 1,
  "canUpdateUI": true,
  "children": [
    "flxPostedTransactionsHeader",
    "flxPostedTransactionsLabels",
    "flxSeparator1",
    "segPostedTransactions"
  ],
  "clipbounds": true,
  "containerweight": 100,
  "enablescrolling": true,
  "id": "flxPostedTransactions",
  "info": null,
  "isvisible": true,
  "kuid": "aee88162e0f1480c8d729c1c19465a76",
  "layouttype": 2,
  "name": "kony.ui.FlexContainer",
  "parent": "flxprintTransactions",
  "pf": "frmPrintTransaction",
  "snapgridsize": 10,
  "snaptogrid": true,
  "wType": "FlexContainer",
  "widgetalignment": 1,
  "zindex": 3
}