{
  "DNDConfig": null,
  "__parentReadjusting__": false,
  "_height_": {
    "type": "string",
    "value": "1dp"
  },
  "_left_": {
    "type": "string",
    "value": "0dp"
  },
  "_margin_": [
    0,
    0,
    0,
    0
  ],
  "_orientation_": 6,
  "_padding_": [
    0,
    0,
    0,
    0
  ],
  "_percent_": true,
  "_skin_": "sd8c129bd6814cb6a7c3e69543d96f7b",
  "_top_": {
    "type": "string",
    "value": "100dp"
  },
  "_width_": {
    "type": "string",
    "value": "100%"
  },
  "allboxes": [],
  "autogrowmode": 0,
  "canUpdateUI": true,
  "children": [],
  "clipbounds": true,
  "containerweight": 100,
  "enablescrolling": true,
  "id": "flxSeparator",
  "info": null,
  "isvisible": true,
  "kuid": "f608a3b19ab24d49958c29a00086b40e",
  "layouttype": 2,
  "name": "kony.ui.FlexContainer",
  "parent": "flxPendingTransactions",
  "pf": "frmPrintTransaction",
  "snapgridsize": 10,
  "snaptogrid": true,
  "wType": "FlexContainer",
  "widgetalignment": 1,
  "zindex": 1
}