{
  "@class": "com.kony.gen.viz.model.component.KVizLabel",
  "DNDConfig": null,
  "__parentReadjusting__": false,
  "_height_": {
    "type": "ref",
    "value": "preferred"
  },
  "_left_": {
    "type": "string",
    "value": "2.08%"
  },
  "_margin_": [
    1,
    1,
    1,
    1
  ],
  "_padding_": [
    0,
    0,
    0,
    0
  ],
  "_skin_": "s575c3b3144e40cf911f587474d3ad72",
  "_text_": "ACCOUNT SUMMARY",
  "_top_": {
    "type": "string",
    "value": "16dp"
  },
  "_width_": {
    "type": "ref",
    "value": "preferred"
  },
  "_wrapping_": 2,
  "android": {
    "textStyle": {
      "letterSpacing": 0,
      "strikeThrough": false
    }
  },
  "canUpdateUI": true,
  "containerweight": 100,
  "contentalignment": 4,
  "id": "lblAccSummaryHeading",
  "info": null,
  "ipad": {
    "psp": {
      "wrapping": 2
    }
  },
  "iphone": {
    "psp": {
      "wrapping": 2
    }
  },
  "isvisible": true,
  "kuid": "g8fa8ad591f6492d8845d7ce7faf7f99",
  "name": "kony.ui.Label",
  "parent": "flxCheckingSummaryHeader",
  "pf": "frmPrintTransaction",
  "tooltip": "",
  "wType": "Label",
  "zindex": 1
}