{
  "@class": "com.kony.gen.viz.model.component.KVizLabel",
  "DNDConfig": null,
  "__parentReadjusting__": false,
  "_height_": {
    "type": "ref",
    "value": "preferred"
  },
  "_left_": {
    "type": "string",
    "value": "6.07%"
  },
  "_margin_": [
    1,
    1,
    1,
    1
  ],
  "_padding_": [
    0,
    0,
    0,
    0
  ],
  "_skin_": "s0e983b43ea94df8b39a1463880dde83",
  "_text_": "Transactions From: 04/30/2017 to 05/05/2017 ",
  "_top_": {
    "type": "string",
    "value": "30dp"
  },
  "_width_": {
    "type": "ref",
    "value": "preferred"
  },
  "_wrapping_": 2,
  "android": {
    "textStyle": {
      "letterSpacing": 0,
      "strikeThrough": false
    }
  },
  "canUpdateUI": true,
  "containerweight": 100,
  "contentalignment": 4,
  "id": "lblTransactionsFrom",
  "info": null,
  "ipad": {
    "psp": {
      "wrapping": 2
    }
  },
  "iphone": {
    "psp": {
      "wrapping": 2
    }
  },
  "isvisible": true,
  "kuid": "a6a914aaeb254b4389a5971e25667242",
  "name": "kony.ui.Label",
  "parent": "flxprintTransactions",
  "pf": "frmPrintTransaction",
  "tooltip": "",
  "vizProps": {
    "lock": true
  },
  "wType": "Label",
  "zindex": 3
}