{
  "@class": "com.kony.gen.viz.model.component.KVizLabel",
  "DNDConfig": null,
  "__parentReadjusting__": false,
  "_height_": {
    "type": "ref",
    "value": "preferred"
  },
  "_left_": {
    "type": "string",
    "value": "0%"
  },
  "_margin_": [
    1,
    1,
    1,
    1
  ],
  "_padding_": [
    0,
    0,
    0,
    0
  ],
  "_skin_": "s0b8bea96c184671903f774bee173997",
  "_text_": "",
  "_top_": {
    "type": "string",
    "value": "28dp"
  },
  "_width_": {
    "type": "ref",
    "value": "preferred"
  },
  "_wrapping_": 2,
  "android": {
    "textStyle": {
      "letterSpacing": 0,
      "strikeThrough": false
    }
  },
  "canUpdateUI": true,
  "containerweight": 100,
  "contentalignment": 4,
  "id": "lblUploadSignatureMailDocsto",
  "info": null,
  "ipad": {
    "psp": {
      "wrapping": 2
    }
  },
  "iphone": {
    "psp": {
      "wrapping": 2
    }
  },
  "isvisible": true,
  "kuid": "d0a2618c300746f9aa81dfbe937da293",
  "name": "kony.ui.Label",
  "parent": "flxUploadSignatureMailAddress",
  "pf": "userwidgetmodel",
  "texti18n": "i18n.NUO.MailTheSignedDocsTo",
  "tooltip": "",
  "wType": "Label",
  "zindex": 1
}