{
  "@class": "com.kony.gen.viz.model.component.KVizButton",
  "DNDConfig": null,
  "__parentReadjusting__": false,
  "_height_": {
    "type": "ref",
    "value": "preferred"
  },
  "_margin_": [
    6,
    6,
    6,
    6
  ],
  "_padding_": [
    0,
    0,
    0,
    0
  ],
  "_right_": {
    "type": "string",
    "value": "18.13%"
  },
  "_skin_": "s41199c8c0df41048cbf47d26a9026d5",
  "_text_": "VIEW ACTIVITY",
  "_top_": {
    "type": "string",
    "value": "16px"
  },
  "_width_": {
    "type": "ref",
    "value": "preferred"
  },
  "canUpdateUI": true,
  "containerId": true,
  "containerweight": 100,
  "contentalignment": 5,
  "disabledSkins": {
    "focusSkin": "sf44d06ca8224832827ea7fdff757013"
  },
  "displaytext": true,
  "id": "btnViewActivity",
  "info": null,
  "isvisible": true,
  "kuid": "a9b52ae78782439ea4efceffe0469b6e",
  "name": "kony.ui.Button",
  "parent": "flxColumn4",
  "pf": "segReceivedSelected",
  "wType": "Button",
  "zindex": 1,
  "desktopweb": {
    "psp": {
      "hoverSkin": "sd36babbd8f6461f8b492698ab830d13"
    }
  }
}