{
  "@class": "com.kony.gen.viz.model.component.KVizLabel",
  "DNDConfig": null,
  "__parentReadjusting__": false,
  "_height_": {
    "type": "ref",
    "value": "preferred"
  },
  "_margin_": [
    1,
    1,
    1,
    1
  ],
  "_padding_": [
    0,
    0,
    0,
    0
  ],
  "_skin_": "s10e6b5606484810b9a16cdc1f4f0e7d",
  "_text_": "",
  "_top_": {
    "type": "string",
    "value": "10.81%"
  },
  "_width_": {
    "type": "ref",
    "value": "preferred"
  },
  "_wrapping_": 2,
  "android": {
    "textStyle": {
      "letterSpacing": 0,
      "strikeThrough": false
    }
  },
  "canUpdateUI": true,
  "centerx": {
    "type": "string",
    "value": "50%"
  },
  "containerweight": 100,
  "contentalignment": 4,
  "id": "lblOrCall",
  "info": null,
  "ipad": {
    "psp": {
      "wrapping": 2
    }
  },
  "iphone": {
    "psp": {
      "wrapping": 2
    }
  },
  "isvisible": true,
  "kuid": "f3feb07a7b7348e481b8b0f5c6a71176",
  "name": "kony.ui.Label",
  "parent": "blockedP",
  "pf": "userwidgetmodel",
  "texti18n": "i18n.common.CallSupportTeam",
  "tooltip": "",
  "wType": "Label",
  "zindex": 1
}