{
    "AS_UWI_c0da385fd78c439694a2effed5b0eda4": {
        "id": "AS_UWI_c0da385fd78c439694a2effed5b0eda4",
        "type": "ACTION_SEQUENCE",
        "name": "AS_UWI_d383fef07fdd4941983fc5f63c95b458",
        "params": [{
            "datatype": "collection",
            "name": "eventobject"
        }, {
            "datatype": "string",
            "name": "x"
        }, {
            "datatype": "string",
            "name": "y"
        }],
        "contextObj": {
            "type": "forms",
            "platform": "",
            "KUID": "e059936099a34afc8e9ebbf56ecdea5f",
            "name": "frmLoginTab"
        },
        "language": "js",
        "actions": [{
            "id": "ADD_SNIPPET__ib5c75aa0be9465c8a65c93a1fef032c",
            "type": "ADD_SNIPPET",
            "codeSnippet": "this.goToResetUsingOTP();",
            "parentId": null,
            "callbackType": null
        }]
    }
}