{
  "@class": "com.kony.gen.viz.model.component.KVizLabel",
  "DNDConfig": null,
  "__parentReadjusting__": false,
  "_bottom_": {
    "type": "string",
    "value": "2%"
  },
  "_height_": {
    "type": "string",
    "value": "1px"
  },
  "_margin_": [
    1,
    1,
    1,
    1
  ],
  "_padding_": [
    0,
    0,
    0,
    0
  ],
  "_skin_": "s0163b2b61c84c77a499a8f2f7f2e9be",
  "_text_": "",
  "_width_": {
    "type": "string",
    "value": "100%"
  },
  "_wrapping_": 2,
  "android": {
    "textStyle": {
      "letterSpacing": 0,
      "strikeThrough": false
    }
  },
  "canUpdateUI": true,
  "centerx": {
    "type": "string",
    "value": "50%"
  },
  "containerId": true,
  "containerweight": 100,
  "contentalignment": 4,
  "id": "CopylblSeparator0dc0066e561ec4f",
  "info": null,
  "ipad": {
    "psp": {
      "wrapping": 2
    }
  },
  "iphone": {
    "psp": {
      "wrapping": 2
    }
  },
  "isvisible": false,
  "kuid": "ef94406040724de0b8cbed3838229f55",
  "name": "kony.ui.Label",
  "parent": "flxRecentTransfers",
  "pf": "segScheduledTransfers",
  "tooltip": "",
  "wType": "Label",
  "zindex": 1
}