{
  "DNDConfig": null,
  "__parentReadjusting__": false,
  "_height_": {
    "type": "string",
    "value": "50px"
  },
  "_left_": {
    "type": "string",
    "value": "0dp"
  },
  "_margin_": [
    0,
    0,
    0,
    0
  ],
  "_orientation_": 6,
  "_padding_": [
    0,
    0,
    0,
    0
  ],
  "_percent_": true,
  "_skin_": "se2c51e2a5574dcc8bc00a48bc7649ca",
  "_top_": {
    "type": "string",
    "value": "0dp"
  },
  "_width_": {
    "type": "string",
    "value": "100%"
  },
  "allboxes": [],
  "autogrowmode": 0,
  "canUpdateUI": true,
  "children": [
    "flxRecentTransfers",
    "lblSeparator"
  ],
  "clipbounds": true,
  "containerId": true,
  "containerweight": 100,
  "controllerInfo": {
    "default": {
      "channel": "desktop",
      "name": "flxScheduledTransfersController"
    }
  },
  "enablescrolling": true,
  "id": "flxScheduledTransfers",
  "info": null,
  "isTemplate": true,
  "isvisible": true,
  "kuid": "jd720324a2cc4adf8aa5f0ab42fb0aae",
  "layouttype": 2,
  "name": "kony.ui.FlexContainer",
  "parent": "segScheduledTransfers",
  "pf": "segScheduledTransfers",
  "snapgridsize": 10,
  "snaptogrid": true,
  "wType": "FlexContainer",
  "widgetalignment": 1,
  "zindex": 2
}