{
  "DNDConfig": null,
  "__parentReadjusting__": false,
  "_height_": {
    "type": "string",
    "value": "60dp"
  },
  "_left_": {
    "type": "string",
    "value": "0dp"
  },
  "_margin_": [
    0,
    0,
    0,
    0
  ],
  "_orientation_": 6,
  "_padding_": [
    0,
    0,
    0,
    0
  ],
  "_percent_": true,
  "_skin_": "s344174b66d24a22be7a954acfcdefc5",
  "_top_": {
    "type": "string",
    "value": "1dp"
  },
  "_width_": {
    "type": "string",
    "value": "100%"
  },
  "allboxes": [],
  "autogrowmode": 0,
  "canUpdateUI": true,
  "children": [
    "lblEmailUsAt"
  ],
  "clipbounds": true,
  "containerweight": 100,
  "desktopweb": {
    "psp": {
      "hoverSkin": "s6c4cbf31f7c4fc08f7236fc38f01a0e"
    }
  },
  "enablescrolling": true,
  "id": "flxEmailUsAt",
  "info": null,
  "isvisible": true,
  "kuid": "cd0e17c597e44c4f808645711b0b3083",
  "layouttype": 2,
  "name": "kony.ui.FlexContainer",
  "parent": "flxRightBarContactDetails",
  "pf": "frmNewOpeningAccount",
  "snapgridsize": 10,
  "snaptogrid": true,
  "wType": "FlexContainer",
  "widgetalignment": 1,
  "zindex": 1
}