{
  "@class": "com.kony.gen.viz.model.component.KVizUserWidget",
  "DNDConfig": null,
  "__parentReadjusting__": false,
  "_children_": [],
  "_height_": {
    "type": "ref",
    "value": "preferred"
  },
  "_left_": {
    "type": "string",
    "value": "0dp"
  },
  "_margin_": [
    0,
    0,
    0,
    0
  ],
  "_orientation_": 1,
  "_padding_": [
    0,
    0,
    0,
    0
  ],
  "_percent_": true,
  "_render_": true,
  "_skin_": "sf94624be61d43e299a4790d019276ba",
  "_top_": {
    "type": "string",
    "value": "0dp"
  },
  "_width_": {
    "type": "string",
    "value": "100%"
  },
  "areflexpropsreferenced": false,
  "autogrowmode": 1,
  "canUpdateUI": true,
  "clipbounds": true,
  "containerweight": 0,
  "dataDiffs": {
    "FundAccount": {
      "__events__": {},
      "__info__": {
        "isRoot": true,
        "kuid": "a002978cb2ed4914b35f39890b8b56de",
        "srcKUID": "f5c2b651f46b4f7e8ce2b2184a1d93a5",
        "wType": "FlexContainer"
      }
    },
    "btnFundAccountGoToAccounts": {
      "__events__": {},
      "__info__": {
        "kuid": "cf6b2eca8c5b46868a160a22fff6d1aa",
        "srcKUID": "d8b4e7dbfd584224aab2975ffaa35c6e",
        "wType": "Button"
      }
    },
    "btnFundAccountProceed": {
      "__events__": {},
      "__info__": {
        "kuid": "g3be474859b94dedb239c0fbf2828c59",
        "srcKUID": "ga98882f2bcc443e8f0a2431a2397b35",
        "wType": "Button"
      }
    },
    "btnFundAccountSeperator2": {
      "__events__": {},
      "__info__": {
        "kuid": "d0f42b418aed432e9351843c424cca01",
        "srcKUID": "c2ee454a21ce4a1f9a685824c9eeca11",
        "wType": "FlexContainer"
      }
    },
    "flxDirectDepositImage": {
      "__events__": {},
      "__info__": {
        "kuid": "bc20b2d903f04c4cacd6dda5af4b697b",
        "srcKUID": "f35740248f6d499a9430297dc9fb5462",
        "wType": "FlexContainer"
      }
    },
    "flxFundAccountButtons": {
      "__events__": {},
      "__info__": {
        "kuid": "df0194fe687b4d4e82056e991778b428",
        "srcKUID": "c5de14a0f47345c288cf1003d73e6e2b",
        "wType": "FlexContainer"
      }
    },
    "flxFundAccountDirectDeposit": {
      "__events__": {},
      "__info__": {
        "kuid": "b8807aa902ab44ae9ec5039405837cbc",
        "srcKUID": "eb5415c8b1404b6daa56f4f016b63fc3",
        "wType": "FlexContainer"
      }
    },
    "flxFundAccountRadioBtn2": {
      "__events__": {},
      "__info__": {
        "kuid": "a358bf8117234d498fde37380c52c1ff",
        "srcKUID": "f8fc57e1c8f14fa19c1fb7d0a1b8d914",
        "wType": "FlexContainer"
      }
    },
    "flxFundAccountRadioBtn3": {
      "__events__": {},
      "__info__": {
        "kuid": "deff0be9242f40ab84aee28a85367a0a",
        "srcKUID": "f8cb168166424b038a634ea3454b0f32",
        "wType": "FlexContainer"
      }
    },
    "flxFundAccountRadiobtn1": {
      "__events__": {},
      "__info__": {
        "kuid": "h690b33d6eed4ef18d070aeb588e7fc4",
        "srcKUID": "dd017091b660410bb695b261c56191c4",
        "wType": "FlexContainer"
      }
    },
    "flxFundAccountScan": {
      "__events__": {},
      "__info__": {
        "kuid": "eedd7b1905ce47c98945b653d2e34403",
        "srcKUID": "d86cc420a17b46ada568895170518f60",
        "wType": "FlexContainer"
      }
    },
    "flxFundAccountScanDeposit": {
      "__events__": {},
      "__info__": {
        "kuid": "f462809399a74d5195b18d5105184865",
        "srcKUID": "c835df44c433485798c25a9cee66ae7d",
        "wType": "FlexContainer"
      }
    },
    "flxFundAccountsMessageBox": {
      "__events__": {},
      "__info__": {
        "kuid": "e60a3a64ce5f47c0bc0e6258310da9eb",
        "srcKUID": "a3200da84dac451d9707ee20da8cd666",
        "wType": "FlexContainer"
      }
    },
    "flxFundAccountsMessageScan": {
      "__events__": {},
      "__info__": {
        "kuid": "d127939b969c4766b9bff6bb85e38cb4",
        "srcKUID": "d786225a708f45ad8e1921f4b50230c1",
        "wType": "FlexContainer"
      }
    },
    "flxFundAccountsMessageTransfer": {
      "__events__": {},
      "__info__": {
        "kuid": "ce604f0b776740709be79e6c9e8be4cc",
        "srcKUID": "hbd58dbe1f264855954a9f18c6336625",
        "wType": "FlexContainer"
      }
    },
    "flxFundAccountsTransferImage": {
      "__events__": {},
      "__info__": {
        "kuid": "a8c9b271e8454f179677d02444224dda",
        "srcKUID": "cf748e71b1284fd9ae82e266388c0c8b",
        "wType": "FlexContainer"
      }
    },
    "flxHeaderFundAccount": {
      "__events__": {},
      "__info__": {
        "kuid": "fed7ec5e19cc4b5092d3b87322459515",
        "srcKUID": "he238664276d4cd183aa2df9718a5ffc",
        "wType": "FlexContainer"
      }
    },
    "flxSeparator": {
      "__events__": {},
      "__info__": {
        "kuid": "a2d6c632e5b1440091d30ff08d6de6e2",
        "srcKUID": "ebd28ab547154709861547334a2a66d9",
        "wType": "FlexContainer"
      }
    },
    "flxTransferfromDiffAccnt": {
      "__events__": {},
      "__info__": {
        "kuid": "ad7dcbff9b28429bb30f6a108513a1de",
        "srcKUID": "eca53f295d8f497aa6c2e47a5530bc26",
        "wType": "FlexContainer"
      }
    },
    "flxlblRadioBtn1DirectDeposit": {
      "__events__": {},
      "__info__": {
        "kuid": "ac1a005753c04572ac47448644f10042",
        "srcKUID": "beb8bcdf101f40378081b76b228f0d5d",
        "wType": "FlexContainer"
      }
    },
    "flxlblRadioBtn2ScanDeposit": {
      "__events__": {},
      "__info__": {
        "kuid": "b7dc4966458241d097d000e1adf54b59",
        "srcKUID": "bcd38bc4ce0c4fe1b16e7619affcd5f1",
        "wType": "FlexContainer"
      }
    },
    "flxlblRadioBtn3TransferFromDiffAccnt": {
      "__events__": {},
      "__info__": {
        "kuid": "bbe1a9178412453582000034bb99cb21",
        "srcKUID": "hecc523fe1f84ff6b7ef0cace5c493df",
        "wType": "FlexContainer"
      }
    },
    "imgFundAccountsTransfer": {
      "__events__": {},
      "__info__": {
        "kuid": "ba5fb8ae78064c8ba0c13293db7b24c2",
        "srcKUID": "ce977efb19e54a818bb744017911cf47",
        "wType": "Image"
      }
    },
    "imgfflxUserInformation": {
      "__events__": {},
      "__info__": {
        "kuid": "fe0c408778fe4886b709b49221578e56",
        "srcKUID": "f17599d6b73540a1aee5ca0781a9f5a5",
        "wType": "Image"
      }
    },
    "imgflxUserInformationPhone": {
      "__events__": {},
      "__info__": {
        "kuid": "d1b9eb6ab6c4409eaa64e4ac72f49ca4",
        "srcKUID": "da5858b6799547ad83be052b9816da5f",
        "wType": "Image"
      }
    },
    "lblFundAccount": {
      "__events__": {},
      "__info__": {
        "kuid": "c7171218c9da42a285ede139774a5f66",
        "srcKUID": "bd79624fa4854b15b0d46ef87888d148",
        "wType": "Label"
      }
    },
    "lblFundAccountMessage1": {
      "__events__": {},
      "__info__": {
        "kuid": "j6c17fc611d44961ab193ca3e825c77a",
        "srcKUID": "f4475adb7275444f96238db084e482e0",
        "wType": "Label"
      }
    },
    "lblFundAccountMessage2": {
      "__events__": {},
      "__info__": {
        "kuid": "ic333e0927854cb48d662a3886060b12",
        "srcKUID": "f30ccaf6eb364c2da828ba7ccd43da09",
        "wType": "Label"
      }
    },
    "lblFundAccountSeperator1": {
      "__events__": {},
      "__info__": {
        "kuid": "dc59ab068bb24a00857c0be6682ca1f0",
        "srcKUID": "deb00befe2be4e478bc51552822ffab0",
        "wType": "Label"
      }
    },
    "lblFundAccountSeperator2": {
      "__events__": {},
      "__info__": {
        "kuid": "d654bd983540412aa2df50c6b72b86f1",
        "srcKUID": "b33b9f96d07646ebac9d84d42e7ddc28",
        "wType": "Label"
      }
    },
    "lblFundAccountSeperator3": {
      "__events__": {},
      "__info__": {
        "kuid": "j9d616fb9fb04aa78a47ec9ad30299db",
        "srcKUID": "gff261e3d1bb4811bb71c940e8145349",
        "wType": "Label"
      }
    },
    "lblFundAccountsMessage": {
      "__events__": {},
      "__info__": {
        "kuid": "g5555a9146cd4be5ac5908e24f267f3c",
        "srcKUID": "ha1b72dffac8465e800cb0d3095e381d",
        "wType": "Label"
      }
    },
    "lblFundAccountsMessageBoxScan": {
      "__events__": {},
      "__info__": {
        "kuid": "g8f3e207fe7647f190df677ef8efdfc4",
        "srcKUID": "cd990275ce464ac1b5e69e5ab6d263bc",
        "wType": "Label"
      }
    },
    "lblFundAccountsMessageTransfer": {
      "__events__": {},
      "__info__": {
        "kuid": "ee6d612890694093ba998dcc226521f1",
        "srcKUID": "h384951ae518463aae1202b385d60ebd",
        "wType": "Label"
      }
    },
    "lblRadioBtn1": {
      "__events__": {},
      "__info__": {
        "kuid": "c3635301b994456182eb60ce2a5818d7",
        "srcKUID": "e7f3bfe807304403ba909458a91df6e2",
        "wType": "Label"
      }
    },
    "lblRadioBtn2": {
      "__events__": {},
      "__info__": {
        "kuid": "c58ba2d36f6f4e2c9167d5753bd39411",
        "srcKUID": "e12df2036e3f43058e44b01881cb2982",
        "wType": "Label"
      }
    },
    "lblRadioBtn3": {
      "__events__": {},
      "__info__": {
        "kuid": "e556821766ea4282a227ddeac9151ae7",
        "srcKUID": "cc5e12c54b1e4d1d80ed98c7530a57a3",
        "wType": "Label"
      }
    }
  },
  "id": "FundAccount",
  "info": null,
  "iscustomlayout": false,
  "isdatareferenced": false,
  "isvisible": true,
  "kuid": "a002978cb2ed4914b35f39890b8b56de",
  "layouttype": 4,
  "masterType": 0,
  "name": "kony.ui.UserWidgetInstance",
  "parent": "flxFundAccounts",
  "pf": "frmNewOpeningAccount",
  "retaincontentalignment": false,
  "retainflexpositionproperties": false,
  "sourceUserWidget": "f5c2b651f46b4f7e8ce2b2184a1d93a5",
  "wType": "UserWidgetInstance"
}