{
  "@class": "com.kony.gen.viz.model.component.KVizUserWidget",
  "DNDConfig": null,
  "__parentReadjusting__": false,
  "_children_": [],
  "_height_": {
    "type": "string",
    "value": "268px"
  },
  "_left_": "0dp",
  "_margin_": [
    0,
    0,
    0,
    0
  ],
  "_orientation_": 1,
  "_padding_": [
    0,
    0,
    0,
    0
  ],
  "_percent_": true,
  "_render_": true,
  "_skin_": "s4b3bfcb27c14526bcdce6dec3972d8d",
  "_top_": {
    "type": "string",
    "value": "300dp"
  },
  "_width_": {
    "type": "string",
    "value": "44.30%"
  },
  "areflexpropsreferenced": false,
  "canUpdateUI": true,
  "centerx": {
    "type": "string",
    "value": "50.00%"
  },
  "centery": {
    "type": "string",
    "value": ""
  },
  "clipbounds": false,
  "containerweight": 0,
  "dataDiffs": {
    "CustomPopup": {
      "__events__": {},
      "__info__": {
        "isRoot": true,
        "kuid": "d5fed32115e04d32868507e8cd2c9f53",
        "srcKUID": "eb2d311dcb4744a7b05aa4f5428a6c53",
        "wType": "FlexContainer"
      },
      "centerX": {
        "Default": {
          "type": "string",
          "value": "50.00%"
        }
      },
      "centerY": {
        "Default": {
          "type": "string",
          "value": ""
        }
      },
      "top": {
        "Default": {
          "type": "string",
          "value": "300dp"
        }
      },
      "width": {
        "Default": {
          "type": "string",
          "value": "44.30%"
        }
      },
      "zIndex": {
        "Default": 1100
      }
    },
    "btnNo": {
      "__events__": {},
      "__info__": {
        "kuid": "c7e95583fa2f4cbda78460a380c6d175",
        "srcKUID": "h61577b4448c4e22a2636221e8fe0d6d",
        "wType": "Button"
      }
    },
    "btnYes": {
      "__events__": {},
      "__info__": {
        "kuid": "e1a1fa7cb3a24d78a841ddeb8d54e828",
        "srcKUID": "e1c11d09edb846848d4aaf921cb1e5a0",
        "wType": "Button"
      }
    },
    "flxCross": {
      "__events__": {},
      "__info__": {
        "kuid": "efb822a2669f4ae3b3a896c2a6ccd26b",
        "srcKUID": "e896a8d6e1244397be41e1011101c6ec",
        "wType": "FlexContainer"
      }
    },
    "flxHeader": {
      "__events__": {},
      "__info__": {
        "kuid": "b0626b63f02a49e5bb06512c726d1752",
        "srcKUID": "b6d465d7232a428eba11c466c6843856",
        "wType": "FlexContainer"
      }
    },
    "flxSeperator": {
      "__events__": {},
      "__info__": {
        "kuid": "c8b3eb003fa64742860edc56d6bdc7e4",
        "srcKUID": "b469cc45156e429d8fa47b9786168d10",
        "wType": "FlexContainer"
      }
    },
    "flxSeperator2": {
      "__events__": {},
      "__info__": {
        "kuid": "b3613021b7f04ebab46ca381258b4f6d",
        "srcKUID": "e909e4e4b4a145b1aa92b22ece7050d3",
        "wType": "FlexContainer"
      }
    },
    "imgCross": {
      "__events__": {},
      "__info__": {
        "kuid": "febfc3f7475c4cce9efd431587504267",
        "srcKUID": "ja13bba308404016b1cd223dbcdf01ae",
        "wType": "Image"
      },
      "height": {
        "Default": {
          "type": "string",
          "value": "15dp"
        }
      }
    },
    "lblHeading": {
      "__events__": {},
      "__info__": {
        "kuid": "id3cae775e5e4933ab6c7b94bc1c1f5e",
        "srcKUID": "f97c1408984847af9f3cd9984a260c74",
        "wType": "Label"
      }
    },
    "lblPopupMessage": {
      "__events__": {},
      "__info__": {
        "kuid": "hd0c95720b114b658598d356a78d5cca",
        "srcKUID": "f7c7509dccf24b88aeb13dc3d34fcc6b",
        "wType": "Label"
      }
    }
  },
  "id": "CustomPopup",
  "info": null,
  "isdatareferenced": false,
  "isvisible": true,
  "kuid": "b3307251936a459b9d46d6c1ead69538",
  "layouttype": 2,
  "masterType": 0,
  "name": "kony.ui.UserWidgetInstance",
  "parent": "flxLogout",
  "pf": "frmMultiFactorAuthentication",
  "snaptogrid": true,
  "sourceUserWidget": "eb2d311dcb4744a7b05aa4f5428a6c53",
  "wType": "UserWidgetInstance",
  "zindex": 1100
}