{
  "@class": "com.kony.gen.viz.model.component.KVizRichText",
  "DNDConfig": null,
  "__parentReadjusting__": false,
  "_height_": {
    "type": "ref",
    "value": "preferred"
  },
  "_left_": {
    "type": "string",
    "value": "12.58%"
  },
  "_margin_": [
    0,
    0,
    0,
    0
  ],
  "_padding_": [
    0,
    0,
    0,
    0
  ],
  "_skin_": "s54053171dc84722aadd410cfc137838",
  "_text_": "\u003cb\u003eNo Records found\u003c/b\u003e so far.\n",
  "_top_": {
    "type": "string",
    "value": "35dp"
  },
  "_width_": {
    "type": "string",
    "value": "100%"
  },
  "_wrapping_": 2,
  "canUpdateUI": true,
  "containerweight": 100,
  "contentalignment": 4,
  "id": "rtxNoRecords",
  "info": null,
  "isvisible": true,
  "kuid": "d66dda4855614dddaa03378356093bed",
  "name": "kony.ui.RichText",
  "parent": "flxNoRecords",
  "pf": "userwidgetmodel",
  "wType": "RichText",
  "widgetalignment": 5,
  "zindex": 1
}