{
  "@class": "com.kony.gen.viz.model.component.KVizButton",
  "DNDConfig": null,
  "__parentReadjusting__": false,
  "_height_": {
    "type": "ref",
    "value": "preferred"
  },
  "_left_": {
    "type": "string",
    "value": "0.50%"
  },
  "_margin_": [
    6,
    6,
    6,
    6
  ],
  "_padding_": [
    0,
    0,
    0,
    0
  ],
  "_skin_": "s7fc7a5968394a5882dc2758c71a59a3",
  "_text_": "",
  "_top_": {
    "type": "string",
    "value": "0dp"
  },
  "_width_": {
    "type": "ref",
    "value": "preferred"
  },
  "canUpdateUI": true,
  "containerweight": 100,
  "contentalignment": 5,
  "desktopweb": {
    "psp": {}
  },
  "disabledSkins": {
    "focusSkin": "sefaec1c283048808788386f6160e4d0",
    "hoverSkin": "s7fc7a5968394a5882dc2758c71a59a3"
  },
  "displaytext": true,
  "focusskin": null,
  "id": "btnTermsAndConditions",
  "info": null,
  "isvisible": true,
  "kuid": "a96f8e3b8b274ed0817e41501a2b730d",
  "name": "kony.ui.Button",
  "parent": "flxIAgree",
  "pf": "userwidgetmodel",
  "texti18n": "i18n.common.TnC",
  "tooltip": "Terms \u0026 Conditions",
  "wType": "Button",
  "zindex": 1
}