{
  "@class": "com.kony.gen.viz.model.component.KVizLabel",
  "DNDConfig": null,
  "__parentReadjusting__": false,
  "_height_": {
    "type": "ref",
    "value": "preferred"
  },
  "_left_": {
    "type": "string",
    "value": "1%"
  },
  "_margin_": [
    1,
    1,
    1,
    1
  ],
  "_padding_": [
    0,
    0,
    0,
    0
  ],
  "_skin_": "s9739fe0569d4851a6e139a20b64dd6e",
  "_text_": "",
  "_top_": {
    "type": "number",
    "value": "0"
  },
  "_width_": {
    "type": "ref",
    "value": "preferred"
  },
  "_wrapping_": 2,
  "android": {
    "textStyle": {
      "letterSpacing": 0,
      "strikeThrough": false
    }
  },
  "canUpdateUI": true,
  "containerweight": 100,
  "contentalignment": 4,
  "id": "lblAgree",
  "info": null,
  "ipad": {
    "psp": {
      "wrapping": 2
    }
  },
  "iphone": {
    "psp": {
      "wrapping": 2
    }
  },
  "isvisible": true,
  "kuid": "c360d1961d7941769933bb6bd49b250d",
  "name": "kony.ui.Label",
  "parent": "flxIAgree",
  "pf": "userwidgetmodel",
  "texti18n": "i18n.WireTransfer.IAgreeAllThe",
  "tooltip": "",
  "wType": "Label",
  "zindex": 2
}