{
  "@class": "com.kony.gen.viz.model.component.KVizImage2",
  "DNDConfig": null,
  "__parentReadjusting__": false,
  "_base64_": null,
  "_height_": {
    "type": "string",
    "value": "39dp"
  },
  "_left_": {
    "type": "string",
    "value": "30px"
  },
  "_margin_": [
    0,
    0,
    0,
    0
  ],
  "_padding_": [
    0,
    0,
    0,
    0
  ],
  "_skin_": "s78a5f26c9f14cec9ebed1bb46098f80",
  "_src_": "send_pin.png",
  "_top_": {
    "type": "string",
    "value": "6.02%"
  },
  "_width_": {
    "type": "string",
    "value": "38dp"
  },
  "canUpdateUI": true,
  "containerweight": 100,
  "context": {
    "channel": "desktop",
    "formID": "uw5ec2738e83c74bd99361a771673e71b8",
    "platform": "desktopweb",
    "templateType": "userwidgets",
    "topLevelBox": null
  },
  "id": "imgCVVOrOTP",
  "imagescalemode": 1,
  "imagewhiledownloading": "img_transparent.png",
  "info": null,
  "isvisible": true,
  "kuid": "f2bcff164bb5429e97cb30d252f46dff",
  "name": "kony.ui.Image2",
  "parent": "flximgrtx",
  "pf": "userwidgetmodel",
  "srcType": 1,
  "wType": "Image",
  "widgetalignment": 5,
  "zindex": 1
}