{
  "@class": "com.kony.gen.viz.model.component.KVizLabel",
  "DNDConfig": null,
  "__parentReadjusting__": false,
  "_height_": {
    "type": "ref",
    "value": "preferred"
  },
  "_margin_": [
    1,
    1,
    1,
    1
  ],
  "_padding_": [
    0,
    0,
    0,
    0
  ],
  "_skin_": "s415be662ebd4bc8b09a3193c2067ba6",
  "_text_": "Label",
  "_top_": {
    "type": "string",
    "value": "11px"
  },
  "_width_": {
    "type": "string",
    "value": "84%"
  },
  "_wrapping_": 2,
  "android": {
    "textStyle": {
      "letterSpacing": 0,
      "strikeThrough": false
    }
  },
  "canUpdateUI": true,
  "centerx": {
    "type": "string",
    "value": "50%"
  },
  "containerweight": 100,
  "contentalignment": 5,
  "id": "lblResendOTPMsg",
  "info": null,
  "ipad": {
    "psp": {
      "wrapping": 2
    }
  },
  "iphone": {
    "psp": {
      "wrapping": 2
    }
  },
  "isvisible": false,
  "kuid": "4a1c77e708ea45efa23a9a2f1accdaf1",
  "name": "kony.ui.Label",
  "parent": "resetusingOTP1",
  "pf": "userwidgetmodel",
  "texti18n": "i18n.common.sendingOTP",
  "tooltip": "",
  "wType": "Label",
  "zindex": 1
}