{
  "DNDConfig": null,
  "__parentReadjusting__": false,
  "_height_": {
    "type": "string",
    "value": "568dp"
  },
  "_left_": "0dp",
  "_margin_": [
    0,
    0,
    0,
    0
  ],
  "_orientation_": 6,
  "_padding_": [
    0,
    0,
    0,
    0
  ],
  "_percent_": true,
  "_skin_": "s4f295c6755849a8ada803af434f162b",
  "_top_": "0dp",
  "_width_": {
    "type": "string",
    "value": "100%"
  },
  "allboxes": [],
  "autogrowmode": 0,
  "canUpdateUI": true,
  "children": [
    "flxImageUser",
    "lblResetPasswordMsg",
    "lblResendOTPMsg",
    "lblWrongOTP",
    "flximgrtx",
    "flxCVV",
    "btnNext",
    "btnResendOTP",
    "orline",
    "btnUseCVV"
  ],
  "clipbounds": false,
  "containerweight": 100,
  "enablescrolling": true,
  "id": "resetusingOTP1",
  "info": null,
  "isvisible": true,
  "kuid": "44d79311b67e45aa9c07c102e9811f55",
  "layouttype": 4,
  "name": "kony.ui.FlexContainer",
  "parent": "userwidgetmodel",
  "pf": "userwidgetmodel",
  "snapgridsize": 10,
  "snaptogrid": true,
  "vizProps": {
    "hidewidgethierarchy": false
  },
  "wType": "FlexContainer",
  "widgetalignment": 1
}