{
  "@class": "com.kony.gen.viz.model.component.KVizLabel",
  "DNDConfig": null,
  "__parentReadjusting__": false,
  "_height_": {
    "type": "ref",
    "value": "preferred"
  },
  "_left_": {
    "type": "string",
    "value": "10px"
  },
  "_margin_": [
    1,
    1,
    1,
    1
  ],
  "_padding_": [
    0,
    0,
    3,
    0
  ],
  "_skin_": "saba7a95163a455f8f2f131435e16122",
  "_text_": "$",
  "_width_": {
    "type": "ref",
    "value": "preferred"
  },
  "_wrapping_": 2,
  "android": {
    "textStyle": {
      "letterSpacing": 0,
      "strikeThrough": false
    }
  },
  "canUpdateUI": true,
  "centery": {
    "type": "string",
    "value": "50%"
  },
  "containerweight": 100,
  "contentalignment": 5,
  "id": "CopylblBillValue0ba5a858ec5504bmod",
  "info": null,
  "ipad": {
    "psp": {
      "wrapping": 2
    }
  },
  "iphone": {
    "psp": {
      "wrapping": 2
    }
  },
  "isvisible": true,
  "kuid": "d9451a94758d49c49dfaf67a2acf3f83",
  "name": "kony.ui.Label",
  "paddinginpixel": false,
  "parent": "flxEnterAmountmod",
  "pf": "userwidgetmodel",
  "tooltip": "",
  "wType": "Label",
  "zindex": 5
}