{
  "@class": "com.kony.gen.viz.model.component.KVizLabel",
  "DNDConfig": null,
  "__parentReadjusting__": false,
  "_height_": {
    "type": "ref",
    "value": "preferred"
  },
  "_left_": {
    "type": "string",
    "value": "33dp"
  },
  "_margin_": [
    1,
    1,
    1,
    1
  ],
  "_padding_": [
    0,
    0,
    0,
    0
  ],
  "_skin_": "s7b901f0589e4cbd914447ed46411bf5",
  "_text_": "Label",
  "_top_": {
    "type": "string",
    "value": "2dp"
  },
  "_width_": {
    "type": "ref",
    "value": "preferred"
  },
  "_wrapping_": 2,
  "android": {
    "textStyle": {
      "letterSpacing": 0,
      "strikeThrough": false
    }
  },
  "canUpdateUI": true,
  "containerweight": 100,
  "contentalignment": 4,
  "id": "lblSendOn",
  "info": null,
  "ipad": {
    "psp": {
      "wrapping": 2
    }
  },
  "iphone": {
    "psp": {
      "wrapping": 2
    }
  },
  "isvisible": true,
  "kuid": "c7f44c449a9d4afab5a37d2c948c3640",
  "name": "kony.ui.Label",
  "parent": "flxContainer3",
  "pf": "userwidgetmodel",
  "texti18n": "i18n.transfers.send_on",
  "tooltip": "",
  "wType": "Label",
  "zindex": 1,
  "iscustomlayout": false,
  "retaincontentalignment": false,
  "retainflexpositionproperties": false
}