{
  "@class": "com.kony.gen.viz.model.component.KVizListBox",
  "DNDConfig": null,
  "__parentReadjusting__": false,
  "_height_": {
    "type": "string",
    "value": "40dp"
  },
  "_left_": {
    "type": "string",
    "value": "30dp"
  },
  "_margin_": [
    0,
    0,
    0,
    0
  ],
  "_padding_": [
    2,
    0,
    0,
    0
  ],
  "_skin_": "sd53756c2b454873b2c89cc68c2f8d51",
  "_top_": {
    "type": "string",
    "value": "30dp"
  },
  "_width_": {
    "type": "string",
    "value": "359dp"
  },
  "canUpdateUI": true,
  "containerweight": 100,
  "contentalignment": 4,
  "context": {
    "channel": "desktop",
    "formID": "uwudd9d31efcba4acdbb3a846d25a17888",
    "templateType": "userwidgets",
    "topLevelBox": null
  },
  "groupcells": false,
  "id": "lbxFrequency",
  "info": null,
  "isvisible": true,
  "kuid": "c81723034d774080941a64ac49dbabc7",
  "masterdata": [],
  "name": "kony.ui.ListBox",
  "paddinginpixel": false,
  "parent": "flxContainer2",
  "pf": "userwidgetmodel",
  "selectedkeys": null,
  "selectedkeyvalue": null,
  "selectedkeyvalues": null,
  "size": 18,
  "viewconfig": {
    "toggleViewConfig": {
      "viewStyle": 0
    }
  },
  "viewtype": 0,
  "wType": "ListBox",
  "zindex": 1
}