{
  "@class": "com.kony.gen.viz.model.component.KVizTextBox2",
  "DNDConfig": null,
  "__parentReadjusting__": false,
  "_height_": {
    "type": "string",
    "value": "40dp"
  },
  "_left_": {
    "type": "string",
    "value": "33dp"
  },
  "_margin_": [
    0,
    0,
    0,
    0
  ],
  "_padding_": [
    2,
    0,
    0,
    0
  ],
  "_placeholder_": "",
  "_skin_": "s9425d47f432490cbabd204dfe1c1e97",
  "_text_": "",
  "_top_": {
    "type": "string",
    "value": "30dp"
  },
  "_width_": {
    "type": "string",
    "value": "92.50%"
  },
  "autocapitalize": "none",
  "autocomplete": false,
  "autocorrect": false,
  "autofilter": false,
  "canUpdateUI": true,
  "containerheight": "",
  "containerheightmode": 1,
  "containerweight": 100,
  "contentalignment": 4,
  "id": "txtNotes",
  "info": null,
  "isvisible": true,
  "keyboardtype": "A",
  "kuid": "e47f4eae3fb54f278b262646b78f4ae2",
  "mode": "A",
  "name": "kony.ui.TextBox2",
  "parent": "flxContainer5",
  "pf": "userwidgetmodel",
  "placeholderi18n": "i18n.common.optional",
  "securetextentry": false,
  "textinputmode": "A",
  "viewtype": "default",
  "wType": "TextField",
  "zindex": 1,
  "texti18n": "i18n.transfers.optional"
}