{
  "@class": "com.kony.gen.viz.model.component.KVizButton",
  "DNDConfig": null,
  "__parentReadjusting__": false,
  "_height_": {
    "type": "ref",
    "value": "preferred"
  },
  "_margin_": [
    6,
    6,
    6,
    6
  ],
  "_padding_": [
    0,
    0,
    0,
    0
  ],
  "_right_": {
    "type": "string",
    "value": "3.50%"
  },
  "_skin_": "s41199c8c0df41048cbf47d26a9026d5",
  "_text_": "",
  "_top_": {
    "type": "string",
    "value": "21dp"
  },
  "_width_": {
    "type": "ref",
    "value": "preferred"
  },
  "canUpdateUI": true,
  "containerweight": 100,
  "contentalignment": 5,
  "desktopweb": {
    "psp": {
      "hoverSkin": "s0d853c8b5284c03a08be1232819c24b"
    }
  },
  "displaytext": true,
  "focusskin": "s264339940904f6b9d3e47b6fdc9e327",
  "id": "btnEdit",
  "info": null,
  "isvisible": true,
  "kuid": "a99ff27b65974a948d2c9a8d87f955ce",
  "name": "kony.ui.Button",
  "parent": "flxRow1",
  "pf": "userwidgetmodel",
  "texti18n": "i18n.billPay.Edit",
  "tooltip": "Enroll",
  "wType": "Button",
  "zindex": 1
}