{
  "DNDConfig": null,
  "__parentReadjusting__": false,
  "_height_": {
    "type": "ref",
    "value": "preferred"
  },
  "_left_": {
    "type": "string",
    "value": "0dp"
  },
  "_margin_": [
    0,
    0,
    0,
    0
  ],
  "_orientation_": 6,
  "_padding_": [
    0,
    0,
    0,
    0
  ],
  "_percent_": true,
  "_skin_": "s24c92fc23b14f5484b693ee9b8a9b35",
  "_top_": {
    "type": "string",
    "value": "1dp"
  },
  "_width_": {
    "type": "string",
    "value": "100%"
  },
  "allboxes": [],
  "autogrowmode": 1,
  "canUpdateUI": true,
  "children": [
    "lblStatusKey",
    "lblStatusValue",
    "lblCompanyKey",
    "lblCompanyValue",
    "lblExperienceKey",
    "lblExperienceValue",
    "lblAddressKey",
    "lblPhoneNoKey",
    "lblJobTtitleKey",
    "lblJobTitleValue",
    "lblPhoneNoValue",
    "rtxAddressEmp"
  ],
  "clipbounds": true,
  "containerweight": 100,
  "enablescrolling": true,
  "id": "CopyflxAcknowledgementMain0b36d7451b6084c",
  "info": null,
  "isvisible": true,
  "kuid": "c70e23bb08af4fbb89216c334ebd7ed9",
  "layouttype": 2,
  "name": "kony.ui.FlexContainer",
  "parent": "flxReviewApplicationMain",
  "pf": "userwidgetmodel",
  "snapgridsize": 10,
  "snaptogrid": true,
  "wType": "FlexContainer",
  "widgetalignment": 1,
  "zindex": 1
}