{
  "DNDConfig": null,
  "__parentReadjusting__": false,
  "_height_": {
    "type": "ref",
    "value": "preferred"
  },
  "_left_": {
    "type": "string",
    "value": "0dp"
  },
  "_margin_": [
    0,
    0,
    0,
    0
  ],
  "_orientation_": 6,
  "_padding_": [
    0,
    0,
    0,
    0
  ],
  "_percent_": true,
  "_skin_": "s24c92fc23b14f5484b693ee9b8a9b35",
  "_top_": {
    "type": "string",
    "value": "1dp"
  },
  "_width_": {
    "type": "string",
    "value": "100%"
  },
  "allboxes": [],
  "autogrowmode": 1,
  "canUpdateUI": true,
  "children": [
    "lblAnnualGrossIncomeKey",
    "lblAnnualGrossIncomeValue",
    "lblMonthlyExpenditureKey",
    "lblMonthlyExpenditureValue",
    "lblAssetsValueKey",
    "lblAssetsValueValue"
  ],
  "clipbounds": true,
  "containerweight": 100,
  "enablescrolling": true,
  "id": "CopyflxAcknowledgementMain0f7aa5bfc09784f",
  "info": null,
  "isvisible": true,
  "kuid": "aff886c47e6d45899844b04948c1f821",
  "layouttype": 2,
  "name": "kony.ui.FlexContainer",
  "parent": "flxReviewApplicationMain",
  "pf": "userwidgetmodel",
  "snapgridsize": 10,
  "snaptogrid": true,
  "wType": "FlexContainer",
  "widgetalignment": 1,
  "zindex": 1
}