{
  "DNDConfig": null,
  "__parentReadjusting__": false,
  "_height_": {
    "type": "string",
    "value": "26dp"
  },
  "_left_": {
    "type": "string",
    "value": "2.80%"
  },
  "_margin_": [
    0,
    0,
    0,
    0
  ],
  "_orientation_": 6,
  "_padding_": [
    0,
    0,
    0,
    0
  ],
  "_percent_": true,
  "_skin_": "s24c92fc23b14f5484b693ee9b8a9b35",
  "_top_": {
    "type": "string",
    "value": "0dp"
  },
  "_width_": {
    "type": "string",
    "value": "26dp"
  },
  "allboxes": [],
  "autogrowmode": 0,
  "canUpdateUI": true,
  "children": [
    "imgRating2"
  ],
  "clipbounds": true,
  "containerId": true,
  "containerweight": 100,
  "desktopweb": {
    "psp": {
      "hoverSkin": "sd403771f17f42cbb7aea6cb69a914cc"
    }
  },
  "enablescrolling": true,
  "id": "flxRating2",
  "ide_onClick": "AS_FlexContainer_a49cf300cc3f4d0cb4fad85cb727ecc9",
  "info": null,
  "isvisible": true,
  "kuid": "d33c13fea5b9481c8434a5cb83d4751e",
  "layouttype": 3,
  "name": "kony.ui.FlexContainer",
  "parent": "flxRatingimg",
  "pf": "segSurveyQuestion1",
  "snapgridsize": 10,
  "snaptogrid": true,
  "wType": "FlexContainer",
  "widgetalignment": 1,
  "zindex": 5
}