{
  "DNDConfig": null,
  "__parentReadjusting__": false,
  "_height_": {
    "type": "string",
    "value": "15dp"
  },
  "_margin_": [
    0,
    0,
    0,
    0
  ],
  "_orientation_": 6,
  "_padding_": [
    0,
    0,
    0,
    0
  ],
  "_percent_": true,
  "_right_": {
    "type": "string",
    "value": "4.08%"
  },
  "_skin_": "scbd4cac3526468089bf3013adff0549",
  "_width_": {
    "type": "string",
    "value": "15dp"
  },
  "allboxes": [],
  "autogrowmode": 0,
  "canUpdateUI": true,
  "centery": {
    "type": "string",
    "value": "50%"
  },
  "children": [
    "imgClose"
  ],
  "clipbounds": true,
  "containerweight": 100,
  "enablescrolling": true,
  "id": "flxClose",
  "ide_onClick": "AS_FlexContainer_cff920382e1e477ab3b92c9f4b59d7fc",
  "info": null,
  "isvisible": true,
  "kuid": "cb698b93ff664288904da151379419e6",
  "layouttype": 2,
  "name": "kony.ui.FlexContainer",
  "parent": "flxTermsAndConditionsHeader",
  "pf": "frmProfileManagement",
  "snapgridsize": 10,
  "snaptogrid": true,
  "wType": "FlexContainer",
  "widgetalignment": 1,
  "zindex": 1,
  "desktopweb": {
    "psp": {
      "hoverSkin": "s3e0ac30f9774278a868cb7c73908a76"
    }
  }
}