{
  "@class": "com.kony.gen.viz.model.container.KVizScrollFlexForm",
  "DNDConfig": null,
  "_margin_": [
    0,
    0,
    0,
    0
  ],
  "_orientation_": 1,
  "_padding_": [
    0,
    0,
    0,
    0
  ],
  "_percent_": true,
  "_skin_": "sa6b76c3a5c64558aa86f1f3835ef1e5",
  "_title_": null,
  "addWidgetsdone": false,
  "allboxes": [],
  "android": {
    "psp": {
      "windowSoftInputMode": 2
    }
  },
  "canUpdateUI": true,
  "canvasWidth": 2000,
  "children": [
    "flxHeader",
    "flxContainer",
    "flxLoading",
    "flxDeletePopUp",
    "flxTermsAndConditions",
    "flxLogout",
    "flxFooter",
    "flxPopup"
  ],
  "containerweight": 100,
  "controllerInfo": {
    "default": {
      "channel": "desktop",
      "name": "frmProfileManagementController"
    }
  },
  "currentLocale": "default",
  "desktopweb": {
    "needAppMenu": false
  },
  "device": "desktopweb",
  "displayorientation": 1,
  "enabledforidletimeout": true,
  "friendlyName": "frmProfileManagement",
  "id": "frmProfileManagement",
  "ide_init": "AS_Form_a2e2f9a8fbd64f00a8033cd9cd1c8fd9",
  "ide_onDeviceBack": "AS_Form_fe83062d2bdb4ffb973260d7c19d2fd8",
  "ide_onTouchEnd": "AS_Form_d366c36537dd41778b825ab8f10d506f",
  "ide_postShow": "AS_Form_b7b4d384166e4c168c5651b714b239fe",
  "info": null,
  "initdone": false,
  "inputaccessoryviewtype": 4,
  "ipad": {
    "psp": {
      "inputAccessoryViewType": 4
    }
  },
  "iphone": {
    "psp": {
      "inputAccessoryViewType": 4
    }
  },
  "isvisible": true,
  "kuid": "e136103788ec406cab0b1d0f2087f12b",
  "layouttype": 2,
  "name": "kony.ui.Form2",
  "needappmenu": true,
  "paddinginpixel": false,
  "platform": "desktopweb",
  "prevDevice": "desktopweb",
  "prevPlatform": "desktopweb",
  "retainscrollposition": false,
  "shellCSS": "desktop",
  "snapgridsize": 10,
  "snaptogrid": true,
  "titleBarSkin": "s2e24ee0a8ca46b089d8a5bea8a1a32e",
  "titlebar": true,
  "type": 3,
  "wType": "Form"
}