{
  "@class": "com.kony.gen.viz.model.component.KVizImage2",
  "DNDConfig": null,
  "__parentReadjusting__": false,
  "_base64_": null,
  "_height_": {
    "type": "string",
    "value": "15dp"
  },
  "_margin_": [
    0,
    0,
    0,
    0
  ],
  "_padding_": [
    0,
    0,
    0,
    0
  ],
  "_right_": {
    "type": "string",
    "value": "0%"
  },
  "_skin_": "s8ee487de5774c1eb668e74bf92f5cdd",
  "_src_": "icon_close_grey.png",
  "_width_": {
    "type": "string",
    "value": "15dp"
  },
  "canUpdateUI": true,
  "centery": {
    "type": "string",
    "value": "50%"
  },
  "containerweight": 100,
  "context": {
    "channel": "desktop",
    "formID": "frmProfileManagement",
    "platform": "desktopweb",
    "templateType": "forms",
    "topLevelBox": null
  },
  "id": "imgClose",
  "imagescalemode": 1,
  "info": null,
  "invokedProperty": "src",
  "isvisible": true,
  "kuid": "jd6f71cf51fd4d8fa6f84230a7cdbfce",
  "name": "kony.ui.Image2",
  "parent": "flxClose",
  "pf": "frmProfileManagement",
  "srcType": 1,
  "wType": "Image",
  "widgetalignment": 5,
  "zindex": 1,
  "tooltip": "Close"
}