{
  "@class": "com.kony.gen.viz.model.component.KVizUserWidget",
  "DNDConfig": null,
  "__parentReadjusting__": false,
  "_children_": [],
  "_height_": {
    "type": "string",
    "value": "100%"
  },
  "_left_": {
    "type": "string",
    "value": "0dp"
  },
  "_margin_": [
    0,
    0,
    0,
    0
  ],
  "_orientation_": 1,
  "_padding_": [
    0,
    0,
    0,
    0
  ],
  "_percent_": true,
  "_render_": true,
  "_skin_": "sac80c61f28a4b73954e03b8f1c01e91",
  "_top_": {
    "type": "string",
    "value": "0dp"
  },
  "_width_": {
    "type": "string",
    "value": "100%"
  },
  "areflexpropsreferenced": false,
  "autogrowmode": 0,
  "canUpdateUI": true,
  "clipbounds": true,
  "containerweight": 0,
  "dataDiffs": {
    "AssignCategory": {
      "__events__": {},
      "__info__": {
        "isRoot": true,
        "kuid": "de3d09a728f24df983bc8f75da868fea",
        "srcKUID": "d7eb1a9b4d3543d29219115e86784b2d",
        "wType": "FlexContainer"
      },
      "autogrowMode": {
        "Default": 0
      },
      "height": {
        "Default": {
          "type": "string",
          "value": "100%"
        }
      }
    },
    "btnCancel": {
      "__events__": {},
      "__info__": {
        "kuid": "jf87c7d965034618ae1bf3f9fbeb5383",
        "srcKUID": "ba2356042dc54aa3a6dd0c641dec0526",
        "wType": "Button"
      }
    },
    "btnDownload": {
      "__events__": {},
      "__info__": {
        "kuid": "c7a10e9b599045ba9ab7beb328c36a66",
        "srcKUID": "a656043c79ec4a3ab34735d9403520fe",
        "wType": "Button"
      }
    },
    "flxButtons": {
      "__events__": {},
      "__info__": {
        "kuid": "d1215cbd2e1b46418b9fde8257eaaf99",
        "srcKUID": "fede0c8523114b12a45f316d1da89635",
        "wType": "FlexContainer"
      }
    },
    "flxCross": {
      "__events__": {},
      "__info__": {
        "kuid": "e8567352b75b4951aeac327cebf846c4",
        "srcKUID": "e314b23de3dc4b7fa6276f1b6c96f82e",
        "wType": "FlexContainer"
      }
    },
    "flxHeader": {
      "__events__": {},
      "__info__": {
        "kuid": "i1a0b55bc1c2456eaeda7fc56362c620",
        "srcKUID": "aa2fbb569f4f466e98c959b3b01681e5",
        "wType": "FlexContainer"
      }
    },
    "flxMiddle": {
      "__events__": {},
      "__info__": {
        "kuid": "b55c90a1a30f487392a66dfe9c1148d7",
        "srcKUID": "af47799076e64c29b12fc1eed3ff8eb1",
        "wType": "FlexContainer"
      }
    },
    "flxPopup": {
      "__events__": {},
      "__info__": {
        "kuid": "b59cb4eed6194ad28d6b4c80258270f7",
        "srcKUID": "g985a0dcbd4244d5b7a79a1208320493",
        "wType": "FlexContainer"
      }
    },
    "flxSeperator": {
      "__events__": {},
      "__info__": {
        "kuid": "cdad04506e6f42f1a9668439eafbfcf6",
        "srcKUID": "h9db84bfba2d42d1998eb795ca1d8ca4",
        "wType": "FlexContainer"
      }
    },
    "flxSeperator2": {
      "__events__": {},
      "__info__": {
        "kuid": "cac6ce79b22042ada7955cce5e9862d7",
        "srcKUID": "g9983245637e4615bf4eb10e0f2eec9e",
        "wType": "FlexContainer"
      }
    },
    "flxWarning": {
      "__events__": {},
      "__info__": {
        "kuid": "f94fe1112e26440eb2b8bdc4d03e93ba",
        "srcKUID": "a2417af67852481c810ea8434b9636af",
        "wType": "FlexContainer"
      }
    },
    "imgClose": {
      "__events__": {},
      "__info__": {
        "kuid": "b96ddcf303d0408da17989beefacb4e8",
        "srcKUID": "i7fbd069a7a34789aaa5d4fa99814a7c",
        "wType": "Image"
      }
    },
    "imgCross": {
      "__events__": {},
      "__info__": {
        "kuid": "cdd5e7036a364a0ea701b37489dc5bdb",
        "srcKUID": "ffac558fda23412697f60cad572fd4ea",
        "wType": "Image"
      }
    },
    "imgWarningPFM": {
      "__events__": {},
      "__info__": {
        "kuid": "ia271cebc64a438c8f242228bdd4d4a2",
        "srcKUID": "bdd9b8f9e33c49349fcfa4b10ad404f7",
        "wType": "Image"
      }
    },
    "lblHeader": {
      "__events__": {},
      "__info__": {
        "kuid": "g974469544954497b64c18312b59535d",
        "srcKUID": "d682eba5bd28406a9b4b21ae737bc22d",
        "wType": "Label"
      }
    },
    "lblSelectFormat": {
      "__events__": {},
      "__info__": {
        "kuid": "a286ef33746d4d3e8328248d497953ec",
        "srcKUID": "h2ac623b98d34c21b53b5aba13891c82",
        "wType": "Label"
      }
    },
    "lblWarning": {
      "__events__": {},
      "__info__": {
        "kuid": "f2055e5722da4f11b10ca775f27e3649",
        "srcKUID": "j29ace68945f45c4a78069a9079d2916",
        "wType": "Label"
      }
    },
    "lbxSelectFormat": {
      "__events__": {},
      "__info__": {
        "kuid": "e0874453ff8e468b98504784b6ab3ad5",
        "srcKUID": "af70de46e69d46b1bd446299e31f222c",
        "wType": "ListBox"
      }
    }
  },
  "id": "AssignCategory",
  "info": null,
  "isdatareferenced": false,
  "isvisible": true,
  "kuid": "e920908496df4f2ca88af521760c9a49",
  "layouttype": 2,
  "masterType": 0,
  "name": "kony.ui.UserWidgetInstance",
  "parent": "flxPFMAssignCategory",
  "pf": "frmPersonalFinanceManagement",
  "snaptogrid": true,
  "sourceUserWidget": "d7eb1a9b4d3543d29219115e86784b2d",
  "wType": "UserWidgetInstance"
}