{
  "DNDConfig": null,
  "__markedForDelete__": true,
  "__parentReadjusting__": false,
  "_height_": {
    "type": "string",
    "value": "370dp"
  },
  "_left_": {
    "type": "string",
    "value": "0dp"
  },
  "_margin_": [
    0,
    0,
    0,
    0
  ],
  "_orientation_": 6,
  "_padding_": [
    0,
    0,
    0,
    0
  ],
  "_percent_": true,
  "_skin_": "scbd4cac3526468089bf3013adff0549",
  "_top_": {
    "type": "string",
    "value": "80dp"
  },
  "_width_": {
    "type": "string",
    "value": "100%"
  },
  "allboxes": [],
  "autogrowmode": 0,
  "canUpdateUI": true,
  "children": [],
  "clipbounds": true,
  "containerweight": 100,
  "desktopweb": {
    "psp": {
      "hoverSkin": "s3e0ac30f9774278a868cb7c73908a76"
    }
  },
  "enablescrolling": true,
  "id": "flxChart",
  "info": null,
  "isvisible": true,
  "kuid": "a98b0b32e04f485b9f235aa3e373794e",
  "layouttype": 4,
  "name": "kony.ui.FlexContainer",
  "parent": "flxOverallSpendingWrapper",
  "pf": "frmPersonalFinanceManagement",
  "snapgridsize": 10,
  "snaptogrid": true,
  "wType": "FlexContainer",
  "widgetalignment": 1,
  "zindex": 5
}