{
  "DNDConfig": null,
  "__markedForDelete__": true,
  "__parentReadjusting__": false,
  "_height_": {
    "type": "string",
    "value": "200dp"
  },
  "_left_": {
    "type": "string",
    "value": "60dp"
  },
  "_margin_": [
    0,
    0,
    0,
    0
  ],
  "_orientation_": 6,
  "_padding_": [
    0,
    0,
    0,
    0
  ],
  "_percent_": true,
  "_skin_": "scbd4cac3526468089bf3013adff0549",
  "_top_": {
    "type": "string",
    "value": "90dp"
  },
  "_width_": {
    "type": "string",
    "value": "80%"
  },
  "allboxes": [],
  "autogrowmode": 0,
  "canUpdateUI": true,
  "centerx": {
    "type": "string",
    "value": "50%"
  },
  "children": [
    "imgInfoMySpending",
    "lblMySpending",
    "lblImgMySpending"
  ],
  "clipbounds": true,
  "containerweight": 100,
  "enablescrolling": true,
  "id": "flxNoTransactionsMySpending",
  "info": null,
  "isvisible": false,
  "kuid": "e42c92f04ddd43608eec74a2a263d499",
  "layouttype": 2,
  "name": "kony.ui.FlexContainer",
  "parent": "flxMySpendingWrapper",
  "pf": "frmPersonalFinanceManagement",
  "snapgridsize": 10,
  "snaptogrid": true,
  "wType": "FlexContainer",
  "widgetalignment": 1,
  "zindex": 5
}