{
  "DNDConfig": null,
  "__markedForDelete__": true,
  "__parentReadjusting__": false,
  "_bottom_": {
    "type": "string",
    "value": "0dp"
  },
  "_height_": {
    "type": "string",
    "value": "500dp"
  },
  "_left_": {
    "type": "string",
    "value": "2.50%"
  },
  "_margin_": [
    0,
    0,
    0,
    0
  ],
  "_orientation_": 6,
  "_padding_": [
    0,
    0,
    0,
    0
  ],
  "_percent_": true,
  "_skin_": "s5b9b3b444c442ea9057493a50557287",
  "_top_": {
    "type": "string",
    "value": "30dp"
  },
  "_width_": {
    "type": "string",
    "value": "46.85%"
  },
  "allboxes": [],
  "autogrowmode": 0,
  "canUpdateUI": true,
  "children": [
    "flxHeaderOverallSpending",
    "flxSeparatorOverallSpending",
    "flxOverallSpendingWrapper",
    "flxSeperatorOverallSpending"
  ],
  "clipbounds": true,
  "containerweight": 100,
  "enablescrolling": true,
  "id": "flxPFMOverallSpending",
  "info": null,
  "isvisible": true,
  "kuid": "a311c565d87047978564a83f714c95a1",
  "layouttype": 4,
  "name": "kony.ui.FlexContainer",
  "parent": "flxPFMContainer1",
  "pf": "frmPersonalFinanceManagement",
  "snapgridsize": 10,
  "snaptogrid": true,
  "wType": "FlexContainer",
  "widgetalignment": 1,
  "zindex": 1
}