{
  "@class": "com.kony.gen.viz.model.component.KVizLabel",
  "DNDConfig": null,
  "__parentReadjusting__": false,
  "_height_": {
    "type": "ref",
    "value": "preferred"
  },
  "_left_": {
    "type": "string",
    "value": "72dp"
  },
  "_margin_": [
    1,
    1,
    1,
    1
  ],
  "_padding_": [
    0,
    0,
    0,
    0
  ],
  "_skin_": "s27a7d44dab149ffb71bc2798c5997b2",
  "_text_": "",
  "_top_": {
    "type": "string",
    "value": "11dp"
  },
  "_width_": {
    "type": "string",
    "value": "90%"
  },
  "_wrapping_": 2,
  "android": {
    "textStyle": {
      "letterSpacing": 0,
      "strikeThrough": false
    }
  },
  "canUpdateUI": true,
  "containerweight": 100,
  "contentalignment": 4,
  "id": "lblBudget2018",
  "info": null,
  "ipad": {
    "psp": {
      "wrapping": 2
    }
  },
  "iphone": {
    "psp": {
      "wrapping": 2
    }
  },
  "isvisible": true,
  "kuid": "b92fde69331d4f7487ecd3ca5911ce69",
  "name": "kony.ui.Label",
  "parent": "flxNoTransactionsBudget2018",
  "pf": "frmPersonalFinanceManagement",
  "texti18n": "i18n.PFM.NoBudgetCreatedFor2018",
  "tooltip": "",
  "wType": "Label",
  "zindex": 1
}