{
  "@class": "com.kony.gen.viz.model.component.KVizLabel",
  "DNDConfig": null,
  "__markedForDelete__": true,
  "__parentReadjusting__": false,
  "_height_": {
    "type": "string",
    "value": "20dp"
  },
  "_left_": {
    "type": "string",
    "value": "15dp"
  },
  "_margin_": [
    1,
    1,
    1,
    1
  ],
  "_padding_": [
    0,
    0,
    0,
    0
  ],
  "_skin_": "s56b1c1042ae4d9391e23c3bc2a56d5f",
  "_text_": "",
  "_width_": {
    "type": "ref",
    "value": "preferred"
  },
  "_wrapping_": 2,
  "android": {
    "textStyle": {
      "letterSpacing": 0,
      "strikeThrough": false
    }
  },
  "canUpdateUI": true,
  "centery": {
    "type": "string",
    "value": "50%"
  },
  "containerweight": 100,
  "contentalignment": 4,
  "id": "lblHeaderAccounts",
  "info": null,
  "ipad": {
    "psp": {
      "wrapping": 2
    }
  },
  "iphone": {
    "psp": {
      "wrapping": 2
    }
  },
  "isvisible": true,
  "kuid": "ifbbd5824b49464ea7bbed94466d1afa",
  "name": "kony.ui.Label",
  "parent": "flxHeaderAccounts",
  "pf": "frmPersonalFinanceManagement",
  "texti18n": "i18n.topmenu.accounts",
  "tooltip": "",
  "wType": "Label",
  "zindex": 1
}