{
  "@class": "com.kony.gen.viz.model.component.KVizLabel",
  "DNDConfig": null,
  "__parentReadjusting__": false,
  "_height_": {
    "type": "string",
    "value": "120dp"
  },
  "_left_": {
    "type": "string",
    "value": "53dp"
  },
  "_margin_": [
    1,
    1,
    1,
    1
  ],
  "_padding_": [
    0,
    0,
    0,
    0
  ],
  "_skin_": "s9ef5483aaa7434b9a55e7dd5251700b",
  "_text_": "J",
  "_top_": {
    "type": "string",
    "value": "21dp"
  },
  "_width_": {
    "type": "string",
    "value": "105dp"
  },
  "_wrapping_": 2,
  "android": {
    "textStyle": {
      "letterSpacing": 0,
      "strikeThrough": false
    }
  },
  "canUpdateUI": true,
  "centerx": {
    "type": "string",
    "value": "50%"
  },
  "centery": {
    "type": "string",
    "value": "75%"
  },
  "containerweight": 100,
  "contentalignment": 4,
  "id": "lblImgBudget2018",
  "info": null,
  "ipad": {
    "psp": {
      "wrapping": 2
    }
  },
  "iphone": {
    "psp": {
      "wrapping": 2
    }
  },
  "isvisible": true,
  "kuid": "e327163932b248728eec682b264d07e4",
  "name": "kony.ui.Label",
  "parent": "flxNoTransactionsBudget2018",
  "pf": "frmPersonalFinanceManagement",
  "tooltip": "",
  "wType": "Label",
  "zindex": 1
}