{
  "@class": "com.kony.gen.viz.model.component.KVizListBox",
  "DNDConfig": null,
  "__parentReadjusting__": false,
  "_height_": {
    "type": "string",
    "value": "40dp"
  },
  "_left_": {
    "type": "string",
    "value": "34%"
  },
  "_margin_": [
    0,
    0,
    0,
    0
  ],
  "_padding_": [
    2,
    0,
    1,
    0
  ],
  "_skin_": "s189b23a5b774a0bbb1dfe1f2b6f676f",
  "_top_": {
    "type": "string",
    "value": "20dp"
  },
  "_width_": {
    "type": "string",
    "value": "60%"
  },
  "canUpdateUI": true,
  "containerweight": 100,
  "contentalignment": 4,
  "context": {
    "channel": "desktop",
    "formID": "frmPersonalFinanceManagement",
    "platform": "desktopweb",
    "templateType": "forms",
    "topLevelBox": null
  },
  "desktopweb": {
    "psp": {
      "hoverSkin": "sadf25ae77c04d5fbbebf5956f7697da"
    }
  },
  "groupcells": false,
  "id": "lstSelectMonthBudget",
  "info": null,
  "isvisible": true,
  "kuid": "d669f7d27cc84232a79a74e9420bd837",
  "masterdata": [],
  "name": "kony.ui.ListBox",
  "parent": "flxBudget2018WrapperdataUnavailable",
  "pf": "frmPersonalFinanceManagement",
  "selectedkeys": null,
  "selectedkeyvalue": null,
  "selectedkeyvalues": null,
  "size": 18,
  "viewconfig": {
    "toggleViewConfig": {
      "viewStyle": 0
    }
  },
  "viewtype": 0,
  "wType": "ListBox",
  "zindex": 5
}