{
  "@class": "com.kony.gen.viz.model.component.KVizUserWidget",
  "DNDConfig": null,
  "__parentReadjusting__": false,
  "_children_": [],
  "_height_": {
    "type": "ref",
    "value": "preferred"
  },
  "_left_": {
    "type": "string",
    "value": "0dp"
  },
  "_margin_": [
    0,
    0,
    0,
    0
  ],
  "_orientation_": 1,
  "_padding_": [
    0,
    0,
    0,
    0
  ],
  "_percent_": true,
  "_render_": true,
  "_skin_": "s576844bc0e148a9a02e6171eac305ac",
  "_top_": {
    "type": "string",
    "value": "0dp"
  },
  "_width_": {
    "type": "string",
    "value": "100%"
  },
  "areflexpropsreferenced": false,
  "autogrowmode": 1,
  "canUpdateUI": true,
  "clipbounds": true,
  "containerweight": 0,
  "dataDiffs": {
    "CommonHeader": {
      "__events__": {},
      "__info__": {
        "kuid": "hf4b41b08047404f9f907e83d9473218",
        "srcKUID": "j930b73195cd49e88dfe45d47c87a2df",
        "wType": "UserWidgetInstance"
      }
    },
    "CommonHeader.btnRequest": {
      "__events__": {},
      "__info__": {
        "kuid": "c1b21b4171d04f8c8f926d00242b0f18",
        "srcKUID": "f41938ffe314474eb1d10bfd23266c28",
        "wType": "Button"
      }
    },
    "CommonHeader.flxHeader": {
      "__events__": {},
      "__info__": {
        "kuid": "cb3bf42f20e24d588e7246960afc5b53",
        "srcKUID": "j24f9d5eaeea4675908444359c8dd54d",
        "wType": "FlexContainer"
      },
      "autogrowMode": {
        "Default": 0
      },
      "height": {
        "Default": {
          "type": "string",
          "value": "50px"
        }
      }
    },
    "CommonHeader.flxSeperator": {
      "__events__": {},
      "__info__": {
        "kuid": "e970ad5235e8423190904eee16b234e4",
        "srcKUID": "je07c4ed1c6a470380eac4fe28d52493",
        "wType": "FlexContainer"
      }
    },
    "CommonHeader.lblHeading": {
      "__events__": {},
      "__info__": {
        "kuid": "caffc75ec32047b1802be719008ed2a7",
        "srcKUID": "e3109f7569db481ba78c9dec16068af9",
        "wType": "Label"
      }
    },
    "Transactions": {
      "__events__": {},
      "__info__": {
        "isRoot": true,
        "kuid": "e2dbe16279b64bb6831bab2452372e15",
        "srcKUID": "f4b6f27110a443749d96b58586e7153a",
        "wType": "FlexContainer"
      }
    },
    "btnCancel": {
      "__events__": {},
      "__info__": {
        "kuid": "hb2c6e3510014f9a851ca7b6fc07f4b1",
        "srcKUID": "eeafeeda4824433a86ad8149fd265dfb",
        "wType": "Button"
      }
    },
    "btnDownload": {
      "__events__": {},
      "__info__": {
        "kuid": "c55d0e579ae148d888b4a568c6df9afd",
        "srcKUID": "d4fe79dc25f2467da758350bf889d14c",
        "wType": "Button"
      }
    },
    "flxButtons": {
      "__events__": {},
      "__info__": {
        "kuid": "jd8c408e48574bcea8e04d8823599df8",
        "srcKUID": "jd1d3fe3f6bc4d0abe821e1a555ecf93",
        "wType": "FlexContainer"
      },
      "isVisible": false,
      "width": {
        "Default": {
          "type": "string",
          "value": "100%"
        }
      }
    },
    "flxCheckbox": {
      "__events__": {},
      "__info__": {
        "kuid": "g8ca508a31df412ea17faa11ec201c20",
        "srcKUID": "d6f7d01673424471afa2d2ddfdec6417",
        "wType": "FlexContainer"
      },
      "left": {
        "Default": {
          "type": "string",
          "value": "86%"
        }
      }
    },
    "flxDate": {
      "__events__": {},
      "__info__": {
        "kuid": "ad553959e917434395c72d8873785098",
        "srcKUID": "aa34a8cd15b04f279af2ecb375f1e59b",
        "wType": "FlexContainer"
      }
    },
    "flxLeft": {
      "__events__": {},
      "__info__": {
        "kuid": "a89d68d3d7f54e129d24561b67baa771",
        "srcKUID": "b76eaf64d5f44f85bc1b297295918928",
        "wType": "FlexContainer"
      }
    },
    "flxLeftBulkUpdate": {
      "__events__": {},
      "__info__": {
        "kuid": "a22b58a630134be0aba49d53a66ba1fb",
        "srcKUID": "c2912eb80adb4cae8dbe355a1ac046fe",
        "wType": "FlexContainer"
      }
    },
    "flxNoTransactions": {
      "__events__": {},
      "__info__": {
        "kuid": "a07a33d91aab43e383088feebdda1cc4",
        "srcKUID": "ha8a3e5e2756435598b41ce5d568166d",
        "wType": "FlexContainer"
      },
      "autogrowMode": {
        "Default": 0
      },
      "height": {
        "Default": {
          "type": "string",
          "value": "412dp"
        }
      },
      "isVisible": false,
      "width": {
        "Default": {
          "type": "string",
          "value": "100%"
        }
      }
    },
    "flxPagination": {
      "__events__": {},
      "__info__": {
        "kuid": "aa9be42c588a4dc1a8e23115de15b408",
        "srcKUID": "e5c44ff99ce747ea91a71abf7f9d1180",
        "wType": "FlexContainer"
      }
    },
    "flxPaginationNext": {
      "__events__": {},
      "__info__": {
        "kuid": "ceda40f76a9e4548a05af4874c2f54da",
        "srcKUID": "d8b92df8f4e14fc98c089c9ec9a915d4",
        "wType": "FlexContainer"
      }
    },
    "flxPaginationPrevious": {
      "__events__": {},
      "__info__": {
        "kuid": "jb80162ff3484f93ba5b5c02c0df0830",
        "srcKUID": "j5db5ad947434a0c8a2618baa1a669e6",
        "wType": "FlexContainer"
      }
    },
    "flxPaginationWrapper": {
      "__events__": {},
      "__info__": {
        "kuid": "je4c3da6d0104ccfabad2912f920b69a",
        "srcKUID": "bf910da8a6f1477c8a6aad1fcf97ee94",
        "wType": "FlexContainer"
      }
    },
    "flxRight": {
      "__events__": {},
      "__info__": {
        "kuid": "babc3035b4974166920ac527c9f4dc07",
        "srcKUID": "ced36b5aa66344daa89860b2be3b8143",
        "wType": "FlexContainer"
      }
    },
    "flxRightBulkUpdate": {
      "__events__": {},
      "__info__": {
        "kuid": "be2a76ffcf2f48cfad1f9e7e22e26386",
        "srcKUID": "hcfe8a7466e247c88a3ce2be31fe7afe",
        "wType": "FlexContainer"
      }
    },
    "flxSegmentContainer": {
      "__events__": {},
      "__info__": {
        "kuid": "je1ab7a76b9a4a83bedfb76beb6faf4f",
        "srcKUID": "ga9e6880717444338c627b8ac884b8c6",
        "wType": "FlexContainer"
      },
      "layoutType": 4
    },
    "flxSeparatorNoResults": {
      "__events__": {},
      "__info__": {
        "kuid": "ibcfbc904f434426991f18b439c675c7",
        "srcKUID": "h1e6cda633804a53b59a47f7b68bf885",
        "wType": "FlexContainer"
      }
    },
    "flxSeparatorSort": {
      "__events__": {},
      "__info__": {
        "kuid": "c8cf5e6ba36b44769edcbc49ea975b9f",
        "srcKUID": "da216faff5584cbfb11f8ec249be9491",
        "wType": "FlexContainer"
      }
    },
    "flxSeperator": {
      "__events__": {},
      "__info__": {
        "kuid": "fe35de1038fc46eba1e6fae184cfe4ae",
        "srcKUID": "de58dbc1ee544764b234938c4546ff49",
        "wType": "FlexContainer"
      }
    },
    "flxShadowSort": {
      "__events__": {},
      "__info__": {
        "kuid": "aa7d6c4ebedd4416941927a0f21931ca",
        "srcKUID": "g7248282ee894cda906bc33a78c58647",
        "wType": "FlexContainer"
      }
    },
    "flxSort": {
      "__events__": {},
      "__info__": {
        "kuid": "j0c43117fba04b5095539bbfbc83dbce",
        "srcKUID": "e95e6df899f04f93bdafb9dbcdcc6522",
        "wType": "FlexContainer"
      },
      "isVisible": false
    },
    "flxSortAmount": {
      "__events__": {},
      "__info__": {
        "kuid": "b59c67b7e2ea44678d2b288acd624cb9",
        "srcKUID": "e09b40377b0d4dda8e5f7c79ae25a403",
        "wType": "FlexContainer"
      }
    },
    "flxSortAmountBulk": {
      "__events__": {},
      "__info__": {
        "kuid": "c44458ea029f43dd8f8e3a473da2ed3a",
        "srcKUID": "ib67dfd2e43c431fbcdb2d55e211cb7b",
        "wType": "FlexContainer"
      }
    },
    "flxSortBulkUpdate": {
      "__events__": {},
      "__info__": {
        "kuid": "c8d6f833134e4bffa495c5f54429eec4",
        "srcKUID": "df95785b25c24eaa8c504a885a799f30",
        "wType": "FlexContainer"
      },
      "isVisible": true
    },
    "flxSortBulkUpdates": {
      "__events__": {},
      "__info__": {
        "kuid": "e69034ff108c4285a0577d25c9a47590",
        "srcKUID": "a7e6e0e8918943a68bf4e376a926eaf4",
        "wType": "FlexContainer"
      }
    },
    "flxSortCategory": {
      "__events__": {},
      "__info__": {
        "kuid": "a50ed04a4fa84eb5aa232c3376ec0048",
        "srcKUID": "g37a5afeda8c455c8078b96a14decc9a",
        "wType": "FlexContainer"
      }
    },
    "flxSortDate": {
      "__events__": {},
      "__info__": {
        "kuid": "fc670ca507ae487187e4eee3a3af791e",
        "srcKUID": "c56d1546c0b94e53ba9b5efce58a07e5",
        "wType": "FlexContainer"
      }
    },
    "flxSortDescription": {
      "__events__": {},
      "__info__": {
        "kuid": "he7a316bf17140a6a623223fddae8f2a",
        "srcKUID": "d2a52498c89140ad8c222aa95e20700b",
        "wType": "FlexContainer"
      }
    },
    "flxSortDescriptionBulk": {
      "__events__": {},
      "__info__": {
        "kuid": "a6e1b7a58ed04bd8b62f2b8b48eeb6b3",
        "srcKUID": "febec5e075f2471a93a2091e0f9c9693",
        "wType": "FlexContainer"
      }
    },
    "flxSortSixColumn": {
      "__events__": {},
      "__info__": {
        "kuid": "c2847b44a7454e17b2efc180db686091",
        "srcKUID": "d12a018771834f4a91d7794225a7410d",
        "wType": "FlexContainer"
      }
    },
    "flxSortTo": {
      "__events__": {},
      "__info__": {
        "kuid": "d3daca99058448bd90a6b77fba303af8",
        "srcKUID": "dc3c887402d347ddbbace4647d6e9978",
        "wType": "FlexContainer"
      }
    },
    "flxSortToBulk": {
      "__events__": {},
      "__info__": {
        "kuid": "h1425d644417406489a29c42aeacbbc0",
        "srcKUID": "efcbb0b8458041e1a607e8615799be50",
        "wType": "FlexContainer"
      }
    },
    "imgCheckBox": {
      "__events__": {},
      "__info__": {
        "kuid": "b72cdb5f26f44f8881f6dcbfb0c75e62",
        "srcKUID": "fa71178b6dff4ef6bc788955bb82d1db",
        "wType": "Image"
      },
      "left": {
        "Default": {
          "type": "string",
          "value": "0dp"
        }
      }
    },
    "imgInfo": {
      "__events__": {},
      "__info__": {
        "kuid": "ba5426ce6ddd4aa4991338fe3d814c54",
        "srcKUID": "f5318a9f6bbb4875b43dfc68a938b21b",
        "wType": "Image"
      }
    },
    "imgPaginationFirst": {
      "__events__": {},
      "__info__": {
        "kuid": "fb93ceaedeb04902af1dd1a6f92d5281",
        "srcKUID": "e54a9f5b69564de5b17eeab4b28ed034",
        "wType": "Image"
      }
    },
    "imgPaginationLast": {
      "__events__": {},
      "__info__": {
        "kuid": "g4ebce073bb4407d9f7ddcb24e52ce47",
        "srcKUID": "dd3e2246c0b14bb4b443079a3156e405",
        "wType": "Image"
      }
    },
    "imgPaginationNext": {
      "__events__": {},
      "__info__": {
        "kuid": "f479e58624eb4a5a9c64c7d939dbc814",
        "srcKUID": "a30935e492a14927944de19d590e9167",
        "wType": "Image"
      }
    },
    "imgPaginationPrevious": {
      "__events__": {},
      "__info__": {
        "kuid": "g9e60e2f9da84c19a42984173e6726ce",
        "srcKUID": "da7c05b1e99e45d5bfb6af4f1fe5f474",
        "wType": "Image"
      }
    },
    "imgSortBulk": {
      "__events__": {},
      "__info__": {
        "kuid": "a45c9abb0e0642d88c8ed50aef02931e",
        "srcKUID": "fd9186090f7645b78b0162df1d27b3b8",
        "wType": "Image"
      }
    },
    "imgSortDate": {
      "__events__": {},
      "__info__": {
        "kuid": "a0d753e0a78846419a4ed79d7ce2afb0",
        "srcKUID": "af0273de6a1f43b9ba707da23bf58bfc",
        "wType": "Image"
      }
    },
    "imgSortDateBulk": {
      "__events__": {},
      "__info__": {
        "kuid": "d5a99b0ee06941ebab8216fb15e6f5a2",
        "srcKUID": "e7742d53f4644d7e82e19dcf57ca19b7",
        "wType": "Image"
      }
    },
    "imgSortDescription": {
      "__events__": {},
      "__info__": {
        "kuid": "cafaee49725c4547b16c3b94026b7c2a",
        "srcKUID": "b28c336665e242f89b89ed8502468667",
        "wType": "Image"
      }
    },
    "imgSortDescriptionBulk": {
      "__events__": {},
      "__info__": {
        "kuid": "j308427e4bb445ea9d90fa77ccbc4941",
        "srcKUID": "ee26720a9d4b47d0ae3b04be5c389e46",
        "wType": "Image"
      }
    },
    "imgSortTo": {
      "__events__": {},
      "__info__": {
        "kuid": "a759565f28be4f0491021e254c1bea2f",
        "srcKUID": "gca58c5894a74cb29e8404a676e659f1",
        "wType": "Image"
      }
    },
    "lblPagination": {
      "__events__": {},
      "__info__": {
        "kuid": "c367f7a351c2404a84adbda3c7333840",
        "srcKUID": "c30ba99be451420798457ed486caecb1",
        "wType": "Label"
      }
    },
    "lblSortAmount": {
      "__events__": {},
      "__info__": {
        "kuid": "d676ac2488c24d24a3f30ee96e289736",
        "srcKUID": "f1381aab50ef4cadac7a22c4fb01788a",
        "wType": "Label"
      }
    },
    "lblSortAmountBulkUpdate": {
      "__events__": {},
      "__info__": {
        "kuid": "a4a13154be1e4529a2176a780f22364a",
        "srcKUID": "ced3f3bd0b4d4f71a2e164cfdc66a23c",
        "wType": "Label"
      },
      "right": {
        "Default": {
          "type": "string",
          "value": "25dp"
        }
      }
    },
    "lblSortCategory": {
      "__events__": {},
      "__info__": {
        "kuid": "dc473c5cad2d401f8389325323c74107",
        "srcKUID": "d3e0df03634145f686997f218a683b3b",
        "wType": "Label"
      }
    },
    "lblSortDate": {
      "__events__": {},
      "__info__": {
        "kuid": "aff5447dc873402f9a7d6b718e564267",
        "srcKUID": "j3ae24e2fa524fb8a8bd6fc468c4a592",
        "wType": "Label"
      }
    },
    "lblSortDateBulk": {
      "__events__": {},
      "__info__": {
        "kuid": "aa3951e88e0a4bff88be5254ead02267",
        "srcKUID": "fec36390bfff47a6876a2c5f00eeea63",
        "wType": "Label"
      },
      "left": {
        "Default": {
          "type": "string",
          "value": "13dp"
        }
      }
    },
    "lblSortDescription": {
      "__events__": {},
      "__info__": {
        "kuid": "i94e41a210994915aee73bc3e99ff91f",
        "srcKUID": "bf45e111a9d5471f8849dc8151b9fd96",
        "wType": "Label"
      }
    },
    "lblSortTo": {
      "__events__": {},
      "__info__": {
        "kuid": "ea32f2d2faf04e4db5e9a7c18511cd68",
        "srcKUID": "ffe4e50ff25f4b54abd67a0aa63395c7",
        "wType": "Label"
      },
      "left": {
        "Default": {
          "type": "string",
          "value": "14dp"
        }
      }
    },
    "lblSortToPfm": {
      "__events__": {},
      "__info__": {
        "kuid": "jc1f2d94da0346e6bb7009f4d2d5c19d",
        "srcKUID": "b02acfae04264346a297fe401c969721",
        "wType": "Label"
      }
    },
    "lblSortTransactionBulk": {
      "__events__": {},
      "__info__": {
        "kuid": "b57b227ddeb447daa14254a9b59adeec",
        "srcKUID": "bad1680f05574897ac42d140c1c55aa9",
        "wType": "Label"
      },
      "left": {
        "Default": {
          "type": "string",
          "value": "20dp"
        }
      }
    },
    "rtxNoPaymentMessage": {
      "__events__": {},
      "__info__": {
        "kuid": "da87bd72333e4e6886cb3d1e6757473a",
        "srcKUID": "ec6f4697315042d3a4c86e92be1b0360",
        "wType": "RichText"
      }
    },
    "segTransactions": {
      "__events__": {},
      "__info__": {
        "kuid": "aa658ee30c694c1eb63a976802eb5be1",
        "srcKUID": "d7fd96a108a343dfb1c6bded6a4e864c",
        "wType": "Segment"
      },
      "data": {
        "desktop": [
          {
            "imgCheckBox": {
              "@class": "com.viz.ide.model.segment.ImageSegmentData",
              "src": ""
            },
            "imgDropdown": {
              "@class": "com.viz.ide.model.segment.ImageSegmentData",
              "src": ""
            },
            "lblAmount": {
              "@class": "com.viz.ide.model.segment.SimpleTextSegmentData",
              "text": ""
            },
            "lblDate": {
              "@class": "com.viz.ide.model.segment.SimpleTextSegmentData",
              "text": ""
            },
            "lblDescription": {
              "@class": "com.viz.ide.model.segment.SimpleTextSegmentData",
              "text": ""
            },
            "lblFromAccount": {
              "@class": "com.viz.ide.model.segment.SimpleTextSegmentData",
              "text": ""
            },
            "lblFromAccountData": {
              "@class": "com.viz.ide.model.segment.SimpleTextSegmentData",
              "text": ""
            },
            "lblIdentifier": {
              "@class": "com.viz.ide.model.segment.SimpleTextSegmentData",
              "text": ""
            },
            "lblSeparator": {
              "@class": "com.viz.ide.model.segment.SimpleTextSegmentData",
              "text": ""
            },
            "lblSeparator2": {
              "@class": "com.viz.ide.model.segment.SimpleTextSegmentData",
              "text": ""
            },
            "lblTo": {
              "@class": "com.viz.ide.model.segment.SimpleTextSegmentData",
              "text": ""
            },
            "lblToAccount": {
              "@class": "com.viz.ide.model.segment.SimpleTextSegmentData",
              "text": ""
            },
            "lblToAccountData": {
              "@class": "com.viz.ide.model.segment.SimpleTextSegmentData",
              "text": ""
            }
          }
        ]
      },
      "maxHeight": {
        "Default": {
          "type": "string",
          "value": "412dp"
        }
      }
    },
    "imgSortAmount": {
      "__events__": {},
      "__info__": {
        "kuid": "f82ab398b07f45839253c4e827a7a039",
        "srcKUID": "a4a6165baf084bb5b192dac3fe8a8f79",
        "wType": "Image"
      }
    }
  },
  "id": "TransactionsUnCategorized",
  "info": null,
  "isdatareferenced": false,
  "isvisible": true,
  "kuid": "g050bf8be8ae4e8399d0e7ef4b0831cf",
  "layouttype": 4,
  "masterType": 0,
  "name": "kony.ui.UserWidgetInstance",
  "parent": "flxUncategorizedTransactions",
  "pf": "frmPersonalFinanceManagement",
  "snaptogrid": true,
  "sourceUserWidget": "f4b6f27110a443749d96b58586e7153a",
  "wType": "UserWidgetInstance"
}