{
  "@class": "com.kony.gen.viz.model.container.KVizScrollFlexForm",
  "DNDConfig": null,
  "_margin_": [
    0,
    0,
    0,
    0
  ],
  "_orientation_": 1,
  "_padding_": [
    0,
    0,
    0,
    0
  ],
  "_percent_": true,
  "_skin_": "sa6b76c3a5c64558aa86f1f3835ef1e5",
  "_title_": null,
  "addWidgetsdone": false,
  "allboxes": [],
  "android": {
    "psp": {
      "windowSoftInputMode": 2
    }
  },
  "canUpdateUI": true,
  "canvasWidth": 1400,
  "children": [
    "flxHeader",
    "flxMainContainer",
    "flxFooter",
    "flxPopup",
    "flxLoading"
  ],
  "containerweight": 100,
  "controllerInfo": {
    "default": {
      "channel": "desktop",
      "name": "frmOnlineHelpController"
    }
  },
  "currentLocale": "default",
  "desktopweb": {
    "needAppMenu": false
  },
  "device": "desktopweb",
  "displayorientation": 1,
  "enabledforidletimeout": true,
  "friendlyName": "frmOnlineHelp",
  "id": "frmOnlineHelp",
  "ide_postShow": "AS_Form_c4f8c3c70e87454aa48521219d5868be",
  "info": null,
  "initdone": false,
  "inputaccessoryviewtype": 4,
  "ipad": {
    "psp": {
      "inputAccessoryViewType": 4
    }
  },
  "iphone": {
    "psp": {
      "inputAccessoryViewType": 4
    }
  },
  "isvisible": true,
  "kuid": "h8e4f81396ed47659ad00265c0140f82",
  "layouttype": 2,
  "name": "kony.ui.Form2",
  "needappmenu": true,
  "paddinginpixel": false,
  "platform": "desktopweb",
  "prevDevice": "desktopweb",
  "prevPlatform": "desktopweb",
  "retainscrollposition": false,
  "shellCSS": "desktop",
  "snapgridsize": 10,
  "snaptogrid": true,
  "titleBarSkin": "s2e24ee0a8ca46b089d8a5bea8a1a32e",
  "titlebar": true,
  "type": 3,
  "wType": "Form",
  "ide_onTouchEnd": "AS_Form_bcdd23043a504fefa3823205f8287fea"
}