{
  "@class": "com.kony.gen.viz.model.container.KVizSegment2",
  "DNDConfig": null,
  "__parentReadjusting__": false,
  "_data_": [
    {},
    {},
    {}
  ],
  "_height_": {
    "type": "ref",
    "value": "preferred"
  },
  "_indicator_": "none",
  "_left_": {
    "type": "string",
    "value": "0dp"
  },
  "_margin_": [
    0,
    0,
    0,
    0
  ],
  "_orientation_": 2,
  "_padding_": [
    0,
    0,
    0,
    0
  ],
  "_top_": {
    "type": "string",
    "value": "0dp"
  },
  "_width_": {
    "type": "string",
    "value": "100%"
  },
  "autogrowmode": 1,
  "canUpdateUI": true,
  "containerweight": 100,
  "counter": "15",
  "desktop": {
    "_data_": [],
    "rowTemplateId": "df7eada892a641b38a57fd60b23c9c59",
    "rowtemplate": "flxSegTransactionRowSelected",
    "sectionHeaderTemplateId": "e353bbba136b4dd58c30c5575dc313e6",
    "sectionheadertemplate": "flxSegTransactionHeader",
    "selectionBehaviorConfig": null,
    "widgetdatamap": {
      "btnDisputeTransaction": "btnDisputeTransaction",
      "btnEditRule": "btnEditRule",
      "btnPrint": "btnPrint",
      "cbxRememberCategory": "cbxRememberCategory",
      "flxActions": "flxActions",
      "flxActionsWrapper": "flxActionsWrapper",
      "flxAmount": "flxAmount",
      "flxBalance": "flxBalance",
      "flxCategory": "flxCategory",
      "flxDate": "flxDate",
      "flxDescription": "flxDescription",
      "flxDetail": "flxDetail",
      "flxDetailData": "flxDetailData",
      "flxDetailHeader": "flxDetailHeader",
      "flxDropdown": "flxDropdown",
      "flxIdentifier": "flxIdentifier",
      "flxInformation": "flxInformation",
      "flxLeft": "flxLeft",
      "flxMemo": "flxMemo",
      "flxRight": "flxRight",
      "flxSegTransactionHeader": "flxSegTransactionHeader",
      "flxSegTransactionRowSavings": "flxSegTransactionRowSavings",
      "flxSegTransactionRowSelected": "flxSegTransactionRowSelected",
      "flxSegTransactionRowWrapper": "flxSegTransactionRowWrapper",
      "flxSelectedRowWrapper": "flxSelectedRowWrapper",
      "flxToData": "flxToData",
      "flxToHeader": "flxToHeader",
      "flxType": "flxType",
      "flxTypeData": "flxTypeData",
      "flxTypeHeader": "flxTypeHeader",
      "flxWithdrawalAmountData": "flxWithdrawalAmountData",
      "flxWithdrawalAmountHeader": "flxWithdrawalAmountHeader",
      "flxWrapper": "flxWrapper",
      "imgCategoryDropdown": "imgCategoryDropdown",
      "imgDropdown": "imgDropdown",
      "imgType": "imgType",
      "lblAmount": "lblAmount",
      "lblBalance": "lblBalance",
      "lblCategory": "lblCategory",
      "lblDate": "lblDate",
      "lblDescription": "lblDescription",
      "lblIdentifier": "lblIdentifier",
      "lblSeparator": "lblSeparator",
      "lblSeparatorActions": "lblSeparatorActions",
      "lblSeparatorDetailData": "lblSeparatorDetailData",
      "lblSeparatorDetailHeader": "lblSeparatorDetailHeader",
      "lblToTitle": "lblToTitle",
      "lblToValue": "lblToValue",
      "lblTransactionHeader": "lblTransactionHeader",
      "lblTypeTitle": "lblTypeTitle",
      "lblTypeValue": "lblTypeValue",
      "lblWithdrawalAmountTitle": "lblWithdrawalAmountTitle",
      "lblWithdrawalAmountValue": "lblWithdrawalAmountValue",
      "txtMemo": "txtMemo"
    }
  },
  "focusedindex": 0,
  "focuseditem": {
    "btnDisputeTransaction": {
      "@class": "com.viz.ide.model.segment.SimpleTextSegmentData",
      "text": "DISPUTE TRANSACTION"
    },
    "btnEditRule": {
      "@class": "com.viz.ide.model.segment.SimpleTextSegmentData",
      "text": "EDIT CATEGORY RULE"
    },
    "btnPrint": {
      "@class": "com.viz.ide.model.segment.SimpleTextSegmentData",
      "text": "PRINT"
    },
    "cbxRememberCategory": {
      "@class": "com.viz.ide.model.segment.CheckableSegmentData",
      "masterData": []
    },
    "imgCategoryDropdown": {
      "@class": "com.viz.ide.model.segment.ImageSegmentData",
      "src": "arrow_down.png"
    },
    "imgDropdown": {
      "@class": "com.viz.ide.model.segment.ImageSegmentData",
      "src": "arrow_down.png"
    },
    "imgType": {
      "@class": "com.viz.ide.model.segment.ImageSegmentData",
      "src": "payment_method.png"
    },
    "lblAmount": {
      "@class": "com.viz.ide.model.segment.SimpleTextSegmentData",
      "text": "-$1000000.00"
    },
    "lblBalance": {
      "@class": "com.viz.ide.model.segment.SimpleTextSegmentData",
      "text": "$3000000.00"
    },
    "lblCategory": {
      "@class": "com.viz.ide.model.segment.SimpleTextSegmentData",
      "text": "Select Category"
    },
    "lblDate": {
      "@class": "com.viz.ide.model.segment.SimpleTextSegmentData",
      "text": "06/05/2017"
    },
    "lblDescription": {
      "@class": "com.viz.ide.model.segment.SimpleTextSegmentData",
      "text": "Time Warner Cable On-Line"
    },
    "lblIdentifier": {
      "@class": "com.viz.ide.model.segment.SimpleTextSegmentData",
      "text": "-$1000000.00"
    },
    "lblSeparator": {
      "@class": "com.viz.ide.model.segment.SimpleTextSegmentData",
      "text": ""
    },
    "lblSeparatorActions": {
      "@class": "com.viz.ide.model.segment.SimpleTextSegmentData",
      "text": "a"
    },
    "lblSeparatorDetailData": {
      "@class": "com.viz.ide.model.segment.SimpleTextSegmentData",
      "text": ""
    },
    "lblSeparatorDetailHeader": {
      "@class": "com.viz.ide.model.segment.SimpleTextSegmentData",
      "text": ""
    },
    "lblToTitle": {
      "@class": "com.viz.ide.model.segment.SimpleTextSegmentData",
      "text": "To"
    },
    "lblToValue": {
      "@class": "com.viz.ide.model.segment.SimpleTextSegmentData",
      "text": "TIME WARNER CABLE ONLINE"
    },
    "lblTypeTitle": {
      "@class": "com.viz.ide.model.segment.SimpleTextSegmentData",
      "text": "Type"
    },
    "lblTypeValue": {
      "@class": "com.viz.ide.model.segment.SimpleTextSegmentData",
      "text": "Bill Pay"
    },
    "lblWithdrawalAmountTitle": {
      "@class": "com.viz.ide.model.segment.SimpleTextSegmentData",
      "text": "Withdrawal Amount"
    },
    "lblWithdrawalAmountValue": {
      "@class": "com.viz.ide.model.segment.SimpleTextSegmentData",
      "text": "$99.33"
    },
    "txtMemo": {
      "@class": "com.viz.ide.model.segment.ComplexTextSegmentData",
      "placeholder": "",
      "text": ""
    }
  },
  "groupcells": false,
  "hasSections": true,
  "id": "segTransactions",
  "info": null,
  "ipad": {
    "psp": {
      "indicator": "rowselect"
    }
  },
  "iphone": {
    "psp": {
      "indicator": "rowselect"
    }
  },
  "isvisible": true,
  "kuid": "segTransactions",
  "masterdata": {},
  "mobile": {
    "rowTemplateId": null,
    "rowtemplate": null,
    "sectionHeaderTemplateId": null
  },
  "name": "kony.ui.SegmentedUI2",
  "needpageindicator": true,
  "pageoffdotimage": "pageoffdot.png",
  "pageondotimage": "pageondot.png",
  "paginationconfig": {
    "position": "bottom",
    "vdistance": 1
  },
  "parent": "tableSegment",
  "pf": "userwidgetmodel",
  "retainselection": false,
  "rowcounter": 5,
  "rowfocusskin": "s9f69e977910472eb44c62ae28c41fe1",
  "rowskin": "s76d2ce1ed0442cf8ec1d5e836e4a361",
  "rowtemplate": "flxSegTransactionRowSelected",
  "screenlevelwidget": false,
  "seccounter": 1,
  "sectionheaderskin": "sdc4ff4ed1584272be2ae69045dfb29d",
  "sectionheadertemplate": "flxSegTransactionHeader",
  "selectedRows": [],
  "selectedState": false,
  "selectedindex": [
    0,
    0
  ],
  "selectedindices": [],
  "selecteditems": [
    {
      "btnDisputeTransaction": {
        "@class": "com.viz.ide.model.segment.SimpleTextSegmentData",
        "text": "DISPUTE TRANSACTION"
      },
      "btnEditRule": {
        "@class": "com.viz.ide.model.segment.SimpleTextSegmentData",
        "text": "EDIT CATEGORY RULE"
      },
      "btnPrint": {
        "@class": "com.viz.ide.model.segment.SimpleTextSegmentData",
        "text": "PRINT"
      },
      "cbxRememberCategory": {
        "@class": "com.viz.ide.model.segment.CheckableSegmentData",
        "masterData": []
      },
      "imgCategoryDropdown": {
        "@class": "com.viz.ide.model.segment.ImageSegmentData",
        "src": "arrow_down.png"
      },
      "imgDropdown": {
        "@class": "com.viz.ide.model.segment.ImageSegmentData",
        "src": "arrow_down.png"
      },
      "imgType": {
        "@class": "com.viz.ide.model.segment.ImageSegmentData",
        "src": "payment_method.png"
      },
      "lblAmount": {
        "@class": "com.viz.ide.model.segment.SimpleTextSegmentData",
        "text": "-$1000000.00"
      },
      "lblBalance": {
        "@class": "com.viz.ide.model.segment.SimpleTextSegmentData",
        "text": "$3000000.00"
      },
      "lblCategory": {
        "@class": "com.viz.ide.model.segment.SimpleTextSegmentData",
        "text": "Select Category"
      },
      "lblDate": {
        "@class": "com.viz.ide.model.segment.SimpleTextSegmentData",
        "text": "06/05/2017"
      },
      "lblDescription": {
        "@class": "com.viz.ide.model.segment.SimpleTextSegmentData",
        "text": "Time Warner Cable On-Line"
      },
      "lblIdentifier": {
        "@class": "com.viz.ide.model.segment.SimpleTextSegmentData",
        "text": "-$1000000.00"
      },
      "lblSeparator": {
        "@class": "com.viz.ide.model.segment.SimpleTextSegmentData",
        "text": ""
      },
      "lblSeparatorActions": {
        "@class": "com.viz.ide.model.segment.SimpleTextSegmentData",
        "text": "a"
      },
      "lblSeparatorDetailData": {
        "@class": "com.viz.ide.model.segment.SimpleTextSegmentData",
        "text": ""
      },
      "lblSeparatorDetailHeader": {
        "@class": "com.viz.ide.model.segment.SimpleTextSegmentData",
        "text": ""
      },
      "lblToTitle": {
        "@class": "com.viz.ide.model.segment.SimpleTextSegmentData",
        "text": "To"
      },
      "lblToValue": {
        "@class": "com.viz.ide.model.segment.SimpleTextSegmentData",
        "text": "TIME WARNER CABLE ONLINE"
      },
      "lblTypeTitle": {
        "@class": "com.viz.ide.model.segment.SimpleTextSegmentData",
        "text": "Type"
      },
      "lblTypeValue": {
        "@class": "com.viz.ide.model.segment.SimpleTextSegmentData",
        "text": "Bill Pay"
      },
      "lblWithdrawalAmountTitle": {
        "@class": "com.viz.ide.model.segment.SimpleTextSegmentData",
        "text": "Withdrawal Amount"
      },
      "lblWithdrawalAmountValue": {
        "@class": "com.viz.ide.model.segment.SimpleTextSegmentData",
        "text": "$99.33"
      },
      "txtMemo": {
        "@class": "com.viz.ide.model.segment.ComplexTextSegmentData",
        "placeholder": "",
        "text": ""
      }
    }
  ],
  "selectedsectionindex": 0,
  "selectionbehavior": "default",
  "separatorrequired": false,
  "showscrollbars": false,
  "swipeContext": {
    "currentPage": 0,
    "imageWidth": 1400,
    "widthRatio": 0
  },
  "viewtype": "tableview",
  "wType": "Segment",
  "widgetalignment": 5,
  "widgetdatamap": {
    "btnDisputeTransaction": "btnDisputeTransaction",
    "btnEditRule": "btnEditRule",
    "btnPrint": "btnPrint",
    "cbxRememberCategory": "cbxRememberCategory",
    "flxActions": "flxActions",
    "flxActionsWrapper": "flxActionsWrapper",
    "flxAmount": "flxAmount",
    "flxBalance": "flxBalance",
    "flxCategory": "flxCategory",
    "flxDate": "flxDate",
    "flxDescription": "flxDescription",
    "flxDetail": "flxDetail",
    "flxDetailData": "flxDetailData",
    "flxDetailHeader": "flxDetailHeader",
    "flxDropdown": "flxDropdown",
    "flxIdentifier": "flxIdentifier",
    "flxInformation": "flxInformation",
    "flxLeft": "flxLeft",
    "flxMemo": "flxMemo",
    "flxRight": "flxRight",
    "flxSegTransactionHeader": "flxSegTransactionHeader",
    "flxSegTransactionRowSavings": "flxSegTransactionRowSavings",
    "flxSegTransactionRowSelected": "flxSegTransactionRowSelected",
    "flxSegTransactionRowWrapper": "flxSegTransactionRowWrapper",
    "flxSelectedRowWrapper": "flxSelectedRowWrapper",
    "flxToData": "flxToData",
    "flxToHeader": "flxToHeader",
    "flxType": "flxType",
    "flxTypeData": "flxTypeData",
    "flxTypeHeader": "flxTypeHeader",
    "flxWithdrawalAmountData": "flxWithdrawalAmountData",
    "flxWithdrawalAmountHeader": "flxWithdrawalAmountHeader",
    "flxWrapper": "flxWrapper",
    "imgCategoryDropdown": "imgCategoryDropdown",
    "imgDropdown": "imgDropdown",
    "imgType": "imgType",
    "lblAmount": "lblAmount",
    "lblBalance": "lblBalance",
    "lblCategory": "lblCategory",
    "lblDate": "lblDate",
    "lblDescription": "lblDescription",
    "lblIdentifier": "lblIdentifier",
    "lblSeparator": "lblSeparator",
    "lblSeparatorActions": "lblSeparatorActions",
    "lblSeparatorDetailData": "lblSeparatorDetailData",
    "lblSeparatorDetailHeader": "lblSeparatorDetailHeader",
    "lblToTitle": "lblToTitle",
    "lblToValue": "lblToValue",
    "lblTransactionHeader": "lblTransactionHeader",
    "lblTypeTitle": "lblTypeTitle",
    "lblTypeValue": "lblTypeValue",
    "lblWithdrawalAmountTitle": "lblWithdrawalAmountTitle",
    "lblWithdrawalAmountValue": "lblWithdrawalAmountValue",
    "txtMemo": "txtMemo"
  },
  "zindex": 1
}