{
  "@class": "com.kony.gen.viz.model.component.KVizRichText",
  "DNDConfig": null,
  "__parentReadjusting__": false,
  "_bottom_": {
    "type": "string",
    "value": "0dp"
  },
  "_height_": {
    "type": "ref",
    "value": "preferred"
  },
  "_left_": {
    "type": "string",
    "value": "48.39%"
  },
  "_margin_": [
    0,
    0,
    0,
    0
  ],
  "_padding_": [
    0,
    0,
    0,
    0
  ],
  "_right_": {
    "type": "string",
    "value": "20dp"
  },
  "_skin_": "sc4cc30bc71442ee9f8b2e9230a973fa",
  "_text_": "647463889990",
  "_top_": {
    "type": "string",
    "value": "23dp"
  },
  "_wrapping_": 2,
  "canUpdateUI": true,
  "containerweight": 100,
  "contentalignment": 4,
  "id": "rtxBankDetailsValue3",
  "info": null,
  "isvisible": true,
  "kuid": "ff01ae93428f4bd29b055c6c340110a0",
  "name": "kony.ui.RichText",
  "parent": "flxRow3",
  "pf": "userwidgetmodel",
  "wType": "RichText",
  "widgetalignment": 5,
  "zindex": 1
}