{
  "@class": "com.kony.gen.viz.model.component.KVizRichText",
  "DNDConfig": null,
  "__parentReadjusting__": false,
  "_height_": {
    "type": "ref",
    "value": "preferred"
  },
  "_left_": {
    "type": "string",
    "value": "44.82%"
  },
  "_margin_": [
    0,
    0,
    0,
    0
  ],
  "_padding_": [
    0,
    0,
    0,
    0
  ],
  "_right_": {
    "type": "string",
    "value": "30dp"
  },
  "_skin_": "sc4cc30bc71442ee9f8b2e9230a973fa",
  "_text_": "Individual",
  "_top_": {
    "type": "string",
    "value": "68dp"
  },
  "_wrapping_": 2,
  "canUpdateUI": true,
  "containerweight": 100,
  "contentalignment": 4,
  "id": "rtxDetailsValue2",
  "info": null,
  "isvisible": true,
  "kuid": "f0541b3e61584e90b81b0d6baf3d39e6",
  "name": "kony.ui.RichText",
  "parent": "flxRecipientDetails",
  "pf": "userwidgetmodel",
  "wType": "RichText",
  "widgetalignment": 5,
  "zindex": 1
}