{
  "DNDConfig": null,
  "__parentReadjusting__": false,
  "_height_": {
    "type": "string",
    "value": "60dp"
  },
  "_left_": {
    "type": "string",
    "value": "0dp"
  },
  "_margin_": [
    0,
    0,
    0,
    0
  ],
  "_orientation_": 6,
  "_padding_": [
    0,
    0,
    0,
    0
  ],
  "_percent_": true,
  "_right_": {
    "type": "string",
    "value": "24dp"
  },
  "_skin_": "s72e91a1d9934d2a810357fc7191ba4e",
  "_top_": {
    "type": "string",
    "value": "25dp"
  },
  "_width_": {
    "type": "string",
    "value": "93.10%"
  },
  "allboxes": [],
  "autogrowmode": 0,
  "canUpdateUI": true,
  "children": [
    "imgPDFIP",
    "flxVerticalMiniSeparatorIP",
    "flxAttachmentNameIP",
    "flxRemoveAttachmentIP"
  ],
  "clipbounds": true,
  "containerweight": 100,
  "enablescrolling": true,
  "id": "flxDocAttachmentIP",
  "info": null,
  "isvisible": false,
  "kuid": "ifa918d92e7845948a5bff0883dfdcf9",
  "layouttype": 3,
  "name": "kony.ui.FlexContainer",
  "parent": "flxUploadDocumentsMessageBoxIP",
  "pf": "userwidgetmodel",
  "snapgridsize": 10,
  "snaptogrid": true,
  "wType": "FlexContainer",
  "widgetalignment": 1,
  "zindex": 1
}