{
  "@class": "com.kony.gen.viz.model.component.KVizButton",
  "DNDConfig": null,
  "__parentReadjusting__": false,
  "_height_": {
    "type": "string",
    "value": "50dp"
  },
  "_margin_": [
    6,
    6,
    6,
    6
  ],
  "_padding_": [
    0,
    0,
    0,
    0
  ],
  "_right_": {
    "type": "string",
    "value": "305dp"
  },
  "_skin_": "s6dd66d624c2424b8a4d5b93efef2f3d",
  "_text_": "BACK",
  "_width_": {
    "type": "string",
    "value": "32.36%"
  },
  "canUpdateUI": true,
  "centery": {
    "type": "string",
    "value": "50%"
  },
  "containerweight": 100,
  "contentalignment": 5,
  "desktopweb": {},
  "disabledSkins": {
    "blockedUISkin": "s1400c825f384a46b15a0f8d6829ecef",
    "focusSkin": "sf44d06ca8224832827ea7fdff757013"
  },
  "displaytext": true,
  "focusskin": null,
  "id": "btnStepCancel",
  "info": null,
  "isvisible": true,
  "kuid": "c3bab261d1644c0e8a6a4fa129aa632a",
  "name": "kony.ui.Button",
  "parent": "flxButtons",
  "pf": "userwidgetmodel",
  "texti18n": "i18n.transfers.Cancel",
  "wType": "Button",
  "zindex": 1,
  "tooltip": "Cancel"
}