{
  "@class": "com.kony.gen.viz.model.component.KVizButton",
  "DNDConfig": null,
  "__parentReadjusting__": false,
  "_height_": {
    "type": "string",
    "value": "50dp"
  },
  "_margin_": [
    6,
    6,
    6,
    6
  ],
  "_padding_": [
    0,
    0,
    0,
    0
  ],
  "_right_": {
    "type": "string",
    "value": "30dp"
  },
  "_skin_": "sfbbba35ede4457b94eb681b72349b98",
  "_text_": "CONFIRM",
  "_width_": {
    "type": "string",
    "value": "32.36%"
  },
  "canUpdateUI": true,
  "centery": {
    "type": "string",
    "value": "50%"
  },
  "containerweight": 100,
  "contentalignment": 5,
  "desktopweb": {},
  "disabledSkins": {
    "blockedUISkin": "s1400c825f384a46b15a0f8d6829ecef",
    "focusSkin": "sf44d06ca8224832827ea7fdff757013"
  },
  "displaytext": true,
  "focusskin": null,
  "id": "btnStepContinue",
  "info": null,
  "isvisible": true,
  "kuid": "c721d9fc020c40bb8c176f81b29b489e",
  "name": "kony.ui.Button",
  "parent": "flxButtons",
  "pf": "userwidgetmodel",
  "texti18n": "i18n.common.continue",
  "wType": "Button",
  "zindex": 1,
  "tooltip": "Continue"
}