{
    "@class": "com.kony.gen.viz.model.component.KVizUserWidget",
    "DNDConfig": null,
    "__parentReadjusting__": false,
    "_children_": [],
    "_height_": {
        "type": "ref",
        "value": "preferred"
    },
    "_left_": {
        "type": "string",
        "value": "590dp"
    },
    "_margin_": [
        0,
        0,
        0,
        0
    ],
    "_orientation_": 1,
    "_padding_": [
        0,
        0,
        0,
        0
    ],
    "_percent_": true,
    "_render_": true,
    "_skin_": "s98f0d8f86cc42d38d0659b3c0352b45",
    "_top_": {
        "type": "string",
        "value": "320dp"
    },
    "_width_": {
        "type": "string",
        "value": "250dp"
    },
    "areflexpropsreferenced": false,
    "autogrowmode": 1,
    "canUpdateUI": true,
    "clipbounds": false,
    "containerweight": 0,
    "dataDiffs": {
        "accountListMenu": {
            "__events__": {},
            "__info__": {
                "isRoot": true,
                "kuid": "f102222615ef49559ab488130f7cc7fc",
                "srcKUID": "a9e8d2d74b7e4799b12f10bbd1a59d47",
                "wType": "FlexContainer"
            },
            "isVisible": true,
            "left": {
                "Default": {
                    "type": "string",
                    "value": "590dp"
                }
            },
            "top": {
                "Default": {
                    "type": "string",
                    "value": "320dp"
                }
            },
            "width": {
                "Default": {
                    "type": "string",
                    "value": "250dp"
                }
            },
            "zIndex": {
                "Default": 10
            }
        },
        "flxAccountListActionsSegment": {
            "__events__": {},
            "__info__": {
                "kuid": "db7a1d4b58214d3095e58ad0061766cf",
                "srcKUID": "17b103c9bdd04b699f2ca8d9a364ff58",
                "wType": "FlexContainer"
            }
        },
        "flxIdentifier": {
            "__events__": {},
            "__info__": {
                "kuid": "b6908b73968a40c5bb960576695a2ca7",
                "srcKUID": "b9a5b101961042a68f521a7006d76389",
                "wType": "FlexContainer"
            }
        },
        "segAccountListActions": {
            "__events__": {
                "ide_onRowClick": "AS_Segment_f8230ec451054fb19421e8f0af77c246"
            },
            "__info__": {
                "kuid": "fd2a4266bdfe461884b627dd13097c90",
                "srcKUID": "1769d0906ad44599b4a1ff123d691027",
                "wType": "Segment"
            },
            "data": {
                "desktop": [
                    {
                        "lblSeparator": {
                            "@class": "com.viz.ide.model.segment.SimpleTextSegmentData",
                            "text": "Separator"
                        },
                        "lblUsers": {
                            "@class": "com.viz.ide.model.segment.SimpleTextSegmentData",
                            "text": "Make Transfer from"
                        }
                    },
                    {
                        "lblSeparator": {
                            "@class": "com.viz.ide.model.segment.SimpleTextSegmentData",
                            "text": "Separator"
                        },
                        "lblUsers": {
                            "@class": "com.viz.ide.model.segment.SimpleTextSegmentData",
                            "text": "Pay a Bill from"
                        }
                    },
                    {
                        "lblSeparator": {
                            "@class": "com.viz.ide.model.segment.SimpleTextSegmentData",
                            "text": "Separator"
                        },
                        "lblUsers": {
                            "@class": "com.viz.ide.model.segment.SimpleTextSegmentData",
                            "text": "Pay a Person from"
                        }
                    },
                    {
                        "lblSeparator": {
                            "@class": "com.viz.ide.model.segment.SimpleTextSegmentData",
                            "text": "Separator"
                        },
                        "lblUsers": {
                            "@class": "com.viz.ide.model.segment.SimpleTextSegmentData",
                            "text": "Order Check"
                        }
                    },
                    {
                        "lblSeparator": {
                            "@class": "com.viz.ide.model.segment.SimpleTextSegmentData",
                            "text": "Separator"
                        },
                        "lblUsers": {
                            "@class": "com.viz.ide.model.segment.SimpleTextSegmentData",
                            "text": "Edit Account"
                        }
                    },
                    {
                        "lblSeparator": {
                            "@class": "com.viz.ide.model.segment.SimpleTextSegmentData",
                            "text": "Separator"
                        },
                        "lblUsers": {
                            "@class": "com.viz.ide.model.segment.SimpleTextSegmentData",
                            "text": "Download Statement"
                        }
                    },
                    {
                        "lblSeparator": {
                            "@class": "com.viz.ide.model.segment.SimpleTextSegmentData",
                            "text": "Separator"
                        },
                        "lblUsers": {
                            "@class": "com.viz.ide.model.segment.SimpleTextSegmentData",
                            "text": "Settings & Alerts"
                        }
                    }
                ]
            }
        }
    },
    "id": "accountListMenu",
    "info": null,
    "isdatareferenced": false,
    "isvisible": true,
    "kuid": "f102222615ef49559ab488130f7cc7fc",
    "layouttype": 4,
    "masterType": 0,
    "name": "kony.ui.UserWidgetInstance",
    "parent": "flxMain",
    "pf": "frmAccountsLanding",
    "snaptogrid": true,
    "sourceUserWidget": "a9e8d2d74b7e4799b12f10bbd1a59d47",
    "wType": "UserWidgetInstance",
    "zindex": 10
}