{
    "@class": "com.kony.gen.viz.model.component.KVizUserWidget",
    "DNDConfig": null,
    "__parentReadjusting__": false,
    "_children_": [],
    "_height_": {
        "type": "ref",
        "value": "preferred"
    },
    "_left_": {
        "type": "string",
        "value": ""
    },
    "_margin_": [
        0,
        0,
        0,
        0
    ],
    "_orientation_": 1,
    "_padding_": [
        0,
        0,
        0,
        0
    ],
    "_percent_": true,
    "_render_": true,
    "_skin_": "see57923c3f84c0086c836bed430e95a",
    "_top_": {
        "type": "string",
        "value": "0dp"
    },
    "_width_": {
        "type": "string",
        "value": "99%"
    },
    "areflexpropsreferenced": false,
    "autogrowmode": 1,
    "canUpdateUI": true,
    "clipbounds": false,
    "containerweight": 0,
    "dataDiffs": {
        "flxSeparator": {
            "__events__": {},
            "__info__": {
                "kuid": "f9dfa0c3b1d844bd9102d322d4a1c227",
                "srcKUID": "a78c39c4d81b4f5caa914a67d924cf8f",
                "wType": "FlexContainer"
            }
        },
        "flxWelcome": {
            "__events__": {},
            "__info__": {
                "kuid": "d6a434d98f4e4c1b80711e6c113567fa",
                "srcKUID": "a211e9ebbb8f44f287be4214ca57a283",
                "wType": "FlexContainer"
            },
            "width": {
                "Default": {
                    "type": "string",
                    "value": "58%"
                }
            }
        },
        "flxWelcomeWrapper": {
            "__events__": {},
            "__info__": {
                "kuid": "ab489046f7b442d790d45f646dfa18cb",
                "srcKUID": "de9ba888697a4d959a0ca56515dd9fef",
                "wType": "FlexContainer"
            }
        },
        "imgProfile": {
            "__events__": {},
            "__info__": {
                "kuid": "fded7bcbcbd54d0f915d8b845c2aaaa0",
                "srcKUID": "f01c6e00b7c04a5cb897306dc2204d69",
                "wType": "Image"
            }
        },
        "lblLastLoggedIn": {
            "__events__": {},
            "__info__": {
                "kuid": "ee71f9cb544f404b842d189e6bd7b614",
                "srcKUID": "cbddd9a480ef4420bef6e6429491f921",
                "wType": "Label"
            },
            "i18n_text": "i18n.AccountsLanding.Lastloggedin"
        },
        "lblWelcome": {
            "__events__": {},
            "__info__": {
                "kuid": "beca09b1124845e3ac38ec1ee4db1f25",
                "srcKUID": "j8f072cb93db4bd58beb0671152e4bd6",
                "wType": "Label"
            },
            "i18n_text": "i18n.AccountsLanding.WelcomeJohn",
            "text": "Welcome AAVRAHAMOVBL"
        },
        "welcome": {
            "__events__": {},
            "__info__": {
                "isRoot": true,
                "kuid": "d668955e12a14bc4bbda315b3dcb4170",
                "srcKUID": "ca8945d6d0c44de8a337a471a175d509",
                "wType": "FlexContainer"
            },
            "left": {
                "Default": {
                    "type": "string",
                    "value": ""
                }
            },
            "width": {
                "Default": {
                    "type": "string",
                    "value": "99%"
                }
            }
        }
    },
    "id": "welcome",
    "info": null,
    "isdatareferenced": false,
    "isvisible": true,
    "kuid": "d9747073a9e5487492b60287bfad080e",
    "layouttype": 4,
    "masterType": 0,
    "name": "kony.ui.UserWidgetInstance",
    "parent": "flxWelcomeAndActions",
    "pf": "frmAccountsLanding",
    "snaptogrid": true,
    "sourceUserWidget": "ca8945d6d0c44de8a337a471a175d509",
    "wType": "UserWidgetInstance"
}